<?xml version="1.0" standalone="no"?>
<!DOCTYPE svg PUBLIC "-//W3C//DTD SVG 1.1//EN" "http://www.w3.org/Graphics/SVG/1.1/DTD/svg11.dtd" >
<!--
2019-12-18: Created with FontForge (http://fontforge.org)
-->
<svg xmlns="http://www.w3.org/2000/svg" xmlns:xlink="http://www.w3.org/1999/xlink" version="1.1">
<metadata>
Created by FontForge 20170731 at Wed Dec 18 06:22:47 2019
 By root

</metadata>
<defs>
<font id="Flaticon" horiz-adv-x="512" >
  <font-face 
    font-family="Flaticon"
    font-weight="400"
    font-stretch="normal"
    units-per-em="512"
    panose-1="2 0 5 3 0 0 0 0 0 0"
    ascent="448"
    descent="-64"
    bbox="-0.000119427 -64 512.001 448"
    underline-thickness="25.6"
    underline-position="-51.2"
    unicode-range="U+0020-F104"
  />
    <missing-glyph />
    <glyph glyph-name="space" unicode=" " horiz-adv-x="200" 
 />
    <glyph glyph-name="005-speaking" unicode="&#xf104;" 
d="M187.733 251.733c0.0419922 37.6836 30.583 68.2246 68.2666 68.2666c37.7041 0 68.2666 -30.5625 68.2666 -68.2666s-30.5625 -68.2666 -68.2666 -68.2666s-68.2666 30.5625 -68.2666 68.2666zM307.2 251.733c-0.0292969 28.2666 -22.9336 51.1709 -51.2002 51.2002
c-28.2754 0 -51.2002 -22.9248 -51.2002 -51.2002s22.9248 -51.2002 51.2002 -51.2002s51.2002 22.9248 51.2002 51.2002zM307.2 251.733zM494.934 448c9.4248 0 17.0664 -7.6416 17.0664 -17.0664v-85.334c0 -9.4248 -7.6416 -17.0664 -17.0664 -17.0664h-86.6924
l-71.1748 -41.4961c-3.33691 -1.89941 -7.5332 -1.33301 -10.25 1.37988c-2.7168 2.7168 -3.28711 6.9082 -1.3877 10.25l17.0674 29.8662h-1.16309c-9.4248 0 -17.0664 7.6416 -17.0664 17.0664v85.334c0 9.4248 7.6416 17.0664 17.0664 17.0664h153.601zM494.934 345.6
v85.334h-153.601v-85.334h15.8711c3.05469 0.00878906 5.87891 -1.6123 7.4082 -4.25391c1.5332 -2.6416 1.5332 -5.89941 0.00878906 -8.5459l-8.54199 -14.9668l45.583 26.5957c1.2959 0.758789 2.7666 1.16309 4.2666 1.1709h89.0049zM494.934 345.6zM157.866 252.904
l-71.1748 41.4961h-80c-3.69531 0 -6.69141 2.99512 -6.69141 6.69141v106.083c0 3.69629 2.99609 6.69141 6.69141 6.69141h157.283c3.69629 0 6.69238 -2.99512 6.69238 -6.69141v-25.0166c0.0244141 1.0752 0.257812 2.13379 0.682617 3.12109
c0.883789 2.05859 2.53809 3.68359 4.6084 4.5332c25.4209 10.3086 52.6084 15.5791 80.042 15.5205c2.64551 0 4.85449 0 6.91211 -0.0830078c4.67969 -0.1875 8.33789 -4.1084 8.19238 -8.79199c-0.0166016 -2.21191 -0.920898 -4.32422 -2.50879 -5.86621
c-1.58691 -1.54199 -3.72949 -2.37891 -5.94141 -2.3252h-6.6543c-8.78711 -0.00390625 -17.5664 -0.575195 -26.2832 -1.70801c-16.2129 -2.2168 -49.4082 -13.1416 -50.5166 -13.1416c-2.25 -0.0380859 -4.4248 0.829102 -6.0293 2.4082
c-1.6084 1.5791 -2.50879 3.7373 -2.50391 5.99121v-80.7246c0 -3.68359 -2.97559 -6.6709 -6.6543 -6.69141h-11.5381l17.0674 -29.8672c1.91602 -3.3457 1.34961 -7.56641 -1.38379 -10.2871s-6.9502 -3.27539 -10.292 -1.3418zM17.0664 396.8v-85.3662h71.9297
c1.5 -0.00878906 2.9707 -0.413086 4.2666 -1.1709l45.583 -26.5957l-8.5332 15c-1.52539 2.64551 -1.52539 5.9043 0.00878906 8.5459c1.52832 2.6416 4.35352 4.26172 7.4082 4.25391h15.8701v85.333h-136.533zM17.0664 396.8zM290.134 174.934
c42.3955 -0.0458984 76.7539 -34.4043 76.7998 -76.7998v-145.067c0 -9.4248 -7.6416 -17.0664 -17.0674 -17.0664h-187.732c-9.42578 0 -17.0674 7.6416 -17.0674 17.0664v145.067c0.0458984 42.3955 34.4043 76.7539 76.7998 76.7998h68.2676zM349.866 -46.9336v145.067
c-0.0410156 32.9707 -26.7617 59.6914 -59.7324 59.7324h-68.2676c-32.9707 -0.0410156 -59.6914 -26.7617 -59.7324 -59.7324v-145.067h187.732zM349.866 -46.9336zM273.066 277.333h17.0674v-17.0664h-17.0674v17.0664zM273.066 277.333zM221.866 277.333h17.0674
v-17.0664h-17.0674v17.0664zM221.866 277.333zM141.483 32.5957l0.0830078 -0.0751953c1.80859 -1.3457 3.0293 -3.33301 3.41699 -5.55371c0.349609 -2.22559 -0.204102 -4.5 -1.53711 -6.31641c-1.30078 -1.85059 -3.28809 -3.10059 -5.52148 -3.47168
c-2.22852 -0.366211 -4.5166 0.175781 -6.3418 1.50879c-14.4541 10.3955 -27.5537 22.5498 -38.9951 36.1914c-0.141602 0.112305 -0.258789 0.254883 -0.341797 0.416992c-7.49609 8.97461 -14.2627 18.5332 -20.2334 28.5879
c-1.14648 1.95801 -1.4668 4.29102 -0.887695 6.48242c0.579102 2.19629 2.00879 4.06738 3.9668 5.20898c4.0957 2.25 9.2334 0.899414 11.6914 -3.0752c13.9082 -23.5254 32.5293 -43.9209 54.7002 -59.9043zM141.483 32.5957zM61.6211 261.033v-0.0078125
c4.49512 -1.3916 7.0166 -6.16699 5.62891 -10.667c-3.1875 -10.4297 -5.5293 -21.0996 -6.99609 -31.9043c-2.2002 -16.2412 -2.375 -32.6953 -0.520508 -48.9834v-0.170898c0.4375 -4.6084 -2.9082 -8.71191 -7.50879 -9.2168
c-0.336914 -0.0664062 -0.682617 -0.0957031 -1.02441 -0.0830078c-4.2998 0.0205078 -7.91699 3.2373 -8.42969 7.50879c-1.97852 17.7041 -1.80762 35.583 0.5 53.25c1.62109 11.7373 4.19238 23.3291 7.68359 34.6533c1.43359 4.46289 6.1709 6.96289 10.667 5.62109z
M61.6211 261.033zM459.596 168.191c4.6377 -0.741211 7.7998 -5.08691 7.08301 -9.72852c-2.74121 -17.6006 -7.72852 -34.7793 -14.8369 -51.1133c-0.0253906 -0.178711 -0.0830078 -0.349609 -0.170898 -0.503906c-4.69141 -10.6953 -10.2295 -21 -16.5547 -30.8125
c-2.57031 -3.95801 -7.8623 -5.08691 -11.8203 -2.5166c-3.95801 2.56641 -5.08789 7.8584 -2.5166 11.8164c5.8916 9.16699 11.0586 18.7832 15.4453 28.7588c6.50488 15.0371 11.0879 30.833 13.6543 47.0166c0.742188 4.63281 5.08398 7.7959 9.7168 7.08301z
M459.596 168.191zM445.783 238.934c-2.74609 10.5664 -6.39941 20.8701 -10.9248 30.8037c-6.79199 14.9082 -15.3877 28.9209 -25.5996 41.7295h-0.0839844c-2.9082 3.67871 -2.30371 9.0127 1.35449 11.9453c3.72949 2.7959 8.9834 2.23828 12.042 -1.27832
c11.0869 -13.9131 20.4326 -29.1299 27.8164 -45.3125c0.0244141 -0.129883 0.0830078 -0.246094 0.170898 -0.341797c4.82031 -10.7256 8.75781 -21.8213 11.7793 -33.1836c1.14551 -4.57129 -1.5918 -9.21289 -6.14648 -10.4209
c-0.700195 -0.162109 -1.41602 -0.246094 -2.13281 -0.246094c-3.87109 -0.0205078 -7.2666 2.56738 -8.27539 6.30469zM445.783 238.934zM324.267 -21.333h17.0664v-17.0674h-17.0664v17.0674zM324.267 -21.333zM298.667 -21.333h17.0664v-17.0674h-17.0664v17.0674z
M298.667 -21.333zM324.267 4.2666h17.0664v-17.0664h-17.0664v17.0664zM324.267 4.2666zM256 149.333c8.87109 0 17.292 -3.9248 22.9912 -10.7207c5.7002 -6.7959 8.10449 -15.7666 6.55859 -24.5039l-21.2207 -94.6455
c-0.871094 -3.90039 -4.33301 -6.67578 -8.3291 -6.67578s-7.45801 2.77539 -8.3291 6.67578l-21.1455 94.2617c-1.6709 8.7793 0.658203 17.8506 6.3584 24.7383c5.69922 6.88672 14.1748 10.875 23.1162 10.8701zM268.8 117.463
c0.549805 3.64941 -0.5 7.3623 -2.88281 10.1787c-3.7666 4.4873 -10.0752 5.88379 -15.3838 3.4082c-5.3125 -2.4707 -8.2959 -8.2041 -7.2832 -13.9707l12.75 -56.792zM268.8 117.463zM230.4 -12.7998c0 14.1377 11.4619 25.5996 25.5996 25.5996
s25.5996 -11.4619 25.5996 -25.5996s-11.4619 -25.6006 -25.5996 -25.6006s-25.5996 11.4629 -25.5996 25.6006zM256 -4.2666c-4.71289 0 -8.5332 -3.82129 -8.5332 -8.5332c0 -4.71289 3.82031 -8.5332 8.5332 -8.5332s8.5332 3.82031 8.5332 8.5332
c0 4.71191 -3.82031 8.5332 -8.5332 8.5332zM256 -4.2666zM315.733 388.267c0 -4.71289 -3.82129 -8.5332 -8.5332 -8.5332c-4.71289 0 -8.5332 3.82031 -8.5332 8.5332s3.82031 8.5332 8.5332 8.5332c4.71191 0 8.5332 -3.82031 8.5332 -8.5332zM315.733 388.267z
M469.333 192c0 -4.71289 -3.82031 -8.5332 -8.5332 -8.5332c-4.71191 0 -8.5332 3.82031 -8.5332 8.5332s3.82129 8.5332 8.5332 8.5332c4.71289 0 8.5332 -3.82031 8.5332 -8.5332zM469.333 192zM401.066 46.9336c0 -4.71289 -3.82031 -8.5332 -8.5332 -8.5332
c-4.71191 0 -8.5332 3.82031 -8.5332 8.5332c0 4.71191 3.82129 8.5332 8.5332 8.5332c4.71289 0 8.5332 -3.82129 8.5332 -8.5332zM401.066 46.9336zM68.2666 132.267c0 -4.71289 -3.82031 -8.5332 -8.5332 -8.5332s-8.5332 3.82031 -8.5332 8.5332
s3.82031 8.5332 8.5332 8.5332s8.5332 -3.82031 8.5332 -8.5332zM68.2666 132.267z" />
    <glyph glyph-name="003-discussion" unicode="&#xf102;" 
d="M339.891 313.792c-4.62891 0 -8.10059 3.78809 -8.10059 8.10059c0 4.41895 3.47168 8.10156 8.10059 8.10156c4.31348 0 7.99609 -3.68262 7.99609 -8.10156c0 -4.3125 -3.68262 -8.10059 -7.99609 -8.10059zM339.785 337.254
c-3.36621 0 -6.20703 1.36816 -6.20605 4.62891c0 12.5205 -1.47266 30.5107 -1.47266 43.0312c0 4.10254 3.36621 6.41797 7.67969 6.41797c4.10254 0 7.5752 -2.31543 7.5752 -6.41797c0 -12.5205 -1.47363 -30.5107 -1.47363 -43.0312
c0 -3.26074 -3.57812 -4.62891 -6.10254 -4.62891zM161.07 414.027c13.4668 0 22.4121 -7.47168 22.4121 -17.3613s-8.94336 -17.0439 -11.7842 -19.2529c-5.78711 -4.52441 -5.89258 -7.67969 -5.89258 -13.1514c0 -1.99902 -1.05273 -4.3125 -6.20801 -4.3125
c-4.31348 0 -5.78711 1.57812 -5.78711 7.04883c0 9.04785 3.99805 13.3623 7.0498 15.9922c3.4707 2.94531 9.3623 6.20801 9.3623 11.8887c0 4.83984 -4.20801 7.1543 -9.46875 7.1543c-10.7314 0 -8.41699 -8.10156 -14.0977 -8.10156
c-2.84082 0 -6.31348 1.89453 -6.31348 5.99707c0 5.68164 6.52344 14.0986 20.7275 14.0986zM159.702 352.689c4.41895 0 8.10059 -3.68262 8.10059 -8.10156c0 -4.3125 -3.57715 -8.10059 -8.10059 -8.10059c-4.52441 0 -7.99609 3.78809 -7.99609 8.10059
c0 4.41895 3.57715 8.10156 7.99609 8.10156zM209.372 108.201l17.6426 -21.668c8 -9.8252 2.26562 -24.6006 -10.252 -26.4717l-15.3633 -2.29688c-1.25293 -0.1875 -2.19727 -1.2832 -2.19727 -2.5498l-0.00195312 -31.1279
c-0.000976562 -13.9658 -11.3311 -25.0889 -25.0898 -25.0889c-1.08887 0 4.36328 -0.00585938 -13.123 0.0195312v-17.2529c13.2061 -0.154297 23.9033 -10.9404 23.9033 -24.1836v-6.9043c0 -8.09277 -6.58398 -14.6768 -14.6768 -14.6768h-127.331
c-8.09277 0 -14.6768 6.58398 -14.6768 14.6768v6.9043c0 11.4658 8.02148 21.0879 18.7471 23.5654v42.1738c-25.373 9.76074 -43.2852 34.7217 -43.2852 71.4521l-0.00292969 69.374c0 34.9883 28.4639 63.4521 63.4521 63.4521h133.466
c9.73926 0 17.6621 -7.92285 17.6621 -17.6621c0 -17.6514 -8.63281 -33.3174 -21.8916 -43.0205c7.59863 -14.7979 11.2715 -31.2139 10.7393 -48.7129c-0.133789 -4.4082 -0.0947266 -7.04492 2.2793 -10.002zM18.668 94.7734c0 -32.5049 15.793 -51.292 34.9209 -57.9307
c8.46289 4.89355 16.7129 12.666 16.7129 19.7549c-0.0898438 0.386719 0.926758 7.99219 -6.86523 14.1191c-5.74512 4.51855 -9.04004 11.2969 -9.04004 18.6006c0 13.0508 10.6172 23.6689 23.6689 23.6689l15.1328 -0.00195312h0.000976562
c5.95801 0 10.8145 4.84668 10.8281 10.8047l0.046875 22.085c0.03125 14.21 11.6182 25.7725 25.8281 25.7725h35.0527c21.1143 0 38.291 17.1777 38.291 38.29c0 1.46875 -1.19434 2.66211 -2.66211 2.66211h-133.467c-26.7168 0 -48.4521 -21.7344 -48.4521 -48.4512z
M214.546 74.8975c1.03516 0.154297 1.49805 1.35449 0.837891 2.16406l-17.6768 21.71c-5.98535 7.45605 -5.75781 14.9375 -5.60742 19.8877c0.461914 15.2344 -2.77344 29.0088 -8.97461 41.1807c-5.67285 -2.06348 -11.792 -3.19238 -18.1699 -3.19238h-35.0527
c-5.95801 0 -10.8154 -4.84766 -10.8281 -10.8057l-0.046875 -22.085c-0.03125 -14.2109 -11.6182 -25.7705 -25.8291 -25.7715h-0.00292969l-15.1318 0.00195312c-4.7793 0 -8.66895 -3.88965 -8.66895 -8.66895c0 -2.67188 1.20801 -5.15332 3.31348 -6.80957
c17.8271 -14.0176 18.8877 -40.5039 -10.7549 -58.1484v-42.5869h8.24121c4.1416 0 7.5 -3.3584 7.5 -7.5c0 -4.14258 -3.3584 -7.5 -7.5 -7.5h-17.7969c-5.06836 0 -9.19141 -4.12305 -9.19141 -9.19141v-6.58203h126.686v6.58203
c0 5.06836 -4.12305 9.19141 -9.19043 9.19141h-60.7275c-4.1416 0 -7.5 3.35742 -7.5 7.5c0 4.1416 3.3584 7.5 7.5 7.5h46.0146v18.4189c0 7.65039 6.19336 13.8271 13.8281 13.8271h0.0214844l14.2559 -0.0205078h0.0166016c5.61719 0 10.0898 4.55566 10.0908 10.0898
l0.00195312 31.127c0.000976562 8.63379 6.43945 16.1084 14.9785 17.3838zM466.72 212.174c26.0605 -17.2803 41.6162 -46.2393 41.6162 -77.4658l-0.000976562 -41.6221c0 -18.0352 -4.05859 -42.7021 -23.3906 -57.7979
c-6.49805 -5.07324 -12.9512 -7.68652 -17.623 -9.02637v-45.5771c9.84375 -3.06543 17.0107 -12.2627 17.0107 -23.1025v-6.9043c0 -8.09277 -6.58398 -14.6768 -14.6777 -14.6768h-127.331c-8.09277 0 -14.6768 6.58398 -14.6768 14.6768v6.9043
c0 13.3389 10.8506 24.1914 24.1895 24.1914h0.117188v22.8555l-13.3604 -0.0205078h-0.0400391c-14.1436 0 -25.3252 11.4873 -25.3271 25.3252l-0.00292969 31.5479c0 1.33301 -0.995117 2.48535 -2.31152 2.68262l-15.5713 2.32812
c-12.6221 1.88672 -18.376 16.7793 -10.3262 26.6641l17.915 22.001c2.39453 2.98242 2.43555 5.6709 2.29785 10.1611c-0.0458984 1.5293 -0.09375 3.1084 0.0244141 4.73535c0.234375 76.501 84.1074 122.771 147.992 82.9561
c4.32227 2.14258 9.44336 1.83789 13.4766 -0.835938zM362.87 15.5615c2.63281 -2.62891 4.08301 -6.125 4.08496 -9.84668v-23.9434h85.3672v47.6201l-17.1436 18.2607c-0.0566406 0.0595703 -0.111328 0.121094 -0.166016 0.182617
c-8.63379 9.8252 -7.04883 25.0381 3.61621 32.8223c2.09668 1.69629 3.2959 4.2041 3.2959 6.89941c0 4.90039 -3.98633 8.88672 -8.88672 8.88672l-15.334 -0.00195312h-0.00488281c-14.3477 0 -26.043 11.6699 -26.0742 26.0186
c-0.0214844 9.4082 5.83398 17.9365 14.5684 21.2217c23.4082 8.80664 39.1963 31.4004 39.4863 56.3691c-53.9648 34.0166 -125.429 -4.99121 -125.429 -70.2998c0 -0.21875 -0.00878906 -0.439453 -0.0292969 -0.657227
c-0.0751953 -0.869141 -0.0400391 -2.05957 -0.00195312 -3.31934c0.152344 -5.00195 0.381836 -12.5615 -5.62695 -20.0469l-17.9482 -22.043c-0.720703 -0.883789 -0.211914 -2.18848 0.913086 -2.35645l15.5713 -2.32812
c8.60547 -1.28711 15.0938 -8.81738 15.0938 -17.5176l0.00292969 -31.5479c0 -5.73633 4.6543 -10.3262 10.3271 -10.3262h0.0175781l14.4473 0.0214844h0.0224609c3.71191 0 7.20215 -1.44434 9.83008 -4.06836zM469.331 -49v6.58203
c0 5.06836 -4.12305 9.19141 -9.19141 9.19141h-108.304c-5.06738 0 -9.18945 -4.12305 -9.18945 -9.19141v-6.58203h126.685zM493.334 93.085l0.00195312 41.6211c0.000976562 25.2881 -12.168 48.8037 -32.6865 63.4404
c-1.05762 -30.4219 -20.5498 -57.7363 -49.1758 -68.5049c-2.90723 -1.09375 -4.85645 -3.9668 -4.84961 -7.14941c0.0126953 -6.09277 4.98145 -11.0508 11.0742 -11.0508h0.00292969l15.335 0.00195312c13.1719 0 23.8877 -10.7158 23.8877 -23.8867
c0 -7.36816 -3.3252 -14.2109 -9.12305 -18.7705c-4.18945 -3.2793 -4.16309 -7.96094 -1.58887 -10.9717l16.2812 -17.3428c8.58398 2.23047 30.8408 11.9395 30.8408 52.6133zM206.533 448c37.8057 0 68.5625 -30.7578 68.5625 -68.5645
c0 -37.8057 -30.7578 -68.5635 -68.5635 -68.5635h-15.4609l-39.5674 -50.082c-8.19336 -10.3711 -24.9316 -4.67383 -25.0098 8.60449l-0.241211 41.4775h-3.27539c-37.8057 0 -68.5635 30.7578 -68.5635 68.5635c0 37.8066 30.7578 68.5645 68.5635 68.5645h83.5557z
M206.533 325.871c29.5352 0 53.5635 24.0303 53.5635 53.5645c0 29.5352 -24.0283 53.5645 -53.5635 53.5645h-83.5557c-29.5342 0 -53.5635 -24.0293 -53.5635 -53.5645c0 -29.5342 24.0283 -53.5635 53.5635 -53.5635h10.7324c4.125 0 7.47559 -3.33203 7.5 -7.45703
l0.267578 -46.1201c40.7812 50.0352 39.3369 53.5762 45.9619 53.5762h19.0938zM311.936 288.388v-0.000976562h-10.7852c-15.8125 0 -31.0762 5.71875 -42.9795 16.1006c-3.12207 2.72266 -3.44629 7.45996 -0.722656 10.582
c2.72168 3.12207 7.45996 3.44531 10.582 0.722656c9.1709 -7.99902 20.9326 -12.4043 33.1191 -12.4043h14.4199c2.29395 0 4.46289 -1.05078 5.88477 -2.85059l37.3379 -47.2598l0.248047 42.6533c0.0244141 4.125 3.375 7.45605 7.5 7.45605h29.6416
c27.8076 0 50.4307 22.623 50.4307 50.4307c0 27.8066 -22.623 50.4297 -50.4307 50.4297c-97.8096 -0.264648 -95.9619 0.666016 -104.106 -0.814453c-4.07715 -0.740234 -7.98047 1.96191 -8.72168 6.03809c-0.740234 4.0752 1.96289 7.97949 6.03711 8.7207
c10.1572 1.8457 8.64746 0.716797 106.791 1.05566c36.0781 0 65.4307 -29.3525 65.4307 -65.4297c0 -36.0781 -29.3525 -65.4307 -65.4307 -65.4307h-22.1855l-0.227539 -38.9648c-0.0722656 -12.9043 -16.3828 -18.5645 -24.4121 -8.39844z" />
    <glyph glyph-name="002-support" unicode="&#xf101;" 
d="M286.053 34.9551c12.5859 -5.24512 20.7197 -17.4443 20.7197 -31.0801v-34.2051c0 -13.8506 -11.2686 -25.1191 -25.1191 -25.1191h-256.534c-13.8516 0 -25.1191 11.2686 -25.1191 25.1191v34.2051c0 13.6357 8.13281 25.835 20.7197 31.0811l73.5957 30.6641
c-21.0625 3.8252 -40.4961 9.73535 -56.5723 17.2471c-7.40527 3.46094 -12.1504 10.9297 -12.0898 19.0293c0.745117 100.855 14.7969 234.939 127.732 234.939c112.937 0 126.988 -134.083 127.733 -234.939c0.0595703 -8.10156 -4.68555 -15.5703 -12.0898 -19.0303
c-16.0752 -7.51367 -35.5078 -13.4219 -56.5713 -17.2471zM265.085 101.776c-0.0976562 13.0371 -0.444336 25.4258 -1.04492 37.1836c-4.42871 -3.90625 -10.2363 -6.2832 -16.5918 -6.2832h-7.44922l-0.03125 -0.344727
c-1.26465 -13.9258 -9.31738 -26.2939 -21.542 -33.0859l-14.2656 -7.92578v-10.8574c21.8232 3.52051 41.8789 9.3584 58.0811 16.9287c1.74219 0.81543 2.8584 2.53516 2.84375 4.38477zM153.386 107.023c-4.42676 0 -8.01465 3.58789 -8.01465 8.01562
s3.58984 8.0166 8.0166 8.0166c44.1689 0 64.9336 14.4541 71.4805 20.2441l5.50586 60.5654c-15.666 7.21582 -24.7568 19.8457 -29.3721 28.3027c-38.3779 -19.123 -102.024 -27.6904 -124.426 -30.2197l6.19727 -68.165
c0.783203 -8.63867 5.7793 -16.3105 13.3613 -20.5225l44.5342 -24.7412c7.96289 -4.42383 17.4717 -4.42383 25.4346 0l44.5352 24.7412c3.18945 1.77246 5.91309 4.16113 8.06641 6.97266c-13.623 -6.7832 -34.627 -13.21 -65.3193 -13.21zM241.458 148.71v-0.000976562
h5.99121c5.00977 0 9.08594 4.07617 9.08594 9.08594v17.1025c0 5.00977 -4.07617 9.08594 -9.08594 9.08594h-2.78418zM64.9346 257.638c-7.04785 -16.5498 -12.4619 -36.457 -16.2871 -60.0088c3.24121 1.5293 6.85938 2.3877 10.6758 2.3877h1.32812l-0.761719 8.35938
c-0.400391 4.4082 2.84961 8.30762 7.25879 8.70898c0.921875 0.0839844 92.7402 8.68848 133.42 33.0947c2.08496 1.25098 4.625 1.48828 6.90527 0.645508c2.28125 -0.842773 4.05469 -2.67578 4.82422 -4.9834c0.0644531 -0.188477 7.76074 -22.0107 29.1338 -29.1348
c3.5293 -1.17676 5.78613 -4.62598 5.44922 -8.33105l-0.759766 -8.36035h1.32812c3.81543 0 7.43359 -0.857422 10.6758 -2.3877c-3.82617 23.5518 -9.24023 43.46 -16.2881 60.0088c-18.1016 42.5029 -47.0332 63.165 -88.4512 63.165
s-70.3486 -20.6621 -88.4512 -63.1641zM65.3154 148.71l-3.20703 35.2744h-2.78418c-5.00977 0 -9.08594 -4.07617 -9.08594 -9.08594v-17.1025c0 -5.00977 4.07617 -9.08594 9.08594 -9.08594h5.99121zM44.5322 97.3926c16.2031 -7.57129 36.2578 -13.4082 58.082 -16.9287
v10.8574l-14.2676 7.9248c-12.2236 6.79102 -20.2773 19.1592 -21.5439 33.0859l-0.0302734 0.344727h-7.44922c-6.35547 0 -12.1621 2.37695 -16.5918 6.28418c-0.600586 -11.7588 -0.948242 -24.1465 -1.04492 -37.1836
c-0.0136719 -1.85156 1.10352 -3.57129 2.8457 -4.38477zM103.189 51.9492l-9.09863 -3.79102c26.5459 -31.6953 52.1201 -42.043 59.2715 -44.4492c7.12012 2.43848 32.9268 12.9678 59.3154 44.4492l-9.0957 3.79004c-9.38965 3.91211 -15.457 13.0117 -15.457 23.1855
v7.27832l-14.2344 -7.9082c-6.41895 -3.56543 -13.4629 -5.34961 -20.5049 -5.34961c-7.04297 0 -14.084 1.78223 -20.5049 5.34961l-14.2334 7.9082v-7.27832c0 -10.1729 -6.06738 -19.2734 -15.458 -23.1846zM51.3066 -39.415v13.8594
c0 5.3877 -2.41211 10.4062 -6.61816 13.7715l-27.4863 21.9893c-0.758789 -1.98145 -1.16895 -4.11914 -1.16895 -6.3291v-34.2051c0 -5.00977 4.07617 -9.08594 9.08594 -9.08594h26.1875zM239.432 -25.5566c0 10.2842 4.60645 19.8662 12.6387 26.293l25.4873 20.3896
l-49.4307 20.5967c-0.0253906 -0.03125 -0.0449219 -0.0664062 -0.0712891 -0.0986328c-35.4863 -44.3584 -71.2207 -53.7002 -72.7246 -54.0762c-0.637695 -0.15918 -1.29102 -0.239258 -1.94434 -0.239258c-0.652344 0 -1.30566 0.0800781 -1.94336 0.239258
c-1.50488 0.375977 -37.2383 9.71777 -72.7256 54.0762c-0.0253906 0.0322266 -0.0458984 0.0673828 -0.0703125 0.0986328l-49.4316 -20.5967l25.4883 -20.3896c8.03027 -6.42676 12.6357 -16.0088 12.6357 -26.293v-13.8584h172.092v13.8584zM290.739 -30.3301v34.2041
c0 2.21094 -0.410156 4.34766 -1.16895 6.3291l-27.4863 -21.9883c-4.20703 -3.36621 -6.61914 -8.38574 -6.61914 -13.7725v-13.8584h26.1885c5.00977 0 9.08594 4.07617 9.08594 9.08594zM478.33 439.449c18.5645 0 33.6699 -15.1055 33.6699 -33.6699v-94.0635
c0 -18.5645 -15.1035 -33.6699 -33.6699 -33.6699h-124.948l-40.4062 -40.4072c-1.53223 -1.53223 -3.58398 -2.34766 -5.66992 -2.34766c-1.0332 0 -2.07422 0.200195 -3.06641 0.610352c-2.99609 1.23926 -4.94922 4.16406 -4.94922 7.40527v35.7031
c-14.708 3.60547 -25.6533 16.9014 -25.6533 32.7061v94.0635c0 18.5645 15.1045 33.6699 33.6699 33.6699h171.023zM495.967 311.716v94.0635c0 9.72461 -7.91211 17.6367 -17.6367 17.6367h-171.023c-9.72461 0 -17.6367 -7.91211 -17.6367 -17.6367v-94.0635
c0 -9.72461 7.91211 -17.6367 17.6367 -17.6367c4.42871 0 8.01758 -3.58984 8.01758 -8.01758v-23.4014l29.0703 29.0713c1.50391 1.50391 3.54199 2.34766 5.66895 2.34766h128.267c9.72461 0 17.6367 7.91211 17.6367 17.6367zM366.63 367.299h-0.000976562v-17.1016
c0 -5.19727 -1.36133 -10.0801 -3.7373 -14.3203l1.38965 -1.38965c3.13086 -3.13086 3.13086 -8.20605 0 -11.3369c-1.56445 -1.56641 -3.61719 -2.34863 -5.66797 -2.34863c-2.05176 0 -4.10352 0.783203 -5.66797 2.34863l-1.39062 1.38965
c-4.23926 -2.37695 -9.12305 -3.73828 -14.3193 -3.73828c-16.209 0 -29.3955 13.1865 -29.3955 29.3955v17.1016c0 16.209 13.1865 29.3955 29.3955 29.3955s29.3945 -13.1865 29.3945 -29.3955zM350.597 350.196h-0.000976562v17.1025
c0 7.36816 -5.99316 13.3613 -13.3604 13.3613c-7.36816 0 -13.3613 -5.99316 -13.3613 -13.3613v-17.1035c0 -7.36816 5.99316 -13.3613 13.3613 -13.3613c0.637695 0 1.26074 0.0605469 1.87695 0.149414l-3.27051 3.26953c-3.13086 3.13086 -3.13086 8.20605 0 11.3369
c3.12988 3.13086 8.20605 3.13086 11.3369 0l3.27051 -3.26953c0.0869141 0.614258 0.147461 1.2373 0.147461 1.87598zM412.456 404.833c4.2002 -1.40137 6.46973 -5.94043 5.07031 -10.1426l-25.6533 -76.96c-1.12012 -3.35938 -4.24805 -5.4834 -7.60449 -5.4834
c-0.84082 0 -1.69434 0.133789 -2.53516 0.414062c-4.20117 1.40039 -6.47168 5.94043 -5.07129 10.1406l25.6533 76.96c1.40039 4.20117 5.94043 6.47266 10.1406 5.07129zM477.488 331.021c1.21582 -4.25781 -1.25 -8.69434 -5.50488 -9.91113
c-0.735352 -0.210938 -1.47754 -0.311523 -2.20605 -0.311523c-3.48926 0 -6.69922 2.29492 -7.70508 5.81641l-3.22559 11.2891h-20.8887l-3.22461 -11.2881c-1.21777 -4.25879 -5.6543 -6.72266 -9.91113 -5.50586c-4.25781 1.2168 -6.72266 5.65332 -5.50586 9.91113
l17.1016 59.8574c0.983398 3.44141 4.12793 5.81445 7.70801 5.81445h8.55078c3.58008 0 6.72656 -2.37305 7.70801 -5.81445zM442.537 353.937h11.7275l-5.86328 20.5234z" />
    <glyph glyph-name="004-anchor" unicode="&#xf103;" 
d="M145.685 184.513c2.72168 -3.12207 2.39941 -7.8584 -0.722656 -10.582c-3.12109 -2.72168 -7.85938 -2.39844 -10.582 0.723633c-2.60547 2.98633 -5.13184 4.45996 -7.72266 4.50293c-4.04395 0.0507812 -8.13281 -3.3291 -9.35742 -4.64355
c-1.47559 -1.63281 -3.50098 -2.46094 -5.53711 -2.46094c-1.79492 0 -3.59766 0.643555 -5.03711 1.94434c-3.07422 2.77734 -3.2959 7.54004 -0.519531 10.6143c0.892578 0.987305 9.0498 9.65234 20.5234 9.5459c4.8457 -0.0419922 12.0693 -1.75 18.9551 -9.64453z
M239.435 184.513c2.72266 -3.12207 2.39941 -7.8584 -0.722656 -10.582c-3.12207 -2.72168 -7.85938 -2.39844 -10.582 0.723633c-2.60547 2.98633 -5.13086 4.45996 -7.72168 4.50293c-4.08398 0.0507812 -8.13379 -3.3291 -9.3584 -4.64355
c-1.47461 -1.63281 -3.50098 -2.46094 -5.53711 -2.46094c-1.79395 0 -3.5957 0.643555 -5.03613 1.94434c-3.07422 2.77734 -3.2959 7.54004 -0.518555 10.6143c0.891602 0.987305 9.08887 9.65234 20.5225 9.5459c4.84766 -0.0419922 12.0693 -1.75 18.9541 -9.64453z
M340.88 -30.4717c3.04395 -5.71289 2.87402 -12.4307 -0.450195 -17.9707c-3.31055 -5.51074 -9.12598 -8.80176 -15.5605 -8.80176h-306.689c-6.43359 0 -12.251 3.29004 -15.5596 8.80176c-3.32617 5.53906 -3.49512 12.2578 -0.452148 17.9707
c26.9395 50.5801 74.3184 85.7119 128.875 97.4463v20.5c-30.3369 12.5957 -53.5508 38.9912 -61.7617 71.3135c-3.9668 -1.43555 -8.16699 -2.2002 -12.4727 -2.2002c-20.2354 0 -36.6982 16.4629 -36.6982 36.6982c0 15.5107 9.9248 29.3125 24.1973 34.5059
c-2.50781 29.0078 4.86328 56.6729 21.1846 77.9521c2.52148 3.28711 7.22949 3.90723 10.5156 1.3877c3.28711 -2.52148 3.9082 -7.22949 1.3877 -10.5166c-15.043 -19.6143 -21.2188 -45.7598 -17.54 -73.0732l7.8125 5.57324
c1.75293 1.25098 3.95898 1.68652 6.05566 1.19922c2.09668 -0.488281 3.88281 -1.85352 4.90332 -3.74902c0.0185547 -0.0341797 2.16406 -3.9873 5.41699 -8.58203c2.2041 -3.14258 4.37988 -5.81738 6.42676 -7.92676l21.1289 35.0645
c1.3916 2.30957 3.89844 3.70215 6.61133 3.62598c2.69336 -0.0664062 5.14648 -1.57617 6.4209 -3.95117c0.21582 -0.400391 20.3672 -37.2637 50.6162 -51.1768c1.12207 12.7305 3.9082 33.8525 10.5039 45.3125c1.20996 2.10156 3.36133 3.48926 5.77539 3.72363
c2.4082 0.235352 4.79102 -0.711914 6.38477 -2.54297c0.21582 -0.246094 21.1592 -23.7266 56.1016 -31.9668l-0.570312 5.39551c-0.258789 2.43164 0.686523 4.83594 2.53027 6.44336c1.84375 1.60449 4.35352 2.21191 6.72852 1.62598l22.4697 -5.55859
c-1.32129 12.1631 -4.81934 33.7764 -13.9473 55.2344c-17.7998 41.8477 -47.8633 63.5801 -89.3545 64.5938c-35.6475 0.863281 -64.4727 -6.28125 -85.6777 -21.2676c-3.38184 -2.3916 -8.0625 -1.58691 -10.4531 1.7959c-2.39062 3.38184 -1.58691 8.0625 1.7959 10.4531
c23.8975 16.8906 55.7627 24.9688 94.7021 24.0137c47.3662 -1.15625 82.9697 -26.7861 102.962 -74.1191c7.79004 -18.4414 11.7363 -36.6445 13.7295 -49.9131c13.1855 -5.83105 21.8379 -18.9287 21.8379 -33.5586c0 -20.2354 -16.4639 -36.6982 -36.6982 -36.6982
c-3.76074 0 -7.45117 0.575195 -10.9746 1.67773c-8.10352 -31.2227 -30.2266 -56.8555 -59.2188 -69.7539v-21.9697c18.1758 -4.10449 35.7139 -10.833 51.9629 -20.0293c3.60547 -2.04004 4.87402 -6.61621 2.83301 -10.2217
c-2.03906 -3.60547 -6.61621 -4.875 -10.2207 -2.83301c-26.3721 14.9277 -56.4307 22.8174 -86.9268 22.8174c-65.4824 0 -125.303 -35.9414 -156.116 -93.7969c-0.755859 -1.41992 -0.280273 -2.61328 0.0722656 -3.19824
c0.341797 -0.568359 1.14648 -1.52344 2.69922 -1.52344h306.688c1.55371 0 2.3584 0.954102 2.7002 1.52344c0.350586 0.585938 0.827148 1.77832 0.0722656 3.19824c-11.7412 22.0479 -28.4287 41.7861 -48.2578 57.082
c-3.27832 2.53027 -3.88672 7.24023 -1.35645 10.5195s7.24023 3.88672 10.5195 1.35742c21.502 -16.5879 39.5996 -37.9941 52.3359 -61.9072zM291.654 198.998l-16.8418 4.16504c1.08105 -6.0752 1.64258 -12.2539 1.64258 -18.4844
c0 -3.87305 -0.216797 -7.69531 -0.626953 -11.4619c2.59473 -1.06543 5.38184 -1.62988 8.24121 -1.62988c11.9639 0 21.6982 9.73438 21.6982 21.6982c0 5.09375 -1.78223 9.86719 -4.83008 13.6406c0.0078125 -0.222656 0.0126953 -0.392578 0.0146484 -0.462891
c0.0576172 -2.33789 -0.978516 -4.56934 -2.80176 -6.0332s-4.22363 -1.99219 -6.49609 -1.43164zM66.0576 184.68c0 9.31836 1.2168 18.5303 3.62012 27.4404l-10.7041 -7.63477c-2.03809 -1.4541 -4.66797 -1.79492 -7.00879 -0.910156s-4.08691 2.88086 -4.65234 5.31934
c-0.271484 1.16406 -0.523438 2.32812 -0.762695 3.49219c-6.86523 -3.71582 -11.4365 -11.0098 -11.4365 -19.1006c0 -11.9639 9.73438 -21.6982 21.6982 -21.6982c3.44238 0 6.77344 0.804688 9.79199 2.33496c-0.361328 3.53711 -0.545898 7.12598 -0.545898 10.7568z
M198.875 69.293v13.875c-8.80664 -2.39941 -18.0654 -3.6875 -27.6201 -3.6875c-8.68848 0 -17.1299 1.06641 -25.21 3.06152v-12.959c8.37305 1.11523 16.8799 1.69141 25.4775 1.69141c9.18066 0 18.3193 -0.682617 27.3525 -1.98145zM81.0566 184.68
c0 -49.7363 40.4629 -90.1982 90.1992 -90.1982s90.1992 40.4639 90.1992 90.1992c0 2.29297 -0.0859375 4.58008 -0.255859 6.85449c-0.0927734 0.0136719 -0.18457 0.0292969 -0.276367 0.0439453v0.00195312c-31.624 4.59961 -54.3369 20.5156 -65.8271 30.458
c-3.66895 -13.0449 -5.22656 -31.6055 -5.5459 -39.2305c-0.0957031 -2.29199 -1.23633 -4.41406 -3.09277 -5.75977c-1.29395 -0.9375 -2.83691 -1.42676 -4.40137 -1.42676c-0.680664 0 -1.36523 0.0927734 -2.03516 0.28125
c-29.6465 8.35938 -51.5312 35.5371 -61.915 50.9463l-19.1455 -31.7705c-2.05273 -3.40723 -6.40723 -4.62012 -9.92676 -2.75977c-2.26953 1.19824 -4.57617 2.86328 -6.90527 4.9668c-0.0585938 0.0507812 -0.116211 0.0976562 -0.175781 0.152344
c-0.595703 -4.20703 -0.895508 -8.46973 -0.895508 -12.7588zM183.997 11.417c4.14062 0 7.49902 -3.35742 7.5 -7.5c0 -4.1416 -3.3584 -7.5 -7.5 -7.5h-25.1035c-4.1416 0 -7.5 3.3584 -7.5 7.5c0 4.14258 3.3584 7.5 7.5 7.5h25.1035zM183.997 -8.91895
c4.14062 0 7.49902 -3.35742 7.5 -7.5c0 -4.1416 -3.3584 -7.5 -7.5 -7.5h-25.1035c-4.1416 0 -7.5 3.3584 -7.5 7.5c0 4.14258 3.3584 7.5 7.5 7.5h25.1035zM491.235 399.135c13.5859 -15.3525 20.7666 -33.2773 20.7656 -51.8359
c0 -21.3506 -9.27832 -41.4404 -26.8301 -58.1035c-16.167 -15.3467 -38.792 -26.7236 -63.8574 -32.1387c-31.4121 -23.2324 -61.084 -30.7207 -78.1572 -30.7207c-5.3916 0 -9.52539 0.74707 -12.0605 1.98047c-5.17285 2.51562 -5.81055 6.76172 -5.8457 8.4707
c-0.0576172 2.84863 1.18066 6.94727 7.39941 10.2871c5.32617 2.86133 8.99219 7.22461 11.501 11.624c-49.8057 13.1035 -83.8359 48.582 -83.8359 88.6025c0 25.5469 13.4014 49.4053 37.7373 67.1807c23.6279 17.2588 54.917 26.7627 88.1055 26.7627
c30.9004 0 60.5889 -8.3916 83.5977 -23.627c3.4541 -2.28711 4.40039 -6.94043 2.11328 -10.3945s-6.94043 -4.39941 -10.3945 -2.11328c-20.5811 13.6299 -47.3281 21.1348 -75.3154 21.1348c-61.1201 0 -110.844 -35.4141 -110.844 -78.9434
c0 -35.1611 33.2285 -66.4072 80.8066 -75.9863c2.10645 -0.423828 3.93066 -1.73242 5.00879 -3.59082c1.07715 -1.85938 1.30566 -4.0918 0.626953 -6.12988c-2.00684 -6.02832 -5.53027 -13.5186 -11.6465 -19.8633c14.374 1.97949 38.5293 9.49609 63.5322 28.3174
c0.888672 0.670898 1.91699 1.13379 3.00684 1.35645c47.3105 9.68262 80.3525 40.8926 80.3525 75.8965c0 14.8379 -5.87793 29.3252 -17 41.8926c-2.74609 3.10254 -2.45605 7.84277 0.645508 10.5879c3.10254 2.74414 7.8418 2.45703 10.5879 -0.646484zM359.742 393.425
c4.14258 0 7.5 -3.3584 7.5 -7.5s-3.35742 -7.5 -7.5 -7.5h-39.6445c-4.14258 0 -7.5 3.3584 -7.5 7.5s3.35742 7.5 7.5 7.5h39.6445zM430.689 365.796c4.14258 0 7.5 -3.3584 7.5 -7.5c0 -4.14258 -3.35742 -7.5 -7.5 -7.5h-110.592c-4.14258 0 -7.5 3.35742 -7.5 7.5
c0 4.1416 3.35742 7.5 7.5 7.5h110.592zM430.689 316.29c4.14258 0 7.5 -3.35742 7.5 -7.5c0 -4.1416 -3.35742 -7.5 -7.5 -7.5h-110.592c-4.14258 0 -7.5 3.3584 -7.5 7.5c0 4.14258 3.35742 7.5 7.5 7.5h110.592zM430.689 341.063c4.14258 0 7.5 -3.35742 7.5 -7.5
c0 -4.1416 -3.35742 -7.5 -7.5 -7.5h-110.592c-4.14258 0 -7.5 3.3584 -7.5 7.5c0 4.14258 3.35742 7.5 7.5 7.5h110.592z" />
    <glyph glyph-name="001-help" unicode="&#xf100;" 
d="M412.199 180.911c5.67871 -6.43457 8.51172 -14.7061 7.97168 -23.2822c-0.541016 -8.5752 -4.38965 -16.4258 -10.8389 -22.1035l-115.386 -101.696c-1.06836 -0.941406 -2.32812 -1.6416 -3.69434 -2.0498l-164.923 -49.3467l-44.7949 -39.4824
c-1.85742 -1.63574 -4.18652 -2.46387 -6.52246 -2.46387c-2.0957 0 -4.19434 0.665039 -5.96094 2.00586l-64.1504 48.6953c-2.13379 1.61719 -3.51562 4.0332 -3.83105 6.69043c-0.317383 2.65723 0.461914 5.33008 2.1543 7.40332l93.1592 114.08
c0.512695 0.628906 1.10254 1.19238 1.75391 1.67676l92.4287 68.7178c0.0888672 0.0654297 0.178711 0.130859 0.270508 0.193359c15.9531 11.0381 37.9121 7.05371 48.9531 -8.88574c4.10352 -5.92188 6.27246 -12.8438 6.27246 -20.0166
c0 -11.5381 -5.65918 -22.3545 -15.1377 -28.9336c-0.0341797 -0.0234375 -0.0664062 -0.0449219 -0.0996094 -0.0673828l-40.8701 -27.6406l91.5439 3.30566l86.3135 76.0732c6.44238 5.67969 14.71 8.51367 23.2861 7.96484
c8.5752 -0.541992 16.4248 -4.39062 22.1016 -10.8379zM400.483 158.87c0.208008 3.31348 -0.885742 6.50781 -3.08301 8.99707c-2.19922 2.49902 -5.2334 3.98633 -8.54785 4.19531c-3.30566 0.222656 -6.51172 -0.880859 -8.99805 -3.07617l-88.957 -78.4033
c-1.70996 -1.50586 -3.88867 -2.375 -6.16602 -2.45703l-129.435 -4.67383c-4.40234 -0.169922 -8.36914 2.61328 -9.7334 6.79785c-1.36426 4.18262 0.207031 8.76367 3.85156 11.2285l69.3057 46.873c4.14258 2.89648 6.61426 7.63965 6.61426 12.6982
c0 3.13672 -0.955078 6.17383 -2.76172 8.78223c-4.82324 6.96094 -14.3896 8.72949 -21.3896 3.98145l-91.2969 -67.875l-85.9229 -105.218l12.6504 -9.60254l26.5566 32.5938c3.44238 4.22363 9.6543 4.85742 13.877 1.41602
c4.22363 -3.44141 4.85645 -9.6543 1.41602 -13.877l-26.1289 -32.0654l21.2109 -16.1006l40.3594 35.5762c1.06934 0.942383 2.3291 1.64258 3.69531 2.0498l164.924 49.3467l113.768 100.27c2.49512 2.19629 3.98242 5.23047 4.19141 8.54297zM511.931 386.12
c0.317383 -2.65723 -0.461914 -5.33008 -2.15527 -7.40332l-93.1592 -114.079c-0.512695 -0.62793 -1.10254 -1.19238 -1.75391 -1.67676l-92.4287 -68.7178c-0.0888672 -0.0654297 -0.178711 -0.130859 -0.270508 -0.193359
c-6.09961 -4.21973 -13.0762 -6.24512 -19.9844 -6.24512c-11.1631 0 -22.1494 5.28613 -28.9688 15.1309c-4.10352 5.92188 -6.27246 12.8438 -6.27246 20.0166c0 11.5381 5.65918 22.3545 15.1377 28.9336c0.0341797 0.0234375 0.0664062 0.0449219 0.0996094 0.0673828
l40.8701 27.6406l-91.5439 -3.30566l-86.3135 -76.0732c-6.44238 -5.67969 -14.71 -8.5127 -23.2861 -7.96582c-8.57617 0.542969 -16.4248 4.3916 -22.1016 10.8389c-5.67871 6.43457 -8.51074 14.7061 -7.9707 23.2812c0.541016 8.5752 4.38965 16.4258 10.8389 22.1035
l115.386 101.695c1.06836 0.942383 2.32812 1.64258 3.69434 2.05078l164.924 49.3477l44.7949 39.4824c3.52246 3.10547 8.74512 3.29785 12.4844 0.457031l64.1504 -48.6953c2.13379 -1.61816 3.51465 -4.0332 3.8291 -6.69043zM402.113 278.062l85.9238 105.219
l-49.5811 37.6357l-40.3604 -35.5762c-1.06934 -0.942383 -2.3291 -1.64258 -3.69531 -2.0498l-164.924 -49.3477l-113.767 -100.271c-2.49512 -2.19629 -3.98242 -5.23047 -4.19141 -8.54297c-0.208008 -3.31348 0.884766 -6.50684 3.08105 -8.99609
c2.19922 -2.49902 5.2334 -3.98633 8.54785 -4.19531c3.2998 -0.214844 6.51074 0.881836 8.99805 3.07617l88.957 78.4033c1.70898 1.50586 3.8877 2.375 6.16504 2.45703l129.435 4.67383c4.41309 0.181641 8.36816 -2.61328 9.7334 -6.79785
c1.36426 -4.18262 -0.207031 -8.76367 -3.85156 -11.2285l-69.3057 -46.873c-4.14258 -2.89648 -6.61426 -7.63965 -6.61426 -12.6982c0 -3.13672 0.955078 -6.17383 2.76172 -8.78223c4.82324 -6.96094 14.3896 -8.72852 21.3896 -3.98145zM90.5127 51.5156
c12.7139 0 12.6934 -19.7256 0 -19.7256c-12.7139 0 -12.6934 19.7256 0 19.7256z" />
  </font>
</defs></svg>
