%!PS-Adobe-3.0 EPSF-3.0
%%Creator: cairo 1.14.8 (http://cairographics.org)
%%CreationDate: Wed Mar 20 09:06:38 2019
%%Pages: 1
%%DocumentData: Clean7Bit
%%LanguageLevel: 2
%%BoundingBox: 149 0 340 488
%%EndComments
%%BeginProlog
save
50 dict begin
/q { gsave } bind def
/Q { grestore } bind def
/cm { 6 array astore concat } bind def
/w { setlinewidth } bind def
/J { setlinecap } bind def
/j { setlinejoin } bind def
/M { setmiterlimit } bind def
/d { setdash } bind def
/m { moveto } bind def
/l { lineto } bind def
/c { curveto } bind def
/h { closepath } bind def
/re { exch dup neg 3 1 roll 5 3 roll moveto 0 rlineto
      0 exch rlineto 0 rlineto closepath } bind def
/S { stroke } bind def
/f { fill } bind def
/f* { eofill } bind def
/n { newpath } bind def
/W { clip } bind def
/W* { eoclip } bind def
/BT { } bind def
/ET { } bind def
/pdfmark where { pop globaldict /?pdfmark /exec load put }
    { globaldict begin /?pdfmark /pop load def /pdfmark
    /cleartomark load def end } ifelse
/BDC { mark 3 1 roll /BDC pdfmark } bind def
/EMC { mark /EMC pdfmark } bind def
/cairo_store_point { /cairo_point_y exch def /cairo_point_x exch def } def
/Tj { show currentpoint cairo_store_point } bind def
/TJ {
  {
    dup
    type /stringtype eq
    { show } { -0.001 mul 0 cairo_font_matrix dtransform rmoveto } ifelse
  } forall
  currentpoint cairo_store_point
} bind def
/cairo_selectfont { cairo_font_matrix aload pop pop pop 0 0 6 array astore
    cairo_font exch selectfont cairo_point_x cairo_point_y moveto } bind def
/Tf { pop /cairo_font exch def /cairo_font_matrix where
      { pop cairo_selectfont } if } bind def
/Td { matrix translate cairo_font_matrix matrix concatmatrix dup
      /cairo_font_matrix exch def dup 4 get exch 5 get cairo_store_point
      /cairo_font where { pop cairo_selectfont } if } bind def
/Tm { 2 copy 8 2 roll 6 array astore /cairo_font_matrix exch def
      cairo_store_point /cairo_font where { pop cairo_selectfont } if } bind def
/g { setgray } bind def
/rg { setrgbcolor } bind def
/d1 { setcachedevice } bind def
%%EndProlog
%%BeginSetup
%%EndSetup
%%Page: 1 1
%%BeginPageSetup
%%PageBoundingBox: 149 0 340 488
%%EndPageSetup
q 149 0 191 488 rectclip q
0.419608 0.866667 0.866667 rg
276.43 343.793 m 212.816 343.793 l 201.039 343.793 191.484 334.789 191.484
 323.688 c 191.484 212.07 l 297.77 212.07 l 297.77 323.684 l 297.77 334.789
 288.215 343.793 276.43 343.793 c h
276.43 343.793 m f
191.484 321.574 m 191.484 333.297 200.211 342.879 211.262 343.711 c 211.262
 343.793 l 203.168 343.793 l 192.848 343.793 183.105 339.027 176.773 330.883
 c 174.824 328.375 l 164.793 315.48 159.352 299.605 159.352 283.27 c 159.352
 281.809 l 191.484 281.809 l h
191.484 321.574 m f
297.77 281.809 m 329.969 281.809 l 329.969 283.27 l 329.969 299.605 324.523
 315.48 314.5 328.375 c 312.543 330.883 l 306.211 339.027 296.469 343.789
 286.152 343.789 c 278.055 343.789 l 278.055 343.703 l h
297.77 281.809 m f
0.27451 0.443137 0.776471 rg
191.484 212.07 m 191.484 190.562 l 198.047 36.742 l 198.145 34.434 199.898
 32.617 202.035 32.617 c 240.633 32.617 l 242.84 32.617 244.629 34.555 244.629
 36.945 c 244.629 212.07 l h
191.484 212.07 m f
244.625 140.227 m 244.625 130.352 251.328 122.344 259.594 122.344 c 280.844
 122.344 l 288.836 122.344 295.418 129.844 295.797 139.383 c 297.77 188.973
 l 297.77 212.07 l 244.625 212.07 l h
244.625 140.227 m f
0.215686 0.384314 0.8 rg
240.629 28.625 m 202.031 28.625 l 197.746 28.625 194.242 32.117 194.055
 36.574 c 187.492 190.391 l 187.488 212.07 l 187.488 214.273 189.281 216.066
 191.484 216.066 c 244.625 216.066 l 246.828 216.066 248.617 214.273 248.617
 212.07 c 248.617 36.945 l 248.617 32.355 245.039 28.625 240.629 28.625 
c h
195.477 208.078 m 195.477 190.562 l 202.031 36.914 l 202.043 36.707 202.129
 36.598 202.156 36.578 c 240.609 36.609 l 240.551 36.621 240.633 36.738 
240.633 36.945 c 240.633 208.078 l h
195.477 208.078 m f
280.844 117.066 m 259.594 117.066 l 249.141 117.066 240.629 126.996 240.629
 139.203 c 240.629 212.07 l 240.629 214.273 242.422 216.066 244.625 216.066
 c 297.766 216.066 l 299.969 216.066 301.758 214.273 301.758 212.07 c 301.758
 188.641 l 299.785 138.188 l 299.32 126.34 291 117.066 280.844 117.066 c
 h
248.617 208.078 m 248.617 139.203 l 248.617 131.398 253.543 125.055 259.594
 125.055 c 280.844 125.055 l 286.695 125.055 291.508 130.957 291.805 138.496
 c 293.773 188.797 l 293.77 208.078 l h
248.617 208.078 m f
0.976471 0.811765 0.811765 rg
159.352 281.809 m 159.352 187.555 l 153.766 166.414 l 153.566 165.664 153.516
 164.891 153.613 164.121 c 155.734 147.562 l 156.121 144.57 158.664 142.332
 161.68 142.332 c 170.91 142.332 l 173.738 142.332 176.184 144.316 176.766
 147.086 c 185.305 187.551 l 191.484 281.805 l 159.352 281.805 l h
159.352 281.809 m f
0.215686 0.384314 0.8 rg
170.91 138.344 m 161.68 138.344 l 156.672 138.344 152.414 142.094 151.777
 147.055 c 149.656 163.613 l 149.488 164.898 149.574 166.184 149.906 167.441
 c 155.355 188.074 l 155.355 281.809 l 155.355 284.012 157.145 285.801 159.352
 285.801 c 191.484 285.801 l 192.586 285.801 193.645 285.348 194.395 284.539
 c 195.152 283.73 195.539 282.648 195.469 281.547 c 189.293 187.293 l 189.277
 187.102 189.25 186.914 189.215 186.727 c 180.676 146.266 l 179.707 141.676
 175.602 138.344 170.91 138.344 c h
163.344 277.816 m 163.344 187.555 l 163.344 187.211 163.297 186.867 163.211
 186.531 c 157.625 165.391 l 157.559 165.145 157.539 164.891 157.574 164.637
 c 159.695 148.07 l 159.824 147.078 160.676 146.332 161.68 146.332 c 170.91
 146.332 l 171.848 146.332 172.672 146.992 172.863 147.914 c 181.34 188.098
 l 187.223 277.812 l 163.344 277.812 l h
159.352 187.555 m 159.371 187.555 l h
159.352 187.555 m f
0.976471 0.811765 0.811765 rg
335.551 166.414 m 329.969 187.555 l 330.273 187.555 l 330.273 281.809 l
 298.141 281.809 l 304.316 187.555 l 304.012 187.555 l 312.547 147.09 l 
313.133 144.32 315.578 142.336 318.41 142.336 c 327.641 142.336 l 330.652
 142.336 333.195 144.57 333.578 147.562 c 335.703 164.121 l 335.801 164.891
 335.75 165.664 335.551 166.414 c h
335.551 166.414 m f
0.215686 0.384314 0.8 rg
327.641 138.344 m 318.41 138.344 l 313.719 138.344 309.613 141.676 308.641
 146.266 c 300.105 186.73 l 299.957 187.441 300.004 188.168 300.23 188.836
 c 294.152 281.547 l 294.082 282.652 294.469 283.73 295.227 284.539 c 295.98
 285.348 297.035 285.801 298.141 285.801 c 330.273 285.801 l 332.48 285.801
 334.266 284.016 334.266 281.809 c 334.266 187.555 l 334.266 187.383 334.254
 187.211 334.234 187.043 c 339.414 167.445 l 339.746 166.188 339.832 164.902
 339.664 163.609 c 337.543 147.059 l 336.906 142.094 332.648 138.344 327.641
 138.344 c h
308.246 186.836 m 316.457 147.914 l 316.652 146.996 317.469 146.332 318.41
 146.332 c 327.641 146.332 l 328.641 146.332 329.492 147.078 329.617 148.07
 c 331.742 164.633 l 331.773 164.891 331.758 165.145 331.691 165.387 c 331.691
 165.387 331.691 165.391 331.691 165.395 c 326.109 186.535 l 325.883 187.391
 325.949 188.285 326.277 189.082 c 326.277 277.816 l 302.402 277.816 l 308.301
 187.816 l 308.32 187.484 308.301 187.156 308.246 186.836 c h
308.246 186.836 m f
0.976471 0.811765 0.811765 rg
288.992 416.199 m 288.898 416.199 288.805 416.188 288.711 416.188 c 288.711
 420.352 l 288.711 444.703 268.969 464.438 244.625 464.438 c 220.273 464.438
 200.539 444.699 200.539 420.352 c 200.539 416.188 l 200.445 416.188 200.355
 416.199 200.262 416.199 c 192.832 416.199 186.812 410.18 186.812 402.754
 c 186.812 395.324 192.832 389.305 200.262 389.305 c 200.746 389.305 201.227
 389.332 201.703 389.383 c 206.254 369.879 223.738 355.344 244.625 355.344
 c 265.516 355.344 282.996 369.879 287.547 389.383 c 288.02 389.332 288.5
 389.305 288.992 389.305 c 296.414 389.305 302.441 395.324 302.441 402.754
 c 302.441 410.18 296.414 416.199 288.992 416.199 c h
288.992 416.199 m f
0.215686 0.384314 0.8 rg
244.625 351.352 m 223.238 351.352 204.762 365.188 198.645 385.379 c 189.781
 386.199 182.816 393.68 182.816 402.75 c 182.816 411.094 188.707 418.086
 196.547 419.793 c 196.547 420.352 l 196.547 446.863 218.113 468.43 244.625
 468.43 c 271.133 468.43 292.703 446.863 292.703 420.352 c 292.703 419.793
 l 300.547 418.086 306.434 411.094 306.434 402.75 c 306.434 393.68 299.469
 386.199 290.609 385.379 c 284.488 365.188 266.008 351.352 244.625 351.352
 c h
201.707 393.375 m 203.539 393.375 205.164 392.109 205.594 390.285 c 209.844
 372.066 225.895 359.34 244.625 359.34 c 263.355 359.34 279.406 372.066 
283.66 390.285 c 284.117 392.25 285.969 393.562 287.973 393.352 c 288.305
 393.312 288.648 393.293 288.992 393.293 c 294.203 393.293 298.445 397.535
 298.445 402.75 c 298.445 407.941 294.242 412.168 289.062 412.203 c 288.91
 412.195 288.777 412.188 288.711 412.191 c 287.668 412.191 286.664 412.602
 285.918 413.328 c 285.148 414.082 284.715 415.109 284.715 416.184 c 284.715
 420.348 l 284.715 442.457 266.73 460.441 244.625 460.441 c 222.516 460.441
 204.531 442.457 204.531 420.348 c 204.531 416.184 l 204.531 415.109 204.098
 414.082 203.332 413.328 c 202.566 412.582 201.621 412.145 200.457 412.191
 c 200.395 412.191 200.203 412.199 200.137 412.207 c 195.047 412.203 190.805
 407.961 190.805 402.746 c 190.805 397.531 195.047 393.289 200.262 393.289
 c 200.605 393.289 200.945 393.312 201.277 393.348 c 201.422 393.367 201.562
 393.375 201.707 393.375 c h
201.707 393.375 m f
244.625 351.352 m 223.238 351.352 204.762 365.188 198.645 385.379 c 189.781
 386.199 182.816 393.68 182.816 402.75 c 182.816 411.094 188.707 418.086
 196.547 419.793 c 196.547 420.352 l 196.547 446.863 218.113 468.43 244.625
 468.43 c 271.133 468.43 292.703 446.863 292.703 420.352 c 292.703 419.793
 l 300.547 418.086 306.434 411.094 306.434 402.75 c 306.434 393.68 299.469
 386.199 290.609 385.379 c 284.488 365.188 266.008 351.352 244.625 351.352
 c h
201.707 393.375 m 203.539 393.375 205.164 392.109 205.594 390.285 c 209.844
 372.066 225.895 359.34 244.625 359.34 c 263.355 359.34 279.406 372.066 
283.66 390.285 c 284.117 392.25 285.969 393.562 287.973 393.352 c 288.305
 393.312 288.648 393.293 288.992 393.293 c 294.203 393.293 298.445 397.535
 298.445 402.75 c 298.445 407.941 294.242 412.168 289.062 412.203 c 288.91
 412.195 288.777 412.188 288.711 412.191 c 287.668 412.191 286.664 412.602
 285.918 413.328 c 285.148 414.082 284.715 415.109 284.715 416.184 c 284.715
 420.348 l 284.715 442.457 266.73 460.441 244.625 460.441 c 222.516 460.441
 204.531 442.457 204.531 420.348 c 204.531 416.184 l 204.531 415.109 204.098
 414.082 203.332 413.328 c 202.566 412.582 201.621 412.145 200.457 412.191
 c 200.395 412.191 200.203 412.199 200.137 412.207 c 195.047 412.203 190.805
 407.961 190.805 402.746 c 190.805 397.531 195.047 393.289 200.262 393.289
 c 200.605 393.289 200.945 393.312 201.277 393.348 c 201.422 393.367 201.562
 393.375 201.707 393.375 c h
201.707 393.375 m f
221.352 399.488 m 218.875 399.488 216.871 401.492 216.871 403.969 c 216.871
 411.441 l 216.871 413.918 218.875 415.922 221.352 415.922 c 223.828 415.922
 225.836 413.918 225.836 411.441 c 225.836 403.969 l 225.836 401.492 223.828
 399.488 221.352 399.488 c h
221.352 399.488 m f
267.898 399.488 m 265.422 399.488 263.418 401.492 263.418 403.969 c 263.418
 411.441 l 263.418 413.918 265.422 415.922 267.898 415.922 c 270.375 415.922
 272.379 413.918 272.379 411.441 c 272.379 403.969 l 272.383 401.492 270.375
 399.488 267.898 399.488 c h
267.898 399.488 m f
0.27451 0.443137 0.776471 rg
288.168 427.215 m 288.52 424.977 288.715 422.688 288.715 420.352 c 288.715
 416.188 l 288.809 416.188 288.898 416.199 288.992 416.199 c 291.598 416.199
 294.027 415.445 296.09 414.16 c 296.09 427.219 l 288.168 427.219 l h
288.168 427.215 m f
193.16 427.215 m 193.16 414.16 l 195.223 415.441 197.652 416.199 200.262
 416.199 c 200.355 416.199 200.449 416.188 200.543 416.184 c 200.543 420.348
 l 200.543 422.684 200.734 424.977 201.086 427.215 c h
193.16 427.215 m f
0.976471 0.811765 0.811765 rg
244.625 355.344 m 236.676 355.344 229.227 357.449 222.789 361.129 c 222.789
 343.727 l 222.789 341.012 224.996 338.801 227.719 338.801 c 261.527 338.801
 l 264.25 338.801 266.453 341.012 266.453 343.727 c 266.453 361.129 l 260.023
 357.449 252.57 355.344 244.625 355.344 c h
244.625 355.344 m f
0.643137 0.788235 1 rg
237.496 32.617 m 201.973 32.617 l 196.418 20.422 l 195.391 18.168 194.844
 15.539 194.844 12.855 c 194.844 6.855 l 194.844 5.277 195.75 3.992 196.863
 3.992 c 242.609 3.992 l 243.719 3.992 244.625 5.277 244.625 6.855 c 244.625
 12.855 l 244.625 15.539 244.078 18.168 243.051 20.422 c h
237.496 32.617 m f
0.878431 0.921569 0.988235 rg
295.738 135.711 m 295.922 139.711 l 244.566 139.711 l 244.566 136.441 l
 244.566 127.949 251.27 121.062 259.535 121.062 c 280.785 121.062 l 288.777
 121.062 295.359 127.512 295.738 135.711 c h
295.738 135.711 m f
0.215686 0.384314 0.8 rg
244.625 375.465 m 236.801 375.465 230.898 379.059 230.898 383.824 c 230.898
 385.48 232.238 386.82 233.891 386.82 c 235.547 386.82 236.887 385.48 236.887
 383.824 c 237.098 383.215 239.812 381.453 244.625 381.453 c 249.438 381.453
 252.148 383.215 252.367 383.883 c 252.367 385.535 253.707 386.852 255.359
 386.852 c 257.012 386.852 258.352 385.477 258.352 383.824 c 258.352 379.059
 252.449 375.465 244.625 375.465 c h
244.625 375.465 m f
0.878431 0.921569 0.988235 rg
244.625 139.711 m 295.98 139.711 l 296.84 158.359 l 244.625 158.359 l h
244.625 139.711 m f
0.27451 0.443137 0.776471 rg
277.207 427.219 m 300.492 427.219 l 302.215 427.219 303.609 428.617 303.609
 430.336 c 303.609 448.145 l 303.609 467.953 287.555 484.008 267.754 484.008
 c 266.637 484.008 l 261.469 484.008 257.285 479.82 257.285 474.652 c 257.285
 447.145 l 257.281 436.137 266.199 427.219 277.207 427.219 c h
277.207 427.219 m f
229.344 427.219 m 188.77 427.219 l 187.043 427.219 185.641 428.621 185.641
 430.352 c 185.641 445.082 l 185.641 466.578 203.07 484.008 224.566 484.008
 c 248.027 484.008 l 253.188 484.008 257.371 479.824 257.371 474.664 c 257.371
 455.246 l 257.371 439.77 244.824 427.219 229.344 427.219 c h
229.344 427.219 m f
0.215686 0.384314 0.8 rg
300.492 423.227 m 277.207 423.227 l 264.02 423.227 253.289 433.953 253.289
 447.145 c 253.289 474.652 l 253.289 482.016 259.277 488 266.637 488 c 267.754
 488 l 289.727 488 307.609 470.125 307.609 448.145 c 307.609 430.336 l 307.605
 426.414 304.414 423.227 300.492 423.227 c h
266.637 480.012 m 263.68 480.012 261.277 477.605 261.277 474.652 c 261.277
 447.145 l 261.277 438.359 268.418 431.215 277.207 431.215 c 299.617 431.215
 l 299.617 448.145 l 299.617 465.719 285.32 480.008 267.75 480.008 c 266.637
 480.008 l h
266.637 480.012 m f
229.344 423.227 m 188.77 423.227 l 184.844 423.227 181.648 426.422 181.648
 430.352 c 181.648 445.082 l 181.648 468.746 200.902 488 224.57 488 c 248.031
 488 l 255.387 488 261.367 482.02 261.367 474.664 c 261.367 455.246 l 261.363
 437.59 247.004 423.227 229.344 423.227 c h
189.633 431.215 m 229.344 431.215 l 242.598 431.215 253.379 441.992 253.379
 455.246 c 253.379 474.664 l 253.379 477.613 250.98 480.012 248.027 480.012
 c 224.566 480.012 l 205.305 480.012 189.633 464.34 189.633 445.082 c h
189.633 431.215 m f
296.086 410.168 m 295.355 410.168 294.621 410.371 293.973 410.77 c 292.469
 411.711 290.746 412.207 288.992 412.207 c 288.797 412.195 l 287.629 412.156
 286.68 412.582 285.918 413.332 c 285.148 414.086 284.715 415.113 284.715
 416.188 c 284.715 420.352 l 284.715 422.395 284.551 424.496 284.223 426.602
 c 284.043 427.754 284.379 428.93 285.133 429.812 c 285.895 430.699 287 
431.211 288.168 431.211 c 296.086 431.211 l 298.297 431.211 300.082 429.418
 300.082 427.215 c 300.082 414.156 l 300.082 412.707 299.293 411.367 298.031
 410.664 c 297.422 410.336 296.754 410.168 296.086 410.168 c h
296.086 410.168 m f
193.16 410.168 m 192.492 410.168 191.828 410.332 191.223 410.664 c 189.953
 411.371 189.168 412.707 189.168 414.16 c 189.168 427.215 l 189.168 429.418
 190.957 431.211 193.16 431.211 c 201.082 431.211 l 202.25 431.211 203.359
 430.699 204.117 429.812 c 204.875 428.926 205.211 427.75 205.027 426.598
 c 204.699 424.508 204.535 422.406 204.535 420.352 c 204.535 416.188 l 204.535
 415.113 204.102 414.086 203.336 413.332 c 202.566 412.586 201.621 412.148
 200.457 412.195 c 200.395 412.195 200.203 412.203 200.141 412.211 c 198.508
 412.207 196.781 411.711 195.277 410.77 c 194.629 410.371 193.898 410.168
 193.16 410.168 c h
193.16 410.168 m f
298.141 277.816 m 298.121 277.816 298.102 277.816 298.078 277.816 c 295.875
 277.848 294.113 279.664 294.145 281.867 c 294.492 304.957 l 294.527 307.164
 296.289 308.844 298.547 308.891 c 300.75 308.855 302.516 307.039 302.48
 304.836 c 302.133 281.746 l 302.102 279.562 300.316 277.816 298.141 277.816
 c h
298.141 277.816 m f
0.643137 0.788235 1 rg
300.977 265.387 15.973 -86.039 re f
0.976471 0.654902 0.654902 rg
317 3.992 m 300.93 3.992 l 299.855 3.992 298.98 4.867 298.98 5.941 c 298.98
 23.762 l 298.98 25.328 300.254 26.594 301.816 26.594 c 316.113 26.594 l
 317.68 26.594 318.949 25.328 318.949 23.762 c 318.949 5.941 l 318.949 4.867
 318.078 3.992 317 3.992 c h
317 3.992 m f
0.215686 0.384314 0.8 rg
191.312 275.688 m 191.289 275.688 191.27 275.688 191.25 275.688 c 189.047
 275.723 187.285 277.535 187.316 279.738 c 187.664 302.828 l 187.699 305.012
 189.48 306.762 191.656 306.762 c 191.719 306.762 l 193.922 306.727 195.684
 304.914 195.652 302.707 c 195.301 279.621 l 195.27 277.434 193.488 275.688
 191.312 275.688 c h
191.312 275.688 m f
0.643137 0.788235 1 rg
300.977 179.348 15.973 -152.75 re f
0.215686 0.384314 0.8 rg
316.949 175.355 m 300.977 175.355 l 298.773 175.355 296.984 177.145 296.984
 179.348 c 296.984 265.387 l 296.984 267.59 298.773 269.379 300.977 269.379
 c 316.949 269.379 l 319.16 269.379 320.945 267.59 320.945 265.387 c 320.945
 179.348 l 320.945 177.145 319.16 175.355 316.949 175.355 c h
304.973 183.344 m 312.957 183.344 l 312.957 261.395 l 304.973 261.395 l
 h
304.973 183.344 m f
316.996 0 m 300.93 0 l 297.652 0 294.988 2.668 294.988 5.941 c 294.988 
23.762 l 294.988 27.527 298.051 30.59 301.816 30.59 c 316.113 30.59 l 319.875
 30.59 322.941 27.527 322.941 23.762 c 322.941 5.941 l 322.941 2.668 320.277
 0 316.996 0 c h
302.977 7.984 m 314.953 7.984 l 314.953 22.602 l 302.977 22.602 l h
302.977 7.984 m f
316.949 22.602 m 300.977 22.602 l 298.773 22.602 296.984 24.391 296.984
 26.594 c 296.984 179.348 l 296.984 181.551 298.773 183.344 300.977 183.344
 c 316.949 183.344 l 319.16 183.344 320.945 181.551 320.945 179.348 c 320.945
 26.594 l 320.945 24.391 319.16 22.602 316.949 22.602 c h
304.973 30.59 m 312.957 30.59 l 312.957 175.355 l 304.973 175.355 l h
304.973 30.59 m f
280.785 117.066 m 259.535 117.066 l 249.082 117.066 240.57 125.758 240.57
 136.441 c 240.57 139.711 l 240.57 141.914 242.363 143.703 244.566 143.703
 c 295.926 143.703 l 297.016 143.703 298.059 143.258 298.809 142.465 c 299.566
 141.68 299.965 140.613 299.914 139.527 c 299.727 135.527 l 299.25 125.176
 290.93 117.066 280.785 117.066 c h
248.582 135.715 m 248.945 129.773 253.719 125.055 259.535 125.055 c 280.785
 125.055 l 286.598 125.055 291.375 129.723 291.738 135.715 c h
248.582 135.715 m f
295.98 135.715 m 244.625 135.715 l 242.422 135.715 240.629 137.508 240.629
 139.711 c 240.629 158.359 l 240.629 160.566 242.422 162.355 244.625 162.355
 c 296.84 162.355 l 297.934 162.355 298.973 161.906 299.727 161.117 c 300.484
 160.328 300.879 159.266 300.828 158.176 c 299.969 139.527 l 299.871 137.395
 298.113 135.715 295.98 135.715 c h
248.617 143.703 m 292.164 143.703 l 292.66 154.367 l 248.617 154.367 l 
h
248.617 143.703 m f
242.609 0 m 196.863 0 l 193.496 0 190.852 3.012 190.852 6.855 c 190.852
 12.852 l 190.852 16.113 191.523 19.305 192.785 22.078 c 198.344 34.273 
l 198.988 35.699 200.414 36.609 201.977 36.609 c 237.496 36.609 l 239.059
 36.609 240.48 35.695 241.129 34.27 c 246.684 22.078 l 247.949 19.305 248.617
 16.109 248.617 12.852 c 248.617 6.855 l 248.617 3.016 245.977 0 242.609
 0 c h
198.84 7.984 m 240.633 7.984 l 240.633 12.852 l 240.633 14.977 240.215 
17.023 239.418 18.766 c 234.93 28.625 l 204.547 28.625 l 200.055 18.766 
l 199.262 17.023 198.844 14.98 198.844 12.852 c 198.844 7.984 l h
198.84 7.984 m f
297.77 208.078 m 191.484 208.078 l 189.281 208.078 187.488 209.867 187.488
 212.07 c 187.488 277.816 l 159.352 277.816 l 157.145 277.816 155.355 279.605
 155.355 281.809 c 155.355 283.27 l 155.355 300.406 161.148 317.297 171.668
 330.824 c 173.617 333.332 l 180.758 342.52 191.531 347.785 203.164 347.785
 c 211.262 347.785 l 211.438 347.785 211.609 347.777 211.777 347.754 c 212.133
 347.773 212.477 347.785 212.816 347.785 c 218.801 347.785 l 218.801 361.129
 l 218.801 362.555 219.559 363.871 220.789 364.582 c 222.023 365.301 223.543
 365.301 224.773 364.594 c 230.797 361.156 237.66 359.336 244.625 359.336
 c 251.594 359.336 258.457 361.156 264.473 364.594 c 265.711 365.305 267.227
 365.301 268.457 364.582 c 269.691 363.871 270.449 362.555 270.449 361.129
 c 270.449 347.785 l 276.426 347.785 l 276.801 347.785 277.168 347.773 277.535
 347.75 c 277.703 347.773 277.879 347.785 278.055 347.785 c 286.152 347.785
 l 297.789 347.785 308.555 342.516 315.695 333.332 c 317.648 330.824 l 328.172
 317.297 333.961 300.406 333.961 283.27 c 333.961 281.809 l 333.961 279.605
 332.172 277.816 329.969 277.816 c 301.762 277.816 l 301.762 212.07 l 301.762
 209.863 299.973 208.078 297.77 208.078 c h
195.477 216.066 m 293.77 216.066 l 293.77 281.809 l 293.77 284.012 295.562
 285.801 297.766 285.801 c 325.926 285.801 l 325.391 300.297 320.258 314.453
 311.34 325.922 c 309.387 328.43 l 303.77 335.656 295.301 339.801 286.148
 339.801 c 278.785 339.801 l 278.449 339.734 278.098 339.711 277.766 339.73
 c 277.301 339.766 276.863 339.801 276.422 339.801 c 266.449 339.801 l 264.246
 339.801 262.457 341.59 262.457 343.793 c 262.457 354.785 l 251.16 350.273
 238.074 350.273 226.777 354.785 c 226.777 343.793 l 226.777 341.59 224.992
 339.801 222.785 339.801 c 212.812 339.801 l 212.41 339.801 212.016 339.77
 211.613 339.742 c 211.27 339.719 210.922 339.738 210.582 339.801 c 203.156
 339.801 l 194.008 339.801 185.535 335.66 179.918 328.434 c 177.969 325.926
 l 169.047 314.457 163.918 300.301 163.379 285.801 c 191.473 285.801 l 193.676
 285.801 195.465 284.016 195.465 281.809 c 195.465 216.066 l h
195.477 216.066 m f
0.27451 0.443137 0.776471 rg
317.84 265.387 m 300.094 265.387 l 298.375 265.387 296.984 266.781 296.984
 268.496 c 296.984 290.379 l 296.984 292.098 298.375 293.484 300.094 293.484
 c 317.84 293.484 l 319.551 293.484 320.945 292.098 320.945 290.379 c 320.945
 268.496 l 320.945 266.777 319.551 265.387 317.84 265.387 c h
317.84 265.387 m f
0.215686 0.384314 0.8 rg
317.84 261.395 m 300.094 261.395 l 296.172 261.395 292.992 264.582 292.992
 268.496 c 292.992 290.375 l 292.992 294.293 296.172 297.477 300.094 297.477
 c 317.84 297.477 l 321.754 297.477 324.938 294.293 324.938 290.375 c 324.938
 268.496 l 324.938 264.582 321.754 261.395 317.84 261.395 c h
300.977 269.379 m 316.949 269.379 l 316.949 289.492 l 300.977 289.492 l
 h
300.977 269.379 m f
0.27451 0.443137 0.776471 rg
189.879 265.387 m 172.129 265.387 l 170.418 265.387 169.023 266.781 169.023
 268.496 c 169.023 290.379 l 169.023 292.098 170.418 293.484 172.129 293.484
 c 189.879 293.484 l 191.594 293.484 192.984 292.098 192.984 290.379 c 192.984
 268.496 l 192.984 266.777 191.594 265.387 189.879 265.387 c h
189.879 265.387 m f
0.215686 0.384314 0.8 rg
189.875 261.395 m 172.129 261.395 l 168.215 261.395 165.027 264.582 165.027
 268.496 c 165.027 290.375 l 165.027 294.293 168.215 297.477 172.129 297.477
 c 189.875 297.477 l 193.793 297.477 196.977 294.293 196.977 290.375 c 196.977
 268.496 l 196.977 264.582 193.793 261.395 189.875 261.395 c h
173.02 269.379 m 188.992 269.379 l 188.992 289.492 l 173.02 289.492 l h
173.02 269.379 m f
0.643137 0.788235 1 rg
173.02 265.387 15.973 -86.039 re f
0.976471 0.654902 0.654902 rg
189.039 3.992 m 172.969 3.992 l 171.895 3.992 171.023 4.867 171.023 5.941
 c 171.023 23.762 l 171.023 25.328 172.289 26.594 173.855 26.594 c 188.152
 26.594 l 189.715 26.594 190.988 25.328 190.988 23.762 c 190.988 5.941 l
 190.988 4.867 190.113 3.992 189.039 3.992 c h
189.039 3.992 m f
0.643137 0.788235 1 rg
173.02 179.348 15.973 -152.75 re f
0.215686 0.384314 0.8 rg
188.992 175.355 m 173.02 175.355 l 170.816 175.355 169.023 177.145 169.023
 179.348 c 169.023 265.387 l 169.023 267.59 170.816 269.379 173.02 269.379
 c 188.992 269.379 l 191.195 269.379 192.984 267.59 192.984 265.387 c 192.984
 179.348 l 192.984 177.145 191.199 175.355 188.992 175.355 c h
177.012 183.344 m 185 183.344 l 185 261.395 l 177.012 261.395 l h
177.012 183.344 m f
189.043 0 m 172.973 0 l 169.691 0 167.027 2.668 167.027 5.941 c 167.027
 23.762 l 167.027 27.527 170.09 30.59 173.855 30.59 c 188.152 30.59 l 191.918
 30.59 194.98 27.527 194.98 23.762 c 194.98 5.941 l 194.98 2.668 192.312
 0 189.043 0 c h
175.016 7.984 m 186.996 7.984 l 186.996 22.602 l 175.016 22.602 l h
175.016 7.984 m f
188.992 22.602 m 173.02 22.602 l 170.816 22.602 169.023 24.391 169.023 
26.594 c 169.023 179.348 l 169.023 181.551 170.816 183.344 173.02 183.344
 c 188.992 183.344 l 191.195 183.344 192.984 181.551 192.984 179.348 c 192.984
 26.594 l 192.984 24.391 191.199 22.602 188.992 22.602 c h
177.012 30.59 m 185 30.59 l 185 175.355 l 177.012 175.355 l h
177.012 30.59 m f
Q Q
showpage
%%Trailer
end restore
%%EOF
