%!PS-Adobe-3.0 EPSF-3.0
%%Creator: cairo 1.14.8 (http://cairographics.org)
%%CreationDate: Wed Mar 20 09:06:38 2019
%%Pages: 1
%%DocumentData: Clean7Bit
%%LanguageLevel: 2
%%BoundingBox: 45 0 452 496
%%EndComments
%%BeginProlog
save
50 dict begin
/q { gsave } bind def
/Q { grestore } bind def
/cm { 6 array astore concat } bind def
/w { setlinewidth } bind def
/J { setlinecap } bind def
/j { setlinejoin } bind def
/M { setmiterlimit } bind def
/d { setdash } bind def
/m { moveto } bind def
/l { lineto } bind def
/c { curveto } bind def
/h { closepath } bind def
/re { exch dup neg 3 1 roll 5 3 roll moveto 0 rlineto
      0 exch rlineto 0 rlineto closepath } bind def
/S { stroke } bind def
/f { fill } bind def
/f* { eofill } bind def
/n { newpath } bind def
/W { clip } bind def
/W* { eoclip } bind def
/BT { } bind def
/ET { } bind def
/pdfmark where { pop globaldict /?pdfmark /exec load put }
    { globaldict begin /?pdfmark /pop load def /pdfmark
    /cleartomark load def end } ifelse
/BDC { mark 3 1 roll /BDC pdfmark } bind def
/EMC { mark /EMC pdfmark } bind def
/cairo_store_point { /cairo_point_y exch def /cairo_point_x exch def } def
/Tj { show currentpoint cairo_store_point } bind def
/TJ {
  {
    dup
    type /stringtype eq
    { show } { -0.001 mul 0 cairo_font_matrix dtransform rmoveto } ifelse
  } forall
  currentpoint cairo_store_point
} bind def
/cairo_selectfont { cairo_font_matrix aload pop pop pop 0 0 6 array astore
    cairo_font exch selectfont cairo_point_x cairo_point_y moveto } bind def
/Tf { pop /cairo_font exch def /cairo_font_matrix where
      { pop cairo_selectfont } if } bind def
/Td { matrix translate cairo_font_matrix matrix concatmatrix dup
      /cairo_font_matrix exch def dup 4 get exch 5 get cairo_store_point
      /cairo_font where { pop cairo_selectfont } if } bind def
/Tm { 2 copy 8 2 roll 6 array astore /cairo_font_matrix exch def
      cairo_store_point /cairo_font where { pop cairo_selectfont } if } bind def
/g { setgray } bind def
/rg { setrgbcolor } bind def
/d1 { setcachedevice } bind def
%%EndProlog
%%BeginSetup
%%EndSetup
%%Page: 1 1
%%BeginPageSetup
%%PageBoundingBox: 45 0 452 496
%%EndPageSetup
q 45 0 407 496 rectclip q
0.976471 0.811765 0.811765 rg
233.973 456.922 m 149.246 456.922 80.562 388.238 80.562 303.508 c 80.562
 213.465 l 73.098 213.465 l 59.941 213.465 49.273 202.801 49.273 189.641
 c 49.273 176.48 59.941 165.816 73.098 165.816 c 84.746 165.816 l 97.945
 109.027 142.508 64.293 199.332 51.164 c 199.332 3.996 l 333.645 3.996 l
 333.645 84.027 l 366.52 112.164 387.387 153.934 387.387 200.602 c 387.387
 303.508 l 387.387 388.238 318.699 456.922 233.973 456.922 c h
233.973 456.922 m f
0.215686 0.384314 0.8 rg
333.645 0 m 199.332 0 l 197.125 0 195.332 1.793 195.332 3.996 c 195.332
 48.02 l 139.887 62.047 95.738 106.223 81.605 161.816 c 73.098 161.816 l
 57.758 161.816 45.277 174.297 45.277 189.641 c 45.277 204.984 57.758 217.465
 73.098 217.465 c 76.562 217.465 l 76.562 303.512 l 76.562 390.309 147.176
 460.922 233.973 460.922 c 320.77 460.922 391.379 390.309 391.379 303.512
 c 391.379 200.602 l 391.379 155.191 371.82 112.145 337.641 82.203 c 337.641
 4 l 337.641 1.789 335.848 0 333.645 0 c h
203.328 7.996 m 329.645 7.996 l 329.645 84.027 l 329.645 85.191 330.156
 86.305 331.043 87.062 c 364.312 115.535 383.387 156.914 383.387 200.602
 c 383.387 303.512 l 383.387 385.898 316.359 452.926 233.973 452.926 c 151.586
 452.926 84.559 385.898 84.559 303.512 c 84.559 213.465 l 84.559 211.262
 82.766 209.469 80.559 209.469 c 73.098 209.469 l 62.164 209.469 53.273 
200.574 53.273 189.641 c 53.273 178.711 62.164 169.812 73.098 169.812 c 
84.742 169.812 l 86.602 169.812 88.215 168.527 88.637 166.723 c 101.449 
111.586 145.25 67.758 200.227 55.059 c 202.039 54.641 203.324 53.031 203.324
 51.168 c 203.324 7.996 l h
203.328 7.996 m f
136.656 212.219 m 128.844 212.219 122.508 218.551 122.508 226.363 c 122.508
 249.949 l 122.508 257.762 128.844 264.094 136.656 264.094 c 144.469 264.094
 150.805 257.762 150.805 249.949 c 150.805 226.363 l 150.805 218.555 144.469
 212.219 136.656 212.219 c h
136.656 212.219 m f
0.976471 0.811765 0.811765 rg
312.152 209 m 312.152 179.004 287.836 154.688 257.836 154.688 c 227.84 
154.688 203.523 179.004 203.523 209 c 203.523 238.996 227.84 263.316 257.836
 263.316 c 287.836 263.316 312.152 238.996 312.152 209 c h
312.152 209 m f
0.27451 0.443137 0.776471 rg
414.895 408.922 m 414.887 408.906 l 387.516 450.719 338.617 478.586 282.82
 478.586 c 270.945 478.586 261.328 469.477 261.328 458.246 c 261.328 453.98
 l 261.328 459.004 259.785 463.668 257.16 467.559 c 257.168 467.562 l 257.168
 467.562 256.426 469.07 254.238 471.113 c 251.355 474.031 247.754 476.258
 243.699 477.488 c 238.016 479.77 230.07 481.648 219.129 482.113 c 219.129
 482.117 l 219.105 482.117 219.086 482.117 219.062 482.117 c 207.695 482.586
 193.102 481.523 174.375 477.738 c 160.746 476.246 147.73 472.773 135.629
 467.605 c 135.586 467.59 135.543 467.578 135.496 467.566 c 135.504 467.551
 l 128.629 464.613 122.066 461.109 115.844 457.141 c 113.133 455.48 111.777
 454.449 111.773 454.441 c 76.824 430.332 53.961 390.453 53.961 345.293 
c 53.961 296.438 l 53.961 294.176 55.828 292.336 58.133 292.336 c 261.324
 292.336 l 261.324 146.484 l 285.828 96.477 l 286.523 95.059 287.988 94.152
 289.586 94.152 c 353.227 94.152 l 359.664 94.152 365.988 95.074 372.027
 96.809 c 372.215 96.887 378.668 99.609 381.289 103.801 c 387.473 113.699
 402.035 137.016 415.281 158.316 c 434.941 189.93 446.105 226.035 446.988
 263.086 c 449.398 364.586 414.895 408.922 414.895 408.922 c h
414.895 408.922 m f
0.215686 0.384314 0.8 rg
353.227 90.16 m 289.586 90.16 l 286.484 90.16 283.598 91.945 282.242 94.715
 c 257.73 144.727 l 257.465 145.27 257.328 145.875 257.328 146.484 c 257.328
 288.344 l 58.133 288.344 l 53.625 288.344 49.965 291.973 49.965 296.438
 c 49.965 345.293 l 49.965 389.984 72.223 432.016 109.5 457.73 c 109.512
 457.742 110.988 458.859 113.75 460.547 c 120.094 464.59 126.785 468.148
 133.598 471.082 c 133.766 471.172 133.945 471.254 134.129 471.32 c 134.16
 471.332 134.199 471.344 134.242 471.359 c 146.805 476.703 160.102 480.172
 173.762 481.691 c 190.926 485.148 206.18 486.641 219.105 486.117 c 219.273
 486.094 219.383 486.113 219.52 486.098 c 229.465 485.66 238.047 484.035
 245.027 481.262 c 249.562 479.859 253.727 477.32 257.086 473.922 c 258.93
 472.203 259.961 470.695 260.441 469.887 c 264.773 477.445 273.184 482.582
 282.824 482.582 c 338.184 482.582 388.699 455.977 418.031 411.402 c 418.039
 411.395 418.043 411.387 418.051 411.375 c 419.496 409.523 453.406 364.746
 450.988 262.992 c 450.102 225.695 438.93 188.77 418.68 156.207 c 405.43
 134.906 390.871 111.582 384.688 101.688 c 381.578 96.715 374.906 93.688
 373.605 93.133 c 373.453 93.066 373.293 93.012 373.133 92.965 c 366.648
 91.105 359.949 90.16 353.227 90.16 c h
265.32 147.414 m 289.418 98.234 l 312.246 98.152 l 353.227 98.152 l 359.121
 98.152 364.992 98.969 370.68 100.578 c 372.922 101.574 376.531 103.727 
377.902 105.922 c 384.086 115.82 398.641 139.129 411.887 160.434 c 431.383
 191.781 442.141 227.309 442.992 263.184 c 445.246 358.066 414.523 402.633
 411.91 406.238 c 411.777 406.383 411.652 406.543 411.539 406.711 c 383.723
 449.211 335.598 474.582 282.82 474.582 c 273.172 474.582 265.32 467.254
 265.32 458.242 c 265.32 453.977 l 265.32 451.766 263.531 449.977 261.324
 449.977 c 259.117 449.977 257.328 451.766 257.328 453.977 c 257.328 458.023
 256.121 461.945 253.848 465.32 c 253.734 465.484 253.641 465.648 253.555
 465.824 c 253.453 465.988 252.848 466.934 251.504 468.191 c 248.93 470.797
 245.863 472.652 242.535 473.664 c 242.426 473.695 242.316 473.73 242.211
 473.777 c 235.988 476.27 228.164 477.73 218.961 478.117 c 218.926 478.121
 218.895 478.121 218.863 478.125 c 206.508 478.621 191.812 477.184 175.164
 473.816 c 175.043 473.789 174.926 473.773 174.805 473.758 c 161.801 472.336
 149.148 469.027 137.195 463.926 c 137.188 463.926 137.18 463.922 137.172
 463.918 c 137.137 463.902 137.105 463.887 137.07 463.875 c 130.543 461.082
 124.125 457.68 117.984 453.766 c 115.461 452.219 114.203 451.266 114.195
 451.258 c 78.926 426.926 57.961 387.355 57.961 345.293 c 57.961 296.438
 l 57.961 296.41 58.012 296.336 58.133 296.336 c 261.324 296.336 l 263.531
 296.336 265.32 294.547 265.32 292.34 c h
265.32 147.414 m f
0.976471 0.811765 0.811765 rg
312.152 209 m 312.152 179.004 287.836 154.688 257.836 154.688 c 227.84 
154.688 203.523 179.004 203.523 209 c 203.523 238.996 227.84 263.316 257.836
 263.316 c 287.836 263.316 312.152 238.996 312.152 209 c h
312.152 209 m f
0.976471 0.654902 0.654902 rg
392.422 356.008 m 392.43 356.012 l 390.715 384.258 369.391 399.262 363.27
 403.012 c 359.781 425.062 339.91 441.984 315.84 441.984 c 314.691 441.984
 313.562 441.895 312.43 441.824 c 305.379 458.777 288.082 470.781 267.812
 470.781 c 257.137 470.781 247.305 467.41 239.328 461.785 c 232.777 464.98
 225.383 466.824 217.523 466.824 c 198.473 466.824 182.059 456.203 174.301
 440.852 c 173.621 440.23 173.086 439.711 172.691 439.312 c 171.629 439.379
 170.57 439.465 169.492 439.465 c 143.109 439.465 121.719 419.152 121.484
 394.012 c 107.969 385.895 98.961 371.57 98.961 355.199 c 98.961 331.285
 118.141 311.664 142.613 309.547 c 142.633 309.336 l 142.633 309.336 158.629
 305.867 174.754 310.301 c 180.324 304.477 196.961 290.266 226.637 290.266
 c 233.488 290.266 240.676 291.055 248.066 292.621 c 254.641 294.113 l 264.062
 287.738 280.84 285.844 288.383 285.297 c 288.762 285.285 289.98 285.285
 289.98 285.285 c 291.184 285.234 292.41 285.207 293.66 285.207 c 298.457
 285.207 303.344 285.609 308.082 286.387 c 315.871 287.531 322.98 289.539
 329.234 292.375 c 331.539 292.023 333.566 290.676 334.699 288.684 c 350.375
 261.141 l 350.996 260.043 351.758 259.055 352.574 258.117 c 356.309 251.723
 363.16 247.797 370.566 247.797 c 372.164 247.797 l 383.676 247.797 393.004
 257.125 393.004 268.641 c 393.004 349.605 l 393 351.781 392.793 353.918
 392.422 356.008 c h
392.422 356.008 m f
0.215686 0.384314 0.8 rg
372.156 243.801 m 370.562 243.801 l 361.898 243.801 353.789 248.375 349.312
 255.773 c 348.309 256.949 347.535 258.031 346.891 259.164 c 331.219 286.703
 l 330.855 287.344 330.266 287.852 329.566 288.156 c 323.301 285.473 316.273
 283.547 308.652 282.434 c 302.449 281.414 295.895 281.031 289.824 281.293
 c 289.816 281.281 288.637 281.293 288.254 281.305 c 279.477 281.934 263.957
 283.867 253.898 289.848 c 248.945 288.727 l 241.262 287.094 233.773 286.27
 226.633 286.27 c 198.012 286.27 180.848 298.875 173.535 305.867 c 157.48
 302.109 142.445 305.285 141.781 305.43 c 141.504 305.488 141.238 305.578
 140.988 305.691 c 114.656 308.57 94.961 329.645 94.961 355.199 c 94.961
 371.734 103.367 386.934 117.555 396.266 c 119.016 422.488 141.844 443.461
 169.488 443.461 c 170.035 443.461 170.578 443.441 171.117 443.414 c 180.039
 460.344 197.734 470.82 217.516 470.82 c 224.977 470.82 232.176 469.32 238.961
 466.359 c 247.547 471.875 257.477 474.777 267.809 474.777 c 288.23 474.777
 306.418 463.562 314.941 445.969 c 315.238 445.977 315.539 445.984 315.84
 445.984 c 340.672 445.984 362.289 428.68 366.895 405.438 c 375.027 400.086
 394.645 384.348 396.414 356.402 c 396.801 354.113 397 351.832 397 349.605
 c 397 268.645 l 397 254.945 385.852 243.801 372.156 243.801 c h
329.23 296.371 m 329.434 296.371 329.637 296.355 329.836 296.328 c 333.395
 295.781 336.43 293.719 338.168 290.66 c 353.84 263.121 l 354.266 262.375
 354.816 261.621 355.578 260.75 c 355.746 260.559 355.891 260.355 356.02
 260.137 c 359.031 254.992 364.602 251.793 370.562 251.793 c 372.156 251.793
 l 381.445 251.793 389.004 259.348 389.004 268.641 c 389.004 349.605 l 389.004
 351.461 388.828 353.379 388.488 355.309 c 388.445 355.547 388.426 355.781
 388.426 356.016 c 386.727 382.016 367.156 395.945 361.184 399.602 c 360.184
 400.215 359.508 401.23 359.324 402.387 c 356.113 422.688 337.418 437.992
 315.84 437.992 c 314.914 437.992 314.012 437.926 313.102 437.863 c 312.695
 437.836 l 310.992 437.719 309.395 438.711 308.738 440.293 c 302.047 456.387
 285.98 466.793 267.809 466.793 c 258.344 466.793 249.293 463.93 241.633
 458.527 c 240.438 457.684 238.883 457.562 237.574 458.203 c 231.281 461.273
 224.535 462.828 217.52 462.828 c 200.477 462.828 185.281 453.723 177.859
 439.055 c 177.648 438.629 177.355 438.242 177.004 437.918 c 176.383 437.348
 175.891 436.871 175.527 436.504 c 174.715 435.684 173.625 435.242 172.438
 435.328 c 171.801 435.371 l 171.031 435.422 170.266 435.473 169.492 435.473
 c 145.438 435.473 125.691 416.859 125.48 393.98 c 125.465 392.59 124.73
 391.305 123.543 390.594 c 110.652 382.852 102.957 369.625 102.957 355.207
 c 102.957 333.426 120.152 315.508 142.953 313.539 c 143.527 313.492 144.07
 313.32 144.551 313.055 c 148.27 312.418 161.055 310.68 173.695 314.164 
c 175.105 314.547 176.629 314.137 177.645 313.07 c 183.047 307.422 198.633
 294.273 226.637 294.273 c 233.219 294.273 240.148 295.039 247.234 296.539
 c 253.754 298.02 l 254.836 298.266 255.965 298.051 256.879 297.43 c 265.602
 291.531 282.02 289.773 288.672 289.289 c 288.855 289.285 289.977 289.289
 289.98 289.289 c 291.293 289.238 292.465 289.211 293.656 289.211 c 298.23
 289.211 302.863 289.59 307.434 290.336 c 314.914 291.438 321.672 293.348
 327.59 296.023 c 328.102 296.25 328.664 296.371 329.23 296.371 c h
329.23 296.371 m f
1 0.917647 0.572549 rg
257.836 302.074 m 215.957 302.074 181.883 336.148 181.883 378.031 c 181.883
 419.91 215.957 453.984 257.836 453.984 c 299.719 453.984 333.793 419.91
 333.793 378.031 c 333.793 336.148 299.719 302.074 257.836 302.074 c h
257.836 441.988 m 222.57 441.988 193.875 413.297 193.875 378.031 c 193.875
 342.758 222.57 314.07 257.836 314.07 c 293.105 314.07 321.797 342.758 321.797
 378.031 c 321.797 413.297 293.105 441.988 257.836 441.988 c h
257.836 441.988 m f
257.836 330.059 m 231.391 330.059 209.867 351.578 209.867 378.031 c 209.867
 404.477 231.391 426 257.836 426 c 284.285 426 305.809 404.477 305.809 378.031
 c 305.809 351.578 284.289 330.059 257.836 330.059 c h
257.836 414.008 m 238 414.008 221.859 397.863 221.859 378.031 c 221.859
 358.191 238 342.051 257.836 342.051 c 277.676 342.051 293.816 358.191 293.816
 378.031 c 293.816 397.863 277.676 414.008 257.836 414.008 c h
257.836 414.008 m f
0.419608 0.866667 0.866667 rg
271.828 378.031 m 271.828 370.301 265.562 364.039 257.836 364.039 c 250.113
 364.039 243.848 370.301 243.848 378.031 c 243.848 385.754 250.113 392.02
 257.836 392.02 c 265.562 392.02 271.828 385.754 271.828 378.031 c h
271.828 378.031 m f
0.643137 0.788235 1 rg
270.371 425.328 m 273.516 425.328 l 275.453 425.328 276.586 423.223 275.465
 421.699 c 259.785 400.387 l 258.836 399.094 256.844 399.094 255.891 400.387
 c 240.215 421.699 l 239.094 423.223 240.223 425.328 242.164 425.328 c 245.305
 425.328 l 246.625 425.328 247.691 426.355 247.691 427.629 c 247.691 489.703
 l 247.691 490.973 248.762 492.004 250.082 492.004 c 265.598 492.004 l 266.918
 492.004 267.984 490.973 267.984 489.703 c 267.984 427.629 l 267.984 426.355
 269.055 425.328 270.371 425.328 c h
270.371 425.328 m f
0.215686 0.384314 0.8 rg
257.836 395.418 m 255.797 395.418 253.863 396.391 252.668 398.02 c 236.992
 419.328 l 235.59 421.242 235.379 423.73 236.449 425.84 c 237.539 427.992
 239.723 429.324 242.16 429.324 c 243.695 429.324 l 243.695 489.707 l 243.695
 493.176 246.559 496 250.078 496 c 265.598 496 l 269.121 496 271.98 493.176
 271.98 489.707 c 271.98 429.324 l 273.516 429.324 l 275.953 429.324 278.137
 427.992 279.227 425.84 c 280.293 423.73 280.086 421.242 278.684 419.332
 c 263.008 398.016 l 261.812 396.391 259.879 395.418 257.836 395.418 c h
245.445 421.332 m 257.836 404.484 l 270.23 421.332 l 266.773 421.406 263.984
 424.199 263.984 427.629 c 263.984 488.004 l 251.688 488.004 l 251.688 427.629
 l 251.688 424.199 248.902 421.406 245.445 421.332 c h
273.516 421.332 m 273.535 421.332 l h
273.516 421.332 m f
0.643137 0.788235 1 rg
245.301 328.262 m 242.16 328.262 l 240.223 328.262 239.094 330.371 240.211
 331.895 c 255.891 353.203 l 256.844 354.496 258.832 354.496 259.785 353.203
 c 275.461 331.895 l 276.582 330.371 275.453 328.262 273.512 328.262 c 270.367
 328.262 l 269.051 328.262 267.984 327.234 267.984 325.969 c 267.984 263.887
 l 267.984 262.621 266.914 261.59 265.594 261.59 c 250.078 261.59 l 248.758
 261.59 247.691 262.621 247.691 263.887 c 247.691 325.969 l 247.691 327.234
 246.621 328.262 245.301 328.262 c h
245.301 328.262 m f
0.215686 0.384314 0.8 rg
265.598 257.59 m 250.078 257.59 l 246.555 257.59 243.695 260.418 243.695
 263.887 c 243.695 324.266 l 242.16 324.266 l 239.723 324.266 237.539 325.602
 236.449 327.75 c 235.383 329.859 235.59 332.355 236.992 334.258 c 252.672
 355.574 l 253.867 357.203 255.801 358.176 257.84 358.176 c 259.879 358.176
 261.812 357.203 263.012 355.57 c 278.688 334.262 l 280.09 332.355 280.297
 329.859 279.227 327.75 c 278.141 325.602 275.953 324.266 273.52 324.266
 c 271.98 324.266 l 271.98 263.887 l 271.98 260.418 269.121 257.59 265.598
 257.59 c h
251.688 265.586 m 263.984 265.586 l 263.984 325.969 l 263.984 329.391 266.773
 332.188 270.23 332.262 c 257.836 349.109 l 245.445 332.262 l 248.902 332.188
 251.688 329.391 251.688 325.969 c h
245.301 324.266 m 245.32 324.266 l h
245.301 324.266 m f
0.643137 0.788235 1 rg
306.367 364.262 m 306.367 361.117 l 306.367 359.18 304.262 358.051 302.738
 359.168 c 281.43 374.848 l 280.133 375.797 280.133 377.793 281.43 378.742
 c 302.738 394.418 l 304.262 395.539 306.367 394.41 306.367 392.469 c 306.367
 389.328 l 306.367 388.008 307.398 386.941 308.664 386.941 c 370.746 386.941
 l 372.016 386.941 373.043 385.871 373.043 384.551 c 373.043 369.035 l 373.043
 367.715 372.016 366.648 370.746 366.648 c 308.664 366.648 l 307.398 366.648
 306.367 365.578 306.367 364.262 c h
306.367 364.262 m f
0.215686 0.384314 0.8 rg
304.066 354.73 m 302.762 354.73 301.473 355.141 300.375 355.945 c 279.055
 371.629 l 277.43 372.82 276.461 374.754 276.461 376.797 c 276.461 378.836
 277.43 380.77 279.059 381.965 c 300.371 397.641 l 302.277 399.043 304.773
 399.254 306.879 398.184 c 309.027 397.102 310.363 394.91 310.363 392.473
 c 310.363 390.938 l 370.746 390.938 l 374.215 390.938 377.043 388.074 377.043
 384.551 c 377.043 369.035 l 377.043 365.512 374.215 362.652 370.746 362.652
 c 310.363 362.652 l 310.363 361.117 l 310.363 358.684 309.027 356.492 306.879
 355.406 c 305.988 354.953 305.023 354.73 304.066 354.73 c h
285.527 376.797 m 302.371 364.402 l 302.445 367.859 305.246 370.648 308.668
 370.648 c 369.047 370.648 l 369.047 382.945 l 308.668 382.945 l 305.242
 382.945 302.445 385.73 302.371 389.188 c h
285.527 376.797 m f
0.643137 0.788235 1 rg
209.309 389.332 m 209.309 392.473 l 209.309 394.41 211.414 395.543 212.934
 394.422 c 234.246 378.746 l 235.543 377.797 235.543 375.801 234.246 374.852
 c 212.934 359.172 l 211.414 358.055 209.309 359.184 209.309 361.121 c 209.309
 364.266 l 209.309 365.582 208.277 366.648 207.008 366.648 c 144.93 366.648
 l 143.66 366.648 142.633 367.719 142.633 369.039 c 142.633 384.555 l 142.633
 385.875 143.66 386.941 144.93 386.941 c 207.004 386.941 l 208.277 386.941
 209.309 388.012 209.309 389.332 c h
209.309 389.332 m f
0.215686 0.384314 0.8 rg
211.613 354.73 m 210.652 354.73 209.688 354.953 208.797 355.406 c 206.645
 356.492 205.312 358.688 205.312 361.117 c 205.312 362.652 l 144.93 362.652
 l 141.461 362.652 138.633 365.516 138.633 369.035 c 138.633 384.551 l 138.633
 388.078 141.461 390.938 144.93 390.938 c 205.312 390.938 l 205.312 392.473
 l 205.312 394.91 206.645 397.102 208.797 398.184 c 210.902 399.254 213.395
 399.043 215.305 397.641 c 236.621 381.965 l 238.246 380.77 239.215 378.836
 239.215 376.797 c 239.215 374.754 238.246 372.82 236.617 371.625 c 215.305
 355.949 l 214.203 355.141 212.914 354.73 211.613 354.73 c h
146.629 370.648 m 207.008 370.648 l 210.434 370.648 213.227 367.859 213.301
 364.402 c 230.152 376.797 l 213.301 389.188 l 213.227 385.73 210.434 382.945
 207.008 382.945 c 146.629 382.945 l h
146.629 370.648 m f
Q Q
showpage
%%Trailer
end restore
%%EOF
