%!PS-Adobe-3.0 EPSF-3.0
%%Creator: cairo 1.14.8 (http://cairographics.org)
%%CreationDate: Wed Mar 20 09:06:38 2019
%%Pages: 1
%%DocumentData: Clean7Bit
%%LanguageLevel: 2
%%BoundingBox: 4 0 492 496
%%EndComments
%%BeginProlog
save
50 dict begin
/q { gsave } bind def
/Q { grestore } bind def
/cm { 6 array astore concat } bind def
/w { setlinewidth } bind def
/J { setlinecap } bind def
/j { setlinejoin } bind def
/M { setmiterlimit } bind def
/d { setdash } bind def
/m { moveto } bind def
/l { lineto } bind def
/c { curveto } bind def
/h { closepath } bind def
/re { exch dup neg 3 1 roll 5 3 roll moveto 0 rlineto
      0 exch rlineto 0 rlineto closepath } bind def
/S { stroke } bind def
/f { fill } bind def
/f* { eofill } bind def
/n { newpath } bind def
/W { clip } bind def
/W* { eoclip } bind def
/BT { } bind def
/ET { } bind def
/pdfmark where { pop globaldict /?pdfmark /exec load put }
    { globaldict begin /?pdfmark /pop load def /pdfmark
    /cleartomark load def end } ifelse
/BDC { mark 3 1 roll /BDC pdfmark } bind def
/EMC { mark /EMC pdfmark } bind def
/cairo_store_point { /cairo_point_y exch def /cairo_point_x exch def } def
/Tj { show currentpoint cairo_store_point } bind def
/TJ {
  {
    dup
    type /stringtype eq
    { show } { -0.001 mul 0 cairo_font_matrix dtransform rmoveto } ifelse
  } forall
  currentpoint cairo_store_point
} bind def
/cairo_selectfont { cairo_font_matrix aload pop pop pop 0 0 6 array astore
    cairo_font exch selectfont cairo_point_x cairo_point_y moveto } bind def
/Tf { pop /cairo_font exch def /cairo_font_matrix where
      { pop cairo_selectfont } if } bind def
/Td { matrix translate cairo_font_matrix matrix concatmatrix dup
      /cairo_font_matrix exch def dup 4 get exch 5 get cairo_store_point
      /cairo_font where { pop cairo_selectfont } if } bind def
/Tm { 2 copy 8 2 roll 6 array astore /cairo_font_matrix exch def
      cairo_store_point /cairo_font where { pop cairo_selectfont } if } bind def
/g { setgray } bind def
/rg { setrgbcolor } bind def
/d1 { setcachedevice } bind def
%%EndProlog
%%BeginSetup
%%EndSetup
%%Page: 1 1
%%BeginPageSetup
%%PageBoundingBox: 4 0 492 496
%%EndPageSetup
q 4 0 488 496 rectclip q
0.419608 0.866667 0.866667 rg
472 260 m 172 260 l 163.164 260 156 267.164 156 276 c 156 468 l 156 476.836
 163.164 484 172 484 c 472 484 l 480.836 484 488 476.836 488 468 c 488 276
 l 488 267.164 480.836 260 472 260 c h
472 260 m f
0.27451 0.443137 0.776471 rg
180 292 m 180 452 l 180 456.418 183.582 460 188 460 c 456 460 l 460.418
 460 464 456.418 464 452 c 464 292 l 464 287.582 460.418 284 456 284 c 188
 284 l 183.582 284 180 287.582 180 292 c h
180 292 m f
0.878431 0.921569 0.988235 rg
241 316.199 m 241 301.801 l 241 300.805 240.195 300 239.199 300 c 224.801
 300 l 223.805 300 223 300.805 223 301.801 c 223 316.199 l 223 317.195 223.805
 318 224.801 318 c 239.199 318 l 240.195 318 241 317.195 241 316.199 c h
241 316.199 m f
241 343.398 m 241 329 l 241 328.008 240.195 327.199 239.199 327.199 c 224.801
 327.199 l 223.805 327.199 223 328.008 223 329 c 223 343.398 l 223 344.395
 223.805 345.199 224.801 345.199 c 239.199 345.199 l 240.195 345.199 241
 344.395 241 343.398 c h
241 343.398 m f
241 382.801 m 241 368.398 l 241 367.406 240.195 366.602 239.199 366.602
 c 224.801 366.602 l 223.805 366.602 223 367.406 223 368.398 c 223 382.801
 l 223 383.793 223.805 384.602 224.801 384.602 c 239.199 384.602 l 240.195
 384.602 241 383.793 241 382.801 c h
241 382.801 m f
241 442.199 m 241 427.801 l 241 426.805 240.195 426 239.199 426 c 224.801
 426 l 223.805 426 223 426.805 223 427.801 c 223 442.199 l 223 443.195 223.805
 444 224.801 444 c 239.199 444 l 240.195 444 241 443.195 241 442.199 c h
241 442.199 m f
269 442.199 m 269 427.801 l 269 426.805 268.195 426 267.199 426 c 252.801
 426 l 251.805 426 251 426.805 251 427.801 c 251 442.199 l 251 443.195 251.805
 444 252.801 444 c 267.199 444 l 268.195 444 269 443.195 269 442.199 c h
269 442.199 m f
269 406.199 m 269 391.801 l 269 390.805 268.195 390 267.199 390 c 252.801
 390 l 251.805 390 251 390.805 251 391.801 c 251 406.199 l 251 407.195 251.805
 408 252.801 408 c 267.199 408 l 268.195 408 269 407.195 269 406.199 c h
269 406.199 m f
313 406.199 m 313 391.801 l 313 390.805 312.195 390 311.199 390 c 296.801
 390 l 295.805 390 295 390.805 295 391.801 c 295 406.199 l 295 407.195 295.805
 408 296.801 408 c 311.199 408 l 312.195 408 313 407.195 313 406.199 c h
313 406.199 m f
313 382.199 m 313 367.801 l 313 366.805 312.195 366 311.199 366 c 296.801
 366 l 295.805 366 295 366.805 295 367.801 c 295 382.199 l 295 383.195 295.805
 384 296.801 384 c 311.199 384 l 312.195 384 313 383.195 313 382.199 c h
313 382.199 m f
313 442.199 m 313 427.801 l 313 426.805 312.195 426 311.199 426 c 296.801
 426 l 295.805 426 295 426.805 295 427.801 c 295 442.199 l 295 443.195 295.805
 444 296.801 444 c 311.199 444 l 312.195 444 313 443.195 313 442.199 c h
313 442.199 m f
349 316.199 m 349 301.801 l 349 300.805 348.195 300 347.199 300 c 332.801
 300 l 331.805 300 331 300.805 331 301.801 c 331 316.199 l 331 317.195 331.805
 318 332.801 318 c 347.199 318 l 348.195 318 349 317.195 349 316.199 c h
349 316.199 m f
341 380.199 m 341 365.801 l 341 364.805 340.195 364 339.199 364 c 324.801
 364 l 323.805 364 323 364.805 323 365.801 c 323 380.199 l 323 381.195 323.805
 382 324.801 382 c 339.199 382 l 340.195 382 341 381.195 341 380.199 c h
341 380.199 m f
341 440.199 m 341 425.801 l 341 424.805 340.195 424 339.199 424 c 324.801
 424 l 323.805 424 323 424.805 323 425.801 c 323 440.199 l 323 441.195 323.805
 442 324.801 442 c 339.199 442 l 340.195 442 341 441.195 341 440.199 c h
341 440.199 m f
385 406.199 m 385 391.801 l 385 390.805 384.195 390 383.199 390 c 368.801
 390 l 367.805 390 367 390.805 367 391.801 c 367 406.199 l 367 407.195 367.805
 408 368.801 408 c 383.199 408 l 384.195 408 385 407.195 385 406.199 c h
385 406.199 m f
385 442.199 m 385 427.801 l 385 426.805 384.195 426 383.199 426 c 368.801
 426 l 367.805 426 367 426.805 367 427.801 c 367 442.199 l 367 443.195 367.805
 444 368.801 444 c 383.199 444 l 384.195 444 385 443.195 385 442.199 c h
385 442.199 m f
385 316.199 m 385 301.801 l 385 300.805 384.195 300 383.199 300 c 368.801
 300 l 367.805 300 367 300.805 367 301.801 c 367 316.199 l 367 317.195 367.805
 318 368.801 318 c 383.199 318 l 384.195 318 385 317.195 385 316.199 c h
385 316.199 m f
385 340.199 m 385 325.801 l 385 324.805 384.195 324 383.199 324 c 368.801
 324 l 367.805 324 367 324.805 367 325.801 c 367 340.199 l 367 341.195 367.805
 342 368.801 342 c 383.199 342 l 384.195 342 385 341.195 385 340.199 c h
385 340.199 m f
421 316.199 m 421 301.801 l 421 300.805 420.195 300 419.199 300 c 404.801
 300 l 403.805 300 403 300.805 403 301.801 c 403 316.199 l 403 317.195 403.805
 318 404.801 318 c 419.199 318 l 420.195 318 421 317.195 421 316.199 c h
421 316.199 m f
421 340.199 m 421 325.801 l 421 324.805 420.195 324 419.199 324 c 404.801
 324 l 403.805 324 403 324.805 403 325.801 c 403 340.199 l 403 341.195 403.805
 342 404.801 342 c 419.199 342 l 420.195 342 421 341.195 421 340.199 c h
421 340.199 m f
413 388.199 m 413 373.801 l 413 372.805 412.195 372 411.199 372 c 396.801
 372 l 395.805 372 395 372.805 395 373.801 c 395 388.199 l 395 389.195 395.805
 390 396.801 390 c 411.199 390 l 412.195 390 413 389.195 413 388.199 c h
413 388.199 m f
413 442.199 m 413 427.801 l 413 426.805 412.195 426 411.199 426 c 396.801
 426 l 395.805 426 395 426.805 395 427.801 c 395 442.199 l 395 443.195 395.805
 444 396.801 444 c 411.199 444 l 412.195 444 413 443.195 413 442.199 c h
413 442.199 m f
0.643137 0.788235 1 rg
470 4 m 26 4 l 16.059 4 8 12.059 8 22 c 8 207.336 l 8 217.277 16.059 225.336
 26 225.336 c 470 225.336 l 479.941 225.336 488 217.277 488 207.336 c 488
 22 l 488 12.059 479.941 4 470 4 c h
470 4 m f
0.27451 0.443137 0.776471 rg
466 60.664 m 30 60.664 l 27.789 60.664 26 62.457 26 64.664 c 26 128.664
 l 26 130.875 27.789 132.664 30 132.664 c 466 132.664 l 468.211 132.664 
470 130.875 470 128.664 c 470 64.664 l 470 62.457 468.211 60.664 466 60.664
 c h
466 60.664 m f
0.878431 0.921569 0.988235 rg
90.773 20.07 m 40 20.07 l 37.789 20.07 36 21.863 36 24.07 c 36 41.262 l
 36 43.469 37.789 45.262 40 45.262 c 90.773 45.262 l 92.98 45.262 94.773
 43.469 94.773 41.262 c 94.773 24.07 l 94.773 21.863 92.98 20.07 90.773 
20.07 c h
90.773 20.07 m f
183.129 20.07 m 132.355 20.07 l 130.145 20.07 128.355 21.863 128.355 24.07
 c 128.355 41.262 l 128.355 43.469 130.145 45.262 132.355 45.262 c 183.129
 45.262 l 185.34 45.262 187.129 43.469 187.129 41.262 c 187.129 24.07 l 
187.129 21.863 185.34 20.07 183.129 20.07 c h
183.129 20.07 m f
275.484 20.07 m 224.715 20.07 l 222.504 20.07 220.715 21.863 220.715 24.07
 c 220.715 41.262 l 220.715 43.469 222.504 45.262 224.715 45.262 c 275.484
 45.262 l 277.695 45.262 279.484 43.469 279.484 41.262 c 279.484 24.07 l
 279.484 21.863 277.695 20.07 275.484 20.07 c h
275.484 20.07 m f
367.844 20.07 m 317.07 20.07 l 314.859 20.07 313.07 21.863 313.07 24.07
 c 313.07 41.262 l 313.07 43.469 314.859 45.262 317.07 45.262 c 367.844 
45.262 l 370.051 45.262 371.844 43.469 371.844 41.262 c 371.844 24.07 l 
371.844 21.863 370.051 20.07 367.844 20.07 c h
367.844 20.07 m f
456 20.07 m 405.227 20.07 l 403.02 20.07 401.227 21.863 401.227 24.07 c
 401.227 41.262 l 401.227 43.469 403.02 45.262 405.227 45.262 c 456 45.262
 l 458.211 45.262 460 43.469 460 41.262 c 460 24.07 l 460 21.863 458.211
 20.07 456 20.07 c h
456 20.07 m f
0.27451 0.443137 0.776471 rg
232.703 151 m 211.297 151 l 208.922 151 207 152.926 207 155.297 c 207 174.395
 l 207 176.766 208.926 178.691 211.297 178.691 c 232.703 178.691 l 235.074
 178.691 236.996 176.766 236.996 174.395 c 236.996 155.297 l 237 152.926
 235.074 151 232.703 151 c h
232.703 151 m f
187.703 169.461 m 166.297 169.461 l 163.922 169.461 162 171.387 162 173.758
 c 162 192.855 l 162 195.23 163.926 197.152 166.297 197.152 c 187.703 197.152
 l 190.074 197.152 191.996 195.227 191.996 192.855 c 191.996 173.758 l 192
 171.387 190.074 169.461 187.703 169.461 c h
187.703 169.461 m f
142.703 183.309 m 121.297 183.309 l 118.922 183.309 117 185.23 117 187.605
 c 117 206.703 l 117 209.074 118.926 210.996 121.297 210.996 c 142.703 210.996
 l 145.074 210.996 146.996 209.074 146.996 206.703 c 146.996 187.605 l 147
 185.23 145.074 183.309 142.703 183.309 c h
142.703 183.309 m f
97.703 169.461 m 76.297 169.461 l 73.926 169.461 72 171.387 72 173.758 
c 72 192.855 l 72 195.23 73.926 197.152 76.297 197.152 c 97.703 197.152 
l 100.074 197.152 101.996 195.227 101.996 192.855 c 101.996 173.758 l 102
 171.387 100.074 169.461 97.703 169.461 c h
97.703 169.461 m f
52.703 155.617 m 31.297 155.617 l 28.926 155.617 27 157.539 27 159.91 c
 27 179.012 l 27 181.383 28.926 183.305 31.297 183.305 c 52.703 183.305 
l 55.074 183.305 56.996 181.383 56.996 179.012 c 56.996 159.91 l 57 157.539
 55.074 155.617 52.703 155.617 c h
52.703 155.617 m f
263.297 151 m 284.703 151 l 287.078 151 289 152.926 289 155.297 c 289 174.395
 l 289 176.766 287.074 178.691 284.703 178.691 c 263.297 178.691 l 260.926
 178.691 259.004 176.766 259.004 174.395 c 259.004 155.297 l 259 152.926
 260.926 151 263.297 151 c h
263.297 151 m f
308.297 169.461 m 329.703 169.461 l 332.078 169.461 334 171.387 334 173.758
 c 334 192.855 l 334 195.23 332.074 197.152 329.703 197.152 c 308.297 197.152
 l 305.926 197.152 304.004 195.227 304.004 192.855 c 304.004 173.758 l 304
 171.387 305.926 169.461 308.297 169.461 c h
308.297 169.461 m f
353.297 183.309 m 374.703 183.309 l 377.078 183.309 379 185.23 379 187.605
 c 379 206.703 l 379 209.074 377.074 210.996 374.703 210.996 c 353.297 210.996
 l 350.926 210.996 349.004 209.074 349.004 206.703 c 349.004 187.605 l 349
 185.23 350.926 183.309 353.297 183.309 c h
353.297 183.309 m f
398.297 169.461 m 419.703 169.461 l 422.078 169.461 424 171.387 424 173.758
 c 424 192.855 l 424 195.23 422.074 197.152 419.703 197.152 c 398.297 197.152
 l 395.926 197.152 394.004 195.227 394.004 192.855 c 394.004 173.758 l 394
 171.387 395.926 169.461 398.297 169.461 c h
398.297 169.461 m f
443.297 155.617 m 464.703 155.617 l 467.078 155.617 469 157.539 469 159.91
 c 469 179.012 l 469 181.383 467.074 183.305 464.703 183.305 c 443.297 183.305
 l 440.926 183.305 439.004 181.383 439.004 179.012 c 439.004 159.91 l 439
 157.539 440.926 155.617 443.297 155.617 c h
443.297 155.617 m f
0.419608 0.866667 0.866667 rg
64 116.664 m 64 112.246 60.418 108.664 56 108.664 c 51.582 108.664 48 112.246
 48 116.664 c 48 121.086 51.582 124.664 56 124.664 c 60.418 124.664 64 121.086
 64 116.664 c h
64 116.664 m f
64 96.664 m 64 92.246 60.418 88.664 56 88.664 c 51.582 88.664 48 92.246
 48 96.664 c 48 101.086 51.582 104.664 56 104.664 c 60.418 104.664 64 101.086
 64 96.664 c h
64 96.664 m f
64 76.664 m 64 72.246 60.418 68.664 56 68.664 c 51.582 68.664 48 72.246
 48 76.664 c 48 81.086 51.582 84.664 56 84.664 c 60.418 84.664 64 81.086
 64 76.664 c h
64 76.664 m f
88 116.664 m 88 112.246 84.418 108.664 80 108.664 c 75.582 108.664 72 112.246
 72 116.664 c 72 121.086 75.582 124.664 80 124.664 c 84.418 124.664 88 121.086
 88 116.664 c h
88 116.664 m f
88 96.664 m 88 92.246 84.418 88.664 80 88.664 c 75.582 88.664 72 92.246
 72 96.664 c 72 101.086 75.582 104.664 80 104.664 c 84.418 104.664 88 101.086
 88 96.664 c h
88 96.664 m f
88 76.664 m 88 72.246 84.418 68.664 80 68.664 c 75.582 68.664 72 72.246
 72 76.664 c 72 81.086 75.582 84.664 80 84.664 c 84.418 84.664 88 81.086
 88 76.664 c h
88 76.664 m f
124 116.664 m 124 112.246 120.418 108.664 116 108.664 c 111.582 108.664
 108 112.246 108 116.664 c 108 121.086 111.582 124.664 116 124.664 c 120.418
 124.664 124 121.086 124 116.664 c h
124 116.664 m f
124 96.664 m 124 92.246 120.418 88.664 116 88.664 c 111.582 88.664 108 
92.246 108 96.664 c 108 101.086 111.582 104.664 116 104.664 c 120.418 104.664
 124 101.086 124 96.664 c h
124 96.664 m f
124 76.664 m 124 72.246 120.418 68.664 116 68.664 c 111.582 68.664 108 
72.246 108 76.664 c 108 81.086 111.582 84.664 116 84.664 c 120.418 84.664
 124 81.086 124 76.664 c h
124 76.664 m f
148 116.664 m 148 112.246 144.418 108.664 140 108.664 c 135.582 108.664
 132 112.246 132 116.664 c 132 121.086 135.582 124.664 140 124.664 c 144.418
 124.664 148 121.086 148 116.664 c h
148 116.664 m f
148 96.664 m 148 92.246 144.418 88.664 140 88.664 c 135.582 88.664 132 
92.246 132 96.664 c 132 101.086 135.582 104.664 140 104.664 c 144.418 104.664
 148 101.086 148 96.664 c h
148 96.664 m f
148 76.664 m 148 72.246 144.418 68.664 140 68.664 c 135.582 68.664 132 
72.246 132 76.664 c 132 81.086 135.582 84.664 140 84.664 c 144.418 84.664
 148 81.086 148 76.664 c h
148 76.664 m f
184 116.664 m 184 112.246 180.418 108.664 176 108.664 c 171.582 108.664
 168 112.246 168 116.664 c 168 121.086 171.582 124.664 176 124.664 c 180.418
 124.664 184 121.086 184 116.664 c h
184 116.664 m f
184 96.664 m 184 92.246 180.418 88.664 176 88.664 c 171.582 88.664 168 
92.246 168 96.664 c 168 101.086 171.582 104.664 176 104.664 c 180.418 104.664
 184 101.086 184 96.664 c h
184 96.664 m f
184 76.664 m 184 72.246 180.418 68.664 176 68.664 c 171.582 68.664 168 
72.246 168 76.664 c 168 81.086 171.582 84.664 176 84.664 c 180.418 84.664
 184 81.086 184 76.664 c h
184 76.664 m f
208 116.664 m 208 112.246 204.418 108.664 200 108.664 c 195.582 108.664
 192 112.246 192 116.664 c 192 121.086 195.582 124.664 200 124.664 c 204.418
 124.664 208 121.086 208 116.664 c h
208 116.664 m f
208 96.664 m 208 92.246 204.418 88.664 200 88.664 c 195.582 88.664 192 
92.246 192 96.664 c 192 101.086 195.582 104.664 200 104.664 c 204.418 104.664
 208 101.086 208 96.664 c h
208 96.664 m f
208 76.664 m 208 72.246 204.418 68.664 200 68.664 c 195.582 68.664 192 
72.246 192 76.664 c 192 81.086 195.582 84.664 200 84.664 c 204.418 84.664
 208 81.086 208 76.664 c h
208 76.664 m f
244 116.664 m 244 112.246 240.418 108.664 236 108.664 c 231.582 108.664
 228 112.246 228 116.664 c 228 121.086 231.582 124.664 236 124.664 c 240.418
 124.664 244 121.086 244 116.664 c h
244 116.664 m f
244 96.664 m 244 92.246 240.418 88.664 236 88.664 c 231.582 88.664 228 
92.246 228 96.664 c 228 101.086 231.582 104.664 236 104.664 c 240.418 104.664
 244 101.086 244 96.664 c h
244 96.664 m f
244 76.664 m 244 72.246 240.418 68.664 236 68.664 c 231.582 68.664 228 
72.246 228 76.664 c 228 81.086 231.582 84.664 236 84.664 c 240.418 84.664
 244 81.086 244 76.664 c h
244 76.664 m f
268 116.664 m 268 112.246 264.418 108.664 260 108.664 c 255.582 108.664
 252 112.246 252 116.664 c 252 121.086 255.582 124.664 260 124.664 c 264.418
 124.664 268 121.086 268 116.664 c h
268 116.664 m f
268 96.664 m 268 92.246 264.418 88.664 260 88.664 c 255.582 88.664 252 
92.246 252 96.664 c 252 101.086 255.582 104.664 260 104.664 c 264.418 104.664
 268 101.086 268 96.664 c h
268 96.664 m f
268 76.664 m 268 72.246 264.418 68.664 260 68.664 c 255.582 68.664 252 
72.246 252 76.664 c 252 81.086 255.582 84.664 260 84.664 c 264.418 84.664
 268 81.086 268 76.664 c h
268 76.664 m f
304 116.664 m 304 112.246 300.418 108.664 296 108.664 c 291.582 108.664
 288 112.246 288 116.664 c 288 121.086 291.582 124.664 296 124.664 c 300.418
 124.664 304 121.086 304 116.664 c h
304 116.664 m f
304 96.664 m 304 92.246 300.418 88.664 296 88.664 c 291.582 88.664 288 
92.246 288 96.664 c 288 101.086 291.582 104.664 296 104.664 c 300.418 104.664
 304 101.086 304 96.664 c h
304 96.664 m f
304 76.664 m 304 72.246 300.418 68.664 296 68.664 c 291.582 68.664 288 
72.246 288 76.664 c 288 81.086 291.582 84.664 296 84.664 c 300.418 84.664
 304 81.086 304 76.664 c h
304 76.664 m f
328 116.664 m 328 112.246 324.418 108.664 320 108.664 c 315.582 108.664
 312 112.246 312 116.664 c 312 121.086 315.582 124.664 320 124.664 c 324.418
 124.664 328 121.086 328 116.664 c h
328 116.664 m f
328 96.664 m 328 92.246 324.418 88.664 320 88.664 c 315.582 88.664 312 
92.246 312 96.664 c 312 101.086 315.582 104.664 320 104.664 c 324.418 104.664
 328 101.086 328 96.664 c h
328 96.664 m f
328 76.664 m 328 72.246 324.418 68.664 320 68.664 c 315.582 68.664 312 
72.246 312 76.664 c 312 81.086 315.582 84.664 320 84.664 c 324.418 84.664
 328 81.086 328 76.664 c h
328 76.664 m f
364 116.664 m 364 112.246 360.418 108.664 356 108.664 c 351.582 108.664
 348 112.246 348 116.664 c 348 121.086 351.582 124.664 356 124.664 c 360.418
 124.664 364 121.086 364 116.664 c h
364 116.664 m f
364 96.664 m 364 92.246 360.418 88.664 356 88.664 c 351.582 88.664 348 
92.246 348 96.664 c 348 101.086 351.582 104.664 356 104.664 c 360.418 104.664
 364 101.086 364 96.664 c h
364 96.664 m f
364 76.664 m 364 72.246 360.418 68.664 356 68.664 c 351.582 68.664 348 
72.246 348 76.664 c 348 81.086 351.582 84.664 356 84.664 c 360.418 84.664
 364 81.086 364 76.664 c h
364 76.664 m f
388 116.664 m 388 112.246 384.418 108.664 380 108.664 c 375.582 108.664
 372 112.246 372 116.664 c 372 121.086 375.582 124.664 380 124.664 c 384.418
 124.664 388 121.086 388 116.664 c h
388 116.664 m f
388 96.664 m 388 92.246 384.418 88.664 380 88.664 c 375.582 88.664 372 
92.246 372 96.664 c 372 101.086 375.582 104.664 380 104.664 c 384.418 104.664
 388 101.086 388 96.664 c h
388 96.664 m f
388 76.664 m 388 72.246 384.418 68.664 380 68.664 c 375.582 68.664 372 
72.246 372 76.664 c 372 81.086 375.582 84.664 380 84.664 c 384.418 84.664
 388 81.086 388 76.664 c h
388 76.664 m f
424 116.664 m 424 112.246 420.418 108.664 416 108.664 c 411.582 108.664
 408 112.246 408 116.664 c 408 121.086 411.582 124.664 416 124.664 c 420.418
 124.664 424 121.086 424 116.664 c h
424 116.664 m f
424 96.664 m 424 92.246 420.418 88.664 416 88.664 c 411.582 88.664 408 
92.246 408 96.664 c 408 101.086 411.582 104.664 416 104.664 c 420.418 104.664
 424 101.086 424 96.664 c h
424 96.664 m f
424 76.664 m 424 72.246 420.418 68.664 416 68.664 c 411.582 68.664 408 
72.246 408 76.664 c 408 81.086 411.582 84.664 416 84.664 c 420.418 84.664
 424 81.086 424 76.664 c h
424 76.664 m f
448 116.664 m 448 112.246 444.418 108.664 440 108.664 c 435.582 108.664
 432 112.246 432 116.664 c 432 121.086 435.582 124.664 440 124.664 c 444.418
 124.664 448 121.086 448 116.664 c h
448 116.664 m f
448 96.664 m 448 92.246 444.418 88.664 440 88.664 c 435.582 88.664 432 
92.246 432 96.664 c 432 101.086 435.582 104.664 440 104.664 c 444.418 104.664
 448 101.086 448 96.664 c h
448 96.664 m f
448 76.664 m 448 72.246 444.418 68.664 440 68.664 c 435.582 68.664 432 
72.246 432 76.664 c 432 81.086 435.582 84.664 440 84.664 c 444.418 84.664
 448 81.086 448 76.664 c h
448 76.664 m f
0.643137 0.788235 1 rg
66 225.336 m 38 225.336 l 38 243.336 l 38 246.648 40.688 249.336 44 249.336
 c 60 249.336 l 63.312 249.336 66 246.648 66 243.336 c h
66 225.336 m f
156 312 m 156 284 l 138 284 l 134.688 284 132 286.688 132 290 c 132 306
 l 132 309.312 134.688 312 138 312 c h
156 312 m f
0.976471 0.811765 0.811765 rg
124.664 306 m 122.461 306 120.664 307.793 120.664 310 c 120.664 468 l 120.664
 481.234 109.898 492 96.664 492 c 68 492 l 54.766 492 44 481.234 44 468 
c 44 249.336 l 60 249.336 l 60 468 l 60 472.41 63.59 476 68 476 c 96.664
 476 l 101.078 476 104.664 472.41 104.664 468 c 104.664 310 l 104.664 298.973
 113.637 290 124.664 290 c 132 290 l 132 306 l h
124.664 306 m f
0.215686 0.384314 0.8 rg
470 0 m 26 0 l 13.871 0 4 9.871 4 22 c 4 207.336 l 4 219.465 13.871 229.336
 26 229.336 c 470 229.336 l 482.129 229.336 492 219.465 492 207.336 c 492
 22 l 492 9.871 482.129 0 470 0 c h
26 221.336 m 18.281 221.336 12 215.051 12 207.336 c 12 22 l 12 14.281 18.281
 8 26 8 c 470 8 l 477.719 8 484 14.281 484 22 c 484 207.336 l 484 215.051
 477.719 221.336 470 221.336 c h
26 221.336 m f
66 221.336 m 38 221.336 l 35.793 221.336 34 223.125 34 225.336 c 34 243.336
 l 34 248.848 38.484 253.336 44 253.336 c 60 253.336 l 65.516 253.336 70
 248.848 70 243.336 c 70 225.336 l 70 223.125 68.207 221.336 66 221.336 
c h
42 229.336 m 62 229.336 l 62 243.336 l 62 244.438 61.102 245.336 60 245.336
 c 44 245.336 l 42.898 245.336 42 244.438 42 243.336 c h
42 229.336 m f
156 280 m 138 280 l 132.484 280 128 284.484 128 290 c 128 306 l 128 311.516
 132.484 316 138 316 c 156 316 l 158.207 316 160 314.207 160 312 c 160 284
 l 160 281.793 158.207 280 156 280 c h
138 308 m 136.898 308 136 307.105 136 306 c 136 290 l 136 288.895 136.898
 288 138 288 c 152 288 l 152 308 l h
138 308 m f
60 245.332 m 44 245.332 l 41.793 245.332 40 247.125 40 249.332 c 40 468
 l 40 483.441 52.559 496 68 496 c 96.664 496 l 112.105 496 124.664 483.441
 124.664 468 c 124.664 310 l 132 310 l 134.207 310 136 308.207 136 306 c
 136 290 l 136 287.793 134.207 286 132 286 c 124.664 286 l 111.434 286 100.664
 296.766 100.664 310 c 100.664 468 l 100.664 470.207 98.871 472 96.664 472
 c 68 472 l 65.793 472 64 470.207 64 468 c 64 249.332 l 64 247.125 62.207
 245.332 60 245.332 c h
48 253.332 m 56 253.332 l 56 468 l 56 474.617 61.383 480 68 480 c 96.664
 480 l 103.285 480 108.664 474.617 108.664 468 c 108.664 310 l 108.664 301.18
 115.844 294 124.664 294 c 128 294 l 128 302 l 124.664 302 l 120.254 302
 116.664 305.59 116.664 310 c 116.664 468 l 116.664 479.027 107.695 488 
96.664 488 c 68 488 l 56.973 488 48 479.027 48 468 c h
48 253.332 m f
472 256 m 172 256 l 160.973 256 152 264.973 152 276 c 152 468 l 152 479.027
 160.973 488 172 488 c 472 488 l 483.027 488 492 479.027 492 468 c 492 276
 l 492 264.973 483.027 256 472 256 c h
172 480 m 165.383 480 160 474.617 160 468 c 160 276 l 160 269.383 165.383
 264 172 264 c 472 264 l 478.617 264 484 269.383 484 276 c 484 468 l 484
 474.617 478.617 480 472 480 c h
172 480 m f
456 280 m 188 280 l 181.383 280 176 285.383 176 292 c 176 452 l 176 458.617
 181.383 464 188 464 c 456 464 l 462.617 464 468 458.617 468 452 c 468 292
 l 468 285.383 462.617 280 456 280 c h
188 456 m 185.793 456 184 454.207 184 452 c 184 292 l 184 289.793 185.793
 288 188 288 c 456 288 l 458.207 288 460 289.793 460 292 c 460 452 l 460
 454.207 458.207 456 456 456 c h
188 456 m f
Q Q
showpage
%%Trailer
end restore
%%EOF
