%!PS-Adobe-3.0 EPSF-3.0
%%Creator: cairo 1.14.8 (http://cairographics.org)
%%CreationDate: Wed Mar 20 09:06:38 2019
%%Pages: 1
%%DocumentData: Clean7Bit
%%LanguageLevel: 2
%%BoundingBox: 0 21 488 467
%%EndComments
%%BeginProlog
save
50 dict begin
/q { gsave } bind def
/Q { grestore } bind def
/cm { 6 array astore concat } bind def
/w { setlinewidth } bind def
/J { setlinecap } bind def
/j { setlinejoin } bind def
/M { setmiterlimit } bind def
/d { setdash } bind def
/m { moveto } bind def
/l { lineto } bind def
/c { curveto } bind def
/h { closepath } bind def
/re { exch dup neg 3 1 roll 5 3 roll moveto 0 rlineto
      0 exch rlineto 0 rlineto closepath } bind def
/S { stroke } bind def
/f { fill } bind def
/f* { eofill } bind def
/n { newpath } bind def
/W { clip } bind def
/W* { eoclip } bind def
/BT { } bind def
/ET { } bind def
/pdfmark where { pop globaldict /?pdfmark /exec load put }
    { globaldict begin /?pdfmark /pop load def /pdfmark
    /cleartomark load def end } ifelse
/BDC { mark 3 1 roll /BDC pdfmark } bind def
/EMC { mark /EMC pdfmark } bind def
/cairo_store_point { /cairo_point_y exch def /cairo_point_x exch def } def
/Tj { show currentpoint cairo_store_point } bind def
/TJ {
  {
    dup
    type /stringtype eq
    { show } { -0.001 mul 0 cairo_font_matrix dtransform rmoveto } ifelse
  } forall
  currentpoint cairo_store_point
} bind def
/cairo_selectfont { cairo_font_matrix aload pop pop pop 0 0 6 array astore
    cairo_font exch selectfont cairo_point_x cairo_point_y moveto } bind def
/Tf { pop /cairo_font exch def /cairo_font_matrix where
      { pop cairo_selectfont } if } bind def
/Td { matrix translate cairo_font_matrix matrix concatmatrix dup
      /cairo_font_matrix exch def dup 4 get exch 5 get cairo_store_point
      /cairo_font where { pop cairo_selectfont } if } bind def
/Tm { 2 copy 8 2 roll 6 array astore /cairo_font_matrix exch def
      cairo_store_point /cairo_font where { pop cairo_selectfont } if } bind def
/g { setgray } bind def
/rg { setrgbcolor } bind def
/d1 { setcachedevice } bind def
%%EndProlog
%%BeginSetup
%%EndSetup
%%Page: 1 1
%%BeginPageSetup
%%PageBoundingBox: 0 21 488 467
%%EndPageSetup
q 0 21 488 446 rectclip q
0.976471 0.654902 0.654902 rg
231.746 151 m 15.988 151 l 9.367 151 4 156.367 4 162.988 c 4 434.84 l 4
 441.461 9.367 446.828 15.988 446.828 c 243.738 446.828 l 243.738 162.988
 l 243.738 156.367 238.371 151 231.746 151 c h
231.746 151 m f
256.254 151 m 472.012 151 l 478.633 151 484 156.367 484 162.988 c 484 434.84
 l 484 441.461 478.633 446.828 472.012 446.828 c 244.262 446.828 l 244.262
 162.988 l 244.262 156.367 249.629 151 256.254 151 c h
256.254 151 m f
0.215686 0.384314 0.8 rg
231.746 147 m 15.988 147 l 7.176 147 0 154.172 0 162.988 c 0 434.84 l 0
 443.656 7.176 450.828 15.988 450.828 c 243.734 450.828 l 245.945 450.828
 247.734 449.039 247.734 446.828 c 247.734 162.988 l 247.734 154.172 240.562
 147 231.746 147 c h
15.988 442.828 m 11.586 442.828 8 439.246 8 434.84 c 8 162.988 l 8 158.586
 11.586 155 15.988 155 c 231.746 155 l 236.152 155 239.734 158.586 239.734
 162.988 c 239.734 442.828 l h
15.988 442.828 m f
472.012 147 m 256.254 147 l 247.438 147 240.266 154.172 240.266 162.988
 c 240.266 446.828 l 240.266 449.039 242.055 450.828 244.266 450.828 c 472.012
 450.828 l 480.824 450.828 488 443.656 488 434.84 c 488 162.988 l 488 154.172
 480.824 147 472.012 147 c h
248.266 442.828 m 248.266 162.988 l 248.266 158.586 251.848 155 256.254
 155 c 472.012 155 l 476.414 155 480 158.586 480 162.988 c 480 434.84 l 
480 439.246 476.414 442.828 472.012 442.828 c h
248.266 442.828 m f
0.878431 0.921569 0.988235 rg
220.262 171.168 m 29.555 171.168 l 27.348 171.168 25.555 172.957 25.555
 175.168 c 25.555 459 l 25.555 461.211 27.348 463 29.555 463 c 220.266 463
 l 233.52 463 244.266 452.254 244.266 439 c 244.266 195.168 l 244.262 181.914
 233.52 171.168 220.262 171.168 c h
220.262 171.168 m f
458.445 171.168 m 267.734 171.168 l 254.48 171.168 243.734 181.914 243.734
 195.168 c 243.734 439 l 243.734 452.254 254.48 463 267.734 463 c 458.445
 463 l 460.652 463 462.445 461.211 462.445 459 c 462.445 175.168 l 462.445
 172.957 460.652 171.168 458.445 171.168 c h
458.445 171.168 m f
0.27451 0.443137 0.776471 rg
66.727 413.016 m 50.727 413.016 l 49.621 413.016 48.727 413.91 48.727 415.016
 c 48.727 431.016 l 48.727 432.121 49.621 433.016 50.727 433.016 c 66.727
 433.016 l 67.828 433.016 68.727 432.121 68.727 431.016 c 68.727 415.016
 l 68.727 413.91 67.828 413.016 66.727 413.016 c h
66.727 413.016 m f
114.727 413.016 m 98.727 413.016 l 97.621 413.016 96.727 413.91 96.727 
415.016 c 96.727 431.016 l 96.727 432.121 97.621 433.016 98.727 433.016 
c 114.727 433.016 l 115.828 433.016 116.727 432.121 116.727 431.016 c 116.727
 415.016 l 116.727 413.91 115.828 413.016 114.727 413.016 c h
114.727 413.016 m f
150.727 413.016 m 134.727 413.016 l 133.621 413.016 132.727 413.91 132.727
 415.016 c 132.727 431.016 l 132.727 432.121 133.621 433.016 134.727 433.016
 c 150.727 433.016 l 151.828 433.016 152.727 432.121 152.727 431.016 c 152.727
 415.016 l 152.727 413.91 151.828 413.016 150.727 413.016 c h
150.727 413.016 m f
206.727 413.016 m 190.727 413.016 l 189.621 413.016 188.727 413.91 188.727
 415.016 c 188.727 431.016 l 188.727 432.121 189.621 433.016 190.727 433.016
 c 206.727 433.016 l 207.828 433.016 208.727 432.121 208.727 431.016 c 208.727
 415.016 l 208.727 413.91 207.828 413.016 206.727 413.016 c h
206.727 413.016 m f
206.727 373.016 m 190.727 373.016 l 189.621 373.016 188.727 373.91 188.727
 375.016 c 188.727 391.016 l 188.727 392.121 189.621 393.016 190.727 393.016
 c 206.727 393.016 l 207.828 393.016 208.727 392.121 208.727 391.016 c 208.727
 375.016 l 208.727 373.91 207.828 373.016 206.727 373.016 c h
206.727 373.016 m f
166.727 373.016 m 150.727 373.016 l 149.621 373.016 148.727 373.91 148.727
 375.016 c 148.727 391.016 l 148.727 392.121 149.621 393.016 150.727 393.016
 c 166.727 393.016 l 167.828 393.016 168.727 392.121 168.727 391.016 c 168.727
 375.016 l 168.727 373.91 167.828 373.016 166.727 373.016 c h
166.727 373.016 m f
166.727 333.016 m 150.727 333.016 l 149.621 333.016 148.727 333.91 148.727
 335.016 c 148.727 351.016 l 148.727 352.121 149.621 353.016 150.727 353.016
 c 166.727 353.016 l 167.828 353.016 168.727 352.121 168.727 351.016 c 168.727
 335.016 l 168.727 333.91 167.828 333.016 166.727 333.016 c h
166.727 333.016 m f
126.727 333.016 m 110.727 333.016 l 109.621 333.016 108.727 333.91 108.727
 335.016 c 108.727 351.016 l 108.727 352.121 109.621 353.016 110.727 353.016
 c 126.727 353.016 l 127.828 353.016 128.727 352.121 128.727 351.016 c 128.727
 335.016 l 128.727 333.91 127.828 333.016 126.727 333.016 c h
126.727 333.016 m f
206.727 333.016 m 190.727 333.016 l 189.621 333.016 188.727 333.91 188.727
 335.016 c 188.727 351.016 l 188.727 352.121 189.621 353.016 190.727 353.016
 c 206.727 353.016 l 207.828 353.016 208.727 352.121 208.727 351.016 c 208.727
 335.016 l 208.727 333.91 207.828 333.016 206.727 333.016 c h
206.727 333.016 m f
66.727 293.016 m 50.727 293.016 l 49.621 293.016 48.727 293.91 48.727 295.016
 c 48.727 311.016 l 48.727 312.121 49.621 313.016 50.727 313.016 c 66.727
 313.016 l 67.828 313.016 68.727 312.121 68.727 311.016 c 68.727 295.016
 l 68.727 293.91 67.828 293.016 66.727 293.016 c h
66.727 293.016 m f
146.727 293.016 m 130.727 293.016 l 129.621 293.016 128.727 293.91 128.727
 295.016 c 128.727 311.016 l 128.727 312.121 129.621 313.016 130.727 313.016
 c 146.727 313.016 l 147.828 313.016 148.727 312.121 148.727 311.016 c 148.727
 295.016 l 148.727 293.91 147.828 293.016 146.727 293.016 c h
146.727 293.016 m f
186.727 293.016 m 170.727 293.016 l 169.621 293.016 168.727 293.91 168.727
 295.016 c 168.727 311.016 l 168.727 312.121 169.621 313.016 170.727 313.016
 c 186.727 313.016 l 187.828 313.016 188.727 312.121 188.727 311.016 c 188.727
 295.016 l 188.727 293.91 187.828 293.016 186.727 293.016 c h
186.727 293.016 m f
166.727 253.016 m 150.727 253.016 l 149.621 253.016 148.727 253.91 148.727
 255.016 c 148.727 271.016 l 148.727 272.121 149.621 273.016 150.727 273.016
 c 166.727 273.016 l 167.828 273.016 168.727 272.121 168.727 271.016 c 168.727
 255.016 l 168.727 253.91 167.828 253.016 166.727 253.016 c h
166.727 253.016 m f
206.727 253.016 m 190.727 253.016 l 189.621 253.016 188.727 253.91 188.727
 255.016 c 188.727 271.016 l 188.727 272.121 189.621 273.016 190.727 273.016
 c 206.727 273.016 l 207.828 273.016 208.727 272.121 208.727 271.016 c 208.727
 255.016 l 208.727 253.91 207.828 253.016 206.727 253.016 c h
206.727 253.016 m f
66.727 253.016 m 50.727 253.016 l 49.621 253.016 48.727 253.91 48.727 255.016
 c 48.727 271.016 l 48.727 272.121 49.621 273.016 50.727 273.016 c 66.727
 273.016 l 67.828 273.016 68.727 272.121 68.727 271.016 c 68.727 255.016
 l 68.727 253.91 67.828 253.016 66.727 253.016 c h
66.727 253.016 m f
106.727 253.016 m 90.727 253.016 l 89.621 253.016 88.727 253.91 88.727 
255.016 c 88.727 271.016 l 88.727 272.121 89.621 273.016 90.727 273.016 
c 106.727 273.016 l 107.828 273.016 108.727 272.121 108.727 271.016 c 108.727
 255.016 l 108.727 253.91 107.828 253.016 106.727 253.016 c h
106.727 253.016 m f
66.727 213.016 m 50.727 213.016 l 49.621 213.016 48.727 213.91 48.727 215.016
 c 48.727 231.016 l 48.727 232.121 49.621 233.016 50.727 233.016 c 66.727
 233.016 l 67.828 233.016 68.727 232.121 68.727 231.016 c 68.727 215.016
 l 68.727 213.91 67.828 213.016 66.727 213.016 c h
66.727 213.016 m f
106.727 213.016 m 90.727 213.016 l 89.621 213.016 88.727 213.91 88.727 
215.016 c 88.727 231.016 l 88.727 232.121 89.621 233.016 90.727 233.016 
c 106.727 233.016 l 107.828 233.016 108.727 232.121 108.727 231.016 c 108.727
 215.016 l 108.727 213.91 107.828 213.016 106.727 213.016 c h
106.727 213.016 m f
146.727 213.016 m 130.727 213.016 l 129.621 213.016 128.727 213.91 128.727
 215.016 c 128.727 231.016 l 128.727 232.121 129.621 233.016 130.727 233.016
 c 146.727 233.016 l 147.828 233.016 148.727 232.121 148.727 231.016 c 148.727
 215.016 l 148.727 213.91 147.828 213.016 146.727 213.016 c h
146.727 213.016 m f
186.727 213.016 m 170.727 213.016 l 169.621 213.016 168.727 213.91 168.727
 215.016 c 168.727 231.016 l 168.727 232.121 169.621 233.016 170.727 233.016
 c 186.727 233.016 l 187.828 233.016 188.727 232.121 188.727 231.016 c 188.727
 215.016 l 188.727 213.91 187.828 213.016 186.727 213.016 c h
186.727 213.016 m f
422.727 231.086 m 438.727 231.086 l 439.828 231.086 440.727 230.188 440.727
 229.086 c 440.727 213.086 l 440.727 211.98 439.828 211.086 438.727 211.086
 c 422.727 211.086 l 421.621 211.086 420.727 211.98 420.727 213.086 c 420.727
 229.086 l 420.727 230.188 421.621 231.086 422.727 231.086 c h
422.727 231.086 m f
374.727 231.086 m 390.727 231.086 l 391.828 231.086 392.727 230.188 392.727
 229.086 c 392.727 213.086 l 392.727 211.98 391.828 211.086 390.727 211.086
 c 374.727 211.086 l 373.621 211.086 372.727 211.98 372.727 213.086 c 372.727
 229.086 l 372.727 230.188 373.621 231.086 374.727 231.086 c h
374.727 231.086 m f
338.727 231.086 m 354.727 231.086 l 355.828 231.086 356.727 230.188 356.727
 229.086 c 356.727 213.086 l 356.727 211.98 355.828 211.086 354.727 211.086
 c 338.727 211.086 l 337.621 211.086 336.727 211.98 336.727 213.086 c 336.727
 229.086 l 336.727 230.188 337.621 231.086 338.727 231.086 c h
338.727 231.086 m f
282.727 231.086 m 298.727 231.086 l 299.828 231.086 300.727 230.188 300.727
 229.086 c 300.727 213.086 l 300.727 211.98 299.828 211.086 298.727 211.086
 c 282.727 211.086 l 281.621 211.086 280.727 211.98 280.727 213.086 c 280.727
 229.086 l 280.727 230.188 281.621 231.086 282.727 231.086 c h
282.727 231.086 m f
282.727 271.086 m 298.727 271.086 l 299.828 271.086 300.727 270.188 300.727
 269.086 c 300.727 253.086 l 300.727 251.98 299.828 251.086 298.727 251.086
 c 282.727 251.086 l 281.621 251.086 280.727 251.98 280.727 253.086 c 280.727
 269.086 l 280.727 270.188 281.621 271.086 282.727 271.086 c h
282.727 271.086 m f
322.727 271.086 m 338.727 271.086 l 339.828 271.086 340.727 270.188 340.727
 269.086 c 340.727 253.086 l 340.727 251.98 339.828 251.086 338.727 251.086
 c 322.727 251.086 l 321.621 251.086 320.727 251.98 320.727 253.086 c 320.727
 269.086 l 320.727 270.188 321.621 271.086 322.727 271.086 c h
322.727 271.086 m f
322.727 311.086 m 338.727 311.086 l 339.828 311.086 340.727 310.188 340.727
 309.086 c 340.727 293.086 l 340.727 291.98 339.828 291.086 338.727 291.086
 c 322.727 291.086 l 321.621 291.086 320.727 291.98 320.727 293.086 c 320.727
 309.086 l 320.727 310.188 321.621 311.086 322.727 311.086 c h
322.727 311.086 m f
362.727 311.086 m 378.727 311.086 l 379.828 311.086 380.727 310.188 380.727
 309.086 c 380.727 293.086 l 380.727 291.98 379.828 291.086 378.727 291.086
 c 362.727 291.086 l 361.621 291.086 360.727 291.98 360.727 293.086 c 360.727
 309.086 l 360.727 310.188 361.621 311.086 362.727 311.086 c h
362.727 311.086 m f
282.727 311.086 m 298.727 311.086 l 299.828 311.086 300.727 310.188 300.727
 309.086 c 300.727 293.086 l 300.727 291.98 299.828 291.086 298.727 291.086
 c 282.727 291.086 l 281.621 291.086 280.727 291.98 280.727 293.086 c 280.727
 309.086 l 280.727 310.188 281.621 311.086 282.727 311.086 c h
282.727 311.086 m f
422.727 351.086 m 438.727 351.086 l 439.828 351.086 440.727 350.188 440.727
 349.086 c 440.727 333.086 l 440.727 331.98 439.828 331.086 438.727 331.086
 c 422.727 331.086 l 421.621 331.086 420.727 331.98 420.727 333.086 c 420.727
 349.086 l 420.727 350.188 421.621 351.086 422.727 351.086 c h
422.727 351.086 m f
342.727 351.086 m 358.727 351.086 l 359.828 351.086 360.727 350.188 360.727
 349.086 c 360.727 333.086 l 360.727 331.98 359.828 331.086 358.727 331.086
 c 342.727 331.086 l 341.621 331.086 340.727 331.98 340.727 333.086 c 340.727
 349.086 l 340.727 350.188 341.621 351.086 342.727 351.086 c h
342.727 351.086 m f
302.727 351.086 m 318.727 351.086 l 319.828 351.086 320.727 350.188 320.727
 349.086 c 320.727 333.086 l 320.727 331.98 319.828 331.086 318.727 331.086
 c 302.727 331.086 l 301.621 331.086 300.727 331.98 300.727 333.086 c 300.727
 349.086 l 300.727 350.188 301.621 351.086 302.727 351.086 c h
302.727 351.086 m f
322.727 391.086 m 338.727 391.086 l 339.828 391.086 340.727 390.188 340.727
 389.086 c 340.727 373.086 l 340.727 371.98 339.828 371.086 338.727 371.086
 c 322.727 371.086 l 321.621 371.086 320.727 371.98 320.727 373.086 c 320.727
 389.086 l 320.727 390.188 321.621 391.086 322.727 391.086 c h
322.727 391.086 m f
282.727 391.086 m 298.727 391.086 l 299.828 391.086 300.727 390.188 300.727
 389.086 c 300.727 373.086 l 300.727 371.98 299.828 371.086 298.727 371.086
 c 282.727 371.086 l 281.621 371.086 280.727 371.98 280.727 373.086 c 280.727
 389.086 l 280.727 390.188 281.621 391.086 282.727 391.086 c h
282.727 391.086 m f
422.727 391.086 m 438.727 391.086 l 439.828 391.086 440.727 390.188 440.727
 389.086 c 440.727 373.086 l 440.727 371.98 439.828 371.086 438.727 371.086
 c 422.727 371.086 l 421.621 371.086 420.727 371.98 420.727 373.086 c 420.727
 389.086 l 420.727 390.188 421.621 391.086 422.727 391.086 c h
422.727 391.086 m f
382.727 391.086 m 398.727 391.086 l 399.828 391.086 400.727 390.188 400.727
 389.086 c 400.727 373.086 l 400.727 371.98 399.828 371.086 398.727 371.086
 c 382.727 371.086 l 381.621 371.086 380.727 371.98 380.727 373.086 c 380.727
 389.086 l 380.727 390.188 381.621 391.086 382.727 391.086 c h
382.727 391.086 m f
422.727 431.086 m 438.727 431.086 l 439.828 431.086 440.727 430.188 440.727
 429.086 c 440.727 413.086 l 440.727 411.98 439.828 411.086 438.727 411.086
 c 422.727 411.086 l 421.621 411.086 420.727 411.98 420.727 413.086 c 420.727
 429.086 l 420.727 430.188 421.621 431.086 422.727 431.086 c h
422.727 431.086 m f
382.727 431.086 m 398.727 431.086 l 399.828 431.086 400.727 430.188 400.727
 429.086 c 400.727 413.086 l 400.727 411.98 399.828 411.086 398.727 411.086
 c 382.727 411.086 l 381.621 411.086 380.727 411.98 380.727 413.086 c 380.727
 429.086 l 380.727 430.188 381.621 431.086 382.727 431.086 c h
382.727 431.086 m f
342.727 431.086 m 358.727 431.086 l 359.828 431.086 360.727 430.188 360.727
 429.086 c 360.727 413.086 l 360.727 411.98 359.828 411.086 358.727 411.086
 c 342.727 411.086 l 341.621 411.086 340.727 411.98 340.727 413.086 c 340.727
 429.086 l 340.727 430.188 341.621 431.086 342.727 431.086 c h
342.727 431.086 m f
302.727 431.086 m 318.727 431.086 l 319.828 431.086 320.727 430.188 320.727
 429.086 c 320.727 413.086 l 320.727 411.98 319.828 411.086 318.727 411.086
 c 302.727 411.086 l 301.621 411.086 300.727 411.98 300.727 413.086 c 300.727
 429.086 l 300.727 430.188 301.621 431.086 302.727 431.086 c h
302.727 431.086 m f
0.215686 0.384314 0.8 rg
220.266 167.168 m 29.555 167.168 l 25.141 167.168 21.555 170.758 21.555
 175.168 c 21.555 459 l 21.555 463.41 25.141 467 29.555 467 c 220.262 467
 l 235.703 467 248.262 454.441 248.262 439 c 248.262 195.168 l 248.266 179.727
 235.703 167.168 220.266 167.168 c h
29.555 459 m 29.555 175.168 l 220.262 175.168 l 231.289 175.168 240.262
 184.141 240.262 195.168 c 240.262 439 l 240.262 450.027 231.289 459 220.262
 459 c h
29.555 459 m f
458.445 167.168 m 267.738 167.168 l 252.297 167.168 239.738 179.727 239.738
 195.168 c 239.738 439 l 239.738 454.441 252.297 467 267.738 467 c 458.445
 467 l 462.859 467 466.445 463.41 466.445 459 c 466.445 175.168 l 466.445
 170.758 462.859 167.168 458.445 167.168 c h
267.734 459 m 256.707 459 247.734 450.027 247.734 439 c 247.734 195.168
 l 247.734 184.141 256.707 175.168 267.734 175.168 c 458.449 175.168 l 458.445
 459 l h
267.734 459 m f
0.976471 0.811765 0.811765 rg
326.746 251.652 m 311.07 251.652 l 304.328 251.652 298.867 246.188 298.867
 239.449 c 298.867 246.188 293.402 251.652 286.66 251.652 c 270.984 251.652
 l 264.246 251.652 258.781 246.188 258.781 239.449 c 258.781 246.188 253.316
 251.652 246.578 251.652 c 230.902 251.652 l 224.16 251.652 218.699 246.188
 218.699 239.449 c 218.699 336.57 l 218.699 347.457 209.871 356.285 198.984
 356.285 c 198.324 356.285 l 187.438 356.285 178.613 347.457 178.613 336.57
 c 178.613 120.805 l 178.613 90.012 203.578 65.043 234.375 65.043 c 283.191
 65.043 l 313.988 65.043 338.953 90.012 338.953 120.805 c 338.953 239.445
 l 338.949 246.188 333.484 251.652 326.746 251.652 c h
326.746 251.652 m f
326.746 251.652 m 311.07 251.652 l 304.328 251.652 298.867 246.188 298.867
 239.449 c 298.867 246.188 293.402 251.652 286.66 251.652 c 270.984 251.652
 l 264.246 251.652 258.781 246.188 258.781 239.449 c 258.781 246.188 253.316
 251.652 246.578 251.652 c 230.902 251.652 l 224.16 251.652 218.699 246.188
 218.699 239.449 c 218.699 336.57 l 218.699 347.457 209.871 356.285 198.984
 356.285 c 198.324 356.285 l 187.438 356.285 178.613 347.457 178.613 336.57
 c 178.613 120.805 l 178.613 90.012 203.578 65.043 234.375 65.043 c 283.191
 65.043 l 313.988 65.043 338.953 90.012 338.953 120.805 c 338.953 239.445
 l 338.949 246.188 333.484 251.652 326.746 251.652 c h
326.746 251.652 m f
283.188 65.043 m 234.371 65.043 l 223.453 65.043 213.277 68.195 204.68 
73.617 c 204.68 25.883 l 312.883 25.883 l 312.883 73.617 l 304.281 68.195
 294.105 65.043 283.188 65.043 c h
283.188 65.043 m f
178.609 120.805 m 178.609 211.895 l 158.898 184.535 l 157.371 182.414 156.551
 179.879 156.551 177.281 c 156.551 142.324 l 156.551 139.871 157.281 137.473
 158.652 135.426 c 182.988 99.109 l 180.168 105.777 178.609 113.109 178.609
 120.805 c h
178.609 120.805 m f
0.215686 0.384314 0.8 rg
283.188 61.043 m 234.371 61.043 l 201.418 61.043 174.609 87.852 174.609
 120.805 c 174.609 336.57 l 174.609 349.645 185.246 360.281 198.32 360.281
 c 198.98 360.281 l 212.055 360.281 222.695 349.645 222.695 336.57 c 222.695
 253.414 l 225.102 254.836 227.906 255.648 230.898 255.648 c 246.574 255.648
 l 251.438 255.648 255.805 253.496 258.781 250.094 c 261.754 253.496 266.121
 255.648 270.984 255.648 c 286.66 255.648 l 291.527 255.648 295.895 253.496
 298.867 250.094 c 301.84 253.496 306.211 255.648 311.074 255.648 c 326.75
 255.648 l 335.684 255.648 342.953 248.379 342.953 239.445 c 342.953 120.805
 l 342.949 87.852 316.141 61.043 283.188 61.043 c h
198.32 352.285 m 189.656 352.285 182.609 345.234 182.609 336.57 c 182.609
 120.805 l 182.609 92.266 205.828 69.043 234.371 69.043 c 283.188 69.043
 l 311.73 69.043 334.949 92.266 334.949 120.805 c 334.949 239.449 l 334.949
 243.973 331.27 247.652 326.746 247.652 c 311.07 247.652 l 306.547 247.652
 302.863 243.973 302.863 239.449 c 302.863 237.238 301.07 235.449 298.863
 235.449 c 296.656 235.449 294.863 237.238 294.863 239.449 c 294.863 243.973
 291.184 247.652 286.656 247.652 c 270.98 247.652 l 266.457 247.652 262.777
 243.973 262.777 239.449 c 262.777 237.238 260.984 235.449 258.777 235.449
 c 256.566 235.449 254.777 237.238 254.777 239.449 c 254.777 243.973 251.098
 247.652 246.57 247.652 c 230.895 247.652 l 226.371 247.652 222.691 243.973
 222.691 239.449 c 222.691 237.238 220.898 235.449 218.691 235.449 c 216.48
 235.449 214.691 237.238 214.691 239.449 c 214.691 336.57 l 214.691 345.234
 207.641 352.281 198.977 352.281 c 198.32 352.281 l h
198.32 352.285 m f
312.879 21.883 m 204.676 21.883 l 202.469 21.883 200.676 23.676 200.676
 25.883 c 200.676 73.617 l 200.676 75.074 201.469 76.414 202.742 77.117 
c 204.02 77.824 205.574 77.777 206.809 77 c 215.062 71.793 224.594 69.043
 234.367 69.043 c 283.184 69.043 l 292.961 69.043 302.488 71.793 310.742
 77 c 311.977 77.777 313.535 77.824 314.809 77.117 c 316.086 76.414 316.875
 75.074 316.875 73.617 c 316.875 25.883 l 316.879 23.676 315.09 21.883 312.879
 21.883 c h
208.68 29.883 m 308.883 29.883 l 308.883 66.852 l 300.887 63.035 292.125
 61.043 283.188 61.043 c 234.371 61.043 l 225.434 61.043 216.672 63.035 
208.68 66.852 c h
208.68 29.883 m f
182.988 95.109 m 181.695 95.109 180.434 95.738 179.664 96.883 c 155.332
 133.199 l 153.512 135.914 152.551 139.07 152.551 142.328 c 152.551 177.281
 l 152.551 180.738 153.621 184.055 155.648 186.871 c 175.363 214.23 l 176.379
 215.641 178.191 216.234 179.836 215.699 c 181.488 215.164 182.609 213.629
 182.609 211.895 c 182.609 120.805 l 182.609 113.816 183.977 107.043 186.672
 100.668 c 187.473 98.77 186.703 96.57 184.887 95.59 c 184.289 95.266 183.633
 95.109 182.988 95.109 c h
174.609 199.5 m 162.145 182.195 l 161.102 180.75 160.551 179.051 160.551
 177.281 c 160.551 142.324 l 160.551 140.66 161.047 139.043 161.977 137.652
 c 174.645 118.746 l 174.621 119.434 174.609 120.117 174.609 120.805 c h
174.609 199.5 m f
Q Q
showpage
%%Trailer
end restore
%%EOF
