%!PS-Adobe-3.0 EPSF-3.0
%%Creator: cairo 1.14.8 (http://cairographics.org)
%%CreationDate: Wed Mar 20 09:06:38 2019
%%Pages: 1
%%DocumentData: Clean7Bit
%%LanguageLevel: 2
%%BoundingBox: 46 0 443 488
%%EndComments
%%BeginProlog
save
50 dict begin
/q { gsave } bind def
/Q { grestore } bind def
/cm { 6 array astore concat } bind def
/w { setlinewidth } bind def
/J { setlinecap } bind def
/j { setlinejoin } bind def
/M { setmiterlimit } bind def
/d { setdash } bind def
/m { moveto } bind def
/l { lineto } bind def
/c { curveto } bind def
/h { closepath } bind def
/re { exch dup neg 3 1 roll 5 3 roll moveto 0 rlineto
      0 exch rlineto 0 rlineto closepath } bind def
/S { stroke } bind def
/f { fill } bind def
/f* { eofill } bind def
/n { newpath } bind def
/W { clip } bind def
/W* { eoclip } bind def
/BT { } bind def
/ET { } bind def
/pdfmark where { pop globaldict /?pdfmark /exec load put }
    { globaldict begin /?pdfmark /pop load def /pdfmark
    /cleartomark load def end } ifelse
/BDC { mark 3 1 roll /BDC pdfmark } bind def
/EMC { mark /EMC pdfmark } bind def
/cairo_store_point { /cairo_point_y exch def /cairo_point_x exch def } def
/Tj { show currentpoint cairo_store_point } bind def
/TJ {
  {
    dup
    type /stringtype eq
    { show } { -0.001 mul 0 cairo_font_matrix dtransform rmoveto } ifelse
  } forall
  currentpoint cairo_store_point
} bind def
/cairo_selectfont { cairo_font_matrix aload pop pop pop 0 0 6 array astore
    cairo_font exch selectfont cairo_point_x cairo_point_y moveto } bind def
/Tf { pop /cairo_font exch def /cairo_font_matrix where
      { pop cairo_selectfont } if } bind def
/Td { matrix translate cairo_font_matrix matrix concatmatrix dup
      /cairo_font_matrix exch def dup 4 get exch 5 get cairo_store_point
      /cairo_font where { pop cairo_selectfont } if } bind def
/Tm { 2 copy 8 2 roll 6 array astore /cairo_font_matrix exch def
      cairo_store_point /cairo_font where { pop cairo_selectfont } if } bind def
/g { setgray } bind def
/rg { setrgbcolor } bind def
/d1 { setcachedevice } bind def
%%EndProlog
%%BeginSetup
%%EndSetup
%%Page: 1 1
%%BeginPageSetup
%%PageBoundingBox: 46 0 443 488
%%EndPageSetup
q 46 0 397 488 rectclip q
0.419608 0.866667 0.866667 rg
258 144 m 82 144 l 64.324 144 50 158.324 50 176 c 50 452 l 50 469.676 64.324
 484 82 484 c 258 484 l 275.676 484 290 469.676 290 452 c 290 176 l 290 
158.324 275.672 144 258 144 c h
258 144 m f
0.878431 0.921569 0.988235 rg
260.301 338 m 260.301 288.129 219.871 247.699 170 247.699 c 120.129 247.699
 79.699 288.129 79.699 338 c 79.699 387.871 120.129 428.301 170 428.301 
c 219.871 428.301 260.301 387.871 260.301 338 c h
260.301 338 m f
0.72549 0.745098 0.988235 rg
239.125 338 m 239.125 299.824 208.176 268.875 170 268.875 c 131.824 268.875
 100.875 299.824 100.875 338 c 100.875 376.176 131.824 407.125 170 407.125
 c 208.176 407.125 239.125 376.176 239.125 338 c h
239.125 338 m f
1 0.917647 0.572549 rg
204.301 302.102 m 135.699 302.102 l 130.289 302.102 125.898 306.488 125.898
 311.898 c 125.898 317.312 130.289 321.699 135.699 321.699 c 204.301 321.699
 l 209.711 321.699 214.102 317.312 214.102 311.898 c 214.102 306.488 209.711
 302.102 204.301 302.102 c h
204.301 302.102 m f
183.371 298.602 m 183.371 291.215 177.387 285.227 170 285.227 c 162.613
 285.227 156.629 291.215 156.629 298.602 c 156.629 305.984 162.613 311.973
 170 311.973 c 177.387 311.973 183.371 305.984 183.371 298.602 c h
183.371 298.602 m f
203.914 321.699 m 203.914 354.391 l 203.914 373.121 188.73 388.305 169.996
 388.305 c 151.266 388.305 136.086 373.121 136.086 354.391 c 136.086 321.699
 l h
203.914 321.699 m f
0.215686 0.384314 0.8 rg
204.301 298.102 m 135.699 298.102 l 128.09 298.102 121.898 304.293 121.898
 311.898 c 121.898 319.508 128.094 325.699 135.699 325.699 c 204.301 325.699
 l 211.91 325.699 218.102 319.512 218.102 311.898 c 218.102 304.289 211.91
 298.102 204.301 298.102 c h
135.699 317.699 m 132.504 317.699 129.898 315.098 129.898 311.898 c 129.898
 308.703 132.504 306.102 135.699 306.102 c 204.301 306.102 l 207.496 306.102
 210.102 308.703 210.102 311.898 c 210.102 315.098 207.496 317.699 204.301
 317.699 c h
135.699 317.699 m f
203.914 317.699 m 136.086 317.699 l 133.879 317.699 132.086 319.492 132.086
 321.699 c 132.086 354.391 l 132.086 375.297 149.094 392.305 170.004 392.305
 c 190.91 392.305 207.918 375.297 207.918 354.391 c 207.918 321.699 l 207.914
 319.492 206.125 317.699 203.914 317.699 c h
140.086 325.699 m 199.914 325.699 l 199.914 354.391 l 199.914 370.887 186.496
 384.305 170 384.305 c 153.504 384.305 140.086 370.887 140.086 354.391 c
 h
140.086 325.699 m f
258 140 m 82 140 l 62.148 140 46 156.148 46 176 c 46 452 l 46 471.852 62.148
 488 82 488 c 258 488 l 277.852 488 294 471.852 294 452 c 294 176 l 294 
156.148 277.848 140 258 140 c h
82 480 m 66.559 480 54 467.441 54 452 c 54 176 l 54 160.559 66.559 148 
82 148 c 258 148 l 273.441 148 286 160.559 286 176 c 286 452 l 286 467.441
 273.441 480 258 480 c h
82 480 m f
170 243.699 m 118.004 243.699 75.699 286.004 75.699 338 c 75.699 389.996
 118.004 432.301 170 432.301 c 221.996 432.301 264.301 389.996 264.301 338
 c 264.301 286.004 221.996 243.699 170 243.699 c h
170 424.301 m 122.414 424.301 83.699 385.586 83.699 338 c 83.699 290.414
 122.414 251.699 170 251.699 c 217.586 251.699 256.301 290.414 256.301 338
 c 256.301 385.586 217.586 424.301 170 424.301 c h
170 424.301 m f
269.691 151.941 m 267.484 151.941 265.691 153.734 265.691 155.941 c 265.695
 172.188 l 265.695 174.395 267.484 176.188 269.695 176.188 c 271.902 176.188
 273.695 174.395 273.695 172.188 c 273.691 155.945 l 273.691 153.73 271.902
 151.941 269.691 151.941 c h
269.691 151.941 m f
321.559 151.941 m 319.352 151.941 317.559 153.734 317.559 155.941 c 317.559
 172.188 l 317.559 174.395 319.352 176.188 321.559 176.188 c 323.766 176.188
 325.559 174.395 325.559 172.188 c 325.559 155.941 l 325.559 153.73 323.766
 151.941 321.559 151.941 c h
321.559 151.941 m f
0.976471 0.811765 0.811765 rg
166.113 135.773 m 142.07 101.531 l 140.211 98.879 139.211 95.707 139.211
 92.457 c 139.211 48.715 l 139.211 45.645 140.102 42.641 141.777 40.078 
c 165.336 4 l 168.547 4 l 166.973 10.035 166.113 16.387 166.113 22.953 c
 h
166.113 135.773 m f
360.082 185.523 m 334.895 185.523 l 327.527 185.523 321.555 179.551 321.555
 172.184 c 321.555 179.551 315.586 185.523 308.215 185.523 c 283.031 185.523
 l 275.66 185.523 269.691 179.551 269.691 172.184 c 269.691 179.551 263.719
 185.523 256.352 185.523 c 231.164 185.523 l 223.797 185.523 217.824 179.551
 217.824 172.184 c 217.824 155.941 l 217.824 291.379 l 217.824 305.234 206.594
 316.465 192.738 316.465 c 191.043 316.465 l 177.191 316.465 165.961 305.234
 165.961 291.379 c 165.961 22.953 l 165.961 16.387 166.871 10.035 168.539
 4 c 370.836 4 l 372.508 10.035 373.414 16.387 373.414 22.953 c 373.414 
172.184 l 373.422 179.551 367.449 185.523 360.082 185.523 c h
360.082 185.523 m f
0.215686 0.384314 0.8 rg
168.543 0 m 165.336 0 l 163.984 0 162.723 0.684 161.984 1.812 c 138.43 
37.891 l 136.324 41.113 135.211 44.855 135.211 48.715 c 135.211 92.461 l
 135.211 96.555 136.453 100.488 138.801 103.836 c 162.84 138.074 l 163.844
 139.504 165.66 140.109 167.316 139.59 c 168.98 139.062 170.113 137.52 170.113
 135.777 c 170.113 22.957 l 170.113 16.914 170.887 10.875 172.414 5.012 
c 172.727 3.812 172.469 2.539 171.711 1.555 c 170.953 0.574 169.785 0 168.543
 0 c h
162.113 123.113 m 145.348 99.234 l 143.949 97.242 143.211 94.898 143.211
 92.457 c 143.211 48.711 l 143.211 46.41 143.871 44.184 145.125 42.262 c
 162.441 15.742 l 162.223 18.141 162.113 20.547 162.113 22.953 c h
162.113 123.113 m f
370.84 0 m 168.543 0 l 166.746 0 165.168 1.199 164.688 2.934 c 162.879 
9.473 161.961 16.207 161.961 22.953 c 161.961 291.379 l 161.961 307.414 
175.012 320.461 191.047 320.461 c 192.742 320.461 l 208.781 320.461 221.824
 307.414 221.824 291.379 c 221.824 186.789 l 224.523 188.52 227.73 189.523
 231.164 189.523 c 256.352 189.523 l 261.707 189.523 266.508 187.082 269.691
 183.25 c 272.875 187.082 277.672 189.523 283.027 189.523 c 308.215 189.523
 l 313.57 189.523 318.371 187.078 321.555 183.25 c 324.738 187.078 329.535
 189.523 334.895 189.523 c 360.078 189.523 l 369.641 189.523 377.422 181.746
 377.422 172.184 c 377.422 22.953 l 377.422 16.211 376.504 9.473 374.695
 2.934 c 374.215 1.199 372.641 0 370.84 0 c h
171.66 8 m 367.727 8 l 368.855 12.914 369.426 17.934 369.426 22.953 c 369.426
 172.184 l 369.426 177.336 365.234 181.523 360.086 181.523 c 334.898 181.523
 l 329.746 181.523 325.559 177.336 325.559 172.184 c 325.559 169.977 323.766
 168.184 321.559 168.184 c 319.352 168.184 317.559 169.977 317.559 172.184
 c 317.559 177.336 313.367 181.523 308.219 181.523 c 283.031 181.523 l 277.883
 181.523 273.695 177.336 273.695 172.184 c 273.695 169.977 271.902 168.184
 269.695 168.184 c 267.484 168.184 265.695 169.977 265.695 172.184 c 265.695
 177.336 261.504 181.523 256.355 181.523 c 231.168 181.523 l 226.02 181.523
 221.828 177.336 221.828 172.184 c 221.828 155.941 l 221.828 153.73 220.039
 151.941 217.828 151.941 c 215.621 151.941 213.828 153.73 213.828 155.941
 c 213.828 291.379 l 213.828 303.004 204.371 312.461 192.746 312.461 c 191.051
 312.461 l 179.426 312.461 169.965 303.004 169.965 291.379 c 169.965 22.953
 l 169.965 17.934 170.535 12.914 171.66 8 c h
171.66 8 m f
1 0.917647 0.572549 rg
335.219 370.676 m 332.707 373.426 329.012 374.977 325.066 374.938 c 320.805
 374.891 316.93 373.055 314.43 369.902 c 310.883 365.43 311.125 359.285 
315.016 354.965 c 319.613 349.859 322.094 343.68 322.195 337.09 c 322.293
 330.496 319.996 324.242 315.562 319.004 c 311.801 314.562 311.75 308.418
 315.434 304.051 c 317.996 301.016 321.875 299.297 326.082 299.344 c 330.074
 299.383 333.777 301.051 336.234 303.91 c 344.445 313.469 348.863 325.391
 348.68 337.488 c 348.496 349.586 343.715 361.371 335.219 370.676 c h
335.219 370.676 m f
362.09 406.988 m 359.605 409.09 356.375 410.223 352.992 410.188 c 348.75
 410.141 344.887 408.312 342.387 405.164 c 338.445 400.191 339.234 393.262
 344.223 389.039 c 360.102 375.613 369.012 357.414 369.309 337.801 c 369.605
 318.191 361.258 299.73 345.797 285.824 c 340.938 281.457 340.359 274.504
 344.461 269.645 c 347.012 266.621 350.879 264.91 355.07 264.953 c 358.5
 264.988 361.742 266.223 364.203 268.426 c 384.977 287.051 396.195 311.832
 395.793 338.203 c 395.391 364.574 383.426 389.004 362.09 406.988 c h
362.09 406.988 m f
389.27 442.246 m 386.867 444.105 383.812 445.109 380.66 445.074 c 376.477
 445.031 372.508 443.152 370.039 440.039 c 368.09 437.578 367.215 434.562
 367.586 431.543 c 367.961 428.473 369.582 425.688 372.148 423.703 c 399.781
 402.355 415.918 371.305 416.418 338.52 c 416.914 305.727 401.73 274.207
 374.762 252.031 c 372.258 249.969 370.719 247.133 370.438 244.051 c 370.164
 241.023 371.125 238.035 373.156 235.625 c 375.715 232.594 379.59 230.879
 383.785 230.926 c 383.789 230.926 l 386.984 230.957 390.059 232.055 392.438
 234.016 c 425.113 260.891 443.508 299.129 442.902 338.922 c 442.301 378.711
 422.75 416.375 389.27 442.246 c h
389.27 442.246 m f
Q Q
showpage
%%Trailer
end restore
%%EOF
