%!PS-Adobe-3.0 EPSF-3.0
%%Creator: cairo 1.14.8 (http://cairographics.org)
%%CreationDate: Wed Mar 20 09:06:38 2019
%%Pages: 1
%%DocumentData: Clean7Bit
%%LanguageLevel: 2
%%BoundingBox: 0 0 488 488
%%EndComments
%%BeginProlog
save
50 dict begin
/q { gsave } bind def
/Q { grestore } bind def
/cm { 6 array astore concat } bind def
/w { setlinewidth } bind def
/J { setlinecap } bind def
/j { setlinejoin } bind def
/M { setmiterlimit } bind def
/d { setdash } bind def
/m { moveto } bind def
/l { lineto } bind def
/c { curveto } bind def
/h { closepath } bind def
/re { exch dup neg 3 1 roll 5 3 roll moveto 0 rlineto
      0 exch rlineto 0 rlineto closepath } bind def
/S { stroke } bind def
/f { fill } bind def
/f* { eofill } bind def
/n { newpath } bind def
/W { clip } bind def
/W* { eoclip } bind def
/BT { } bind def
/ET { } bind def
/pdfmark where { pop globaldict /?pdfmark /exec load put }
    { globaldict begin /?pdfmark /pop load def /pdfmark
    /cleartomark load def end } ifelse
/BDC { mark 3 1 roll /BDC pdfmark } bind def
/EMC { mark /EMC pdfmark } bind def
/cairo_store_point { /cairo_point_y exch def /cairo_point_x exch def } def
/Tj { show currentpoint cairo_store_point } bind def
/TJ {
  {
    dup
    type /stringtype eq
    { show } { -0.001 mul 0 cairo_font_matrix dtransform rmoveto } ifelse
  } forall
  currentpoint cairo_store_point
} bind def
/cairo_selectfont { cairo_font_matrix aload pop pop pop 0 0 6 array astore
    cairo_font exch selectfont cairo_point_x cairo_point_y moveto } bind def
/Tf { pop /cairo_font exch def /cairo_font_matrix where
      { pop cairo_selectfont } if } bind def
/Td { matrix translate cairo_font_matrix matrix concatmatrix dup
      /cairo_font_matrix exch def dup 4 get exch 5 get cairo_store_point
      /cairo_font where { pop cairo_selectfont } if } bind def
/Tm { 2 copy 8 2 roll 6 array astore /cairo_font_matrix exch def
      cairo_store_point /cairo_font where { pop cairo_selectfont } if } bind def
/g { setgray } bind def
/rg { setrgbcolor } bind def
/d1 { setcachedevice } bind def
%%EndProlog
%%BeginSetup
%%EndSetup
%%Page: 1 1
%%BeginPageSetup
%%PageBoundingBox: 0 0 488 488
%%EndPageSetup
q 0 0 488 488 rectclip q
0.643137 0.788235 1 rg
406.637 93.305 m 34.234 93.305 l 17.445 93.305 3.836 106.914 3.836 123.703
 c 3.836 404.902 l 3.836 421.695 17.445 435.305 34.234 435.305 c 406.637
 435.305 l 423.426 435.305 437.035 421.695 437.035 404.902 c 437.035 123.703
 l 437.035 106.914 423.426 93.305 406.637 93.305 c h
406.637 93.305 m f
0.878431 0.921569 0.988235 rg
437.035 120.664 m 437.035 161.703 l 3.836 161.703 l 3.836 120.664 l 3.836
 105.555 17.445 93.305 34.234 93.305 c 406.637 93.305 l 423.426 93.305 437.035
 105.551 437.035 120.664 c h
437.035 120.664 m f
352.273 4.004 m 88.602 4.004 l 82.711 4.004 77.938 8.777 77.938 14.668 
c 77.938 19.941 l 77.938 25.828 82.711 30.605 88.602 30.605 c 352.273 30.605
 l 358.16 30.605 362.938 25.828 362.938 19.941 c 362.938 14.668 l 362.938
 8.777 358.16 4.004 352.273 4.004 c h
352.273 4.004 m f
0.27451 0.443137 0.776471 rg
26.637 195.902 m 26.637 401.105 l 26.637 407.398 31.738 412.504 38.035 
412.504 c 402.836 412.504 l 409.133 412.504 414.234 407.398 414.234 401.105
 c 414.234 195.902 l 414.234 189.609 409.133 184.504 402.836 184.504 c 38.035
 184.504 l 31.738 184.504 26.637 189.609 26.637 195.902 c h
26.637 195.902 m f
0.215686 0.384314 0.8 rg
406.801 89.301 m 34.398 89.301 l 15.434 89.301 0 104.73 0 123.699 c 0 404.898
 l 0 423.867 15.434 439.301 34.398 439.301 c 406.801 439.301 l 425.77 439.301
 441.199 423.867 441.199 404.898 c 441.199 123.699 l 441.203 104.73 425.77
 89.301 406.801 89.301 c h
34.402 431.301 m 19.848 431.301 8.004 419.457 8.004 404.898 c 8.004 123.699
 l 8.004 109.141 19.844 97.301 34.402 97.301 c 406.801 97.301 l 421.359 
97.301 433.203 109.141 433.203 123.699 c 433.203 404.898 l 433.203 419.457
 421.359 431.301 406.801 431.301 c h
34.402 431.301 m f
403.004 180.5 m 38.203 180.5 l 29.711 180.5 22.801 187.406 22.801 195.898
 c 22.801 401.102 l 22.801 409.594 29.711 416.5 38.203 416.5 c 403.004 416.5
 l 411.492 416.5 418.402 409.594 418.402 401.102 c 418.402 195.898 l 418.402
 187.406 411.492 180.5 403.004 180.5 c h
38.203 408.5 m 34.121 408.5 30.801 405.18 30.801 401.102 c 30.801 195.898
 l 30.801 191.816 34.121 188.5 38.203 188.5 c 403.004 188.5 l 407.082 188.5
 410.402 191.82 410.402 195.898 c 410.402 401.102 l 410.402 405.184 407.082
 408.5 403.004 408.5 c h
38.203 408.5 m f
352.438 0 m 88.766 0 l 80.68 0 74.102 6.578 74.102 14.664 c 74.102 19.938
 l 74.102 28.02 80.68 34.602 88.766 34.602 c 352.438 34.602 l 360.523 34.602
 367.102 28.023 367.102 19.938 c 367.102 14.664 l 367.102 6.578 360.523 
0 352.438 0 c h
88.766 26.602 m 85.094 26.602 82.102 23.609 82.102 19.938 c 82.102 14.664
 l 82.102 10.988 85.094 8 88.766 8 c 352.438 8 l 356.113 8 359.102 10.988
 359.102 14.664 c 359.102 19.938 l 359.102 23.609 356.113 26.602 352.438
 26.602 c h
88.766 26.602 m f
0.643137 0.788235 1 rg
131.262 93.301 m 115.938 30.605 l 324.938 30.605 l 309.609 93.301 l h
131.262 93.301 m f
0.215686 0.384314 0.8 rg
325.102 26.602 m 116.102 26.602 l 114.875 26.602 113.715 27.164 112.957
 28.129 c 112.199 29.098 111.926 30.355 112.215 31.551 c 127.543 94.25 l
 127.98 96.039 129.586 97.301 131.43 97.301 c 309.777 97.301 l 311.621 97.301
 313.223 96.039 313.66 94.25 c 328.984 31.551 l 329.277 30.355 329.008 29.098
 328.246 28.129 c 327.488 27.164 326.328 26.602 325.102 26.602 c h
121.199 34.602 m 320.008 34.602 l 306.633 89.301 l 134.566 89.301 l h
121.199 34.602 m f
0.976471 0.654902 0.654902 rg
158.602 352.121 m 158.602 244.879 l 158.602 241.93 161.688 239.992 164.344
 241.277 c 275.16 294.898 l 278.172 296.355 278.172 300.641 275.16 302.102
 c 164.344 355.719 l 161.688 357.008 158.602 355.07 158.602 352.121 c h
158.602 352.121 m f
0.419608 0.866667 0.866667 rg
256.91 446.195 m 256.91 308.23 l 228.094 233 l 226.633 229.184 230.379 
225.434 234.199 226.895 c 313.191 257.156 l 445.949 257.156 l 466.828 257.156
 483.754 274.086 483.754 294.965 c 483.754 446.195 l 483.754 467.074 466.828
 484 445.949 484 c 294.719 484 l 273.84 484 256.91 467.074 256.91 446.195
 c h
256.91 446.195 m f
0.215686 0.384314 0.8 rg
232.465 222.57 m 230.207 222.57 228.02 223.457 226.34 225.141 c 223.867
 227.613 223.109 231.172 224.359 234.434 c 252.914 308.973 l 252.914 446.195
 l 252.91 469.246 271.664 488 294.719 488 c 445.945 488 l 469 488 487.754
 469.246 487.754 446.195 c 487.754 294.965 l 487.754 271.914 469 253.156
 445.949 253.156 c 313.934 253.156 l 235.629 223.16 l 234.59 222.766 233.52
 222.57 232.465 222.57 c h
294.719 480 m 276.078 480 260.91 464.836 260.91 446.195 c 260.91 308.23
 l 260.91 307.738 260.82 307.258 260.645 306.801 c 231.828 231.57 l 231.785
 231.461 231.66 231.133 231.992 230.797 c 232.324 230.469 232.656 230.594
 232.766 230.633 c 311.762 260.895 l 312.219 261.066 312.703 261.156 313.191
 261.156 c 445.949 261.156 l 464.59 261.156 479.754 276.324 479.754 294.965
 c 479.754 446.195 l 479.754 464.836 464.59 480 445.949 480 c h
256.91 308.23 m 256.934 308.23 l h
256.91 308.23 m f
0.643137 0.788235 1 rg
221.41 108.504 m 219.461 108.504 l 209.547 108.504 201.438 116.617 201.438
 126.527 c 201.438 128.477 l 201.438 138.391 209.551 146.504 219.461 146.504
 c 221.41 146.504 l 231.324 146.504 239.438 138.391 239.438 128.477 c 239.438
 126.527 l 239.438 116.613 231.324 108.504 221.41 108.504 c h
221.41 108.504 m f
0.878431 0.921569 0.988235 rg
343.602 352.855 m 358.633 351.855 l 360.801 351.711 362.414 349.773 362.168
 347.613 c 360.883 336.375 357.18 327.078 351.062 319.734 c 344.238 311.539
 335.223 307.441 324.012 307.441 c 310.363 307.441 299.965 312.934 292.812
 323.922 c 285.664 334.906 282.094 350.039 282.094 369.312 c 282.094 388.762
 285.637 403.977 292.734 414.965 c 299.828 425.953 310.363 431.449 324.336
 431.449 c 346.469 431.449 358.953 417.238 361.789 388.82 c 362 386.688 
360.438 384.781 358.305 384.613 c 343.727 383.457 l 341.633 383.293 339.805
 384.875 339.645 386.969 c 338.469 402.285 333.395 409.945 324.414 409.945
 c 319.324 409.945 315.277 407.062 312.273 401.305 c 309.266 395.547 307.766
 384.383 307.766 367.812 c 307.766 353.008 309.145 342.828 311.906 337.277
 c 314.668 331.723 318.812 328.949 324.34 328.949 c 332.551 328.949 337.633
 335.828 339.598 349.586 c 339.875 351.551 341.617 352.984 343.602 352.855
 c h
343.602 352.855 m f
441.004 352.855 m 456.035 351.855 l 458.203 351.711 459.816 349.773 459.57
 347.613 c 458.285 336.375 454.582 327.078 448.465 319.734 c 441.641 311.539
 432.625 307.441 421.414 307.441 c 407.766 307.441 397.367 312.934 390.215
 323.922 c 383.066 334.906 379.492 350.039 379.492 369.312 c 379.492 388.762
 383.039 403.977 390.137 414.965 c 397.23 425.953 407.766 431.449 421.738
 431.449 c 443.871 431.449 456.355 417.238 459.191 388.82 c 459.402 386.688
 457.844 384.781 455.707 384.613 c 441.129 383.457 l 439.035 383.293 437.207
 384.875 437.047 386.969 c 435.871 402.285 430.797 409.945 421.816 409.945
 c 416.727 409.945 412.68 407.062 409.676 401.305 c 406.668 395.547 405.164
 384.383 405.164 367.812 c 405.164 353.008 406.547 342.828 409.309 337.277
 c 412.07 331.723 416.215 328.949 421.738 328.949 c 429.953 328.949 435.035
 335.828 437 349.586 c 437.277 351.551 439.02 352.984 441.004 352.855 c 
h
441.004 352.855 m f
Q Q
showpage
%%Trailer
end restore
%%EOF
