%!PS-Adobe-3.0 EPSF-3.0
%%Creator: cairo 1.14.8 (http://cairographics.org)
%%CreationDate: Wed Mar 20 09:06:38 2019
%%Pages: 1
%%DocumentData: Clean7Bit
%%LanguageLevel: 2
%%BoundingBox: 0 0 478 478
%%EndComments
%%BeginProlog
save
50 dict begin
/q { gsave } bind def
/Q { grestore } bind def
/cm { 6 array astore concat } bind def
/w { setlinewidth } bind def
/J { setlinecap } bind def
/j { setlinejoin } bind def
/M { setmiterlimit } bind def
/d { setdash } bind def
/m { moveto } bind def
/l { lineto } bind def
/c { curveto } bind def
/h { closepath } bind def
/re { exch dup neg 3 1 roll 5 3 roll moveto 0 rlineto
      0 exch rlineto 0 rlineto closepath } bind def
/S { stroke } bind def
/f { fill } bind def
/f* { eofill } bind def
/n { newpath } bind def
/W { clip } bind def
/W* { eoclip } bind def
/BT { } bind def
/ET { } bind def
/pdfmark where { pop globaldict /?pdfmark /exec load put }
    { globaldict begin /?pdfmark /pop load def /pdfmark
    /cleartomark load def end } ifelse
/BDC { mark 3 1 roll /BDC pdfmark } bind def
/EMC { mark /EMC pdfmark } bind def
/cairo_store_point { /cairo_point_y exch def /cairo_point_x exch def } def
/Tj { show currentpoint cairo_store_point } bind def
/TJ {
  {
    dup
    type /stringtype eq
    { show } { -0.001 mul 0 cairo_font_matrix dtransform rmoveto } ifelse
  } forall
  currentpoint cairo_store_point
} bind def
/cairo_selectfont { cairo_font_matrix aload pop pop pop 0 0 6 array astore
    cairo_font exch selectfont cairo_point_x cairo_point_y moveto } bind def
/Tf { pop /cairo_font exch def /cairo_font_matrix where
      { pop cairo_selectfont } if } bind def
/Td { matrix translate cairo_font_matrix matrix concatmatrix dup
      /cairo_font_matrix exch def dup 4 get exch 5 get cairo_store_point
      /cairo_font where { pop cairo_selectfont } if } bind def
/Tm { 2 copy 8 2 roll 6 array astore /cairo_font_matrix exch def
      cairo_store_point /cairo_font where { pop cairo_selectfont } if } bind def
/g { setgray } bind def
/rg { setrgbcolor } bind def
/d1 { setcachedevice } bind def
%%EndProlog
%%BeginSetup
%%EndSetup
%%Page: 1 1
%%BeginPageSetup
%%PageBoundingBox: 0 0 478 478
%%EndPageSetup
q 0 0 478 478 rectclip q
0.27451 0.443137 0.776471 rg
149.906 428.773 m 48.289 327.152 l 38.152 317.02 21.727 317.02 11.594 327.152
 c 1.457 337.289 1.457 353.715 11.594 363.852 c 113.215 465.469 l 123.348
 475.605 139.773 475.605 149.91 465.469 c 160.043 455.336 160.043 438.902
 149.906 428.773 c h
149.906 428.773 m f
0.976471 0.654902 0.654902 rg
469.332 18.977 m 458.086 7.73 l 451.836 1.48 441.707 1.48 435.457 7.73 
c 416.375 26.809 l 411.336 31.848 411.336 40.02 416.375 45.059 c 431.996
 60.68 l 437.039 65.723 445.211 65.723 450.25 60.68 c 469.332 41.602 l 475.578
 35.352 475.578 25.227 469.332 18.977 c h
469.332 18.977 m f
0.878431 0.921569 0.988235 rg
189.543 341.023 m 136.039 287.52 l 132.207 283.688 125.988 283.688 122.156
 287.52 c 113.469 296.215 l 109.637 300.047 109.637 306.262 113.469 310.094
 c 166.965 363.594 l 170.797 367.426 177.016 367.426 180.848 363.594 c 189.543
 354.902 l 193.375 351.07 193.375 344.855 189.543 341.023 c h
189.543 341.023 m f
0.215686 0.384314 0.8 rg
446.77 -0.941 m 441.652 -0.941 436.531 1.012 432.637 4.906 c 413.555 23.984
 l 406.965 30.574 406.965 41.293 413.555 47.883 c 429.176 63.504 l 435.766
 70.094 446.484 70.098 453.074 63.504 c 472.156 44.426 l 479.949 36.633 
479.949 23.949 472.156 16.152 c 460.906 4.906 l 457.012 1.008 451.891 -0.941
 446.77 -0.941 c h
441.129 60.469 m 438.844 60.469 436.562 59.594 434.824 57.859 c 419.203
 42.238 l 415.727 38.762 415.727 33.109 419.203 29.629 c 438.281 10.547 
l 442.965 5.867 450.582 5.867 455.266 10.547 c 466.512 21.797 l 471.191 
26.48 471.191 34.098 466.512 38.781 c 447.434 57.859 l 445.691 59.598 443.41
 60.469 441.129 60.469 c h
441.129 60.469 m f
129.102 280.652 m 125.41 280.652 121.945 282.09 119.336 284.699 c 110.645
 293.387 l 105.262 298.77 105.262 307.531 110.645 312.914 c 164.145 366.414
 l 169.527 371.797 178.289 371.797 183.672 366.414 c 192.359 357.723 l 194.973
 355.113 196.406 351.648 196.406 347.961 c 196.406 344.27 194.969 340.805
 192.359 338.195 c 138.863 284.699 l 136.254 282.09 132.789 280.652 129.102
 280.652 c h
173.91 362.477 m 172.418 362.477 170.926 361.906 169.789 360.773 c 116.289
 307.27 l 114.02 305 114.02 301.309 116.289 299.035 c 124.98 290.344 l 127.184
 288.145 131.016 288.145 133.215 290.344 c 186.719 343.844 l 187.82 344.945
 188.422 346.406 188.422 347.961 c 188.422 349.516 187.816 350.98 186.719
 352.078 c 178.027 360.773 l 176.887 361.906 175.398 362.477 173.91 362.477
 c h
173.91 362.477 m f
0.643137 0.788235 1 rg
427.129 75.336 m 269.363 233.102 l 268.484 234.113 267.293 235.871 267.25
 238.055 c 265.688 314.992 l 265.617 318.371 264.359 321.441 262.133 323.672
 c 163.23 422.57 l 157.84 427.961 149.102 427.961 143.707 422.57 c 142.555
 421.414 l 137.164 416.023 137.164 407.281 142.555 401.887 c 229.887 314.555
 l 232.41 312.035 233.855 308.637 233.93 305.07 c 234.891 257.801 l 234.969
 254.043 233.504 250.418 230.848 247.762 c 229.297 246.207 l 226.641 243.551
 223.012 242.09 219.254 242.164 c 171.988 243.129 l 168.426 243.199 165.023
 244.648 162.504 247.172 c 75.168 334.508 l 69.777 339.898 61.035 339.898
 55.645 334.508 c 54.488 333.355 l 49.098 327.961 49.098 319.223 54.488 
313.832 c 153.387 214.93 l 155.617 212.699 158.688 211.441 162.066 211.375
 c 240.945 209.77 l 241.406 209.672 241.875 209.531 242.332 209.324 c 401.723
 49.934 l 407.113 44.543 415.859 44.543 421.25 49.934 c 427.129 55.812 l
 432.52 61.203 432.52 69.945 427.129 75.336 c h
427.129 75.336 m f
0.215686 0.384314 0.8 rg
411.488 41.895 m 406.73 41.895 402.266 43.75 398.902 47.109 c 240.223 205.793
 l 161.984 207.383 l 157.578 207.473 153.523 209.148 150.57 212.105 c 51.672
 311.008 l 44.727 317.949 44.727 329.238 51.672 336.176 c 52.828 337.336
 l 56.188 340.695 60.656 342.543 65.41 342.543 c 70.164 342.543 74.637 340.691
 77.996 337.332 c 165.332 249.996 l 167.133 248.195 169.527 247.176 172.074
 247.125 c 219.34 246.164 l 222.016 246.152 224.602 247.156 226.48 249.035
 c 228.027 250.586 l 229.91 252.465 230.961 255.07 230.906 257.723 c 229.941
 304.992 l 229.891 307.535 228.871 309.934 227.074 311.734 c 139.73 399.066
 l 136.367 402.426 134.516 406.898 134.516 411.648 c 134.516 416.406 136.367
 420.875 139.73 424.238 c 140.887 425.391 l 144.246 428.754 148.719 430.605
 153.469 430.605 c 158.227 430.605 162.695 428.754 166.055 425.391 c 264.953
 326.492 l 267.914 323.539 269.59 319.48 269.68 315.074 c 271.246 238.133
 l 271.262 237.203 271.883 236.312 272.297 235.816 c 429.953 78.156 l 436.891
 71.219 436.891 59.926 429.953 52.988 c 424.074 47.105 l 420.711 43.746 
416.242 41.895 411.488 41.895 c h
65.406 334.562 m 62.785 334.562 60.32 333.543 58.469 331.688 c 57.312 330.531
 l 53.484 326.707 53.484 320.48 57.312 316.652 c 156.211 217.754 l 157.703
 216.262 159.809 215.414 162.145 215.363 c 241.023 213.762 l 241.273 213.758
 241.523 213.727 241.77 213.676 c 242.559 213.508 243.297 213.266 243.977
 212.961 c 244.414 212.762 244.812 212.492 245.152 212.148 c 404.547 52.758
 l 406.398 50.898 408.863 49.879 411.484 49.879 c 414.105 49.879 416.566
 50.898 418.422 52.758 c 424.301 58.633 l 428.129 62.465 428.129 68.688 
424.301 72.516 c 266.535 230.281 l 266.473 230.344 266.41 230.41 266.348
 230.48 c 264.977 232.059 263.324 234.637 263.258 237.98 c 261.691 314.914
 l 261.645 317.25 260.793 319.359 259.305 320.852 c 160.41 419.746 l 158.559
 421.602 156.09 422.621 153.469 422.621 c 150.852 422.621 148.387 421.602
 146.531 419.746 c 145.371 418.594 l 141.547 414.766 141.547 408.539 145.371
 404.711 c 232.711 317.379 l 235.977 314.105 237.824 309.77 237.918 305.152
 c 238.879 257.883 l 238.977 253.062 237.078 248.344 233.668 244.938 c 232.121
 243.391 l 228.715 239.98 223.996 238.078 219.176 238.176 c 171.91 239.137
 l 167.289 239.23 162.949 241.082 159.684 244.348 c 72.348 331.684 l 70.496
 333.543 68.027 334.562 65.406 334.562 c h
65.406 334.562 m f
29.941 315.574 m 22.273 315.574 14.609 318.488 8.773 324.328 c 3.113 329.98
 0 337.5 0 345.496 c 0 353.492 3.113 361.012 8.773 366.668 c 110.391 468.285
 l 122.062 479.961 141.059 479.961 152.734 468.285 c 164.406 456.613 164.406
 437.621 152.734 425.945 c 51.113 324.328 l 45.277 318.492 37.609 315.574
 29.941 315.574 c h
131.562 469.066 m 125.938 469.066 120.312 466.926 116.035 462.645 c 14.418
 361.023 l 10.27 356.879 7.984 351.363 7.984 345.5 c 7.984 339.633 10.27
 334.121 14.418 329.973 c 22.973 321.418 36.902 321.414 45.469 329.973 c
 147.09 431.594 l 155.648 440.156 155.648 454.09 147.09 462.648 c 142.809
 466.926 137.184 469.066 131.562 469.066 c h
149.906 428.773 m 149.926 428.773 l h
149.906 428.773 m f
Q Q
showpage
%%Trailer
end restore
%%EOF
