%!PS-Adobe-3.0 EPSF-3.0
%%Creator: cairo 1.14.8 (http://cairographics.org)
%%CreationDate: Wed Mar 20 09:06:38 2019
%%Pages: 1
%%DocumentData: Clean7Bit
%%LanguageLevel: 2
%%BoundingBox: 11 0 468 478
%%EndComments
%%BeginProlog
save
50 dict begin
/q { gsave } bind def
/Q { grestore } bind def
/cm { 6 array astore concat } bind def
/w { setlinewidth } bind def
/J { setlinecap } bind def
/j { setlinejoin } bind def
/M { setmiterlimit } bind def
/d { setdash } bind def
/m { moveto } bind def
/l { lineto } bind def
/c { curveto } bind def
/h { closepath } bind def
/re { exch dup neg 3 1 roll 5 3 roll moveto 0 rlineto
      0 exch rlineto 0 rlineto closepath } bind def
/S { stroke } bind def
/f { fill } bind def
/f* { eofill } bind def
/n { newpath } bind def
/W { clip } bind def
/W* { eoclip } bind def
/BT { } bind def
/ET { } bind def
/pdfmark where { pop globaldict /?pdfmark /exec load put }
    { globaldict begin /?pdfmark /pop load def /pdfmark
    /cleartomark load def end } ifelse
/BDC { mark 3 1 roll /BDC pdfmark } bind def
/EMC { mark /EMC pdfmark } bind def
/cairo_store_point { /cairo_point_y exch def /cairo_point_x exch def } def
/Tj { show currentpoint cairo_store_point } bind def
/TJ {
  {
    dup
    type /stringtype eq
    { show } { -0.001 mul 0 cairo_font_matrix dtransform rmoveto } ifelse
  } forall
  currentpoint cairo_store_point
} bind def
/cairo_selectfont { cairo_font_matrix aload pop pop pop 0 0 6 array astore
    cairo_font exch selectfont cairo_point_x cairo_point_y moveto } bind def
/Tf { pop /cairo_font exch def /cairo_font_matrix where
      { pop cairo_selectfont } if } bind def
/Td { matrix translate cairo_font_matrix matrix concatmatrix dup
      /cairo_font_matrix exch def dup 4 get exch 5 get cairo_store_point
      /cairo_font where { pop cairo_selectfont } if } bind def
/Tm { 2 copy 8 2 roll 6 array astore /cairo_font_matrix exch def
      cairo_store_point /cairo_font where { pop cairo_selectfont } if } bind def
/g { setgray } bind def
/rg { setrgbcolor } bind def
/d1 { setcachedevice } bind def
%%EndProlog
%%BeginSetup
%%EndSetup
%%Page: 1 1
%%BeginPageSetup
%%PageBoundingBox: 11 0 468 478
%%EndPageSetup
q 11 0 457 478 rectclip q
1 0.917647 0.572549 rg
355.277 246.012 m 355.277 185.363 306.113 136.203 245.469 136.203 c 184.824
 136.203 135.66 185.363 135.66 246.012 c 135.66 306.656 184.824 355.82 245.469
 355.82 c 306.113 355.82 355.277 306.656 355.277 246.012 c h
355.277 246.012 m f
0.976471 0.654902 0.654902 rg
269.055 6.227 m 324.445 41.348 l 327.684 43.402 328.645 47.695 326.59 50.938
 c 325.906 52.016 l 323.852 55.258 319.559 56.219 316.316 54.164 c 253.172
 14.129 l 256.379 9.066 l 259.098 4.785 264.773 3.512 269.055 6.227 c h
269.055 6.227 m f
0.976471 0.811765 0.811765 rg
127.637 380.562 m 149.902 380.562 167.953 362.512 167.953 340.246 c 167.953
 316.586 l 169.914 316.586 l 173.371 316.586 176.172 313.781 176.172 310.324
 c 176.172 306.863 173.371 304.066 169.914 304.066 c 166.852 304.066 l 163.387
 289.137 151.672 277.383 136.742 273.934 c 136.742 268.391 l 133.371 269.527
 129.777 270.176 126.02 270.176 c 105.699 270.176 l 104.25 270.176 102.836
 270.027 101.445 269.809 c 101.445 282.566 l 92.805 289.965 87.324 300.938
 87.324 313.199 c 87.324 340.25 l 87.32 362.512 105.371 380.562 127.637 
380.562 c h
127.637 380.562 m f
0.976471 0.654902 0.654902 rg
23.891 266.664 m 69.285 266.664 l 74.469 266.664 78.672 262.461 78.672 
257.273 c 78.672 184.336 l 72.695 179.73 67.27 174.453 62.512 168.602 c 
62.512 250.496 l 23.891 250.496 l 19.426 250.496 15.801 254.117 15.801 258.582
 c 15.801 263.047 19.422 266.664 23.891 266.664 c h
23.891 266.664 m f
0.215686 0.384314 0.8 rg
62.512 164.609 m 62.062 164.609 61.609 164.684 61.172 164.84 c 59.582 165.402
 58.516 166.91 58.516 168.602 c 58.516 246.508 l 23.891 246.508 l 17.23 
246.508 11.809 251.926 11.809 258.582 c 11.809 265.242 17.23 270.656 23.891
 270.656 c 69.285 270.656 l 76.66 270.656 82.668 264.656 82.668 257.273 
c 82.668 184.336 l 82.668 183.098 82.094 181.93 81.113 181.172 c 75.367 
176.746 70.148 171.672 65.605 166.082 c 64.836 165.129 63.684 164.609 62.512
 164.609 c h
23.891 262.672 m 21.633 262.672 19.797 260.84 19.797 258.582 c 19.797 256.328
 21.633 254.496 23.891 254.496 c 62.512 254.496 l 64.715 254.496 66.504 
252.703 66.504 250.5 c 66.504 178.961 l 69.094 181.543 71.82 183.984 74.684
 186.277 c 74.684 257.273 l 74.684 260.254 72.262 262.676 69.285 262.676
 c 23.891 262.676 l h
78.672 184.336 m 78.691 184.336 l h
78.672 184.336 m f
153.211 316.258 m 155.266 316.258 156.93 317.922 156.93 319.973 c 156.93
 326.172 l 156.93 328.227 155.262 329.891 153.211 329.891 c 151.156 329.891
 149.496 328.227 149.496 326.172 c 149.496 319.973 l 149.492 317.922 151.156
 316.258 153.211 316.258 c h
153.211 316.258 m f
0.643137 0.788235 1 rg
279.734 66.148 m 305.375 70.516 l 307.648 70.902 309.953 70.051 311.492
 68.254 c 315.926 63.074 l 317.039 61.77 317.656 60.086 317.656 58.336 c
 317.656 55.84 316.406 53.527 314.359 52.246 c 274.473 27.234 l 272.219 
25.816 269.547 25.328 266.973 25.844 c 263.852 26.477 261.16 28.527 259.629
 31.445 c 255.133 40.004 l 253.777 42.578 254.426 45.809 256.652 47.598 
c h
279.734 66.148 m f
0.215686 0.384314 0.8 rg
268.996 21.652 m 268.055 21.652 267.113 21.742 266.18 21.934 c 261.867 
22.809 258.188 25.598 256.09 29.59 c 251.594 38.148 l 249.344 42.434 250.422
 47.715 254.148 50.707 c 277.23 69.258 l 277.762 69.684 278.391 69.969 279.062
 70.082 c 304.707 74.449 l 308.387 75.078 312.059 73.73 314.523 70.844 c
 318.957 65.672 l 320.695 63.645 321.648 61.039 321.648 58.336 c 321.648
 54.492 319.668 50.859 316.48 48.863 c 276.59 23.852 l 274.281 22.402 271.652
 21.652 268.996 21.652 c h
281.426 62.383 m 259.152 44.484 l 258.418 43.895 258.203 42.746 258.668
 41.863 c 263.164 33.309 l 264.141 31.449 265.816 30.16 267.762 29.766 c
 269.332 29.449 270.965 29.754 272.348 30.621 c 312.238 55.633 l 313.117
 56.184 313.664 57.219 313.664 58.34 c 313.664 59.141 313.391 59.898 312.891
 60.48 c 308.457 65.66 l 307.832 66.387 306.934 66.734 306.047 66.578 c 
h
281.426 62.383 m f
0.27451 0.443137 0.776471 rg
204.297 166.516 m 212.484 166.516 220.512 164.059 227.516 159.41 c 233.996
 155.109 239.379 149.082 243.164 141.887 c 243.164 141.883 l 284.125 70.047
 l 284.945 68.609 284.637 66.727 283.41 65.699 c 257.426 43.777 l 256.055
 42.625 254.082 42.98 253.121 44.547 c 218.816 100.438 l 215.109 106.074
 l 213.418 108.637 210.715 110.152 207.832 110.152 c 104.43 110.152 l 90.203
 110.152 78.672 122.809 78.672 138.418 c 78.672 166.516 l h
204.297 166.516 m f
0.215686 0.384314 0.8 rg
255.598 39.109 m 255.242 39.109 254.883 39.137 254.527 39.195 c 252.547
 39.512 250.793 40.707 249.715 42.465 c 215.418 98.348 l 211.773 103.879
 l 210.832 105.305 209.359 106.164 207.832 106.164 c 104.43 106.164 l 88.027
 106.164 74.684 120.633 74.684 138.422 c 74.684 166.516 l 74.684 168.723
 76.473 170.508 78.676 170.508 c 204.297 170.508 l 213.27 170.508 222.066
 167.82 229.727 162.738 c 236.746 158.082 242.613 151.512 246.703 143.742
 c 287.594 72.02 l 289.359 68.934 288.668 64.902 285.984 62.645 c 260 40.727
 l 258.75 39.672 257.188 39.109 255.598 39.109 c h
82.668 162.523 m 82.668 138.418 l 82.668 125.035 92.43 114.145 104.43 114.145
 c 207.832 114.145 l 212.051 114.145 216.02 111.945 218.441 108.27 c 222.152
 102.633 l 255.871 47.695 l 280.453 68.426 l 239.699 139.906 l 236.164 146.613
 231.211 152.164 225.309 156.082 c 218.961 160.293 211.695 162.523 204.297
 162.523 c h
280.656 68.066 m 280.68 68.066 l h
280.656 68.066 m f
0.419608 0.866667 0.866667 rg
104.141 110.152 m 159.508 110.152 l 159.508 237.629 l 159.508 255.605 144.938
 270.176 126.965 270.176 c 104.941 270.176 l 90.434 270.176 78.672 258.418
 78.672 243.91 c 78.672 135.621 l 78.672 121.555 90.074 110.152 104.141 
110.152 c h
104.141 110.152 m f
0.215686 0.384314 0.8 rg
159.508 106.16 m 104.141 106.16 l 87.895 106.16 74.68 119.375 74.68 135.621
 c 74.68 243.91 l 74.68 260.594 88.254 274.168 104.938 274.168 c 126.961
 274.168 l 147.109 274.168 163.504 257.777 163.504 237.629 c 163.504 110.152
 l 163.504 107.949 161.711 106.16 159.508 106.16 c h
104.941 266.18 m 92.66 266.18 82.672 256.191 82.672 243.91 c 82.672 135.621
 l 82.672 123.777 92.301 114.145 104.141 114.145 c 155.516 114.145 l 155.516
 237.629 l 155.516 253.375 142.707 266.18 126.965 266.18 c h
104.941 266.18 m f
1 0.917647 0.572549 rg
228.492 101.039 m 228.492 47.441 185.043 3.992 131.445 3.992 c 77.848 3.992
 34.398 47.441 34.398 101.039 c 34.398 154.637 77.848 198.09 131.445 198.09
 c 185.043 198.09 228.492 154.637 228.492 101.039 c h
228.492 101.039 m f
0.215686 0.384314 0.8 rg
131.445 0 m 75.734 0 30.406 45.328 30.406 101.039 c 30.406 156.754 75.734
 202.082 131.445 202.082 c 187.156 202.082 232.484 156.754 232.484 101.039
 c 232.484 45.328 187.156 0 131.445 0 c h
131.445 194.098 m 80.137 194.098 38.391 152.352 38.391 101.039 c 38.391
 49.73 80.137 7.984 131.445 7.984 c 182.754 7.984 224.496 49.73 224.496 
101.039 c 224.496 152.348 182.754 194.098 131.445 194.098 c h
131.445 194.098 m f
0.643137 0.788235 1 rg
206.695 101.039 m 206.695 59.477 173.004 25.793 131.445 25.793 c 89.883
 25.793 56.191 59.477 56.191 101.039 c 56.191 142.598 89.883 176.289 131.445
 176.289 c 173.004 176.289 206.695 142.598 206.695 101.039 c h
206.695 101.039 m f
0.976471 0.811765 0.811765 rg
135.637 315.41 m 135.637 307.531 129.246 301.141 121.363 301.141 c 113.48
 301.141 107.094 307.531 107.094 315.41 c 107.094 323.297 113.48 329.688
 121.363 329.688 c 129.246 329.688 135.637 323.297 135.637 315.41 c h
135.637 315.41 m f
0.215686 0.384314 0.8 rg
136.742 264.398 m 136.309 264.398 135.879 264.469 135.461 264.609 c 132.375
 265.656 129.199 266.18 126.02 266.18 c 105.695 266.18 l 104.605 266.18 
103.414 266.078 102.066 265.867 c 100.918 265.684 99.738 266.012 98.848 
266.77 c 97.961 267.531 97.449 268.641 97.449 269.809 c 97.449 280.785 l
 88.453 289.16 83.324 300.871 83.324 313.203 c 83.324 340.246 l 83.324 364.676
 103.203 384.559 127.637 384.559 c 152.066 384.559 171.941 364.676 171.941
 340.246 c 171.941 320.375 l 176.629 319.43 180.164 315.285 180.164 310.324
 c 180.164 304.668 175.562 300.07 169.91 300.07 c 169.902 300.07 l 165.586
 286.203 154.559 275.176 140.73 270.879 c 140.73 268.391 l 140.73 267.102
 140.109 265.898 139.066 265.148 c 138.383 264.656 137.562 264.398 136.742
 264.398 c h
105.695 274.168 m 126.02 274.168 l 128.273 274.168 130.523 273.961 132.746
 273.547 c 132.746 273.934 l 132.746 275.793 134.031 277.402 135.84 277.824
 c 149.199 280.91 159.844 291.562 162.961 304.965 c 163.387 306.773 164.996
 308.055 166.852 308.055 c 169.914 308.055 l 171.16 308.055 172.18 309.07
 172.18 310.324 c 172.18 311.57 171.16 312.59 169.914 312.59 c 167.953 312.59
 l 165.75 312.59 163.957 314.379 163.957 316.582 c 163.957 340.246 l 163.957
 360.273 147.668 376.57 127.637 376.57 c 107.609 376.57 91.316 360.273 91.316
 340.246 c 91.316 313.203 l 91.316 302.586 95.953 292.527 104.039 285.605
 c 104.93 284.848 105.441 283.738 105.441 282.57 c 105.441 274.168 l h
105.695 274.168 m f
0.27451 0.443137 0.776471 rg
80.094 367.949 m 80.094 367.945 l 87.289 378.934 100.137 386.258 114.801
 386.258 c 117.922 386.258 120.449 383.863 120.449 380.91 c 120.449 379.793
 l 120.449 381.109 120.855 382.34 121.543 383.359 c 121.543 383.363 l 121.543
 383.363 121.738 383.758 122.312 384.297 c 123.074 385.059 124.016 385.645
 125.082 385.969 c 126.574 386.57 128.664 387.066 131.539 387.184 c 131.555
 387.184 l 134.543 387.309 138.379 387.031 143.301 386.035 c 146.879 385.641
 150.301 384.73 153.48 383.371 c 153.492 383.367 153.504 383.367 153.516
 383.363 c 153.516 383.359 l 155.32 382.59 157.047 381.664 158.684 380.621
 c 159.391 380.191 159.75 379.918 159.75 379.914 c 168.934 373.582 174.945
 363.098 174.945 351.23 c 174.945 338.395 l 174.945 337.797 174.453 337.316
 173.848 337.316 c 120.449 337.316 l 120.449 298.988 l 114.012 285.848 l
 113.828 285.473 113.441 285.238 113.02 285.238 c 96.297 285.238 l 94.605
 285.238 92.941 285.48 91.359 285.938 c 91.309 285.957 89.613 286.672 88.922
 287.773 c 87.301 290.375 83.473 296.504 79.992 302.098 c 74.824 310.41 
71.891 319.895 71.66 329.633 c 71.023 356.297 80.094 367.949 80.094 367.949
 c h
80.094 367.949 m f
0.215686 0.384314 0.8 rg
113.02 281.238 m 96.297 281.238 l 94.258 281.238 92.223 281.527 90.254 
282.09 c 90.105 282.133 89.953 282.188 89.809 282.246 c 89.125 282.535 86.801
 283.629 85.531 285.652 c 83.91 288.258 80.082 294.387 76.594 299.984 c 
70.996 308.988 67.906 319.207 67.664 329.531 c 67.023 356.402 75.922 369.047
 76.867 370.312 c 85.137 382.797 99.293 390.25 114.793 390.25 c 117.051 
390.25 119.129 389.492 120.777 388.23 c 121.652 388.867 122.668 389.387 
123.742 389.73 c 125.871 390.562 128.422 391.047 131.336 391.172 c 131.352
 391.172 131.367 391.176 131.383 391.176 c 134.996 391.332 139.203 390.926
 143.906 389.98 c 147.75 389.543 151.488 388.559 155.016 387.055 c 155.059
 387.035 155.102 387.02 155.141 387 c 157.086 386.164 159 385.145 160.82
 383.984 c 161.41 383.625 161.797 383.355 162.062 383.156 c 172.625 375.852
 178.926 363.918 178.926 351.227 c 178.926 338.387 l 178.926 335.594 176.645
 333.316 173.836 333.316 c 124.441 333.316 l 124.441 298.984 l 124.441 298.371
 124.305 297.77 124.035 297.227 c 117.594 284.082 l 116.727 282.324 114.977
 281.238 113.02 281.238 c h
92.742 289.688 m 93.906 289.379 95.102 289.223 96.297 289.223 c 111.219
 289.223 l 116.457 299.91 l 116.457 337.312 l 116.457 339.52 118.246 341.305
 120.449 341.305 c 170.945 341.305 l 170.945 351.227 l 170.945 361.316 165.918
 370.809 157.48 376.625 c 157.43 376.66 157.375 376.699 157.328 376.734 
c 157.246 376.797 157.008 376.969 156.598 377.219 c 155.055 378.199 153.512
 379.016 151.945 379.688 c 151.914 379.699 151.887 379.715 151.855 379.727
 c 148.996 380.938 145.973 381.727 142.867 382.066 c 142.746 382.078 142.625
 382.098 142.508 382.121 c 138.359 382.961 134.734 383.316 131.723 383.195
 c 131.656 383.191 131.578 383.191 131.523 383.191 c 129.098 383.082 127.477
 382.625 126.566 382.266 c 126.461 382.223 126.352 382.184 126.242 382.152
 c 125.832 382.027 125.457 381.797 125.152 381.488 c 125.152 381.488 125.016
 381.352 124.961 381.293 c 124.926 381.238 124.891 381.184 124.855 381.133
 c 124.578 380.723 124.441 380.277 124.441 379.793 c 124.441 377.59 122.652
 375.801 120.449 375.801 c 118.246 375.801 116.457 377.59 116.457 379.793
 c 116.457 380.914 l 116.457 381.648 115.695 382.27 114.801 382.27 c 101.926
 382.27 90.199 376.094 83.43 365.758 c 83.359 365.645 83.277 365.539 83.195
 365.43 c 82.422 364.324 75.09 353.18 75.652 329.723 c 75.859 320.82 78.535
 311.996 83.379 304.203 c 86.805 298.699 90.559 292.688 92.227 290.016 c
 92.34 289.922 92.547 289.789 92.742 289.688 c h
125.121 381.586 m 125.121 381.582 125.117 381.582 125.117 381.582 c 125.117
 381.582 125.121 381.582 125.121 381.586 c h
125.125 381.594 m 125.125 381.59 125.121 381.59 125.121 381.586 c 125.121
 381.59 125.125 381.59 125.125 381.594 c h
125.125 381.594 m f
0.976471 0.811765 0.811765 rg
135.637 315.41 m 135.637 307.531 129.246 301.141 121.363 301.141 c 113.48
 301.141 107.094 307.531 107.094 315.41 c 107.094 323.297 113.48 329.688
 121.363 329.688 c 129.246 329.688 135.637 323.297 135.637 315.41 c h
135.637 315.41 m f
0.215686 0.384314 0.8 rg
264.164 0.805 m 263.199 0.805 262.227 0.91 261.258 1.125 c 257.828 1.895
 254.895 3.953 253.012 6.93 c 249.801 11.992 l 249.234 12.883 249.047 13.969
 249.273 15 c 249.508 16.035 250.141 16.934 251.035 17.5 c 314.18 57.535
 l 316.648 59.102 319.586 59.609 322.434 58.973 c 325.289 58.332 327.715
 56.621 329.285 54.152 c 329.969 53.074 l 333.199 47.98 331.684 41.207 326.586
 37.973 c 271.199 2.855 l 269.059 1.5 266.637 0.805 264.164 0.805 c h
269.059 6.227 m 269.078 6.227 l h
258.684 12.895 m 259.758 11.203 l 260.496 10.035 261.652 9.223 263 8.918
 c 264.355 8.613 265.746 8.855 266.918 9.602 c 322.305 44.715 l 323.68 45.594
 324.094 47.422 323.219 48.797 c 322.535 49.875 l 322.113 50.539 321.453
 51.004 320.684 51.176 c 319.914 51.352 319.121 51.211 318.457 50.789 c 
h
258.684 12.895 m f
131.445 21.797 m 87.746 21.797 52.203 57.344 52.203 101.039 c 52.203 144.734
 87.75 180.285 131.445 180.285 c 175.137 180.285 210.688 144.734 210.688
 101.039 c 210.688 57.344 175.141 21.797 131.445 21.797 c h
131.445 172.297 m 92.152 172.297 60.191 140.328 60.191 101.043 c 60.191
 61.75 92.152 29.785 131.445 29.785 c 170.734 29.785 202.699 61.75 202.699
 101.043 c 202.699 140.328 170.734 172.297 131.445 172.297 c h
131.445 172.297 m f
0.878431 0.921569 0.988235 rg
131.445 62.188 m 110.02 62.188 92.594 79.621 92.594 101.039 c 92.594 122.461
 110.02 139.891 131.445 139.891 c 152.867 139.891 170.297 122.461 170.297
 101.039 c 170.297 79.621 152.867 62.188 131.445 62.188 c h
131.445 62.188 m f
0.976471 0.811765 0.811765 rg
35.23 117.82 m 42.117 135.828 l 70.156 220.922 l 70.16 220.922 70.16 220.918
 70.16 220.918 c 96.98 197.234 l 97.117 197.113 97.266 197.016 97.418 196.922
 c 65.875 128.723 l 65.188 108.141 l 65.164 107.406 65.031 106.676 64.785
 105.984 c 62.949 100.809 l 61.758 97.434 58.266 95.449 54.754 96.16 c 40.562
 99.035 l 37.258 99.703 34.863 102.582 34.809 105.957 c 34.664 114.609 l
 34.645 115.703 34.836 116.801 35.23 117.82 c h
35.23 117.82 m f
0.215686 0.384314 0.8 rg
56.152 92.027 m 55.43 92.027 54.695 92.102 53.957 92.246 c 39.773 95.121
 l 34.668 96.152 30.902 100.684 30.812 105.891 c 30.672 114.539 l 30.645
 116.156 30.926 117.742 31.5 119.246 c 38.387 137.254 l 66.367 222.168 l
 66.801 223.484 67.887 224.484 69.238 224.805 c 70.523 225.113 71.875 224.758
 72.852 223.871 c 99.629 200.227 l 101.348 199.168 101.891 197.082 101.043
 195.25 c 69.844 127.773 l 69.184 108.004 l 69.148 106.863 68.934 105.734
 68.551 104.645 c 66.723 99.473 l 65.117 94.965 60.797 92.027 56.152 92.027
 c h
38.961 116.398 m 38.75 115.844 38.645 115.266 38.656 114.672 c 38.797 106.023
 l 38.824 104.531 39.902 103.242 41.359 102.945 c 55.543 100.07 l 57.102
 99.762 58.656 100.645 59.184 102.133 c 61.016 107.309 l 61.125 107.621 
61.188 107.941 61.195 108.262 c 61.887 128.852 l 61.906 129.383 62.027 129.906
 62.254 130.391 c 92.52 195.848 l 72.055 213.918 l 45.906 134.582 l h
38.961 116.398 m f
0.419608 0.866667 0.866667 rg
70.16 220.918 m 96.98 197.234 l 98.281 196.094 100.258 196.215 101.398 
197.512 c 134.715 235.242 l 142.398 243.945 141.57 257.23 132.871 264.914
 c 124.168 272.598 110.883 271.773 103.203 263.07 c 69.887 225.34 l 68.742
 224.039 68.867 222.062 70.16 220.918 c h
70.16 220.918 m f
0.215686 0.384314 0.8 rg
99.043 192.457 m 97.305 192.457 95.652 193.086 94.34 194.246 c 67.52 217.926
 l 66.094 219.18 65.242 220.926 65.121 222.824 c 65.008 224.723 65.637 226.555
 66.898 227.977 c 100.211 265.711 l 104.633 270.719 110.742 273.703 117.41
 274.121 c 124.086 274.539 130.508 272.328 135.516 267.906 c 145.855 258.773
 146.84 242.938 137.711 232.598 c 104.395 194.867 l 103.137 193.441 101.395
 192.59 99.496 192.469 c 99.344 192.461 99.195 192.457 99.043 192.457 c 
h
99.625 200.23 m 99.645 200.23 l h
73.453 223.336 m 98.977 200.801 l 131.723 237.887 l 137.938 244.926 137.266
 255.703 130.227 261.918 c 126.82 264.93 122.441 266.43 117.902 266.148 
c 113.363 265.871 109.207 263.832 106.195 260.426 c h
72.805 223.91 m 72.809 223.91 72.809 223.91 72.805 223.91 c h
72.805 223.91 m f
0.878431 0.921569 0.988235 rg
253.176 14.129 m 265.977 22.246 l 226.875 83.473 l 225.648 76.758 223.742
 70.281 221.207 64.125 c 255.395 10.594 l 255.41 10.605 l h
253.176 14.129 m f
0.215686 0.384314 0.8 rg
255.398 6.609 m 254.078 6.609 252.785 7.258 252.027 8.445 c 217.84 61.977
 l 217.141 63.074 217.02 64.441 217.516 65.648 c 219.953 71.574 221.785 
77.816 222.949 84.191 c 223.246 85.809 224.496 87.074 226.113 87.395 c 227.723
 87.719 229.359 87.004 230.242 85.625 c 269.34 24.398 l 269.914 23.504 270.105
 22.418 269.875 21.379 c 269.645 20.344 269.012 19.441 268.117 18.875 c 
258.684 12.895 l 258.781 12.742 l 259.352 11.848 259.539 10.758 259.305 
9.723 c 259.066 8.684 258.426 7.785 257.523 7.223 c 256.863 6.805 256.125
 6.609 255.398 6.609 c h
225.672 64.547 m 254.367 19.617 l 260.453 23.48 l 228.613 73.34 l 227.766
 70.359 226.785 67.422 225.672 64.547 c h
225.672 64.547 m f
0.976471 0.654902 0.654902 rg
245.559 174.734 m 234.102 174.734 226.094 187.07 233.777 199.527 c 234.012
 199.906 234.324 200.25 234.684 200.516 c 247.004 209.574 260.191 201.418
 260.191 189.562 c 260.195 181.23 253.691 174.734 245.559 174.734 c h
236.047 317.293 m 253.648 317.293 l 255.562 317.293 257.094 315.715 257.039
 313.805 c 254.594 222.105 l 254.543 220.266 253.039 218.801 251.203 218.801
 c 238.512 218.801 l 236.676 218.801 235.168 220.266 235.121 222.102 c 232.656
 313.805 l 232.605 315.711 234.137 317.293 236.047 317.293 c h
236.047 317.293 m f
0.27451 0.443137 0.776471 rg
427.293 354.422 m 280.855 354.422 l 277.387 354.422 274.629 351.523 274.75
 348.051 c 277.832 259.707 354.078 321 354.078 321 c 354.078 321 430.32 
259.707 433.398 348.051 c 433.523 351.523 430.77 354.422 427.293 354.422
 c h
427.293 354.422 m f
0.878431 0.921569 0.988235 rg
300.84 313.488 m 289.523 318.594 284.484 331.906 289.586 343.223 c 330.578
 324.742 l 325.473 313.422 312.16 308.391 300.84 313.488 c h
300.84 313.488 m f
407.309 313.488 m 395.992 308.391 382.68 313.426 377.574 324.742 c 418.566
 343.223 l 423.668 331.902 418.629 318.59 407.309 313.488 c h
407.309 313.488 m f
0.643137 0.788235 1 rg
300.84 313.488 m 289.523 318.594 284.484 331.906 289.586 343.223 c 330.578
 324.742 l 325.473 313.422 312.16 308.391 300.84 313.488 c h
300.84 313.488 m f
407.309 313.488 m 395.992 308.391 382.68 313.426 377.574 324.742 c 418.566
 343.223 l 423.668 331.902 418.629 318.59 407.309 313.488 c h
407.309 313.488 m f
0.27451 0.443137 0.776471 rg
381.289 474.008 m 375.645 474.008 l 369.812 474.008 364.266 471.453 360.48
 467.012 c 357.117 463.078 351.035 463.078 347.68 467.012 c 343.887 471.453
 338.348 474.008 332.508 474.008 c 326.867 474.008 l 320.559 474.008 314.887
 470.145 312.57 464.273 c 293.34 415.457 l 414.82 415.457 l 395.582 464.273
 l 393.27 470.145 387.602 474.008 381.289 474.008 c h
381.289 474.008 m f
0.878431 0.921569 0.988235 rg
414.816 415.461 m 293.336 415.461 l 285.043 399.168 l 423.109 399.168 l
 h
414.816 415.461 m f
0.27451 0.443137 0.776471 rg
423.109 399.168 m 285.043 399.168 l 249.023 386.098 l 246.684 385.25 245.121
 383.027 245.121 380.539 c 245.121 377.273 247.77 374.625 251.039 374.625
 c 457.109 374.625 l 460.375 374.625 463.023 377.273 463.023 380.539 c 463.023
 383.027 461.469 385.25 459.129 386.098 c h
423.109 399.168 m f
0.215686 0.384314 0.8 rg
457.113 370.633 m 251.039 370.633 l 245.578 370.633 241.133 375.078 241.133
 380.539 c 241.133 384.695 243.754 388.434 247.66 389.852 c 282.203 402.387
 l 289.688 417.098 l 308.855 465.738 l 311.793 473.188 318.859 478 326.867
 478 c 332.508 478 l 339.523 478 346.16 474.941 350.711 469.605 c 352.418
 467.609 355.73 467.605 357.441 469.605 c 361.996 474.938 368.633 477.996
 375.645 477.996 c 381.289 477.996 l 389.293 477.996 396.363 473.184 399.301
 465.734 c 418.465 417.098 l 425.957 402.383 l 460.492 389.848 l 460.496
 389.848 l 464.402 388.434 467.023 384.691 467.023 380.535 c 467.016 375.078
 462.574 370.633 457.113 370.633 c h
326.867 470.016 m 322.164 470.016 318.008 467.188 316.285 462.812 c 297.047
 413.996 l 297.004 413.879 296.949 413.762 296.891 413.648 c 288.605 397.355
 l 288.145 396.449 287.359 395.758 286.406 395.414 c 250.383 382.344 l 249.625
 382.066 249.117 381.344 249.117 380.535 c 249.117 379.48 249.98 378.617
 251.039 378.617 c 457.113 378.617 l 458.168 378.617 459.031 379.48 459.031
 380.535 c 459.031 381.344 458.523 382.07 457.77 382.344 c 421.746 395.414
 l 420.793 395.758 420.004 396.449 419.551 397.355 c 411.258 413.648 l 411.199
 413.762 411.145 413.879 411.102 413.996 c 391.867 462.812 l 390.145 467.188
 385.988 470.016 381.289 470.016 c 375.645 470.016 l 370.969 470.016 366.547
 467.973 363.516 464.422 c 361.152 461.652 357.715 460.07 354.078 460.07
 c 350.438 460.07 347 461.652 344.637 464.422 c 341.598 467.977 337.18 470.02
 332.504 470.02 c 326.867 470.02 l h
326.867 470.016 m f
306.102 296.32 m 301.469 296.32 296.938 297.129 292.715 299.066 c 279.059
 305.32 271.668 321.754 270.758 347.914 c 270.66 350.699 271.672 353.336
 273.605 355.336 c 275.523 357.32 278.102 358.414 280.859 358.414 c 427.293
 358.414 l 430.055 358.414 432.633 357.32 434.551 355.336 c 436.48 353.336
 437.492 350.699 437.395 347.914 c 436.48 321.754 429.094 305.32 415.434
 299.066 c 393.449 288.992 363.004 309.402 354.082 315.98 c 346.867 310.668
 325.602 296.324 306.102 296.32 c h
280.859 350.43 m 280.086 350.43 279.578 350.023 279.352 349.785 c 279.109
 349.535 278.711 349 278.738 348.191 c 279.539 325.301 285.359 311.215 296.043
 306.324 c 317.078 296.695 351.234 323.84 351.574 324.117 c 353.031 325.289
 355.113 325.289 356.578 324.121 c 356.863 323.887 381.594 304.266 401.898
 304.262 c 405.5 304.262 408.957 304.879 412.117 306.328 c 422.793 311.223
 428.613 325.309 429.406 348.191 c 429.438 349 429.039 349.535 428.797 349.785
 c 428.57 350.023 428.066 350.43 427.289 350.43 c h
280.859 350.43 m f
Q Q
showpage
%%Trailer
end restore
%%EOF
