%!PS-Adobe-3.0 EPSF-3.0
%%Creator: cairo 1.14.8 (http://cairographics.org)
%%CreationDate: Wed Mar 20 09:06:38 2019
%%Pages: 1
%%DocumentData: Clean7Bit
%%LanguageLevel: 2
%%BoundingBox: 1 0 487 488
%%EndComments
%%BeginProlog
save
50 dict begin
/q { gsave } bind def
/Q { grestore } bind def
/cm { 6 array astore concat } bind def
/w { setlinewidth } bind def
/J { setlinecap } bind def
/j { setlinejoin } bind def
/M { setmiterlimit } bind def
/d { setdash } bind def
/m { moveto } bind def
/l { lineto } bind def
/c { curveto } bind def
/h { closepath } bind def
/re { exch dup neg 3 1 roll 5 3 roll moveto 0 rlineto
      0 exch rlineto 0 rlineto closepath } bind def
/S { stroke } bind def
/f { fill } bind def
/f* { eofill } bind def
/n { newpath } bind def
/W { clip } bind def
/W* { eoclip } bind def
/BT { } bind def
/ET { } bind def
/pdfmark where { pop globaldict /?pdfmark /exec load put }
    { globaldict begin /?pdfmark /pop load def /pdfmark
    /cleartomark load def end } ifelse
/BDC { mark 3 1 roll /BDC pdfmark } bind def
/EMC { mark /EMC pdfmark } bind def
/cairo_store_point { /cairo_point_y exch def /cairo_point_x exch def } def
/Tj { show currentpoint cairo_store_point } bind def
/TJ {
  {
    dup
    type /stringtype eq
    { show } { -0.001 mul 0 cairo_font_matrix dtransform rmoveto } ifelse
  } forall
  currentpoint cairo_store_point
} bind def
/cairo_selectfont { cairo_font_matrix aload pop pop pop 0 0 6 array astore
    cairo_font exch selectfont cairo_point_x cairo_point_y moveto } bind def
/Tf { pop /cairo_font exch def /cairo_font_matrix where
      { pop cairo_selectfont } if } bind def
/Td { matrix translate cairo_font_matrix matrix concatmatrix dup
      /cairo_font_matrix exch def dup 4 get exch 5 get cairo_store_point
      /cairo_font where { pop cairo_selectfont } if } bind def
/Tm { 2 copy 8 2 roll 6 array astore /cairo_font_matrix exch def
      cairo_store_point /cairo_font where { pop cairo_selectfont } if } bind def
/g { setgray } bind def
/rg { setrgbcolor } bind def
/d1 { setcachedevice } bind def
%%EndProlog
%%BeginSetup
%%EndSetup
%%Page: 1 1
%%BeginPageSetup
%%PageBoundingBox: 1 0 487 488
%%EndPageSetup
q 1 0 486 488 rectclip q
0.976471 0.654902 0.654902 rg
322.312 6.789 m 391.59 50.711 l 395.641 53.285 396.844 58.652 394.273 62.707
 c 393.418 64.055 l 390.848 68.113 385.48 69.316 381.426 66.742 c 302.449
 16.676 l 306.465 10.344 l 309.863 4.98 316.961 3.395 322.312 6.789 c h
322.312 6.789 m f
0.976471 0.811765 0.811765 rg
145.445 474.961 m 173.293 474.961 195.867 452.387 195.867 424.543 c 195.867
 394.949 l 198.32 394.949 l 202.645 394.949 206.152 391.441 206.152 387.113
 c 206.152 382.789 202.645 379.281 198.32 379.281 c 194.492 379.281 l 190.156
 360.621 175.508 345.918 156.832 341.605 c 156.832 334.672 l 152.617 336.098
 148.117 336.902 143.426 336.902 c 118.012 336.902 l 116.191 336.902 114.426
 336.723 112.688 336.445 c 112.688 352.406 l 101.883 361.652 95.027 375.383
 95.027 390.719 c 95.027 424.543 l 95.023 452.387 117.598 474.961 145.445
 474.961 c h
145.445 474.961 m f
0.976471 0.654902 0.654902 rg
15.688 332.512 m 72.465 332.512 l 78.953 332.512 84.211 327.25 84.211 320.766
 c 84.211 229.543 l 76.73 223.785 69.945 217.184 63.988 209.863 c 63.988
 312.293 l 15.688 312.293 l 10.105 312.293 5.578 316.82 5.578 322.402 c 
5.582 327.984 10.105 332.512 15.688 332.512 c h
15.688 332.512 m f
0.215686 0.384314 0.8 rg
63.988 205.871 m 63.543 205.871 63.094 205.949 62.656 206.102 c 61.059 
206.664 59.996 208.176 59.996 209.863 c 59.996 308.297 l 15.688 308.297 
l 7.914 308.297 1.586 314.621 1.586 322.402 c 1.586 330.184 7.914 336.508
 15.688 336.508 c 72.465 336.508 l 81.141 336.508 88.203 329.449 88.203 
320.766 c 88.203 229.543 l 88.203 228.305 87.629 227.137 86.648 226.379 
c 79.402 220.801 72.82 214.395 67.09 207.348 c 66.32 206.395 65.172 205.871
 63.988 205.871 c h
15.691 328.516 m 12.316 328.516 9.578 325.773 9.578 322.402 c 9.578 319.031
 12.316 316.289 15.691 316.289 c 63.992 316.289 l 66.199 316.289 67.988 
314.496 67.988 312.293 c 67.988 220.383 l 71.809 224.34 75.898 228.055 80.215
 231.492 c 80.215 320.766 l 80.215 325.039 76.738 328.516 72.469 328.516
 c h
84.211 229.543 m 84.23 229.543 l h
84.211 229.543 m f
177.43 394.535 m 180 394.535 182.082 396.617 182.082 399.184 c 182.082 
406.938 l 182.082 409.504 180 411.582 177.43 411.582 c 174.859 411.582 172.781
 409.504 172.781 406.938 c 172.781 399.184 l 172.781 396.617 174.859 394.535
 177.43 394.535 c h
177.43 394.535 m f
0.643137 0.788235 1 rg
335.668 81.727 m 367.742 87.188 l 370.586 87.672 373.465 86.605 375.391
 84.359 c 380.934 77.883 l 382.324 76.258 383.094 74.145 383.094 71.957 
c 383.094 68.836 381.531 65.945 378.98 64.344 c 329.086 33.062 l 326.27 
31.293 322.93 30.68 319.707 31.324 c 315.805 32.113 312.441 34.676 310.527
 38.328 c 304.902 49.035 l 303.211 52.254 304.02 56.293 306.805 58.527 c
 h
335.668 81.727 m f
0.215686 0.384314 0.8 rg
322.242 27.082 m 321.133 27.082 320.023 27.191 318.918 27.414 c 313.824
 28.438 309.473 31.742 306.988 36.477 c 301.363 47.18 l 298.773 52.113 300.008
 58.195 304.297 61.645 c 333.168 84.844 l 333.695 85.27 334.324 85.551 334.996
 85.668 c 367.074 91.129 l 371.324 91.852 375.57 90.293 378.426 86.957 c
 383.969 80.48 l 385.98 78.129 387.09 75.102 387.09 71.957 c 387.09 67.484
 384.797 63.273 381.098 60.957 c 331.207 29.68 l 328.48 27.965 325.383 27.082
 322.242 27.082 c h
337.359 77.965 m 309.305 55.414 l 308.004 54.371 307.633 52.426 308.438
 50.895 c 314.059 40.191 l 315.422 37.594 317.762 35.797 320.492 35.246 
c 322.711 34.801 325.008 35.223 326.961 36.449 c 376.852 67.73 l 378.238
 68.602 379.098 70.219 379.098 71.961 c 379.098 73.203 378.672 74.383 377.895
 75.289 c 372.352 81.766 l 371.34 82.949 369.859 83.504 368.414 83.254 c
 h
337.359 77.965 m f
0.27451 0.443137 0.776471 rg
241.328 207.258 m 251.562 207.258 261.605 204.184 270.367 198.371 c 278.469
 192.996 285.203 185.453 289.938 176.453 c 289.938 176.449 l 341.164 86.602
 l 342.188 84.809 341.801 82.457 340.27 81.168 c 307.766 53.754 l 306.055
 52.312 303.59 52.754 302.383 54.719 c 259.48 124.617 l 254.844 131.664 
l 252.73 134.871 249.348 136.766 245.742 136.766 c 116.418 136.766 l 98.633
 136.766 84.211 152.594 84.211 172.117 c 84.211 207.258 l h
241.328 207.258 m f
0.215686 0.384314 0.8 rg
305.484 48.91 m 305.094 48.91 304.699 48.941 304.309 49.004 c 302.117 49.355
 300.18 50.676 298.98 52.629 c 256.078 122.527 l 251.508 129.465 l 250.145
 131.539 247.992 132.77 245.742 132.77 c 116.418 132.77 l 96.453 132.77 
80.215 150.422 80.215 172.117 c 80.215 207.254 l 80.215 209.461 82.008 211.25
 84.211 211.25 c 241.328 211.25 l 252.352 211.25 263.156 207.949 272.57 
201.699 c 281.215 195.969 288.438 187.879 293.473 178.312 c 344.637 88.582
 l 346.602 85.129 345.836 80.629 342.848 78.113 c 310.344 50.703 l 308.965
 49.539 307.242 48.91 305.484 48.91 c h
88.207 203.266 m 88.207 172.121 l 88.207 154.828 100.863 140.766 116.418
 140.766 c 245.746 140.766 l 250.688 140.766 255.34 138.184 258.184 133.859
 c 262.82 126.816 l 305.586 57.141 l 337.695 84.219 l 337.734 84.273 337.773
 84.488 337.695 84.625 c 286.465 174.473 l 281.984 182.98 275.68 190.055
 268.156 195.043 c 260.051 200.418 250.773 203.266 241.324 203.266 c h
88.207 203.266 m f
0.419608 0.866667 0.866667 rg
116.059 136.766 m 185.309 136.766 l 185.309 296.199 l 185.309 318.68 167.086
 336.898 144.609 336.898 c 117.059 336.898 l 98.918 336.898 84.211 322.195
 84.211 304.055 c 84.211 168.613 l 84.211 151.027 98.473 136.766 116.059
 136.766 c h
116.059 136.766 m f
0.215686 0.384314 0.8 rg
185.309 132.77 m 116.059 132.77 l 96.293 132.77 80.215 148.852 80.215 168.613
 c 80.215 304.059 l 80.215 324.371 96.746 340.898 117.062 340.898 c 144.609
 340.898 l 169.254 340.898 189.305 320.844 189.305 296.199 c 189.305 136.77
 l 189.305 134.559 187.512 132.77 185.309 132.77 c h
117.059 332.906 m 101.152 332.906 88.207 319.965 88.207 304.055 c 88.207
 168.613 l 88.207 153.258 100.699 140.762 116.059 140.762 c 181.312 140.762
 l 181.312 296.195 l 181.312 316.438 164.844 332.906 144.605 332.906 c h
117.059 332.906 m f
1 0.917647 0.572549 rg
271.586 125.367 m 271.586 58.336 217.242 3.996 150.211 3.996 c 83.176 3.996
 28.836 58.336 28.836 125.367 c 28.836 192.402 83.176 246.742 150.211 246.742
 c 217.242 246.742 271.586 192.402 271.586 125.367 c h
271.586 125.367 m f
0.215686 0.384314 0.8 rg
150.211 0 m 81.082 0 24.84 56.242 24.84 125.367 c 24.84 194.496 81.082 
250.738 150.211 250.738 c 219.34 250.738 275.578 194.496 275.578 125.367
 c 275.578 56.242 219.34 0 150.211 0 c h
150.211 242.746 m 85.488 242.746 32.832 190.094 32.832 125.367 c 32.832
 60.645 85.488 7.992 150.211 7.992 c 214.934 7.992 267.59 60.645 267.59 
125.367 c 267.59 190.094 214.934 242.746 150.211 242.746 c h
150.211 242.746 m f
0.643137 0.788235 1 rg
244.324 125.367 m 244.324 73.391 202.188 31.254 150.211 31.254 c 98.234
 31.254 56.098 73.391 56.098 125.367 c 56.098 177.344 98.234 219.484 150.211
 219.484 c 202.188 219.484 244.324 177.344 244.324 125.367 c h
244.324 125.367 m f
0.976471 0.811765 0.811765 rg
155.453 393.477 m 155.453 383.617 147.461 375.629 137.605 375.629 c 127.746
 375.629 119.75 383.617 119.75 393.477 c 119.75 403.336 127.746 411.328 
137.605 411.328 c 147.461 411.328 155.453 403.336 155.453 393.477 c h
155.453 393.477 m f
0.215686 0.384314 0.8 rg
156.832 330.676 m 156.402 330.676 155.969 330.746 155.551 330.887 c 151.586
 332.227 147.508 332.906 143.426 332.906 c 118.012 332.906 l 116.586 332.906
 115.055 332.773 113.312 332.496 c 112.16 332.316 110.984 332.645 110.094
 333.406 c 109.203 334.16 108.691 335.273 108.691 336.445 c 108.691 350.605
 l 97.441 360.914 91.027 375.43 91.027 390.719 c 91.027 424.543 l 91.027
 454.547 115.438 478.957 145.441 478.957 c 175.449 478.957 199.863 454.547
 199.863 424.543 c 199.863 398.84 l 205.656 398.086 210.141 393.113 210.141
 387.113 c 210.141 380.594 204.836 375.289 198.316 375.289 c 197.566 375.289
 l 192.352 357.695 178.375 343.711 160.828 338.527 c 160.828 334.672 l 160.828
 333.387 160.207 332.176 159.16 331.426 c 158.473 330.93 157.66 330.676 
156.832 330.676 c h
118.012 340.895 m 143.43 340.895 l 146.582 340.895 149.73 340.562 152.84
 339.906 c 152.84 341.605 l 152.84 343.461 154.125 345.078 155.934 345.496
 c 173.016 349.445 186.625 363.059 190.598 380.188 c 191.023 382 192.637
 383.277 194.492 383.277 c 198.32 383.277 l 200.434 383.277 202.156 385 
202.156 387.113 c 202.156 389.23 200.434 390.953 198.32 390.953 c 195.867
 390.953 l 193.66 390.953 191.871 392.738 191.871 394.949 c 191.871 424.543
 l 191.871 450.141 171.043 470.965 145.445 470.965 c 119.844 470.965 99.02
 450.141 99.02 424.543 c 99.02 390.719 l 99.02 377.145 104.949 364.285 115.289
 355.438 c 116.172 354.68 116.684 353.566 116.684 352.402 c 116.684 340.867
 l 117.133 340.887 117.574 340.895 118.012 340.895 c h
118.012 340.895 m f
0.27451 0.443137 0.776471 rg
85.984 459.184 m 85.988 459.18 l 94.984 472.922 111.055 482.082 129.391
 482.082 c 133.293 482.082 136.457 479.09 136.457 475.398 c 136.457 473.992
 l 136.457 475.648 136.961 477.176 137.824 478.461 c 137.824 478.461 138.066
 478.957 138.781 479.629 c 139.73 480.586 140.914 481.316 142.246 481.723
 c 144.117 482.473 146.727 483.094 150.324 483.242 c 150.344 483.242 l 154.082
 483.398 158.875 483.051 165.031 481.805 c 169.512 481.312 173.789 480.168
 177.766 478.473 c 177.777 478.469 177.797 478.465 177.809 478.461 c 177.809
 478.453 l 180.07 477.484 182.227 476.336 184.27 475.031 c 185.16 474.484
 185.605 474.145 185.605 474.145 c 197.09 466.223 204.605 453.113 204.605
 438.27 c 204.605 422.215 l 204.605 421.469 203.992 420.867 203.238 420.867
 c 136.457 420.867 l 136.457 372.93 l 128.402 356.492 l 128.176 356.031 
127.695 355.73 127.168 355.73 c 106.25 355.73 l 104.137 355.73 102.059 356.035
 100.07 356.602 c 100.008 356.625 97.891 357.523 97.027 358.902 c 94.996
 362.156 90.207 369.816 85.859 376.82 c 79.395 387.211 75.727 399.074 75.438
 411.254 c 74.641 444.613 85.984 459.184 85.984 459.184 c h
85.984 459.184 m f
0.215686 0.384314 0.8 rg
127.168 351.738 m 106.25 351.738 l 103.793 351.738 101.344 352.086 98.973
 352.766 c 98.812 352.812 98.652 352.867 98.504 352.934 c 97.496 353.359
 95.008 354.594 93.637 356.785 c 91.605 360.039 86.816 367.707 82.465 374.711
 c 75.555 385.82 71.742 398.426 71.441 411.16 c 70.645 444.586 81.688 460.121
 82.762 461.551 c 92.906 476.91 110.32 486.078 129.391 486.078 c 132.262
 486.078 134.887 485.016 136.852 483.273 c 138.008 484.234 139.406 485.012
 140.914 485.492 c 143.48 486.492 146.574 487.078 150.117 487.234 c 150.152
 487.234 150.188 487.234 150.219 487.238 c 154.652 487.422 159.844 486.918
 165.648 485.758 c 170.363 485.223 174.953 484.016 179.301 482.164 c 179.336
 482.148 179.375 482.133 179.414 482.117 c 181.816 481.086 184.168 479.84
 186.418 478.406 c 186.855 478.137 187.426 477.773 187.883 477.434 c 200.855
 468.48 208.602 453.844 208.602 438.277 c 208.602 422.219 l 208.602 419.273
 206.195 416.879 203.234 416.879 c 140.453 416.879 l 140.453 372.934 l 140.453
 372.328 140.312 371.727 140.043 371.18 c 131.988 354.742 l 131.098 352.918
 129.203 351.738 127.168 351.738 c h
101.445 360.367 m 103.016 359.941 104.633 359.727 106.25 359.727 c 125.535
 359.727 l 132.461 373.859 l 132.461 420.871 l 132.461 423.074 134.25 424.863
 136.457 424.863 c 200.613 424.863 l 200.613 438.27 l 200.613 451.215 194.156
 463.398 183.344 470.855 c 183.293 470.891 183.238 470.93 183.188 470.969
 c 183.094 471.035 182.762 471.273 182.188 471.625 c 180.234 472.871 178.254
 473.914 176.238 474.781 c 176.219 474.789 176.199 474.797 176.18 474.809
 c 172.5 476.379 168.602 477.391 164.598 477.832 c 164.48 477.848 164.359
 477.863 164.246 477.887 c 158.977 478.953 154.363 479.414 150.516 479.254
 c 150.449 479.25 150.379 479.25 150.312 479.25 c 147.766 479.137 145.492
 478.719 143.734 478.016 c 143.629 477.973 143.523 477.934 143.41 477.898
 c 142.742 477.695 142.125 477.32 141.625 476.816 c 141.504 476.699 141.422
 476.613 141.363 476.555 c 141.309 476.395 141.312 476.488 141.141 476.23
 c 140.691 475.562 140.453 474.789 140.453 473.992 c 140.453 471.789 138.66
 470 136.457 470 c 134.25 470 132.461 471.789 132.461 473.992 c 132.461 
475.398 l 132.461 476.879 131.086 478.086 129.391 478.086 c 112.953 478.086
 97.977 470.199 89.328 456.996 c 89.25 456.879 89.168 456.766 89.082 456.656
 c 88.168 455.363 78.715 441.238 79.43 411.352 c 79.699 400.039 83.09 388.828
 89.25 378.934 c 93.598 371.934 98.383 364.273 100.414 361.02 c 100.523 
360.898 101.02 360.578 101.445 360.367 c h
101.445 360.367 m f
0.976471 0.811765 0.811765 rg
155.453 393.477 m 155.453 383.617 147.461 375.629 137.605 375.629 c 127.746
 375.629 119.75 383.617 119.75 393.477 c 119.75 403.336 127.746 411.328 
137.605 411.328 c 147.461 411.328 155.453 403.336 155.453 393.477 c h
155.453 393.477 m f
0.215686 0.384314 0.8 rg
316.191 1.016 m 311.059 1.016 306.035 3.555 303.09 8.195 c 299.074 14.535
 l 297.895 16.395 298.445 18.863 300.312 20.047 c 379.281 70.113 l 382.148
 71.93 385.543 72.523 388.848 71.781 c 392.156 71.039 394.98 69.055 396.793
 66.195 c 397.648 64.844 l 399.465 61.98 400.055 58.586 399.312 55.277 c
 398.574 51.973 396.59 49.152 393.73 47.332 c 324.453 3.414 l 321.887 1.789
 319.023 1.016 316.191 1.016 c h
307.961 15.438 m 309.84 12.477 l 312.051 8.988 316.688 7.957 320.176 10.164
 c 389.449 54.082 l 390.508 54.754 391.246 55.801 391.52 57.023 c 391.797
 58.25 391.574 59.508 390.902 60.562 c 390.047 61.914 l 389.371 62.977 388.332
 63.707 387.105 63.984 c 385.875 64.258 384.621 64.039 383.566 63.371 c 
h
307.961 15.438 m f
150.211 27.262 m 96.109 27.262 52.102 71.27 52.102 125.367 c 52.102 179.469
 96.109 223.477 150.211 223.477 c 204.305 223.477 248.32 179.469 248.32 
125.367 c 248.32 71.27 204.305 27.262 150.211 27.262 c h
150.211 215.488 m 100.52 215.488 60.094 175.059 60.094 125.367 c 60.094
 75.68 100.52 35.25 150.211 35.25 c 199.902 35.25 240.328 75.68 240.328 
125.367 c 240.328 175.059 199.902 215.488 150.211 215.488 c h
150.211 215.488 m f
0.878431 0.921569 0.988235 rg
150.211 75.203 m 122.547 75.203 100.043 97.707 100.043 125.367 c 100.043
 153.031 122.547 175.535 150.211 175.535 c 177.867 175.535 200.375 153.031
 200.375 125.367 c 200.375 97.707 177.871 75.203 150.211 75.203 c h
150.211 75.203 m f
0.976471 0.811765 0.811765 rg
29.875 146.359 m 38.488 168.879 l 73.555 275.301 l 73.559 275.297 73.559
 275.297 73.562 275.293 c 107.105 245.676 l 107.277 245.531 107.461 245.406
 107.648 245.289 c 68.203 159.988 l 67.344 134.246 l 67.312 133.328 67.141
 132.414 66.832 131.551 c 64.543 125.078 l 63.051 120.855 58.676 118.383
 54.289 119.266 c 36.547 122.859 l 32.406 123.695 29.41 127.301 29.34 131.52
 c 29.164 142.336 l 29.145 143.711 29.387 145.074 29.875 146.359 c h
29.875 146.359 m f
0.215686 0.384314 0.8 rg
56.047 115.098 m 55.203 115.098 54.348 115.18 53.5 115.352 c 35.754 118.938
 l 29.828 120.145 25.449 125.402 25.352 131.453 c 25.172 142.27 l 25.141
 144.164 25.469 146.02 26.145 147.785 c 34.758 170.309 l 69.77 276.551 l
 70.242 278 71.504 279.047 73.016 279.258 c 74.211 279.422 75.398 279.035
 76.27 278.238 c 109.754 248.672 l 111.473 247.609 112.129 245.445 111.281
 243.609 c 72.176 159.043 l 71.344 134.113 l 71.297 132.781 71.051 131.473
 70.605 130.215 c 68.316 123.746 l 66.461 118.504 61.441 115.098 56.047 
115.098 c h
75.457 268.297 m 42.285 167.629 l 33.609 144.93 l 33.301 144.125 33.148
 143.273 33.164 142.402 c 33.34 131.586 l 33.383 129.258 35.062 127.238 
37.344 126.773 c 55.086 123.184 l 57.5 122.691 59.957 124.082 60.781 126.41
 c 63.074 132.883 l 63.246 133.367 63.34 133.867 63.359 134.379 c 64.215
 160.121 l 64.234 160.656 64.359 161.176 64.582 161.66 c 102.75 244.199 
l h
29.875 146.359 m 29.895 146.359 l h
29.875 146.359 m f
0.419608 0.866667 0.866667 rg
73.562 275.293 m 107.109 245.676 l 108.73 244.25 111.207 244.402 112.637
 246.02 c 154.305 293.211 l 163.914 304.098 162.879 320.707 151.996 330.316
 c 141.113 339.934 124.5 338.898 114.891 328.012 c 73.219 280.824 l 71.789
 279.199 71.945 276.727 73.562 275.293 c h
73.562 275.293 m f
0.215686 0.384314 0.8 rg
109.691 240.707 m 107.832 240.707 105.965 241.359 104.465 242.684 c 70.922
 272.301 l 67.652 275.188 67.34 280.199 70.223 283.465 c 111.895 330.656
 l 117.246 336.723 124.645 340.336 132.715 340.836 c 140.785 341.352 148.574
 338.668 154.637 333.316 c 167.156 322.262 168.348 303.086 157.297 290.57
 c 115.629 243.379 l 114.07 241.609 111.887 240.707 109.691 240.707 c h
76.27 278.234 m 109.75 248.676 l 151.305 295.855 l 159.441 305.07 158.562
 319.188 149.352 327.324 c 144.883 331.266 139.141 333.23 133.211 332.867
 c 127.27 332.496 121.824 329.832 117.887 325.371 c h
76.27 278.234 m f
0.878431 0.921569 0.988235 rg
302.449 16.672 m 318.465 26.828 l 269.559 103.398 l 268.027 95 265.637 
86.902 262.469 79.203 c 305.227 12.254 l 305.246 12.266 l h
302.449 16.672 m f
0.215686 0.384314 0.8 rg
305.227 8.262 m 304.945 8.262 304.668 8.293 304.391 8.352 c 303.352 8.578
 302.434 9.203 301.855 10.102 c 259.102 77.051 l 258.406 78.148 258.285 
79.52 258.777 80.723 c 261.855 88.199 264.16 96.07 265.633 104.117 c 265.926
 105.734 267.184 107 268.793 107.32 c 270.406 107.645 272.047 106.93 272.93
 105.551 c 321.832 28.977 l 322.402 28.078 322.594 26.996 322.367 25.957
 c 322.137 24.918 321.5 24.02 320.602 23.449 c 307.965 15.434 l 308.617 
14.406 l 309.793 12.555 309.258 10.105 307.426 8.914 c 306.77 8.488 306 
8.262 305.227 8.262 c h
266.945 79.621 m 303.641 22.156 l 312.938 28.055 l 271.363 93.152 l 270.145
 88.551 268.668 84.023 266.945 79.621 c h
266.945 79.621 m f
0.976471 0.654902 0.654902 rg
366.523 216.715 m 361.488 216.715 356.402 217.832 351.836 219.945 c 290.227
 248.434 250.414 311.539 250.414 380.723 c 250.414 441.195 l 281.586 440.648
 l 289.414 440.648 298.168 442.883 307.609 447.297 c 320.055 453.777 331.242
 462.352 340.898 472.805 c 347.477 479.918 356.816 484.008 366.523 484.008
 c 376.227 484.008 385.562 479.922 392.145 472.809 c 401.762 462.402 412.891
 453.855 425.227 447.402 c 425.254 447.391 l 434.766 442.918 443.605 440.641
 451.496 440.641 c 482.637 441.18 l 482.637 380.723 l 482.637 311.539 442.824
 248.434 381.211 219.941 c 376.645 217.832 371.566 216.715 366.523 216.715
 c h
366.523 216.715 m f
1 0.917647 0.572549 rg
368.637 247.141 m 367.305 246.523 365.75 246.523 364.418 247.141 c 313.234
 270.809 280.383 322.797 280.383 380.723 c 280.383 410.691 l 280.781 410.684
 281.184 410.684 281.586 410.684 c 293.832 410.684 306.863 413.867 320.312
 420.152 c 320.895 420.43 l 321.469 420.727 l 336.996 428.809 351.051 439.637
 362.906 452.465 c 364.852 454.566 368.203 454.566 370.148 452.465 c 381.945
 439.703 395.91 428.926 411.344 420.855 c 411.898 420.562 l 412.473 420.297
 l 426.031 413.914 439.164 410.68 451.496 410.68 c 451.895 410.68 452.289
 410.684 452.676 410.691 c 452.676 380.727 l 452.672 322.797 419.82 270.809
 368.637 247.141 c h
368.637 247.141 m f
0.419608 0.866667 0.866667 rg
353.391 284.422 m 353.293 284.422 353.191 284.426 353.094 284.426 c 349.023
 284.523 345.105 286.566 342.344 290.043 c 299.836 343.512 l 295.809 348.578
 296.082 356.473 300.445 361.156 c 304.801 365.836 311.602 365.52 315.633
 360.449 c 353.586 312.707 l 428.457 399.676 l 432.656 404.555 439.465 404.555
 443.66 399.676 c 447.855 394.801 447.855 386.895 443.66 382.02 c 364.039
 289.539 l 361.223 286.273 357.359 284.422 353.391 284.422 c h
353.391 284.422 m f
0.215686 0.384314 0.8 rg
366.523 212.723 m 360.91 212.723 355.25 213.965 350.156 216.32 c 287.141
 245.457 246.418 309.988 246.418 380.723 c 246.418 441.191 l 246.418 442.266
 246.852 443.293 247.617 444.047 c 248.383 444.793 249.398 445.25 250.488
 445.188 c 281.656 444.641 l 288.824 444.641 297.012 446.754 305.922 450.914
 c 317.785 457.098 328.621 465.402 337.969 475.512 c 345.301 483.449 355.711
 488 366.527 488 c 377.34 488 387.75 483.449 395.086 475.52 c 404.387 465.453
 415.148 457.184 427.082 450.941 c 435.945 446.777 444.195 444.629 451.496
 444.629 c 482.57 445.172 l 483.613 445.219 484.676 444.777 485.441 444.031
 c 486.207 443.277 486.637 442.25 486.637 441.18 c 486.637 380.723 l 486.637
 309.988 445.914 245.457 382.891 216.316 c 377.801 213.965 372.145 212.723
 366.523 212.723 c h
254.41 437.129 m 254.41 380.723 l 254.41 313.094 293.312 251.41 353.512
 223.574 c 361.609 219.828 371.449 219.828 379.527 223.574 c 439.738 251.41
 478.641 313.094 478.641 380.723 c 478.641 437.117 l 451.562 436.645 l 443.012
 436.645 433.613 439.043 423.551 443.777 c 410.633 450.531 399.137 459.355
 389.215 470.094 c 383.387 476.395 375.117 480.008 366.527 480.008 c 357.934
 480.008 349.664 476.395 343.836 470.09 c 333.863 459.301 322.301 450.438
 309.461 443.75 c 299.328 439.012 290 436.648 281.586 436.648 c h
254.41 437.129 m f
Q Q
showpage
%%Trailer
end restore
%%EOF
