%!PS-Adobe-3.0 EPSF-3.0
%%Creator: cairo 1.14.8 (http://cairographics.org)
%%CreationDate: Wed Mar 20 09:06:38 2019
%%Pages: 1
%%DocumentData: Clean7Bit
%%LanguageLevel: 2
%%BoundingBox: 0 0 478 478
%%EndComments
%%BeginProlog
save
50 dict begin
/q { gsave } bind def
/Q { grestore } bind def
/cm { 6 array astore concat } bind def
/w { setlinewidth } bind def
/J { setlinecap } bind def
/j { setlinejoin } bind def
/M { setmiterlimit } bind def
/d { setdash } bind def
/m { moveto } bind def
/l { lineto } bind def
/c { curveto } bind def
/h { closepath } bind def
/re { exch dup neg 3 1 roll 5 3 roll moveto 0 rlineto
      0 exch rlineto 0 rlineto closepath } bind def
/S { stroke } bind def
/f { fill } bind def
/f* { eofill } bind def
/n { newpath } bind def
/W { clip } bind def
/W* { eoclip } bind def
/BT { } bind def
/ET { } bind def
/pdfmark where { pop globaldict /?pdfmark /exec load put }
    { globaldict begin /?pdfmark /pop load def /pdfmark
    /cleartomark load def end } ifelse
/BDC { mark 3 1 roll /BDC pdfmark } bind def
/EMC { mark /EMC pdfmark } bind def
/cairo_store_point { /cairo_point_y exch def /cairo_point_x exch def } def
/Tj { show currentpoint cairo_store_point } bind def
/TJ {
  {
    dup
    type /stringtype eq
    { show } { -0.001 mul 0 cairo_font_matrix dtransform rmoveto } ifelse
  } forall
  currentpoint cairo_store_point
} bind def
/cairo_selectfont { cairo_font_matrix aload pop pop pop 0 0 6 array astore
    cairo_font exch selectfont cairo_point_x cairo_point_y moveto } bind def
/Tf { pop /cairo_font exch def /cairo_font_matrix where
      { pop cairo_selectfont } if } bind def
/Td { matrix translate cairo_font_matrix matrix concatmatrix dup
      /cairo_font_matrix exch def dup 4 get exch 5 get cairo_store_point
      /cairo_font where { pop cairo_selectfont } if } bind def
/Tm { 2 copy 8 2 roll 6 array astore /cairo_font_matrix exch def
      cairo_store_point /cairo_font where { pop cairo_selectfont } if } bind def
/g { setgray } bind def
/rg { setrgbcolor } bind def
/d1 { setcachedevice } bind def
%%EndProlog
%%BeginSetup
%%EndSetup
%%Page: 1 1
%%BeginPageSetup
%%PageBoundingBox: 0 0 478 478
%%EndPageSetup
q 0 0 478 478 rectclip q
0.976471 0.654902 0.654902 rg
299.195 6.09 m 363.762 47.023 l 367.539 49.418 368.66 54.422 366.266 58.203
 c 365.465 59.461 l 363.07 63.238 358.066 64.359 354.285 61.965 c 280.68
 15.297 l 284.422 9.395 l 287.59 4.406 294.203 2.922 299.195 6.09 c h
299.195 6.09 m f
0.976471 0.811765 0.811765 rg
134.352 442.438 m 160.301 442.438 181.344 421.395 181.344 395.441 c 181.344
 367.863 l 183.629 367.863 l 187.66 367.863 190.93 364.59 190.93 360.562
 c 190.93 356.531 187.66 353.266 183.629 353.266 c 180.062 353.266 l 176.02
 335.867 162.367 322.164 144.961 318.145 c 144.961 311.684 l 141.035 313.012
 136.844 313.762 132.469 313.762 c 108.777 313.762 l 107.086 313.762 105.438
 313.59 103.82 313.336 c 103.82 328.211 l 93.75 336.832 87.355 349.625 87.355
 363.922 c 87.355 395.441 l 87.359 421.395 108.398 442.438 134.352 442.438
 c h
134.352 442.438 m f
0.976471 0.654902 0.654902 rg
13.418 309.668 m 66.332 309.668 l 72.379 309.668 77.281 304.766 77.281 
298.723 c 77.281 213.699 l 70.309 208.336 63.98 202.184 58.434 195.359 c
 58.434 290.824 l 13.418 290.824 l 8.211 290.824 3.992 295.043 3.992 300.246
 c 3.992 305.449 8.211 309.668 13.418 309.668 c h
13.418 309.668 m f
0.215686 0.384314 0.8 rg
58.434 191.367 m 57.984 191.367 57.531 191.445 57.094 191.598 c 55.504 
192.164 54.441 193.672 54.441 195.359 c 54.441 286.836 l 13.418 286.836 
l 6.016 286.836 0 292.852 0 300.246 c 0 307.648 6.02 313.664 13.418 313.664
 c 66.332 313.664 l 74.566 313.664 81.273 306.961 81.273 298.723 c 81.273
 213.703 l 81.273 212.465 80.695 211.293 79.715 210.543 c 72.98 205.352 
66.863 199.398 61.531 192.844 c 60.758 191.891 59.609 191.367 58.434 191.367
 c h
13.418 305.676 m 10.422 305.676 7.984 303.242 7.984 300.246 c 7.984 297.254
 10.422 294.816 13.418 294.816 c 58.434 294.816 l 60.641 294.816 62.426 
293.027 62.426 290.824 c 62.426 205.828 l 65.832 209.312 69.461 212.598 
73.289 215.645 c 73.289 298.723 l 73.289 302.559 70.164 305.68 66.332 305.68
 c 13.418 305.68 l h
77.281 213.699 m 77.301 213.699 l h
77.281 213.699 m f
164.164 367.477 m 166.555 367.477 168.492 369.414 168.492 371.809 c 168.492
 379.031 l 168.492 381.426 166.555 383.367 164.164 383.367 c 161.77 383.367
 159.828 381.426 159.828 379.031 c 159.828 371.809 l 159.828 369.414 161.77
 367.477 164.164 367.477 c h
164.164 367.477 m f
0.643137 0.788235 1 rg
311.641 75.934 m 341.539 81.023 l 344.184 81.477 346.871 80.484 348.66 
78.391 c 353.828 72.352 l 355.129 70.832 355.848 68.863 355.848 66.828 c
 355.848 63.922 354.387 61.223 352.008 59.73 c 305.508 30.578 l 302.879 
28.93 299.77 28.355 296.762 28.961 c 293.129 29.691 289.992 32.086 288.203
 35.488 c 282.965 45.465 l 281.391 48.465 282.141 52.227 284.734 54.312 
c h
311.641 75.934 m f
0.215686 0.384314 0.8 rg
299.125 24.73 m 298.078 24.73 297.023 24.836 295.977 25.047 c 291.145 26.02
 287.023 29.152 284.672 33.629 c 279.434 43.609 l 276.957 48.32 278.133 
54.133 282.234 57.426 c 309.141 79.047 l 309.672 79.473 310.305 79.758 310.969
 79.871 c 340.867 84.965 l 344.922 85.652 348.973 84.168 351.695 80.988 
c 356.859 74.949 l 358.777 72.711 359.84 69.828 359.84 66.832 c 359.84 62.574
 357.648 58.559 354.129 56.352 c 307.629 27.199 l 305.039 25.57 302.105 
24.73 299.125 24.73 c h
313.332 72.172 m 287.238 51.199 l 286.121 50.305 285.812 48.637 286.5 47.32
 c 291.742 37.344 l 292.973 35 295.09 33.371 297.555 32.875 c 299.555 32.469
 301.625 32.855 303.383 33.957 c 349.887 63.113 l 351.098 63.875 351.852
 65.297 351.852 66.828 c 351.852 67.922 351.477 68.957 350.793 69.754 c 
345.629 75.793 l 344.746 76.824 343.469 77.309 342.203 77.086 c h
313.332 72.172 m f
0.27451 0.443137 0.776471 rg
223.715 192.926 m 233.254 192.926 242.613 190.062 250.781 184.645 c 258.332
 179.637 264.605 172.605 269.02 164.215 c 316.766 80.477 l 317.719 78.805
 317.355 76.613 315.934 75.41 c 285.641 49.863 l 284.039 48.516 281.746 
48.926 280.617 50.758 c 240.633 115.906 l 236.312 122.469 l 234.344 125.457
 231.188 127.227 227.832 127.227 c 107.301 127.227 l 90.719 127.227 77.281
 141.98 77.281 160.176 c 77.281 192.926 l h
223.715 192.926 m f
0.215686 0.384314 0.8 rg
283.508 45.078 m 283.129 45.078 282.75 45.105 282.367 45.168 c 280.25 45.508
 278.371 46.785 277.215 48.668 c 237.23 113.816 l 232.977 120.273 l 231.758
 122.129 229.832 123.234 227.832 123.234 c 107.297 123.234 l 88.543 123.234
 73.289 139.809 73.289 160.176 c 73.289 192.926 l 73.289 195.129 75.074 
196.918 77.281 196.918 c 223.711 196.918 l 234.039 196.918 244.164 193.824
 252.984 187.973 c 261.074 182.602 267.84 175.031 272.551 166.074 c 320.23
 82.449 l 322.125 79.121 321.383 74.785 318.508 72.355 c 288.211 46.805 
l 286.875 45.684 285.207 45.078 283.508 45.078 c h
81.273 188.934 m 81.273 160.18 l 81.273 144.211 92.945 131.223 107.297 
131.223 c 227.832 131.223 l 232.523 131.223 236.941 128.77 239.648 124.668
 c 243.973 118.102 l 283.672 53.426 l 313.359 78.461 l 265.551 162.238 l
 261.395 170.133 255.547 176.691 248.57 181.32 c 241.062 186.305 232.465
 188.938 223.715 188.938 c 81.273 188.938 l h
81.273 188.934 m f
0.419608 0.866667 0.866667 rg
106.961 127.23 m 171.5 127.23 l 171.5 275.824 l 171.5 296.777 154.516 313.762
 133.562 313.762 c 107.895 313.762 l 90.984 313.762 77.281 300.055 77.281
 283.148 c 77.281 156.918 l 77.281 140.523 90.566 127.23 106.961 127.23 
c h
106.961 127.23 m f
0.215686 0.384314 0.8 rg
171.504 123.238 m 106.961 123.238 l 88.391 123.238 73.289 138.344 73.289
 156.914 c 73.289 283.145 l 73.289 302.227 88.809 317.75 107.895 317.75 
c 133.562 317.75 l 156.684 317.75 175.492 298.941 175.492 275.82 c 175.492
 127.227 l 175.496 125.023 173.707 123.238 171.504 123.238 c h
107.895 309.77 m 93.215 309.77 81.273 297.828 81.273 283.148 c 81.273 156.918
 l 81.273 142.75 92.797 131.223 106.961 131.223 c 167.512 131.223 l 167.512
 275.824 l 167.512 294.539 152.281 309.77 133.566 309.77 c h
107.895 309.77 m f
1 0.917647 0.572549 rg
251.914 116.605 m 251.914 54.133 201.27 3.484 138.789 3.484 c 76.312 3.484
 25.668 54.133 25.668 116.605 c 25.668 179.086 76.312 229.73 138.789 229.73
 c 201.27 229.73 251.914 179.086 251.914 116.605 c h
251.914 116.605 m f
0.215686 0.384314 0.8 rg
138.789 -0.508 m 74.211 -0.508 21.676 52.031 21.676 116.605 c 21.676 181.184
 74.211 233.723 138.789 233.723 c 203.371 233.723 255.902 181.184 255.902
 116.605 c 255.902 52.031 203.371 -0.508 138.789 -0.508 c h
138.789 225.734 m 78.613 225.734 29.66 176.781 29.66 116.605 c 29.66 56.434
 78.613 7.477 138.789 7.477 c 198.969 7.477 247.918 56.434 247.918 116.605
 c 247.918 176.781 198.969 225.734 138.789 225.734 c h
138.789 225.734 m f
0.643137 0.788235 1 rg
226.504 116.605 m 226.504 68.164 187.23 28.891 138.789 28.891 c 90.344 
28.891 51.074 68.164 51.074 116.605 c 51.074 165.051 90.344 204.324 138.789
 204.324 c 187.23 204.324 226.504 165.051 226.504 116.605 c h
226.504 116.605 m f
0.976471 0.811765 0.811765 rg
143.676 366.488 m 143.676 357.305 136.227 349.852 127.039 349.852 c 117.852
 349.852 110.406 357.305 110.406 366.488 c 110.406 375.68 117.852 383.125
 127.039 383.125 c 136.227 383.125 143.676 375.68 143.676 366.488 c h
143.676 366.488 m f
0.215686 0.384314 0.8 rg
144.961 307.691 m 144.531 307.691 144.098 307.762 143.68 307.902 c 140.016
 309.141 136.238 309.77 132.469 309.77 c 108.777 309.77 l 107.473 309.77
 106.055 309.645 104.445 309.391 c 103.289 309.207 102.117 309.539 101.23
 310.293 c 100.34 311.055 99.828 312.164 99.828 313.332 c 99.828 326.414
 l 89.344 336.07 83.367 349.629 83.367 363.918 c 83.367 395.441 l 83.367
 423.555 106.238 446.43 134.352 446.43 c 162.465 446.43 185.336 423.555 
185.336 395.441 c 185.336 371.723 l 190.758 370.898 194.922 366.207 194.922
 360.559 c 194.922 354.332 189.855 349.27 183.629 349.27 c 183.129 349.27
 l 178.223 332.941 165.246 319.957 148.957 315.074 c 148.957 311.684 l 148.957
 310.395 148.336 309.188 147.293 308.438 c 146.602 307.945 145.785 307.691
 144.961 307.691 c h
108.777 317.754 m 132.469 317.754 l 135.316 317.754 138.16 317.465 140.973
 316.887 c 140.973 318.141 l 140.973 320 142.254 321.613 144.066 322.031
 c 159.887 325.684 172.484 338.297 176.176 354.164 c 176.594 355.973 178.207
 357.254 180.062 357.254 c 183.629 357.254 l 185.453 357.254 186.934 358.734
 186.934 360.559 c 186.934 362.379 185.453 363.867 183.629 363.867 c 181.344
 363.867 l 179.141 363.867 177.352 365.652 177.352 367.859 c 177.352 395.441
 l 177.352 419.152 158.062 438.441 134.352 438.441 c 110.641 438.441 91.352
 419.152 91.352 395.441 c 91.352 363.918 l 91.352 351.348 96.84 339.434 
106.414 331.238 c 107.301 330.484 107.812 329.375 107.812 328.207 c 107.812
 317.738 l 108.141 317.75 108.457 317.754 108.777 317.754 c h
108.777 317.754 m f
0.27451 0.443137 0.776471 rg
78.93 427.734 m 78.934 427.727 l 87.316 440.531 102.293 449.07 119.387 
449.07 c 123.023 449.07 125.973 446.285 125.973 442.84 c 125.973 441.531
 l 125.973 443.07 126.445 444.504 127.246 445.695 c 127.242 445.695 l 127.242
 445.695 127.473 446.156 128.141 446.781 c 129.027 447.676 130.129 448.359
 131.371 448.73 c 133.113 449.43 135.543 450.008 138.898 450.148 c 138.898
 450.152 l 138.922 450.152 l 142.402 450.297 146.871 449.969 152.609 448.809
 c 156.781 448.352 160.77 447.289 164.477 445.707 c 164.488 445.703 164.504
 445.699 164.516 445.695 c 164.512 445.691 l 166.621 444.789 168.629 443.719
 170.535 442.5 c 171.367 441.996 171.781 441.676 171.785 441.676 c 182.492
 434.289 189.492 422.074 189.492 408.238 c 189.492 393.273 l 189.492 392.582
 188.922 392.02 188.215 392.02 c 125.973 392.02 l 125.973 347.34 l 118.469
 332.02 l 118.254 331.586 117.805 331.309 117.312 331.309 c 97.82 331.309
 l 95.848 331.309 93.914 331.59 92.059 332.121 c 92 332.145 90.023 332.98
 89.223 334.266 c 87.328 337.293 82.867 344.438 78.809 350.965 c 72.789 
360.648 69.363 371.711 69.098 383.055 c 68.359 414.148 78.93 427.734 78.93
 427.734 c h
78.93 427.734 m f
0.215686 0.384314 0.8 rg
117.312 327.316 m 97.82 327.316 l 95.504 327.316 93.195 327.645 90.957 
328.289 c 90.812 328.328 90.672 328.379 90.531 328.438 c 89.785 328.746 
87.223 329.934 85.832 332.152 c 83.941 335.184 79.48 342.328 75.418 348.859
 c 68.957 359.254 65.391 371.047 65.102 382.961 c 64.363 414.16 74.676 428.715
 75.707 430.09 c 85.219 444.48 101.527 453.059 119.387 453.059 c 122.047
 453.059 124.484 452.105 126.344 450.531 c 127.406 451.379 128.68 452.062
 130.039 452.5 c 132.461 453.445 135.375 453.996 138.711 454.137 c 138.781
 454.141 138.852 454.141 138.918 454.141 c 142.914 454.312 147.777 453.848
 153.223 452.758 c 157.602 452.258 161.871 451.141 165.906 449.43 c 166.031
 449.387 166.152 449.332 166.27 449.277 c 168.465 448.324 170.621 447.176
 172.68 445.863 c 173.246 445.516 173.715 445.207 174.07 444.938 c 186.223
 436.547 193.48 422.828 193.48 408.234 c 193.48 393.27 l 193.48 390.375 
191.113 388.023 188.211 388.023 c 129.961 388.023 l 129.961 347.336 l 129.961
 346.727 129.82 346.125 129.551 345.578 c 122.047 330.262 l 121.176 328.477
 119.316 327.316 117.312 327.316 c h
93.438 335.883 m 94.867 335.5 96.344 335.301 97.82 335.301 c 115.625 335.301
 l 121.977 348.266 l 121.977 392.02 l 121.977 394.223 123.766 396.012 125.969
 396.012 c 185.496 396.012 l 185.496 408.238 l 185.496 420.211 179.523 431.484
 169.516 438.383 c 169.461 438.418 169.41 438.457 169.359 438.496 c 169.273
 438.559 168.965 438.773 168.445 439.094 c 166.637 440.254 164.805 441.223
 162.941 442.02 c 162.918 442.027 162.895 442.039 162.871 442.051 c 159.473
 443.496 155.871 444.438 152.168 444.84 c 152.051 444.852 151.93 444.871
 151.812 444.895 c 146.93 445.887 142.633 446.312 139.082 446.164 c 136.559
 446.059 134.469 445.676 132.855 445.027 c 132.746 444.984 132.641 444.949
 132.531 444.914 c 131.949 444.738 131.41 444.414 130.98 443.977 c 130.887
 443.887 130.824 443.824 130.777 443.777 c 130.727 443.625 130.734 443.73
 130.559 443.469 c 130.168 442.887 129.961 442.223 129.961 441.531 c 129.961
 439.328 128.172 437.539 125.969 437.539 c 123.766 437.539 121.977 439.328
 121.977 441.531 c 121.977 442.84 l 121.977 444.074 120.816 445.078 119.387
 445.078 c 104.156 445.078 90.277 437.773 82.27 425.539 c 82.195 425.422
 82.113 425.312 82.023 425.207 c 81.16 423.973 72.43 410.863 73.09 383.156
 c 73.336 372.66 76.488 362.258 82.199 353.078 c 86.254 346.555 90.715 339.414
 92.605 336.383 c 92.684 336.312 93.082 336.062 93.438 335.883 c h
93.438 335.883 m f
0.976471 0.811765 0.811765 rg
143.676 366.488 m 143.676 357.305 136.227 349.852 127.039 349.852 c 117.852
 349.852 110.406 357.305 110.406 366.488 c 110.406 375.68 117.852 383.125
 127.039 383.125 c 136.227 383.125 143.676 375.68 143.676 366.488 c h
143.676 366.488 m f
0.215686 0.384314 0.8 rg
293.488 0.438 m 288.617 0.438 283.848 2.848 281.055 7.258 c 277.312 13.16
 l 276.742 14.055 276.555 15.137 276.785 16.172 c 277.016 17.203 277.652
 18.105 278.543 18.672 c 352.152 65.336 l 354.879 67.066 358.117 67.629 
361.27 66.922 c 364.422 66.219 367.109 64.328 368.836 61.598 c 369.637 60.344
 l 371.363 57.613 371.93 54.371 371.223 51.223 c 370.516 48.066 368.625 
45.383 365.898 43.652 c 301.328 2.715 l 298.895 1.172 296.18 0.438 293.488
 0.438 c h
299.195 6.09 m 299.215 6.09 l h
286.191 14.066 m 287.797 11.535 l 289.777 8.41 293.934 7.477 297.059 9.457
 c 361.625 50.391 l 362.547 50.98 363.191 51.895 363.434 52.965 c 363.672
 54.039 363.48 55.137 362.891 56.066 c 362.098 57.32 l 361.512 58.25 360.594
 58.891 359.523 59.129 c 358.453 59.371 357.352 59.18 356.426 58.59 c h
286.191 14.066 m f
138.789 24.898 m 88.219 24.898 47.082 66.039 47.082 116.605 c 47.082 167.176
 88.219 208.316 138.789 208.316 c 189.355 208.316 230.496 167.176 230.496
 116.605 c 230.496 66.039 189.355 24.898 138.789 24.898 c h
138.789 200.332 m 92.625 200.332 55.066 162.773 55.066 116.605 c 55.066
 70.441 92.625 32.883 138.789 32.883 c 184.953 32.883 222.512 70.441 222.512
 116.605 c 222.512 162.773 184.953 200.332 138.789 200.332 c h
138.789 200.332 m f
0.976471 0.811765 0.811765 rg
26.637 136.172 m 34.664 157.164 l 67.348 256.352 l 67.352 256.348 67.352
 256.348 67.355 256.344 c 98.617 228.738 l 98.777 228.598 98.949 228.484
 99.125 228.375 c 62.363 148.871 l 61.559 124.879 l 61.531 124.023 61.367
 123.176 61.082 122.363 c 58.949 116.336 l 57.559 112.398 53.484 110.09 
49.391 110.922 c 32.852 114.266 l 29 115.047 26.207 118.406 26.141 122.336
 c 25.973 132.422 l 25.953 133.703 26.176 134.973 26.637 136.172 c h
26.637 136.172 m f
0.215686 0.384314 0.8 rg
51.027 106.766 m 50.223 106.766 49.41 106.844 48.598 107.012 c 32.059 110.355
 l 26.41 111.5 22.242 116.512 22.148 122.277 c 21.984 132.359 l 21.953 134.16
 22.266 135.922 22.906 137.598 c 30.934 158.59 l 63.559 257.602 l 63.992
 258.918 65.074 259.914 66.426 260.238 c 67.723 260.547 69.094 260.184 70.066
 259.277 c 101.262 231.734 l 102.984 230.672 103.598 228.539 102.746 226.703
 c 66.324 147.93 l 65.547 124.746 l 65.504 123.484 65.27 122.238 64.848 
121.039 c 62.711 115.008 l 60.945 110.008 56.172 106.766 51.027 106.766 
c h
69.242 249.348 m 38.453 155.914 l 30.363 134.742 l 30.086 134.023 29.953
 133.262 29.965 132.488 c 30.129 122.406 l 30.164 120.363 31.645 118.586
 33.645 118.18 c 50.184 114.836 l 52.305 114.402 54.461 115.625 55.184 117.672
 c 57.316 123.703 l 57.465 124.125 57.551 124.566 57.566 125.012 c 58.367
 149.008 l 58.383 149.539 58.508 150.062 58.734 150.547 c 94.219 227.297
 l h
26.637 136.172 m 26.656 136.172 l h
26.637 136.172 m f
0.419608 0.866667 0.866667 rg
67.355 256.344 m 98.617 228.738 l 100.133 227.406 102.434 227.551 103.77
 229.059 c 142.605 273.043 l 151.562 283.188 150.598 298.668 140.453 307.629
 c 130.309 316.582 114.824 315.621 105.871 305.477 c 67.039 261.492 l 65.699
 259.984 65.844 257.676 67.355 256.344 c h
67.355 256.344 m f
0.215686 0.384314 0.8 rg
101.023 223.832 m 99.16 223.832 97.387 224.504 95.977 225.746 c 64.715 
253.352 l 61.555 256.141 61.254 260.977 64.043 264.137 c 102.875 308.121
 l 113.273 319.895 131.316 321.02 143.098 310.621 c 154.871 300.219 155.992
 282.176 145.598 270.402 c 106.758 226.418 l 105.41 224.887 103.543 223.973
 101.508 223.848 c 101.348 223.836 101.184 223.832 101.023 223.832 c h
70.254 259.105 m 101.004 231.957 l 139.609 275.684 l 143.238 279.789 145.047
 285.062 144.707 290.531 c 144.367 295.996 141.918 301.008 137.809 304.633
 c 129.332 312.117 116.348 311.309 108.859 302.832 c h
69.996 259.336 m 70 259.332 70 259.336 69.996 259.336 c h
69.996 259.336 m f
0.878431 0.921569 0.988235 rg
280.684 15.297 m 295.609 24.762 l 250.031 96.129 l 248.602 88.305 246.379
 80.758 243.422 73.578 c 283.273 11.18 l 283.289 11.191 l h
280.684 15.297 m f
0.215686 0.384314 0.8 rg
283.27 7.195 m 283 7.195 282.727 7.223 282.453 7.277 c 281.41 7.496 280.48
 8.129 279.902 9.027 c 240.059 71.426 l 239.355 72.523 239.234 73.891 239.73
 75.094 c 242.59 82.043 244.734 89.359 246.102 96.848 c 246.398 98.461 247.648
 99.727 249.262 100.047 c 250.867 100.363 252.512 99.66 253.395 98.277 c
 298.973 26.914 l 299.543 26.016 299.734 24.934 299.504 23.895 c 299.277
 22.859 298.641 21.957 297.746 21.387 c 286.191 14.066 l 286.66 13.328 l
 287.824 11.496 287.309 9.07 285.504 7.871 c 284.836 7.426 284.059 7.195
 283.27 7.195 c h
247.891 74 m 281.875 20.785 l 290.086 25.988 l 251.809 85.922 l 250.719
 81.867 249.402 77.883 247.891 74 c h
247.891 74 m f
0.878431 0.921569 0.988235 rg
380.516 189.891 m 336.883 189.891 301.512 225.262 301.512 268.895 c 301.512
 281.047 l 459.52 281.047 l 459.52 268.895 l 459.516 225.258 424.148 189.891
 380.516 189.891 c h
380.516 189.891 m f
380.516 189.891 m 363.695 189.891 348.113 195.16 335.305 204.121 c 319.164
 158.09 l 441.859 158.09 l 425.723 204.121 l 412.91 195.16 397.336 189.891
 380.516 189.891 c h
380.516 189.891 m f
380.516 277.477 m 337.52 277.477 302.66 312.332 302.66 355.332 c 302.66
 395.254 l 302.66 438.254 337.52 473.109 380.516 473.109 c 423.512 473.109
 458.367 438.254 458.367 395.254 c 458.367 355.332 l 458.367 312.332 423.512
 277.477 380.516 277.477 c h
380.516 277.477 m f
0.643137 0.788235 1 rg
380.516 309.418 m 355.199 309.418 334.602 330.016 334.602 355.332 c 334.602
 395.254 l 334.602 420.57 355.199 441.168 380.516 441.168 c 405.832 441.168
 426.43 420.57 426.43 395.254 c 426.43 355.332 l 426.43 330.016 405.832 
309.418 380.516 309.418 c h
380.516 309.418 m f
0.215686 0.384314 0.8 rg
380.516 273.48 m 335.387 273.48 298.668 310.203 298.668 355.328 c 298.668
 395.25 l 298.668 440.383 335.387 477.098 380.516 477.098 c 425.645 477.098
 462.359 440.383 462.359 395.25 c 462.359 355.328 l 462.359 310.203 425.645
 273.48 380.516 273.48 c h
380.516 469.113 m 339.785 469.113 306.656 435.98 306.656 395.25 c 306.656
 355.328 l 306.656 314.598 339.785 281.465 380.516 281.465 c 421.242 281.465
 454.375 314.598 454.375 355.328 c 454.375 395.25 l 454.375 435.98 421.238
 469.113 380.516 469.113 c h
380.516 469.113 m f
0.643137 0.788235 1 rg
443.312 138.324 m 317.711 138.324 l 312.254 138.324 307.828 142.746 307.828
 148.207 c 307.828 153.664 312.254 158.09 317.711 158.09 c 443.312 158.09
 l 448.773 158.09 453.199 153.664 453.199 148.207 c 453.199 142.75 448.773
 138.324 443.312 138.324 c h
443.312 138.324 m f
0.215686 0.384314 0.8 rg
443.312 134.332 m 317.711 134.332 l 310.059 134.332 303.836 140.555 303.836
 148.207 c 303.836 155.855 310.059 162.082 317.711 162.082 c 443.312 162.082
 l 450.969 162.082 457.191 155.855 457.191 148.207 c 457.191 140.555 450.969
 134.332 443.312 134.332 c h
317.711 154.094 m 314.465 154.094 311.82 151.449 311.82 148.203 c 311.82
 144.957 314.465 142.312 317.711 142.312 c 443.312 142.312 l 446.562 142.312
 449.207 144.957 449.207 148.203 c 449.207 151.449 446.562 154.094 443.312
 154.094 c h
317.711 154.094 m f
380.516 185.895 m 334.75 185.895 297.52 223.129 297.52 268.891 c 297.52
 281.047 l 297.52 283.25 299.309 285.039 301.512 285.039 c 459.516 285.039
 l 461.719 285.039 463.508 283.25 463.508 281.047 c 463.508 268.891 l 463.508
 223.129 426.277 185.895 380.516 185.895 c h
305.504 277.055 m 305.504 268.891 l 305.504 227.531 339.152 193.879 380.516
 193.879 c 421.879 193.879 455.523 227.531 455.523 268.891 c 455.523 277.055
 l h
305.504 277.055 m f
441.863 154.094 m 319.164 154.094 l 317.871 154.094 316.66 154.723 315.91
 155.777 c 315.16 156.836 314.969 158.188 315.395 159.41 c 331.535 205.438
 l 331.949 206.617 332.891 207.531 334.078 207.918 c 335.27 208.297 336.57
 208.105 337.594 207.387 c 350.23 198.551 365.074 193.879 380.512 193.879
 c 395.949 193.879 410.793 198.551 423.434 207.387 c 424.457 208.105 425.758
 208.301 426.945 207.918 c 428.137 207.531 429.074 206.617 429.488 205.438
 c 445.625 159.41 l 446.055 158.184 445.863 156.832 445.113 155.777 c 444.367
 154.723 443.152 154.094 441.863 154.094 c h
324.797 162.078 m 436.23 162.078 l 423.641 197.988 l 410.656 190.062 395.852
 185.895 380.516 185.895 c 365.176 185.895 350.371 190.062 337.391 197.988
 c h
324.797 162.078 m f
0.643137 0.788235 1 rg
460.594 267.633 m 300.434 267.633 l 293.023 267.633 287.02 273.637 287.02
 281.047 c 287.02 288.453 293.023 294.457 300.434 294.457 c 460.594 294.457
 l 468 294.457 474.008 288.453 474.008 281.047 c 474.008 273.637 468 267.633
 460.594 267.633 c h
460.594 267.633 m f
0.215686 0.384314 0.8 rg
460.594 263.641 m 300.434 263.641 l 290.832 263.641 283.027 271.445 283.027
 281.047 c 283.027 290.641 290.832 298.449 300.434 298.449 c 460.594 298.449
 l 470.191 298.449 478 290.641 478 281.047 c 478 271.445 470.191 263.641
 460.594 263.641 c h
300.434 290.465 m 295.238 290.465 291.012 286.238 291.012 281.047 c 291.012
 275.852 295.238 271.625 300.434 271.625 c 460.594 271.625 l 465.789 271.625
 470.012 275.852 470.012 281.047 c 470.012 286.238 465.789 290.465 460.594
 290.465 c h
300.434 290.465 m f
0.878431 0.921569 0.988235 rg
138.398 72.418 m 114.25 72.418 94.598 92.062 94.598 116.211 c 94.598 140.367
 114.25 160.012 138.398 160.012 c 162.547 160.012 182.195 140.367 182.195
 116.211 c 182.195 92.062 162.547 72.418 138.398 72.418 c h
138.398 72.418 m f
Q Q
showpage
%%Trailer
end restore
%%EOF
