%!PS-Adobe-3.0 EPSF-3.0
%%Creator: cairo 1.14.8 (http://cairographics.org)
%%CreationDate: Wed Mar 20 09:06:38 2019
%%Pages: 1
%%DocumentData: Clean7Bit
%%LanguageLevel: 2
%%BoundingBox: 0 8 481 473
%%EndComments
%%BeginProlog
save
50 dict begin
/q { gsave } bind def
/Q { grestore } bind def
/cm { 6 array astore concat } bind def
/w { setlinewidth } bind def
/J { setlinecap } bind def
/j { setlinejoin } bind def
/M { setmiterlimit } bind def
/d { setdash } bind def
/m { moveto } bind def
/l { lineto } bind def
/c { curveto } bind def
/h { closepath } bind def
/re { exch dup neg 3 1 roll 5 3 roll moveto 0 rlineto
      0 exch rlineto 0 rlineto closepath } bind def
/S { stroke } bind def
/f { fill } bind def
/f* { eofill } bind def
/n { newpath } bind def
/W { clip } bind def
/W* { eoclip } bind def
/BT { } bind def
/ET { } bind def
/pdfmark where { pop globaldict /?pdfmark /exec load put }
    { globaldict begin /?pdfmark /pop load def /pdfmark
    /cleartomark load def end } ifelse
/BDC { mark 3 1 roll /BDC pdfmark } bind def
/EMC { mark /EMC pdfmark } bind def
/cairo_store_point { /cairo_point_y exch def /cairo_point_x exch def } def
/Tj { show currentpoint cairo_store_point } bind def
/TJ {
  {
    dup
    type /stringtype eq
    { show } { -0.001 mul 0 cairo_font_matrix dtransform rmoveto } ifelse
  } forall
  currentpoint cairo_store_point
} bind def
/cairo_selectfont { cairo_font_matrix aload pop pop pop 0 0 6 array astore
    cairo_font exch selectfont cairo_point_x cairo_point_y moveto } bind def
/Tf { pop /cairo_font exch def /cairo_font_matrix where
      { pop cairo_selectfont } if } bind def
/Td { matrix translate cairo_font_matrix matrix concatmatrix dup
      /cairo_font_matrix exch def dup 4 get exch 5 get cairo_store_point
      /cairo_font where { pop cairo_selectfont } if } bind def
/Tm { 2 copy 8 2 roll 6 array astore /cairo_font_matrix exch def
      cairo_store_point /cairo_font where { pop cairo_selectfont } if } bind def
/g { setgray } bind def
/rg { setrgbcolor } bind def
/d1 { setcachedevice } bind def
%%EndProlog
%%BeginSetup
%%EndSetup
%%Page: 1 1
%%BeginPageSetup
%%PageBoundingBox: 0 8 481 473
%%EndPageSetup
q 0 8 481 465 rectclip q
0.643137 0.788235 1 rg
425.125 316.227 m 427.594 343.719 l 427.949 347.672 425.031 351.164 421.078
 351.52 c 417.117 351.891 413.629 348.953 413.277 345.004 c 411.223 322.148
 l 378.211 322.148 l 378.211 344.516 l 378.211 348.484 374.992 351.703 371.023
 351.703 c 367.055 351.703 363.84 348.484 363.84 344.516 c 363.84 322.148
 l 330.824 322.148 l 328.773 345.004 l 328.418 348.957 324.934 351.898 320.977
 351.52 c 317.023 351.164 314.105 347.676 314.461 343.723 c 316.93 316.23
 l 316.855 315.816 316.801 315.398 316.801 314.965 c 316.801 314.094 316.98
 313.27 317.262 312.496 c 321.77 262.262 l 322.105 258.527 325.242 255.715
 328.922 255.715 c 329.137 255.715 329.352 255.727 329.574 255.746 c 333.523
 256.102 336.441 259.594 336.09 263.547 c 335.488 270.223 l 363.844 270.223
 l 363.844 262.75 l 363.844 258.777 367.059 255.562 371.027 255.562 c 374.996
 255.562 378.215 258.777 378.215 262.75 c 378.215 270.223 l 406.57 270.223
 l 405.969 263.547 l 405.613 259.594 408.531 256.102 412.484 255.746 c 412.703
 255.727 412.922 255.715 413.137 255.715 c 416.816 255.715 419.949 258.527
 420.285 262.262 c 424.797 312.5 l 425.082 313.273 425.258 314.098 425.258
 314.965 c 425.254 315.395 425.199 315.816 425.125 316.227 c h
334.195 284.594 m 332.113 307.773 l 363.844 307.773 l 363.844 284.594 l
 h
378.215 284.594 m 378.215 307.773 l 409.938 307.773 l 407.859 284.594 l
 h
378.215 284.594 m f
0.27451 0.443137 0.776471 rg
472.938 268.508 m 445.426 268.508 l 443.18 268.508 441.359 270.328 441.359
 272.578 c 441.359 464.074 l 441.359 466.32 443.18 468.141 445.426 468.141
 c 472.938 468.141 l 475.184 468.141 477.008 466.32 477.008 464.074 c 477.008
 272.578 l 477.008 270.328 475.184 268.508 472.938 268.508 c h
472.938 268.508 m f
0.976471 0.654902 0.654902 rg
291.32 409.387 m 291.32 380.988 268.297 357.969 239.902 357.969 c 211.504
 357.969 188.48 380.988 188.48 409.387 c 188.48 437.785 211.504 460.805 
239.902 460.805 c 268.297 460.805 291.32 437.785 291.32 409.387 c h
291.32 409.387 m f
0.215686 0.384314 0.8 rg
198.84 374.445 m 198.68 374.445 198.523 374.453 198.363 374.473 c 197.285
 374.602 196.309 375.164 195.652 376.035 c 188.352 385.707 184.488 397.242
 184.488 409.387 c 184.488 421.531 188.352 433.062 195.652 442.738 c 196.309
 443.605 197.285 444.168 198.363 444.301 c 199.434 444.422 200.523 444.113
 201.363 443.426 c 211.648 435.039 217.547 422.633 217.547 409.387 c 217.547
 396.141 211.648 383.73 201.363 375.344 c 200.648 374.762 199.754 374.445
 198.84 374.445 c h
199.531 434.281 m 194.902 426.816 192.473 418.293 192.473 409.387 c 192.473
 400.477 194.902 391.953 199.531 384.492 c 205.953 391.152 209.562 400.012
 209.562 409.387 c 209.562 418.758 205.949 427.617 199.531 434.281 c h
199.531 434.281 m f
274.434 367.305 m 274.035 367.305 273.633 367.363 273.238 367.488 c 254.852
 373.266 242.496 390.105 242.496 409.387 c 242.496 428.672 254.852 445.508
 273.234 451.289 c 274.59 451.711 276.066 451.387 277.113 450.438 c 288.68
 439.949 295.309 424.988 295.309 409.387 c 295.309 393.789 288.68 378.824
 277.117 368.336 c 276.375 367.66 275.414 367.305 274.434 367.305 c h
273.445 442.902 m 259.617 437.582 250.484 424.387 250.484 409.387 c 250.484
 394.383 259.617 381.191 273.445 375.867 c 282.293 384.727 287.32 396.816
 287.32 409.387 c 287.32 421.953 282.293 434.039 273.445 442.902 c h
273.445 442.902 m f
239.902 353.977 m 239.137 353.992 l 237.785 354.008 236.531 354.711 235.812
 355.852 c 226.82 370.086 221.867 389.098 221.867 409.387 c 221.867 429.672
 226.82 448.68 235.812 462.918 c 236.531 464.059 237.785 464.762 239.137
 464.777 c 239.902 464.797 l 270.453 464.797 295.312 439.938 295.312 409.387
 c 295.312 378.832 270.449 353.977 239.902 353.977 c h
241.426 456.789 m 233.949 444.023 229.852 427.297 229.852 409.387 c 229.852
 391.477 233.949 374.746 241.426 361.984 c 266.875 362.793 287.324 383.746
 287.324 409.387 c 287.324 435.027 266.875 455.977 241.426 456.789 c h
241.426 456.789 m f
239.902 395.289 m 221.328 395.289 203.215 397.664 187.504 402.156 c 185.883
 402.621 184.727 404.055 184.621 405.742 c 184.543 406.945 184.488 408.156
 184.488 409.383 c 184.488 439.938 209.344 464.793 239.902 464.793 c 270.453
 464.793 295.312 439.938 295.312 409.383 c 295.312 408.152 295.258 406.941
 295.18 405.738 c 295.07 404.051 293.914 402.621 292.293 402.156 c 276.586
 397.664 258.469 395.289 239.902 395.289 c h
192.473 409.074 m 206.824 405.273 223.148 403.273 239.898 403.273 c 256.645
 403.273 272.973 405.273 287.32 409.074 c 287.32 409.176 287.32 409.281 
287.32 409.387 c 287.32 435.535 266.047 456.812 239.898 456.812 c 213.746
 456.812 192.473 435.535 192.473 409.387 c h
291.195 405.996 m 291.215 405.996 l h
291.195 405.996 m f
0.976471 0.811765 0.811765 rg
76.473 259.012 m 79.797 260.688 83.535 261.648 87.504 261.648 c 108.137
 261.648 l 109.098 261.648 110.035 261.59 110.977 261.504 c 107.18 271.672
 l 119.617 278.855 126.891 292.598 125.906 306.918 c 128.648 307.758 l 131.746
 308.703 133.488 311.984 132.543 315.082 c 131.594 318.18 128.316 319.926
 125.219 318.977 c 123.461 318.438 l 116.98 339.641 l 110.883 359.59 89.766
 370.816 69.812 364.719 c 49.867 358.621 38.637 337.504 44.734 317.555 c
 52.145 293.32 l 55.504 282.332 63.422 274 73.191 269.742 c h
76.473 259.012 m f
0.215686 0.384314 0.8 rg
76.473 255.02 m 75.938 255.02 75.406 255.129 74.902 255.344 c 73.82 255.805
 73 256.719 72.656 257.848 c 69.895 266.875 l 59.523 271.953 51.719 281.074
 48.324 292.16 c 40.922 316.387 l 37.656 327.055 38.746 338.355 43.984 348.207
 c 49.223 358.059 57.984 365.281 68.652 368.539 c 79.32 371.805 90.621 370.715
 100.469 365.473 c 110.316 360.238 117.539 351.48 120.801 340.809 c 126.184
 323.203 l 128.023 323.348 129.887 322.965 131.562 322.074 c 133.891 320.836
 135.594 318.77 136.363 316.254 c 137.133 313.734 136.879 311.066 135.641
 308.742 c 134.434 306.469 132.43 304.789 129.988 303.996 c 129.859 290.508
 123.098 277.723 112.059 270.047 c 114.719 262.906 l 115.199 261.613 114.984
 260.172 114.152 259.078 c 113.316 257.992 111.973 257.402 110.609 257.531
 c 109.797 257.605 108.977 257.656 108.141 257.656 c 87.504 257.656 l 84.289
 257.656 81.18 256.914 78.266 255.449 c 77.707 255.164 77.09 255.02 76.473
 255.02 c h
80.902 362.395 m 77.582 362.395 74.246 361.898 70.984 360.902 c 62.355 
358.266 55.27 352.426 51.035 344.457 c 46.797 336.488 45.918 327.352 48.555
 318.723 c 55.965 294.492 l 58.852 285.047 65.711 277.363 74.789 273.406
 c 75.855 272.938 76.668 272.027 77.008 270.914 c 79.016 264.344 l 81.758
 265.199 84.598 265.637 87.504 265.637 c 105.172 265.637 l 103.441 270.281
 l 102.758 272.105 103.496 274.156 105.184 275.133 c 116.227 281.512 122.797
 293.879 121.926 306.645 c 121.801 308.496 122.965 310.191 124.742 310.734
 c 127.48 311.574 l 128.129 311.773 128.453 312.23 128.59 312.484 c 128.727
 312.742 128.926 313.266 128.727 313.914 c 128.531 314.559 128.07 314.883
 127.812 315.02 c 127.559 315.156 127.039 315.352 126.387 315.156 c 124.633
 314.621 l 123.617 314.309 122.523 314.414 121.586 314.91 c 120.652 315.41
 119.957 316.258 119.645 317.27 c 113.16 338.469 l 110.523 347.098 104.684
 354.188 96.719 358.422 c 91.766 361.062 86.359 362.395 80.902 362.395 c
 h
80.902 362.395 m f
0.976471 0.654902 0.654902 rg
241.266 14.352 m 293.164 47.254 l 296.199 49.18 297.102 53.203 295.176 
56.238 c 294.535 57.25 l 292.609 60.285 288.586 61.188 285.547 59.262 c 
226.387 21.75 l 229.398 17.012 l 231.938 13 237.254 11.809 241.266 14.352
 c h
241.266 14.352 m f
11.57 258.363 m 54.102 258.363 l 58.957 258.363 62.902 254.422 62.902 249.562
 c 62.902 181.227 l 57.297 176.91 52.211 171.965 47.754 166.484 c 47.754
 243.215 l 11.57 243.215 l 7.387 243.215 3.992 246.602 3.992 250.785 c 3.992
 254.969 7.383 258.363 11.57 258.363 c h
11.57 258.363 m f
0.215686 0.384314 0.8 rg
47.754 162.492 m 47.305 162.492 46.852 162.566 46.414 162.715 c 44.82 163.285
 43.762 164.789 43.762 166.484 c 43.762 239.223 l 11.57 239.223 l 5.191 
239.223 0 244.406 0 250.785 c 0 257.164 5.191 262.352 11.57 262.352 c 54.102
 262.352 l 61.152 262.352 66.891 256.609 66.891 249.559 c 66.891 181.223
 l 66.891 179.98 66.316 178.816 65.332 178.059 c 59.969 173.926 55.098 169.184
 50.848 163.961 c 50.078 163.012 48.93 162.492 47.754 162.492 c h
11.57 254.371 m 9.594 254.371 7.984 252.762 7.984 250.785 c 7.984 248.812
 9.594 247.207 11.57 247.207 c 47.754 247.207 l 49.957 247.207 51.746 245.422
 51.746 243.215 c 51.746 176.797 l 54.02 179.035 56.414 181.16 58.902 183.164
 c 58.902 249.562 l 58.902 252.215 56.746 254.371 54.102 254.371 c h
62.898 181.227 m 62.918 181.227 l h
62.898 181.227 m f
110.344 314.109 m 112.184 314.672 113.223 316.617 112.66 318.457 c 110.961
 324.012 l 110.398 325.852 108.453 326.887 106.613 326.324 c 104.773 325.762
 103.738 323.816 104.297 321.977 c 105.996 316.422 l 106.559 314.582 108.504
 313.551 110.344 314.109 c h
110.344 314.109 m f
0.643137 0.788235 1 rg
251.27 70.492 m 275.301 74.586 l 277.43 74.949 279.59 74.148 281.027 72.465
 c 285.18 67.613 l 286.223 66.395 286.801 64.809 286.801 63.172 c 286.801
 60.836 285.629 58.668 283.715 57.469 c 246.344 34.035 l 244.234 32.711 
241.73 32.25 239.316 32.738 c 236.391 33.328 233.871 35.25 232.434 37.984
 c 228.223 46.004 l 226.957 48.418 227.559 51.441 229.641 53.117 c h
251.27 70.492 m f
0.215686 0.384314 0.8 rg
241.211 28.551 m 240.316 28.551 239.418 28.641 238.523 28.82 c 234.41 29.652
 230.902 32.316 228.898 36.125 c 224.691 44.145 l 222.527 48.262 223.555
 53.344 227.145 56.223 c 248.766 73.605 l 249.301 74.031 249.93 74.316 250.602
 74.43 c 274.625 78.523 l 278.168 79.117 281.691 77.828 284.059 75.062 c
 288.215 70.211 l 289.875 68.266 290.793 65.766 290.793 63.176 c 290.793
 59.488 288.898 56.004 285.836 54.086 c 248.461 30.652 l 246.258 29.266 
243.754 28.551 241.211 28.551 c h
252.969 66.727 m 232.145 49.996 l 231.551 49.52 231.383 48.578 231.758 
47.855 c 235.969 39.836 l 236.848 38.164 238.355 37 240.105 36.645 c 241.516
 36.363 242.977 36.633 244.223 37.414 c 281.598 60.848 l 282.348 61.316 
282.812 62.207 282.812 63.168 c 282.812 63.859 282.578 64.512 282.148 65.012
 c 277.996 69.863 l 277.469 70.48 276.711 70.77 275.969 70.648 c h
252.969 66.727 m f
0.27451 0.443137 0.776471 rg
180.598 164.527 m 188.266 164.527 195.785 162.227 202.352 157.871 c 208.422
 153.844 213.469 148.191 217.012 141.449 c 255.387 74.141 l 256.156 72.797
 255.867 71.031 254.723 70.07 c 230.371 49.531 l 229.09 48.453 227.242 48.785
 226.34 50.254 c 194.199 102.621 l 190.727 107.895 l 189.141 110.297 186.609
 111.719 183.91 111.719 c 87.027 111.719 l 73.699 111.719 62.898 123.578
 62.898 138.203 c 62.898 164.527 l h
180.598 164.527 m f
0.215686 0.384314 0.8 rg
228.66 44.906 m 228.312 44.906 227.965 44.934 227.617 44.992 c 225.691 
45.301 223.984 46.461 222.938 48.168 c 190.797 100.531 l 187.387 105.699
 l 186.555 106.973 185.25 107.727 183.906 107.727 c 87.023 107.727 l 71.52
 107.727 58.902 121.402 58.902 138.207 c 58.902 164.531 l 58.902 166.734
 60.691 168.523 62.898 168.523 c 180.594 168.523 l 189.051 168.523 197.34
 165.988 204.559 161.199 c 211.168 156.812 216.699 150.629 220.547 143.312
 c 258.855 76.121 l 260.566 73.121 259.891 69.211 257.293 67.016 c 232.945
 46.484 l 231.727 45.457 230.207 44.906 228.66 44.906 c h
66.891 160.531 m 66.891 138.203 l 66.891 125.805 75.922 115.711 87.027 
115.711 c 183.91 115.711 l 187.949 115.711 191.742 113.609 194.059 110.094
 c 197.535 104.816 l 228.98 53.586 l 251.629 72.68 l 213.547 139.469 l 210.258
 145.723 205.645 150.895 200.145 154.543 c 194.238 158.461 187.477 160.531
 180.598 160.531 c h
251.922 72.164 m 251.941 72.164 l h
251.922 72.164 m f
0.419608 0.866667 0.866667 rg
86.754 111.719 m 138.633 111.719 l 138.633 231.156 l 138.633 247.996 124.977
 261.648 108.141 261.648 c 87.504 261.648 l 73.914 261.648 62.902 250.629
 62.902 237.043 c 62.902 135.578 l 62.898 122.402 73.582 111.719 86.754 
111.719 c h
86.754 111.719 m f
0.215686 0.384314 0.8 rg
138.633 107.727 m 86.754 107.727 l 71.402 107.727 58.902 120.223 58.902
 135.578 c 58.902 237.043 l 58.902 252.812 71.734 265.645 87.504 265.645
 c 108.141 265.645 l 127.152 265.645 142.625 250.172 142.625 231.156 c 142.625
 111.723 l 142.625 109.516 140.84 107.727 138.633 107.727 c h
87.504 257.656 m 76.137 257.656 66.891 248.41 66.891 237.043 c 66.891 135.578
 l 66.891 124.621 75.801 115.711 86.754 115.711 c 134.641 115.711 l 134.641
 231.156 l 134.641 245.77 122.754 257.656 108.141 257.656 c h
87.504 257.656 m f
1 0.917647 0.572549 rg
203.266 103.184 m 203.266 52.969 162.555 12.258 112.336 12.258 c 62.121
 12.258 21.414 52.969 21.414 103.184 c 21.414 153.402 62.121 194.109 112.336
 194.109 c 162.555 194.109 203.266 153.402 203.266 103.184 c h
203.266 103.184 m f
0.215686 0.384314 0.8 rg
112.336 8.266 m 60 8.266 17.422 50.844 17.422 103.184 c 17.422 155.523 
60 198.102 112.336 198.102 c 164.676 198.102 207.258 155.523 207.258 103.184
 c 207.258 50.844 164.676 8.266 112.336 8.266 c h
112.336 190.117 m 64.406 190.117 25.406 151.117 25.406 103.184 c 25.406
 55.25 64.406 16.25 112.336 16.25 c 160.273 16.25 199.273 55.25 199.273 
103.184 c 199.273 151.117 160.273 190.117 112.336 190.117 c h
112.336 190.117 m f
0.643137 0.788235 1 rg
182.84 103.184 m 182.84 64.246 151.277 32.68 112.336 32.68 c 73.402 32.68
 41.832 64.246 41.832 103.184 c 41.832 142.121 73.402 173.684 112.336 173.684
 c 151.277 173.684 182.84 142.121 182.84 103.184 c h
182.84 103.184 m f
0.878431 0.921569 0.988235 rg
112.336 66.742 m 92.246 66.742 75.895 83.09 75.895 103.184 c 75.895 123.277
 92.246 139.625 112.336 139.625 c 132.434 139.625 148.777 123.277 148.777
 103.184 c 148.777 83.09 132.434 66.742 112.336 66.742 c h
112.336 66.742 m f
0.976471 0.811765 0.811765 rg
95.418 304.629 m 95.418 297.242 89.43 291.254 82.047 291.254 c 74.656 291.254
 68.672 297.242 68.672 304.629 c 68.672 312.016 74.656 318.004 82.047 318.004
 c 89.43 318.004 95.418 312.016 95.418 304.629 c h
95.418 304.629 m f
0.27451 0.443137 0.776471 rg
30.672 340.395 m 30.676 340.391 l 34.109 352.207 43.617 362.289 56.754 
366.305 c 59.547 367.16 62.473 365.707 63.277 363.066 c 63.586 362.059 l
 63.223 363.246 63.25 364.453 63.59 365.555 c 63.586 365.555 l 63.586 365.555
 63.652 365.965 64.02 366.605 c 64.492 367.5 65.176 368.281 66.043 368.863
 c 67.219 369.809 68.953 370.824 71.496 371.723 c 71.504 371.727 71.508 
371.727 71.512 371.727 c 74.152 372.656 77.668 373.457 82.348 373.914 c 
85.664 374.539 88.977 374.66 92.203 374.312 c 92.234 374.312 l 92.234 374.309
 l 94.066 374.113 95.863 373.766 97.613 373.277 c 98.371 373.078 98.766 
372.934 98.766 372.934 c 108.73 369.77 116.98 362.027 120.234 351.395 c 
123.75 339.891 l 123.914 339.359 123.609 338.793 123.062 338.625 c 75.223
 324 l 82.844 299.066 l 85.723 289.656 l 83.555 276.117 l 83.492 275.734
 83.211 275.418 82.832 275.305 c 78.902 274.098 l 77.5 273.668 l 67.848 
270.723 l 66.332 270.258 64.777 270.016 63.23 269.992 c 63.18 269.996 61.461
 270.172 60.547 270.973 c 58.379 272.855 53.27 277.301 48.617 281.363 c 
41.711 287.391 36.484 295.086 33.609 303.746 c 25.738 327.473 30.672 340.395
 30.672 340.395 c h
30.672 340.395 m f
0.215686 0.384314 0.8 rg
63.234 266 m 63.102 266 62.977 266.004 62.848 266.02 c 62.137 266.09 59.684
 266.434 57.93 267.961 c 55.762 269.844 50.648 274.289 45.992 278.355 c 
38.48 284.914 32.891 293.262 29.824 302.492 c 21.906 326.352 26.355 340.176
 26.898 341.699 c 30.906 355.234 41.617 365.852 55.59 370.125 c 57.602 370.742
 59.656 370.656 61.484 370.016 c 62.094 370.785 62.836 371.496 63.668 372.074
 c 65.363 373.41 67.527 374.551 70.113 375.469 c 70.156 375.484 70.199 375.5
 70.246 375.516 c 70.246 375.512 l 73.566 376.656 77.395 377.434 81.789 
377.871 c 85.328 378.527 88.938 378.672 92.508 378.297 c 92.562 378.293 
92.625 378.289 92.676 378.285 c 94.691 378.066 96.715 377.676 98.688 377.125
 c 99.062 377.027 99.578 376.883 100.016 376.727 c 111.57 373.051 120.555
 364.02 124.055 352.566 c 127.57 341.062 l 128.379 338.422 126.883 335.617
 124.234 334.812 c 80.207 321.352 l 89.543 290.828 l 89.719 290.246 89.762
 289.629 89.664 289.027 c 87.496 275.492 l 87.191 273.609 85.82 272.043 
84 271.484 c 69.02 266.91 l 67.172 266.34 65.242 266.039 63.301 266.004 
c 63.277 266 63.254 266 63.234 266 c h
63.164 273.988 m 63.164 273.988 63.168 273.984 63.164 273.988 c 63.164 
273.984 63.164 273.984 63.164 273.988 c h
63.027 274.109 m 63.137 274.066 63.309 274.023 63.465 273.992 c 64.562 
274.035 65.641 274.219 66.684 274.539 c 79.906 278.582 l 81.637 289.375 
l 71.406 322.832 l 70.762 324.941 71.945 327.172 74.055 327.816 c 119.062
 341.582 l 116.414 350.23 l 113.68 359.184 106.629 366.25 97.559 369.129
 c 97.5 369.148 97.441 369.168 97.383 369.191 c 97.297 369.219 97.039 369.305
 96.621 369.414 c 94.984 369.867 93.387 370.172 91.809 370.344 c 91.793 
370.344 91.781 370.348 91.77 370.348 c 88.883 370.652 85.969 370.535 83.094
 369.988 c 82.977 369.969 82.859 369.949 82.738 369.938 c 78.816 369.559
 75.484 368.891 72.84 367.961 c 72.812 367.949 72.785 367.941 72.758 367.93
 c 70.531 367.141 69.242 366.312 68.551 365.75 c 68.461 365.68 68.367 365.613
 68.273 365.547 c 67.977 365.352 67.73 365.074 67.559 364.75 c 67.559 364.75
 67.488 364.617 67.453 364.555 c 67.441 364.5 67.426 364.445 67.41 364.391
 c 67.289 364 67.289 363.605 67.406 363.227 c 68.055 361.121 66.867 358.887
 64.758 358.242 c 62.645 357.598 60.418 358.785 59.773 360.895 c 59.465 
361.895 l 59.305 362.422 58.602 362.688 57.926 362.484 c 46.469 358.984 
37.715 350.309 34.512 339.277 c 34.477 339.148 34.434 339.027 34.387 338.91
 c 34.012 337.758 30.496 325.82 37.402 305.004 c 40.02 297.125 44.805 289.988
 51.25 284.363 c 55.797 280.395 60.789 276.055 63.027 274.109 c h
67.527 364.902 m 67.527 364.895 l 67.527 364.898 67.527 364.898 67.527 
364.902 c h
67.527 364.91 m 67.527 364.902 l 67.527 364.906 67.527 364.906 67.527 364.91
 c h
67.527 364.918 m 67.527 364.91 l 67.527 364.914 67.527 364.918 67.527 364.918
 c h
67.527 364.918 m f
0.976471 0.811765 0.811765 rg
95.418 304.629 m 95.418 297.242 89.43 291.254 82.047 291.254 c 74.656 291.254
 68.672 297.242 68.672 304.629 c 68.672 312.016 74.656 318.004 82.047 318.004
 c 89.43 318.004 95.418 312.016 95.418 304.629 c h
95.418 304.629 m f
0.215686 0.384314 0.8 rg
236.68 9.023 m 232.508 9.023 228.418 11.094 226.023 14.875 c 223.016 19.613
 l 221.832 21.48 222.387 23.941 224.25 25.125 c 283.41 62.633 l 288.301 
65.738 294.809 64.281 297.906 59.391 c 298.547 58.375 l 301.648 53.488 300.191
 46.984 295.305 43.883 c 243.402 10.98 l 241.32 9.656 238.988 9.023 236.68
 9.023 c h
241.266 14.352 m 241.285 14.352 l h
231.895 20.52 m 232.77 19.148 l 234.125 17.004 236.98 16.363 239.129 17.719
 c 291.027 50.625 l 292.199 51.371 292.551 52.93 291.805 54.098 c 291.168
 55.113 l 290.422 56.285 288.859 56.633 287.688 55.887 c h
231.895 20.52 m f
112.336 28.684 m 71.262 28.684 37.84 62.105 37.84 103.18 c 37.84 144.258
 71.262 177.676 112.336 177.676 c 153.414 177.676 186.832 144.258 186.832
 103.18 c 186.832 62.105 153.414 28.684 112.336 28.684 c h
112.336 169.691 m 75.664 169.691 45.828 139.855 45.828 103.184 c 45.828
 66.508 75.668 36.672 112.336 36.672 c 149.012 36.672 178.848 66.508 178.848
 103.184 c 178.848 139.855 149.012 169.691 112.336 169.691 c h
112.336 169.691 m f
0.878431 0.921569 0.988235 rg
226.387 21.754 m 238.383 29.359 l 201.75 86.723 l 200.598 80.43 198.812
 74.363 196.438 68.598 c 228.465 18.441 l 228.48 18.453 l h
226.387 21.754 m f
0.215686 0.384314 0.8 rg
228.469 14.457 m 228.219 14.457 227.965 14.48 227.715 14.527 c 226.641 
14.734 225.691 15.367 225.105 16.293 c 193.074 66.449 l 192.371 67.543 192.25
 68.91 192.746 70.117 c 195.023 75.648 196.734 81.477 197.82 87.441 c 198.117
 89.059 199.371 90.324 200.984 90.641 c 202.586 90.961 204.23 90.254 205.113
 88.875 c 241.75 31.512 l 242.324 30.613 242.512 29.531 242.285 28.492 c
 242.055 27.457 241.422 26.555 240.523 25.988 c 231.898 20.52 l 232.977 
18.738 232.508 16.418 230.805 15.203 c 230.117 14.715 229.301 14.457 228.469
 14.457 c h
200.906 69.02 m 227.586 27.242 l 232.867 30.586 l 203.469 76.621 l 202.719
 74.047 201.859 71.508 200.906 69.02 c h
200.906 69.02 m f
0.419608 0.866667 0.866667 rg
131.027 267.008 m 131.113 266.867 131.195 266.723 131.258 266.566 c 143.832
 235.488 l 131.258 266.566 l 130.652 268.066 128.941 268.793 127.438 268.184
 c 83.723 250.5 l 73.641 246.422 68.77 234.941 72.848 224.855 c 76.926 214.773
 88.41 209.906 98.492 213.984 c 142.207 231.668 l 143.707 232.277 144.43
 233.98 143.832 235.48 c h
131.027 267.008 m f
0.215686 0.384314 0.8 rg
91.133 208.555 m 81.762 208.555 72.875 214.152 69.148 223.359 c 64.25 235.465
 70.113 249.305 82.219 254.203 c 125.941 271.883 l 129.477 273.316 133.527
 271.598 134.957 268.059 c 147.527 236.988 l 147.543 236.945 147.559 236.902
 147.578 236.859 c 148.91 233.336 147.191 229.379 143.703 227.969 c 99.984
 210.285 l 97.09 209.113 94.086 208.555 91.133 208.555 c h
127.906 264.066 m 85.215 246.797 l 81.328 245.227 78.285 242.23 76.648 
238.371 c 75.012 234.512 74.977 230.242 76.547 226.355 c 79.797 218.324 
88.969 214.438 96.996 217.688 c 139.727 234.973 l h
140.121 233.992 m 140.141 233.992 l h
140.121 233.992 m f
0.976471 0.811765 0.811765 rg
228.324 330.125 m 228.594 331.18 228.613 332.281 228.336 333.348 c 228.293
 333.496 l 227.852 335.184 226.742 336.613 225.227 337.461 c 211.191 345.309
 l 209.73 346.129 208.004 346.34 206.383 345.902 c 204.598 345.414 203.113
 344.184 202.305 342.52 c 195.199 327.938 l 194.746 327.105 l 194.137 328.855
 193.121 330.445 191.707 331.68 c 190.176 332.152 189.543 330.633 189.543
 330.633 c 187.641 313.992 l 186.008 310.977 l 131.023 267.004 l 131.109
 266.863 131.195 266.719 131.258 266.562 c 143.828 235.484 l 131.258 266.562
 l 131.195 266.723 131.113 266.863 131.027 267.004 c 143.832 235.48 l 202.949
 295.07 l 216.262 307.281 l 216.801 307.777 217.242 308.363 217.629 308.988
 c 217.652 308.969 l 217.867 309.383 l 217.93 309.504 218.023 309.613 218.082
 309.742 c 218.141 309.863 l 222.445 317.223 l 226.863 326.887 l 227.836
 328.789 l 228.047 329.195 228.199 329.629 228.316 330.07 c 228.34 330.117
 l h
228.324 330.125 m f
0.215686 0.384314 0.8 rg
143.832 231.488 m 143.566 231.488 143.305 231.512 143.043 231.566 c 141.73
 231.828 140.633 232.738 140.129 233.977 c 127.324 265.5 l 126.699 267.047
 127.105 268.773 128.25 269.875 c 128.34 269.961 128.43 270.043 128.531 
270.121 c 182.879 313.59 l 183.762 315.211 l 185.57 331.086 l 185.613 331.453
 185.707 331.812 185.852 332.16 c 186.855 334.586 189.602 336.512 192.887
 335.5 c 193.332 335.363 193.754 335.145 194.129 334.859 c 198.711 344.27
 l 200.023 346.969 202.441 348.965 205.336 349.754 c 207.984 350.469 210.75
 350.129 213.141 348.793 c 227.172 340.949 l 229.621 339.578 231.441 337.23
 232.152 334.512 c 232.602 332.809 232.633 331.133 232.277 329.512 c 232.238
 329.273 232.184 329.039 232.102 328.805 c 231.906 328.129 231.668 327.523
 231.383 326.965 c 230.406 325.066 l 226.07 315.57 l 226.016 315.449 225.953
 315.328 225.887 315.211 c 221.652 307.969 l 221.535 307.742 221.438 307.574
 221.336 307.418 c 221.199 307.152 l 221.059 306.875 220.895 306.625 220.699
 306.395 c 220.16 305.602 219.586 304.926 218.957 304.344 c 205.645 292.133
 l 146.66 232.672 l 145.906 231.906 144.883 231.488 143.832 231.488 c h
135.879 265.777 m 145.262 242.594 l 200.113 297.883 l 213.559 310.223 l
 213.77 310.418 213.992 310.703 214.234 311.094 c 214.266 311.145 214.297
 311.195 214.332 311.246 c 214.391 311.352 214.492 311.523 214.566 311.641
 c 214.609 311.73 214.656 311.828 214.688 311.883 c 218.891 319.066 l 223.223
 328.551 l 224.281 330.613 l 224.332 330.715 224.383 330.852 224.434 331.023
 c 224.438 331.055 224.445 331.086 224.457 331.117 c 224.562 331.535 224.566
 331.957 224.469 332.332 c 224.266 333.117 223.844 333.656 223.27 333.977
 c 209.242 341.828 l 208.684 342.133 208.043 342.215 207.43 342.047 c 206.758
 341.867 206.195 341.402 205.895 340.773 c 198.254 325.203 l 197.5 323.816
 196.008 323 194.422 323.125 c 193.824 323.172 193.258 323.355 192.762 323.641
 c 191.605 313.535 l 191.547 313.027 191.391 312.531 191.148 312.082 c 189.516
 309.074 l 189.262 308.602 188.922 308.188 188.504 307.855 c h
135.879 265.777 m f
239.902 353.977 m 209.344 353.977 184.488 378.832 184.488 409.387 c 184.488
 439.941 209.344 464.797 239.902 464.797 c 270.453 464.797 295.312 439.938
 295.312 409.387 c 295.312 378.832 270.449 353.977 239.902 353.977 c h
239.902 456.812 m 213.75 456.812 192.473 435.535 192.473 409.387 c 192.473
 383.234 213.75 361.961 239.902 361.961 c 266.047 361.961 287.324 383.234
 287.324 409.387 c 287.324 435.535 266.047 456.812 239.902 456.812 c h
239.902 456.812 m f
0.72549 0.745098 0.988235 rg
434.012 343 m 305.98 343 l 301.645 343 298.125 346.516 298.125 350.852 
c 298.125 363.668 l 298.125 368.004 301.645 371.523 305.98 371.523 c 434.012
 371.523 l 438.348 371.523 441.863 368.004 441.863 363.668 c 441.863 350.852
 l 441.863 346.512 438.348 343 434.012 343 c h
434.012 343 m f
0.215686 0.384314 0.8 rg
472.938 264.516 m 445.426 264.516 l 440.98 264.516 437.367 268.133 437.367
 272.578 c 437.367 464.074 l 437.367 468.52 440.98 472.137 445.426 472.137
 c 472.938 472.137 l 477.383 472.137 481 468.52 481 464.074 c 481 272.578
 l 481 268.133 477.383 264.516 472.938 264.516 c h
445.426 464.148 m 445.352 272.578 l 472.938 272.5 l 472.98 272.5 473.012
 272.535 473.012 272.578 c 473.012 464.074 l h
445.426 464.148 m f
434.012 339.008 m 305.98 339.008 l 299.449 339.008 294.133 344.32 294.133
 350.852 c 294.133 363.668 l 294.133 370.199 299.449 375.516 305.98 375.516
 c 434.012 375.516 l 440.543 375.516 445.855 370.199 445.855 363.668 c 445.855
 350.852 l 445.855 344.32 440.543 339.008 434.012 339.008 c h
305.977 367.527 m 303.848 367.527 302.117 365.793 302.117 363.664 c 302.117
 350.848 l 302.117 348.723 303.848 346.992 305.977 346.992 c 434.012 346.992
 l 436.137 346.992 437.871 348.723 437.871 350.848 c 437.871 363.664 l 437.871
 365.793 436.141 367.527 434.012 367.527 c h
305.977 367.527 m f
Q Q
showpage
%%Trailer
end restore
%%EOF
