%!PS-Adobe-3.0 EPSF-3.0
%%Creator: cairo 1.14.8 (http://cairographics.org)
%%CreationDate: Wed Mar 20 09:06:38 2019
%%Pages: 1
%%DocumentData: Clean7Bit
%%LanguageLevel: 2
%%BoundingBox: 0 0 488 487
%%EndComments
%%BeginProlog
save
50 dict begin
/q { gsave } bind def
/Q { grestore } bind def
/cm { 6 array astore concat } bind def
/w { setlinewidth } bind def
/J { setlinecap } bind def
/j { setlinejoin } bind def
/M { setmiterlimit } bind def
/d { setdash } bind def
/m { moveto } bind def
/l { lineto } bind def
/c { curveto } bind def
/h { closepath } bind def
/re { exch dup neg 3 1 roll 5 3 roll moveto 0 rlineto
      0 exch rlineto 0 rlineto closepath } bind def
/S { stroke } bind def
/f { fill } bind def
/f* { eofill } bind def
/n { newpath } bind def
/W { clip } bind def
/W* { eoclip } bind def
/BT { } bind def
/ET { } bind def
/pdfmark where { pop globaldict /?pdfmark /exec load put }
    { globaldict begin /?pdfmark /pop load def /pdfmark
    /cleartomark load def end } ifelse
/BDC { mark 3 1 roll /BDC pdfmark } bind def
/EMC { mark /EMC pdfmark } bind def
/cairo_store_point { /cairo_point_y exch def /cairo_point_x exch def } def
/Tj { show currentpoint cairo_store_point } bind def
/TJ {
  {
    dup
    type /stringtype eq
    { show } { -0.001 mul 0 cairo_font_matrix dtransform rmoveto } ifelse
  } forall
  currentpoint cairo_store_point
} bind def
/cairo_selectfont { cairo_font_matrix aload pop pop pop 0 0 6 array astore
    cairo_font exch selectfont cairo_point_x cairo_point_y moveto } bind def
/Tf { pop /cairo_font exch def /cairo_font_matrix where
      { pop cairo_selectfont } if } bind def
/Td { matrix translate cairo_font_matrix matrix concatmatrix dup
      /cairo_font_matrix exch def dup 4 get exch 5 get cairo_store_point
      /cairo_font where { pop cairo_selectfont } if } bind def
/Tm { 2 copy 8 2 roll 6 array astore /cairo_font_matrix exch def
      cairo_store_point /cairo_font where { pop cairo_selectfont } if } bind def
/g { setgray } bind def
/rg { setrgbcolor } bind def
/d1 { setcachedevice } bind def
%%EndProlog
%%BeginSetup
%%EndSetup
%%Page: 1 1
%%BeginPageSetup
%%PageBoundingBox: 0 0 488 487
%%EndPageSetup
q 0 0 488 487 rectclip q
0.917647 0.662745 0.490196 rg
484 190.551 m 52.074 190.551 l 52.074 468.41 l 52.074 476.426 58.566 482.922
 66.578 482.922 c 469.492 482.922 l 477.508 482.922 484 476.426 484 468.41
 c h
484 190.551 m f
0.419608 0.866667 0.866667 rg
73.668 219.734 m 73.668 453.738 l 73.668 457.742 76.918 460.992 80.926 
460.992 c 455.152 460.992 l 459.152 460.992 462.402 457.742 462.402 453.738
 c 462.402 219.734 l 462.402 215.727 459.152 212.477 455.152 212.477 c 80.926
 212.477 l 76.918 212.477 73.668 215.727 73.668 219.734 c h
73.668 219.734 m f
0.215686 0.384314 0.8 rg
484 186.551 m 52.074 186.551 l 49.867 186.551 48.074 188.344 48.074 190.551
 c 48.074 468.41 l 48.074 478.617 56.379 486.922 66.578 486.922 c 469.492
 486.922 l 479.695 486.922 488 478.617 488 468.41 c 488 190.551 l 488 188.34
 486.207 186.551 484 186.551 c h
56.074 194.551 m 480 194.551 l 480 468.41 l 480 474.203 475.289 478.922
 469.492 478.922 c 66.578 478.922 l 60.785 478.922 56.074 474.207 56.074
 468.41 c h
56.074 194.551 m f
455.152 208.484 m 80.926 208.484 l 74.719 208.484 69.668 213.527 69.668
 219.734 c 69.668 453.738 l 69.668 459.945 74.719 464.992 80.926 464.992
 c 455.152 464.992 l 461.352 464.992 466.402 459.945 466.402 453.738 c 466.402
 219.734 l 466.402 213.527 461.352 208.484 455.152 208.484 c h
80.926 456.992 m 79.129 456.992 77.668 455.535 77.668 453.738 c 77.668 
219.734 l 77.668 217.938 79.129 216.48 80.926 216.48 c 455.152 216.48 l 
456.941 216.48 458.402 217.938 458.402 219.734 c 458.402 453.738 l 458.402
 455.531 456.941 456.992 455.152 456.992 c h
80.926 456.992 m f
1 0.917647 0.572549 rg
52.074 190.551 m 484 190.551 l 484 177.082 l 484 169.066 477.508 162.57
 469.492 162.57 c 66.578 162.57 l 58.566 162.57 52.074 169.066 52.074 177.082
 c h
52.074 190.551 m f
0.215686 0.384314 0.8 rg
469.492 158.578 m 66.578 158.578 l 56.379 158.578 48.074 166.875 48.074
 177.082 c 48.074 190.551 l 48.074 192.758 49.867 194.551 52.074 194.551
 c 484 194.551 l 486.207 194.551 488 192.758 488 190.551 c 488 177.082 l
 488 166.875 479.695 158.578 469.492 158.578 c h
56.074 186.551 m 56.074 177.082 l 56.074 171.289 60.785 166.574 66.578 
166.574 c 469.492 166.574 l 475.289 166.574 480 171.285 480 177.082 c 480
 186.551 l h
56.074 186.551 m f
1 0.917647 0.572549 rg
469.492 162.57 m 357.234 162.57 l 349.219 162.57 342.723 169.066 342.723
 177.082 c 342.723 197.973 l 342.723 205.984 349.219 212.477 357.234 212.477
 c 469.492 212.477 l 477.508 212.477 484 205.984 484 197.973 c 484 177.082
 l 484 169.066 477.508 162.57 469.492 162.57 c h
469.492 162.57 m f
0.215686 0.384314 0.8 rg
469.492 158.578 m 357.234 158.578 l 347.027 158.578 338.727 166.875 338.727
 177.082 c 338.727 197.973 l 338.727 208.18 347.027 216.48 357.234 216.48
 c 469.492 216.48 l 479.695 216.48 488 208.18 488 197.973 c 488 177.082 
l 488 166.875 479.695 158.578 469.492 158.578 c h
357.234 208.484 m 351.438 208.484 346.723 203.77 346.723 197.973 c 346.723
 177.082 l 346.723 171.289 351.438 166.574 357.234 166.574 c 469.492 166.574
 l 475.289 166.574 480 171.285 480 177.082 c 480 197.973 l 480 203.766 475.289
 208.484 469.492 208.484 c h
357.234 208.484 m f
0.878431 0.921569 0.988235 rg
201.906 424.641 m 183.641 424.641 l 182.82 424.641 182.156 423.973 182.156
 423.152 c 182.156 410.082 l 182.156 409.262 182.82 408.594 183.641 408.594
 c 199.547 408.594 l 200.367 408.594 201.035 407.93 201.035 407.105 c 201.035
 402.766 l 201.035 401.941 200.367 401.277 199.547 401.277 c 183.641 401.277
 l 182.82 401.277 182.156 400.609 182.156 399.789 c 182.156 386.012 l 182.156
 385.188 182.82 384.523 183.641 384.523 c 201.906 384.523 l 202.727 384.523
 203.395 383.855 203.395 383.035 c 203.395 378.695 l 203.395 377.871 202.727
 377.207 201.906 377.207 c 174.68 377.207 l 173.855 377.207 173.191 377.871
 173.191 378.695 c 173.191 430.469 l 173.191 431.289 173.855 431.957 174.68
 431.957 c 201.906 431.957 l 202.727 431.957 203.395 431.289 203.395 430.469
 c 203.395 426.129 l 203.395 425.305 202.727 424.641 201.906 424.641 c h
201.906 424.641 m f
223.055 418.352 m 261.934 418.352 l 262.754 418.352 263.422 417.684 263.422
 416.863 c 263.422 412.285 l 263.422 411.465 262.754 410.797 261.934 410.797
 c 223.055 410.797 l 222.234 410.797 221.57 411.465 221.57 412.285 c 221.57
 416.863 l 221.57 417.684 222.234 418.352 223.055 418.352 c h
223.055 400.488 m 261.934 400.488 l 262.754 400.488 263.422 399.824 263.422
 399 c 263.422 394.43 l 263.422 393.609 262.754 392.941 261.934 392.941 
c 223.055 392.941 l 222.234 392.941 221.57 393.609 221.57 394.43 c 221.57
 399 l 221.57 399.824 222.234 400.488 223.055 400.488 c h
223.055 400.488 m f
343.816 401.434 m 343.816 409.379 339.488 413.473 332.961 413.473 c 326.352
 413.473 322.027 409.379 322.027 401.434 c 322.027 378.695 l 322.027 377.871
 321.359 377.207 320.539 377.207 c 314.629 377.207 l 313.809 377.207 313.141
 377.871 313.141 378.695 c 313.141 401.434 l 313.141 409.379 308.812 413.473
 302.285 413.473 c 295.676 413.473 291.352 409.379 291.352 401.434 c 291.352
 378.695 l 291.352 377.871 290.688 377.207 289.863 377.207 c 283.871 377.207
 l 283.051 377.207 282.383 377.871 282.383 378.695 c 282.383 419.062 l 282.383
 419.883 283.051 420.547 283.871 420.547 c 289.863 420.547 l 290.688 420.547
 291.352 419.883 291.352 419.062 c 291.352 417.836 292.75 417.133 293.723
 417.879 c 296.539 420.023 300.219 421.258 304.176 421.258 c 310.176 421.258
 315.328 419.023 318.52 414.656 c 319.117 413.832 320.324 413.773 320.93
 414.594 c 323.984 418.742 329.359 421.258 334.855 421.258 c 345 421.258
 352.711 414.887 352.711 402.773 c 352.711 378.695 l 352.711 377.871 352.047
 377.207 351.223 377.207 c 345.309 377.207 l 344.488 377.207 343.82 377.871
 343.82 378.695 c 343.82 401.434 l h
343.816 401.434 m f
385.902 421.258 m 395.723 421.258 402.379 416.758 405.258 408.867 c 405.609
 407.895 404.883 406.863 403.852 406.863 c 397.266 406.863 l 396.672 406.863
 396.102 407.188 395.859 407.73 c 394.211 411.398 390.871 413.707 385.902
 413.707 c 378.668 413.707 373.867 408.359 373.867 398.914 c 373.867 389.398
 378.668 384.051 385.902 384.051 c 390.875 384.051 394.078 386.086 395.832
 389.969 c 396.082 390.52 396.605 390.895 397.211 390.895 c 403.805 390.895
 l 404.848 390.895 405.586 389.84 405.199 388.871 c 402.293 381.477 395.656
 376.496 385.902 376.496 c 373.477 376.496 364.664 385.309 364.664 398.918
 c 364.664 412.449 373.477 421.258 385.902 421.258 c h
385.902 421.258 m f
413.754 409.887 m 413.754 410.316 413.938 410.727 414.266 411.012 c 421.461
 417.281 428.844 422.801 428.844 428.773 c 428.844 432.023 427.434 434.246
 423.801 434.246 c 420.809 434.246 419.027 432.414 418.543 429.613 c 418.418
 428.891 417.812 428.348 417.078 428.348 c 415.332 428.348 l 414.434 428.348
 413.723 429.137 413.848 430.023 c 414.648 435.645 418.723 438.391 423.758
 438.391 c 430.086 438.391 433.672 434.59 433.672 428.984 c 433.672 422.785
 428.504 417.793 423.887 413.672 c 422.867 412.762 423.512 411.078 424.879
 411.078 c 433.039 411.078 l 433.859 411.078 434.523 410.41 434.523 409.59
 c 434.523 408.504 l 434.523 407.684 433.859 407.016 433.039 407.016 c 415.242
 407.016 l 414.418 407.016 413.754 407.684 413.754 408.504 c h
413.754 409.887 m f
0.27451 0.443137 0.776471 rg
232.945 233.582 m 231.828 234.227 l 229.02 235.848 228.055 239.441 229.68
 242.254 c 323.785 405.254 l 325.41 408.062 329.004 409.027 331.812 407.402
 c 332.93 406.758 l 335.742 405.137 336.703 401.543 335.082 398.73 c 240.973
 235.73 l 239.348 232.922 235.758 231.965 232.945 233.582 c h
232.945 233.582 m f
0.976471 0.811765 0.811765 rg
188.578 214.449 m 244.715 260.855 l 255.953 260.855 l 258.008 260.855 260.012
 261.488 261.691 262.672 c 270.953 269.188 l 273.16 270.738 274.645 273.121
 275.07 275.785 c 276.836 286.902 l 277.293 289.77 276.477 292.695 274.602
 294.91 c 268.469 302.172 l 266.281 304.758 262.926 306.059 259.562 305.625
 c 250.262 304.414 l 248.398 304.172 246.641 303.41 245.195 302.219 c 234.801
 293.637 l 233.039 292.18 231.688 290.293 230.883 288.152 c 228.062 280.648
 l 184.746 254.129 l 183.023 253.074 180.773 253.641 179.758 255.387 c 167.48
 276.461 l 133.211 253.383 l 163.867 215.797 l 166.422 212.664 170.32 210.949
 174.355 211.18 c 181.273 211.582 l 183.953 211.738 186.512 212.742 188.578
 214.449 c h
188.578 214.449 m f
0.215686 0.384314 0.8 rg
173.637 207.164 m 168.676 207.164 163.922 209.402 160.766 213.27 c 130.109
 250.852 l 129.398 251.727 129.09 252.852 129.254 253.969 c 129.418 255.078
 130.043 256.066 130.973 256.695 c 165.246 279.777 l 166.164 280.395 167.293
 280.605 168.375 280.355 c 169.453 280.113 170.379 279.426 170.938 278.477
 c 183.008 257.754 l 224.801 283.348 l 227.141 289.566 l 228.188 292.352
 229.957 294.828 232.254 296.723 c 242.648 305.301 l 244.68 306.98 247.133
 308.051 249.75 308.387 c 259.047 309.594 l 263.785 310.223 268.445 308.398
 271.523 304.75 c 277.66 297.492 l 280.285 294.383 281.426 290.293 280.785
 286.273 c 279.02 275.152 l 278.43 271.445 276.328 268.078 273.254 265.914
 c 263.992 259.398 l 261.625 257.734 258.844 256.855 255.949 256.855 c 246.148
 256.855 l 191.125 211.367 l 191.125 211.363 l 188.379 209.098 185.055 207.797
 181.504 207.59 c 174.586 207.191 l 174.27 207.172 173.953 207.164 173.637
 207.164 c h
188.578 214.449 m 188.598 214.449 l h
139.082 252.512 m 166.965 218.324 l 168.703 216.195 171.371 215.008 174.125
 215.176 c 181.043 215.574 l 182.883 215.68 184.605 216.355 186.027 217.531
 c 242.164 263.938 l 242.879 264.531 243.781 264.855 244.711 264.855 c 255.949
 264.855 l 257.188 264.855 258.379 265.23 259.391 265.941 c 268.656 272.461
 l 269.965 273.387 270.863 274.824 271.117 276.414 c 272.883 287.535 l 273.16
 289.25 272.672 291 271.547 292.332 c 265.414 299.594 l 264.094 301.152 
262.102 301.926 260.078 301.664 c 250.773 300.457 l 249.656 300.312 248.609
 299.855 247.738 299.141 c 237.348 290.559 l 236.125 289.547 235.184 288.23
 234.629 286.75 c 231.805 279.246 l 231.492 278.418 230.91 277.711 230.152
 277.246 c 186.836 250.723 l 185.078 249.645 183.008 249.324 181.008 249.836
 c 179.008 250.34 177.336 251.598 176.297 253.379 c 166.176 270.762 l h
139.082 252.512 m f
0.878431 0.921569 0.988235 rg
38.18 291.207 m 38.18 301.777 46.043 310.41 56.008 311.16 c 56.008 311.234
 l 48.707 311.234 l 39.406 311.234 30.629 306.941 24.918 299.598 c 23.156
 297.336 l 14.117 285.711 9.215 271.406 9.215 256.68 c 9.215 255.363 l 38.176
 255.363 l 38.176 291.207 l h
38.18 291.207 m f
0.976471 0.811765 0.811765 rg
9.215 255.363 m 9.215 170.406 l 4.18 151.352 l 4.004 150.676 3.957 149.977
 4.047 149.285 c 5.961 134.363 l 6.305 131.668 8.598 129.648 11.316 129.648
 c 19.633 129.648 l 22.184 129.648 24.387 131.438 24.914 133.934 c 32.613
 170.406 l 38.18 255.367 l 9.215 255.367 l h
9.215 255.363 m f
0.215686 0.384314 0.8 rg
19.633 125.648 m 11.316 125.648 l 6.598 125.648 2.59 129.176 1.992 133.855
 c 0.078 148.777 l -0.078 149.984 0 151.195 0.312 152.371 c 5.215 170.926
 l 5.215 255.367 l 5.215 257.57 7.008 259.363 9.215 259.363 c 38.18 259.363
 l 39.285 259.363 40.34 258.906 41.098 258.098 c 41.855 257.293 42.242 256.207
 42.168 255.105 c 36.602 170.148 l 36.586 169.957 36.562 169.77 36.523 169.582
 c 28.828 133.109 l 27.918 128.785 24.051 125.648 19.633 125.648 c h
13.211 251.363 m 13.211 170.406 l 13.211 170.062 13.168 169.719 13.078 
169.387 c 8.047 150.332 l 8 150.156 7.988 149.977 8.012 149.793 c 9.926 
134.871 l 10.016 134.172 10.613 133.648 11.316 133.648 c 19.633 133.648 
l 20.289 133.648 20.867 134.113 21 134.762 c 28.641 170.953 l 33.91 251.367
 l 13.211 251.367 l h
9.215 170.406 m 9.234 170.406 l h
9.215 170.406 m f
38.18 251.363 m 9.215 251.363 l 7.008 251.363 5.215 253.156 5.215 255.363
 c 5.215 256.68 l 5.215 272.219 10.469 287.527 20 299.793 c 21.762 302.059
 l 28.277 310.43 38.094 315.234 48.711 315.234 c 56.008 315.234 l 58.215
 315.234 60.004 313.445 60.004 311.234 c 60.004 309.145 58.395 307.328 56.309
 307.172 c 48.383 306.574 42.18 299.562 42.18 291.211 c 42.18 255.367 l 
42.18 253.156 40.387 251.363 38.18 251.363 c h
13.273 259.359 m 34.184 259.359 l 34.184 291.207 l 34.184 296.402 35.809
 301.25 38.578 305.211 c 34.504 303.504 30.891 300.758 28.078 297.145 c 
26.32 294.883 l 18.414 284.723 13.832 272.203 13.273 259.359 c h
13.273 259.359 m f
0.878431 0.921569 0.988235 rg
173.191 272.172 m 172.633 273.367 l 166.41 286.711 155.918 297.602 142.812
 304.316 c 140.262 305.621 l 131.984 309.863 122.215 310.047 113.781 306.117
 c 107.168 303.031 l 107.199 302.961 l 107.203 302.953 l 133.801 250.531
 l h
173.191 272.172 m f
0.215686 0.384314 0.8 rg
133.801 246.531 m 133.402 246.531 133.008 246.59 132.621 246.711 c 131.586
 247.027 130.723 247.754 130.23 248.723 c 103.688 301.059 l 103.656 301.113
 103.629 301.164 103.605 301.219 c 103.137 302.18 103.059 303.324 103.414
 304.336 c 103.773 305.344 104.508 306.203 105.473 306.656 c 112.09 309.742
 l 121.707 314.227 132.637 314.027 142.086 309.184 c 144.637 307.879 l 158.461
 300.793 169.695 289.137 176.254 275.059 c 176.809 273.867 l 177.703 271.957
 176.961 269.684 175.117 268.668 c 135.727 247.027 l 135.129 246.695 134.469
 246.531 133.801 246.531 c h
112.605 301.156 m 135.5 256.023 l 167.941 273.852 l 162.012 285.348 152.52
 294.848 140.988 300.758 c 138.438 302.062 l 131.207 305.766 122.84 305.922
 115.473 302.488 c h
112.605 301.156 m f
0.419608 0.866667 0.866667 rg
116.125 311.234 m 57.758 311.234 l 46.945 311.234 38.18 303.121 38.18 293.113
 c 38.18 192.508 l 135.703 192.508 l 135.703 293.113 l 135.703 303.121 126.941
 311.234 116.125 311.234 c h
116.125 311.234 m f
0.27451 0.443137 0.776471 rg
38.18 192.504 m 38.18 173.113 l 44.09 34.469 l 44.18 32.387 45.766 30.75
 47.688 30.75 c 82.477 30.75 l 84.465 30.75 86.078 32.496 86.078 34.648 
c 86.078 192.504 l h
38.18 192.504 m f
86.078 127.75 m 86.078 118.844 92.121 111.629 99.574 111.629 c 118.727 
111.629 l 125.93 111.629 131.859 118.387 132.203 126.984 c 133.977 171.684
 l 133.977 192.504 l 86.078 192.504 l h
86.078 127.75 m f
0.215686 0.384314 0.8 rg
82.477 26.75 m 47.688 26.75 l 43.613 26.75 40.277 30.066 40.098 34.301 
c 34.188 172.945 l 34.184 192.504 l 34.184 194.715 35.969 196.504 38.18 
196.504 c 86.078 196.504 l 88.285 196.504 90.078 194.715 90.078 192.504 
c 90.078 34.648 l 90.078 30.293 86.668 26.75 82.477 26.75 c h
48.082 34.75 m 82.066 34.75 l 82.078 188.508 l 42.18 188.508 l 42.18 173.117
 l h
48.082 34.75 m f
118.727 106.473 m 99.57 106.473 l 89.926 106.473 82.074 115.598 82.074 
126.824 c 82.074 192.508 l 82.074 194.715 83.867 196.508 86.074 196.508 
c 133.977 196.508 l 136.188 196.508 137.977 194.715 137.977 192.508 c 137.977
 171.391 l 136.199 125.891 l 135.773 115.004 128.102 106.473 118.727 106.473
 c h
90.078 188.504 m 90.078 126.82 l 90.078 120.008 94.34 114.469 99.574 114.469
 c 118.727 114.469 l 123.703 114.469 127.957 119.73 128.211 126.199 c 129.98
 171.543 l 129.98 188.504 l h
90.078 188.504 m f
0.976471 0.811765 0.811765 rg
126.07 376.5 m 125.984 376.5 125.902 376.488 125.816 376.488 c 125.816 
380.242 l 125.816 402.191 108.023 419.98 86.078 419.98 c 64.133 419.98 46.34
 402.191 46.34 380.242 c 46.34 376.488 l 46.258 376.488 46.176 376.5 46.09
 376.5 c 39.395 376.5 33.969 371.074 33.969 364.379 c 33.969 357.684 39.391
 352.25 46.09 352.25 c 46.531 352.25 46.965 352.277 47.391 352.324 c 51.492
 334.746 67.25 321.648 86.078 321.648 c 104.91 321.648 120.668 334.746 124.77
 352.324 c 125.195 352.281 125.629 352.254 126.066 352.254 c 132.762 352.254
 138.191 357.684 138.191 364.379 c 138.191 371.074 132.762 376.5 126.07 
376.5 c h
126.07 376.5 m f
0.215686 0.384314 0.8 rg
86.078 317.648 m 66.711 317.648 49.973 330.117 44.328 348.352 c 36.266 
349.227 29.969 356.082 29.969 364.379 c 29.969 371.98 35.254 378.363 42.34
 380.059 c 42.34 380.242 l 42.34 404.359 61.961 423.977 86.078 423.977 c
 110.195 423.977 129.816 404.359 129.816 380.242 c 129.816 380.059 l 136.902
 378.363 142.191 371.98 142.191 364.379 c 142.191 356.082 135.895 349.23
 127.836 348.352 c 122.188 330.121 105.445 317.648 86.078 317.648 c h
47.395 356.324 m 49.23 356.324 50.859 355.059 51.285 353.234 c 55.074 336.992
 69.383 325.648 86.074 325.648 c 102.777 325.648 117.082 336.992 120.871
 353.234 c 121.328 355.203 123.172 356.523 125.203 356.301 c 125.488 356.27
 125.777 356.254 126.07 356.254 c 130.547 356.254 134.191 359.898 134.191
 364.379 c 134.191 368.836 130.586 372.469 126.137 372.504 c 125.992 372.496
 125.887 372.492 125.82 372.492 c 124.777 372.492 123.773 372.898 123.027
 373.629 c 122.258 374.379 121.82 375.414 121.82 376.488 c 121.82 380.242
 l 121.82 399.949 105.785 415.984 86.078 415.984 c 66.375 415.984 50.34 
399.949 50.34 380.242 c 50.34 376.488 l 50.34 375.414 49.906 374.379 49.137
 373.629 c 48.363 372.875 47.324 372.406 46.246 372.496 c 46.191 372.496
 46.027 372.504 45.969 372.508 c 41.609 372.504 37.965 368.863 37.965 364.383
 c 37.965 359.902 41.609 356.254 46.09 356.254 c 46.383 356.254 46.672 356.273
 46.957 356.305 c 47.105 356.316 47.25 356.324 47.395 356.324 c h
47.395 356.324 m f
86.078 317.648 m 66.711 317.648 49.973 330.117 44.328 348.352 c 36.266 
349.227 29.969 356.082 29.969 364.379 c 29.969 371.98 35.254 378.363 42.34
 380.059 c 42.34 380.242 l 42.34 404.359 61.961 423.977 86.078 423.977 c
 110.195 423.977 129.816 404.359 129.816 380.242 c 129.816 380.059 l 136.902
 378.363 142.191 371.98 142.191 364.379 c 142.191 356.082 135.895 349.23
 127.836 348.352 c 122.188 330.121 105.445 317.648 86.078 317.648 c h
47.395 356.324 m 49.23 356.324 50.859 355.059 51.285 353.234 c 55.074 336.992
 69.383 325.648 86.074 325.648 c 102.777 325.648 117.082 336.992 120.871
 353.234 c 121.328 355.203 123.172 356.523 125.203 356.301 c 125.488 356.27
 125.777 356.254 126.07 356.254 c 130.547 356.254 134.191 359.898 134.191
 364.379 c 134.191 368.836 130.586 372.469 126.137 372.504 c 125.992 372.496
 125.887 372.492 125.82 372.492 c 124.777 372.492 123.773 372.898 123.027
 373.629 c 122.258 374.379 121.82 375.414 121.82 376.488 c 121.82 380.242
 l 121.82 399.949 105.785 415.984 86.078 415.984 c 66.375 415.984 50.34 
399.949 50.34 380.242 c 50.34 376.488 l 50.34 375.414 49.906 374.379 49.137
 373.629 c 48.363 372.875 47.324 372.406 46.246 372.496 c 46.191 372.496
 46.027 372.504 45.969 372.508 c 41.609 372.504 37.965 368.863 37.965 364.383
 c 37.965 359.902 41.609 356.254 46.09 356.254 c 46.383 356.254 46.672 356.273
 46.957 356.305 c 47.105 356.316 47.25 356.324 47.395 356.324 c h
47.395 356.324 m f
65.102 361.438 m 62.867 361.438 61.059 363.246 61.059 365.477 c 61.059 
372.215 l 61.059 374.441 62.867 376.25 65.102 376.25 c 67.332 376.25 69.141
 374.441 69.141 372.215 c 69.141 365.477 l 69.141 363.246 67.332 361.438
 65.102 361.438 c h
65.102 361.438 m f
107.055 361.438 m 104.828 361.438 103.02 363.246 103.02 365.477 c 103.02
 372.215 l 103.02 374.441 104.828 376.25 107.055 376.25 c 109.289 376.25
 111.098 374.441 111.098 372.215 c 111.098 365.477 l 111.098 363.246 109.289
 361.438 107.055 361.438 c h
107.055 361.438 m f
0.27451 0.443137 0.776471 rg
125.328 386.434 m 125.645 384.414 125.82 382.352 125.82 380.242 c 125.82
 376.488 l 125.902 376.488 125.984 376.5 126.07 376.5 c 128.426 376.5 130.609
 375.82 132.469 374.66 c 132.469 386.434 l h
125.328 386.434 m f
39.691 386.434 m 39.691 374.66 l 41.551 375.82 43.738 376.5 46.09 376.5
 c 46.172 376.5 46.254 376.488 46.34 376.488 c 46.34 380.242 l 46.34 382.352
 46.516 384.414 46.832 386.434 c h
39.691 386.434 m f
0.976471 0.811765 0.811765 rg
86.078 321.648 m 78.918 321.648 72.203 323.551 66.398 326.863 c 66.398 
311.18 l 66.398 308.727 68.391 306.734 70.844 306.734 c 101.316 306.734 
l 103.773 306.734 105.758 308.727 105.758 311.18 c 105.758 326.863 l 99.957
 323.551 93.242 321.648 86.078 321.648 c h
86.078 321.648 m f
0.643137 0.788235 1 rg
79.652 30.75 m 47.637 30.75 l 42.629 19.762 l 41.703 17.73 41.207 15.359
 41.207 12.941 c 41.207 7.531 l 41.207 6.105 42.023 4.953 43.027 4.953 c
 84.262 4.953 l 85.266 4.953 86.078 6.109 86.078 7.531 c 86.078 12.941 l
 86.078 15.359 85.59 17.73 84.66 19.762 c h
79.652 30.75 m f
0.878431 0.921569 0.988235 rg
132.148 123.676 m 132.316 127.281 l 86.027 127.281 l 86.027 124.336 l 86.027
 116.676 92.066 110.473 99.523 110.473 c 118.676 110.473 l 125.879 110.473
 131.809 116.281 132.148 123.676 c h
132.148 123.676 m f
0.215686 0.384314 0.8 rg
86.078 340.48 m 79.426 340.48 74.406 343.422 74.406 347.32 c 74.406 348.426
 75.305 349.316 76.406 349.316 c 77.512 349.316 78.406 348.426 78.406 347.32
 c 78.406 346.32 81.32 344.48 86.078 344.48 c 90.84 344.48 93.75 346.32 
93.75 347.32 c 93.75 348.426 94.648 349.316 95.75 349.316 c 96.855 349.316
 97.75 348.426 97.75 347.32 c 97.75 343.422 92.73 340.48 86.078 340.48 c
 h
86.078 340.48 m f
0.878431 0.921569 0.988235 rg
86.078 127.281 m 132.367 127.281 l 133.145 144.09 l 86.078 144.09 l h
86.078 127.281 m f
0.27451 0.443137 0.776471 rg
115.449 386.434 m 136.438 386.434 l 137.988 386.434 139.25 387.691 139.25
 389.242 c 139.25 405.297 l 139.25 423.145 124.777 437.621 106.926 437.621
 c 105.922 437.621 l 101.27 437.621 97.492 433.844 97.492 429.188 c 97.492
 404.391 l 97.488 394.473 105.527 386.434 115.449 386.434 c h
115.449 386.434 m f
72.305 386.434 m 35.73 386.434 l 34.176 386.434 32.914 387.695 32.914 389.254
 c 32.914 402.527 l 32.914 421.906 48.621 437.621 68 437.621 c 89.148 437.621
 l 93.801 437.621 97.57 433.848 97.57 429.199 c 97.57 411.699 l 97.57 397.742
 86.258 386.434 72.305 386.434 c h
72.305 386.434 m f
0.215686 0.384314 0.8 rg
136.434 382.434 m 115.449 382.434 l 103.344 382.434 93.488 392.285 93.488
 404.391 c 93.488 429.188 l 93.488 436.043 99.066 441.621 105.922 441.621
 c 106.922 441.621 l 126.953 441.621 143.25 425.324 143.25 405.293 c 143.25
 389.242 l 143.246 385.488 140.191 382.434 136.434 382.434 c h
105.918 433.621 m 103.477 433.621 101.488 431.633 101.488 429.188 c 101.488
 404.391 l 101.488 396.691 107.746 390.434 115.445 390.434 c 135.242 390.434
 l 135.242 405.297 l 135.242 420.914 122.539 433.625 106.918 433.625 c 105.918
 433.625 l h
105.918 433.621 m f
72.305 382.434 m 35.73 382.434 l 31.973 382.434 28.914 385.492 28.914 389.254
 c 28.914 402.531 l 28.914 424.082 46.449 441.621 68 441.621 c 89.148 441.621
 l 95.996 441.621 101.57 436.047 101.57 429.199 c 101.57 411.699 l 101.57
 395.562 88.441 382.434 72.305 382.434 c h
36.91 390.434 m 72.305 390.434 l 84.031 390.434 93.57 399.969 93.57 411.699
 c 93.57 429.199 l 93.57 431.637 91.586 433.621 89.148 433.621 c 68 433.621
 l 50.859 433.621 36.91 419.672 36.91 402.531 c h
36.91 390.434 m f
132.465 370.664 m 131.73 370.664 130.992 370.867 130.348 371.273 c 129.055
 372.078 127.578 372.504 126.07 372.504 c 126.09 372.496 125.953 372.492
 125.82 372.492 c 123.613 372.492 121.82 374.281 121.82 376.488 c 121.82
 380.242 l 121.82 382.066 121.672 383.941 121.379 385.812 c 121.199 386.969
 121.531 388.145 122.293 389.031 c 123.051 389.918 124.16 390.43 125.332
 390.43 c 132.469 390.43 l 134.676 390.43 136.469 388.637 136.469 386.43
 c 136.469 374.656 l 136.469 373.203 135.68 371.871 134.406 371.164 c 133.801
 370.828 133.133 370.664 132.465 370.664 c h
132.465 370.664 m f
39.691 370.664 m 39.027 370.664 38.355 370.828 37.75 371.164 c 36.48 371.871
 35.691 373.207 35.691 374.66 c 35.691 386.434 l 35.691 388.641 37.484 390.434
 39.691 390.434 c 46.832 390.434 l 48 390.434 49.113 389.918 49.871 389.035
 c 50.633 388.145 50.965 386.969 50.785 385.816 c 50.492 383.941 50.344 
382.066 50.344 380.242 c 50.344 376.488 l 50.344 374.281 48.551 372.492 
46.344 372.492 c 46.25 372.492 46.031 372.504 45.938 372.508 c 44.582 372.504
 43.105 372.078 41.812 371.273 c 41.16 370.867 40.43 370.664 39.691 370.664
 c h
39.691 370.664 m f
134.312 251.363 m 134.293 251.363 134.273 251.363 134.254 251.363 c 132.043
 251.398 130.281 253.219 130.312 255.426 c 130.629 276.238 l 130.664 278.445
 132.484 280.234 134.688 280.172 c 136.895 280.141 138.66 278.324 138.629
 276.117 c 138.312 255.305 l 138.281 253.117 136.492 251.363 134.312 251.363
 c h
134.312 251.363 m f
0.643137 0.788235 1 rg
136.875 240.562 14.398 -77.551 re f
0.976471 0.654902 0.654902 rg
151.316 4.949 m 136.832 4.949 l 135.863 4.949 135.074 5.734 135.074 6.707
 c 135.074 22.766 l 135.074 24.18 136.219 25.324 137.633 25.324 c 150.52
 25.324 l 151.934 25.324 153.07 24.18 153.07 22.766 c 153.07 6.707 l 153.07
 5.734 152.285 4.949 151.316 4.949 c h
151.316 4.949 m f
0.215686 0.384314 0.8 rg
38.023 249.445 m 38 249.445 37.98 249.445 37.961 249.445 c 35.75 249.48
 33.992 251.301 34.023 253.508 c 34.34 274.32 l 34.375 276.508 36.152 278.258
 38.336 278.258 c 38.398 278.258 l 40.605 278.227 42.371 276.406 42.336 
274.199 c 42.023 253.387 l 41.988 251.199 40.203 249.445 38.023 249.445 
c h
38.023 249.445 m f
0.643137 0.788235 1 rg
136.875 163.012 14.398 -137.688 re f
0.215686 0.384314 0.8 rg
151.273 159.012 m 136.875 159.012 l 134.668 159.012 132.875 160.805 132.875
 163.008 c 132.875 240.562 l 132.875 242.77 134.668 244.562 136.875 244.562
 c 151.273 244.562 l 153.477 244.562 155.27 242.77 155.27 240.562 c 155.27
 163.008 l 155.27 160.805 153.48 159.012 151.273 159.012 c h
140.875 167.008 m 147.273 167.008 l 147.273 236.562 l 140.875 236.562 l
 h
140.875 167.008 m f
151.316 0.949 m 136.832 0.949 l 133.656 0.949 131.074 3.531 131.074 6.707
 c 131.074 22.766 l 131.074 26.383 134.02 29.324 137.633 29.324 c 150.52
 29.324 l 154.129 29.324 157.07 26.379 157.07 22.766 c 157.07 6.707 l 157.07
 3.531 154.488 0.949 151.316 0.949 c h
139.074 8.949 m 149.074 8.949 l 149.074 21.328 l 139.074 21.328 l h
139.074 8.949 m f
151.273 21.328 m 136.875 21.328 l 134.668 21.328 132.875 23.117 132.875
 25.324 c 132.875 163.008 l 132.875 165.219 134.668 167.008 136.875 167.008
 c 151.273 167.008 l 153.477 167.008 155.27 165.219 155.27 163.008 c 155.27
 25.324 l 155.27 23.113 153.48 21.328 151.273 21.328 c h
140.875 29.324 m 147.273 29.324 l 147.273 159.012 l 140.875 159.012 l h
140.875 29.324 m f
118.676 106.473 m 99.523 106.473 l 89.875 106.473 82.027 114.488 82.027
 124.336 c 82.027 127.281 l 82.027 129.492 83.816 131.281 86.027 131.281
 c 132.316 131.281 l 133.406 131.281 134.453 130.836 135.207 130.043 c 135.961
 129.254 136.363 128.191 136.312 127.098 c 136.145 123.496 l 136.145 123.492
 l 135.703 113.949 128.031 106.473 118.676 106.473 c h
90.078 123.281 m 90.59 118.332 94.629 114.473 99.523 114.473 c 118.676 
114.473 l 123.559 114.473 127.605 118.293 128.117 123.281 c h
90.078 123.281 m f
132.367 123.281 m 86.078 123.281 l 83.871 123.281 82.078 125.074 82.078
 127.281 c 82.078 144.09 l 82.078 146.301 83.871 148.09 86.078 148.09 c 
133.145 148.09 l 134.238 148.09 135.285 147.645 136.039 146.852 c 136.793
 146.062 137.191 144.996 137.141 143.906 c 136.367 127.098 l 136.266 124.961
 134.508 123.281 132.367 123.281 c h
90.078 131.281 m 128.555 131.281 l 128.957 140.09 l 90.078 140.09 l h
90.078 131.281 m f
84.258 0.949 m 43.027 0.949 l 39.766 0.949 37.207 3.84 37.207 7.531 c 37.207
 12.938 l 37.207 15.93 37.824 18.863 38.984 21.418 c 43.996 32.406 l 44.645
 33.832 46.066 34.75 47.637 34.75 c 79.652 34.75 l 81.219 34.75 82.637 33.832
 83.289 32.406 c 88.297 21.418 l 89.461 18.867 90.074 15.934 90.074 12.938
 c 90.074 7.531 l 90.078 3.84 87.523 0.949 84.258 0.949 c h
45.207 8.949 m 82.074 8.949 l 82.074 12.938 l 82.074 14.797 81.715 16.582
 81.023 18.102 c 77.078 26.75 l 50.211 26.75 l 46.266 18.102 l 45.574 16.582
 45.207 14.797 45.207 12.938 c h
45.207 8.949 m f
0.27451 0.443137 0.776471 rg
152.07 240.562 m 136.074 240.562 l 134.527 240.562 133.273 241.816 133.273
 243.363 c 133.273 263.086 l 133.273 264.633 134.527 265.887 136.074 265.887
 c 152.07 265.887 l 153.617 265.887 154.871 264.633 154.871 263.086 c 154.871
 243.363 l 154.871 241.816 153.617 240.562 152.07 240.562 c h
152.07 240.562 m f
0.215686 0.384314 0.8 rg
152.07 236.562 m 136.074 236.562 l 132.324 236.562 129.273 239.613 129.273
 243.363 c 129.273 263.086 l 129.273 266.836 132.324 269.887 136.074 269.887
 c 152.07 269.887 l 155.82 269.887 158.871 266.836 158.871 263.086 c 158.871
 243.363 l 158.871 239.613 155.82 236.562 152.07 236.562 c h
137.273 244.562 m 150.875 244.562 l 150.875 261.891 l 137.273 261.891 l
 h
137.273 244.562 m f
0.27451 0.443137 0.776471 rg
36.73 240.562 m 20.734 240.562 l 19.191 240.562 17.938 241.816 17.938 243.363
 c 17.938 263.086 l 17.938 264.633 19.191 265.887 20.734 265.887 c 36.73
 265.887 l 38.277 265.887 39.531 264.633 39.531 263.086 c 39.531 243.363
 l 39.531 241.816 38.277 240.562 36.73 240.562 c h
36.73 240.562 m f
0.215686 0.384314 0.8 rg
36.73 236.562 m 20.734 236.562 l 16.984 236.562 13.938 239.613 13.938 243.363
 c 13.938 263.086 l 13.938 266.836 16.984 269.887 20.734 269.887 c 36.73
 269.887 l 40.48 269.887 43.531 266.836 43.531 263.086 c 43.531 243.363 
l 43.531 239.613 40.48 236.562 36.73 236.562 c h
21.938 244.562 m 35.531 244.562 l 35.531 261.891 l 21.938 261.891 l h
21.938 244.562 m f
0.643137 0.788235 1 rg
21.535 240.562 14.398 -77.551 re f
0.976471 0.654902 0.654902 rg
35.973 4.949 m 21.492 4.949 l 20.523 4.949 19.734 5.734 19.734 6.707 c 
19.734 22.766 l 19.734 24.18 20.879 25.324 22.293 25.324 c 35.176 25.324
 l 36.586 25.324 37.73 24.18 37.73 22.766 c 37.73 6.707 l 37.73 5.734 36.945
 4.949 35.973 4.949 c h
35.973 4.949 m f
0.643137 0.788235 1 rg
21.535 163.012 14.398 -137.688 re f
0.215686 0.384314 0.8 rg
35.934 159.012 m 21.535 159.012 l 19.328 159.012 17.535 160.805 17.535 
163.008 c 17.535 240.562 l 17.535 242.77 19.328 244.562 21.535 244.562 c
 35.934 244.562 l 38.141 244.562 39.934 242.77 39.934 240.562 c 39.934 163.008
 l 39.934 160.805 38.141 159.012 35.934 159.012 c h
25.535 167.008 m 31.938 167.008 l 31.938 236.562 l 25.535 236.562 l h
25.535 167.008 m f
35.973 0.949 m 21.492 0.949 l 18.316 0.949 15.734 3.531 15.734 6.707 c 
15.734 22.766 l 15.734 26.383 18.676 29.324 22.293 29.324 c 35.176 29.324
 l 38.793 29.324 41.73 26.379 41.73 22.766 c 41.73 6.707 l 41.73 3.531 39.148
 0.949 35.973 0.949 c h
23.734 8.949 m 33.734 8.949 l 33.734 21.328 l 23.734 21.328 l h
23.734 8.949 m f
35.934 21.328 m 21.535 21.328 l 19.328 21.328 17.535 23.117 17.535 25.324
 c 17.535 163.008 l 17.535 165.219 19.328 167.008 21.535 167.008 c 35.934
 167.008 l 38.141 167.008 39.934 165.219 39.934 163.008 c 39.934 25.324 
l 39.934 23.113 38.141 21.328 35.934 21.328 c h
25.535 29.324 m 31.938 29.324 l 31.938 159.012 l 25.535 159.012 l h
25.535 29.324 m f
0.878431 0.921569 0.988235 rg
76.406 299.574 m 54.812 311.051 l 45.422 309.848 38.18 302.289 38.18 293.113
 c 38.18 192.508 l 86.941 192.508 l 86.941 289.039 l h
76.406 299.574 m f
97.477 299.574 m 119.074 311.051 l 128.465 309.848 135.703 302.289 135.703
 293.113 c 135.703 192.508 l 86.941 192.508 l 86.941 289.039 l h
97.477 299.574 m f
0.215686 0.384314 0.8 rg
86.941 188.504 m 38.18 188.504 l 35.969 188.504 34.184 190.297 34.184 192.504
 c 34.184 293.113 l 34.184 304.133 42.828 313.551 54.305 315.016 c 55.129
 315.133 55.957 314.973 56.688 314.582 c 78.285 303.102 l 78.633 302.914
 78.953 302.68 79.234 302.398 c 89.77 291.863 l 90.52 291.113 90.941 290.094
 90.941 289.035 c 90.941 192.504 l 90.941 190.297 89.148 188.504 86.941 
188.504 c h
42.18 196.504 m 82.941 196.504 l 82.941 287.379 l 74 296.32 l 54.125 306.883
 l 47.234 305.473 42.18 299.742 42.18 293.109 c h
42.18 196.504 m f
135.703 188.504 m 86.941 188.504 l 84.734 188.504 82.941 190.297 82.941
 192.504 c 82.941 289.035 l 82.941 290.094 83.363 291.113 84.113 291.863
 c 94.652 302.398 l 94.934 302.68 95.25 302.914 95.605 303.102 c 117.199
 314.582 l 117.93 314.969 118.766 315.133 119.586 315.016 c 131.055 313.551
 139.707 304.133 139.707 293.113 c 139.707 192.504 l 139.703 190.297 137.914
 188.504 135.703 188.504 c h
90.941 196.504 m 131.703 196.504 l 131.703 293.113 l 131.703 299.742 126.648
 305.477 119.762 306.887 c 99.883 296.324 l 90.941 287.383 l h
90.941 196.504 m f
101.316 302.734 m 70.844 302.734 l 66.188 302.734 62.398 306.523 62.398
 311.18 c 62.398 326.863 l 62.398 328.289 63.156 329.605 64.391 330.32 c
 65.629 331.035 67.148 331.039 68.387 330.332 c 79.121 324.203 93.039 324.203
 103.777 330.332 c 105.016 331.043 106.531 331.039 107.766 330.32 c 109 
329.605 109.758 328.285 109.758 326.863 c 109.758 311.18 l 109.758 306.523
 105.969 302.734 101.316 302.734 c h
70.398 320.555 m 70.398 311.18 l 70.398 310.934 70.598 310.734 70.844 310.734
 c 101.316 310.734 l 101.562 310.734 101.762 310.934 101.762 311.18 c 101.762
 320.555 l 91.797 316.73 80.363 316.73 70.398 320.555 c h
70.398 320.555 m f
0.878431 0.921569 0.988235 rg
66.398 316.141 m 78.875 302.5 l 80.023 301.25 79.961 299.312 78.734 298.133
 c 64.336 284.281 l 62.664 282.672 59.926 283.043 58.742 285.043 c 44.984
 308.324 l 44.055 309.895 44.66 311.926 46.297 312.73 c 62.098 320.496 l
 66.398 320.496 l h
66.398 316.141 m f
0.215686 0.384314 0.8 rg
61.859 279.27 m 61.516 279.27 61.164 279.297 60.816 279.34 c 58.5 279.656
 56.492 280.992 55.305 283.004 c 41.539 306.289 l 40.531 307.992 40.277 
310.059 40.844 311.957 c 41.41 313.852 42.754 315.445 44.535 316.316 c 60.332
 324.086 l 60.879 324.355 61.484 324.496 62.098 324.496 c 66.398 324.496
 l 68.605 324.496 70.398 322.703 70.398 320.496 c 70.398 317.695 l 81.82
 305.199 l 84.453 302.328 84.312 297.957 81.508 295.25 c 67.109 281.398 
l 65.684 280.02 63.809 279.27 61.859 279.27 c h
48.902 309.551 m 61.93 287.512 l 75.355 300.426 l 63.449 313.441 l 62.773
 314.176 62.398 315.141 62.398 316.141 c 62.398 316.188 l h
75.926 299.805 m 75.945 299.805 l h
75.926 299.805 m f
0.878431 0.921569 0.988235 rg
105.828 316.141 m 93.359 302.5 l 92.211 301.25 92.273 299.312 93.496 298.133
 c 107.891 284.281 l 109.566 282.672 112.305 283.043 113.484 285.043 c 127.25
 308.324 l 128.18 309.895 127.574 311.926 125.938 312.73 c 110.133 320.496
 l 105.828 320.496 l h
105.828 316.141 m f
0.215686 0.384314 0.8 rg
110.371 279.27 m 108.422 279.27 106.547 280.02 105.121 281.398 c 90.723
 295.246 l 87.91 297.953 87.773 302.32 90.402 305.199 c 101.832 317.691 
l 101.832 320.492 l 101.832 322.703 103.625 324.492 105.828 324.492 c 110.129
 324.492 l 110.742 324.492 111.348 324.352 111.895 324.082 c 127.699 316.316
 l 129.473 315.441 130.816 313.852 131.383 311.953 c 131.949 310.055 131.695
 307.988 130.688 306.285 c 116.93 283.004 l 115.738 280.988 113.727 279.656
 111.41 279.34 c 111.062 279.297 110.715 279.27 110.371 279.27 c h
96.879 300.426 m 110.301 287.512 l 123.328 309.551 l 109.828 316.184 l 
109.828 316.137 l 109.828 315.137 109.457 314.176 108.781 313.438 c h
105.828 316.141 m 105.852 316.141 l h
105.828 316.141 m f
65.238 353.246 m 56.641 353.246 49.645 360.242 49.645 368.844 c 49.645 
377.445 56.641 384.445 65.238 384.445 c 73.844 384.445 80.84 377.445 80.84
 368.844 c 80.84 360.242 73.844 353.246 65.238 353.246 c h
65.238 378.445 m 59.949 378.445 55.645 374.137 55.645 368.844 c 55.645 
363.555 59.945 359.246 65.238 359.246 c 70.535 359.246 74.84 363.551 74.84
 368.844 c 74.84 374.137 70.535 378.445 65.238 378.445 c h
65.238 378.445 m f
107.055 353.246 m 98.457 353.246 91.461 360.242 91.461 368.844 c 91.461
 377.445 98.457 384.445 107.055 384.445 c 115.656 384.445 122.656 377.445
 122.656 368.844 c 122.656 360.242 115.656 353.246 107.055 353.246 c h
107.055 378.445 m 101.77 378.445 97.461 374.137 97.461 368.844 c 97.461
 363.555 101.766 359.246 107.055 359.246 c 112.352 359.246 116.656 363.551
 116.656 368.844 c 116.656 374.137 112.352 378.445 107.055 378.445 c h
107.055 378.445 m f
94.461 365.844 m 77.84 365.844 l 76.184 365.844 74.84 367.191 74.84 368.844
 c 74.84 370.5 76.184 371.844 77.84 371.844 c 94.461 371.844 l 96.117 371.844
 97.461 370.5 97.461 368.844 c 97.461 367.191 96.117 365.844 94.461 365.844
 c h
94.461 365.844 m f
Q Q
showpage
%%Trailer
end restore
%%EOF
