%!PS-Adobe-3.0 EPSF-3.0
%%Creator: cairo 1.14.8 (http://cairographics.org)
%%CreationDate: Wed Mar 20 09:06:38 2019
%%Pages: 1
%%DocumentData: Clean7Bit
%%LanguageLevel: 2
%%BoundingBox: 130 0 361 489
%%EndComments
%%BeginProlog
save
50 dict begin
/q { gsave } bind def
/Q { grestore } bind def
/cm { 6 array astore concat } bind def
/w { setlinewidth } bind def
/J { setlinecap } bind def
/j { setlinejoin } bind def
/M { setmiterlimit } bind def
/d { setdash } bind def
/m { moveto } bind def
/l { lineto } bind def
/c { curveto } bind def
/h { closepath } bind def
/re { exch dup neg 3 1 roll 5 3 roll moveto 0 rlineto
      0 exch rlineto 0 rlineto closepath } bind def
/S { stroke } bind def
/f { fill } bind def
/f* { eofill } bind def
/n { newpath } bind def
/W { clip } bind def
/W* { eoclip } bind def
/BT { } bind def
/ET { } bind def
/pdfmark where { pop globaldict /?pdfmark /exec load put }
    { globaldict begin /?pdfmark /pop load def /pdfmark
    /cleartomark load def end } ifelse
/BDC { mark 3 1 roll /BDC pdfmark } bind def
/EMC { mark /EMC pdfmark } bind def
/cairo_store_point { /cairo_point_y exch def /cairo_point_x exch def } def
/Tj { show currentpoint cairo_store_point } bind def
/TJ {
  {
    dup
    type /stringtype eq
    { show } { -0.001 mul 0 cairo_font_matrix dtransform rmoveto } ifelse
  } forall
  currentpoint cairo_store_point
} bind def
/cairo_selectfont { cairo_font_matrix aload pop pop pop 0 0 6 array astore
    cairo_font exch selectfont cairo_point_x cairo_point_y moveto } bind def
/Tf { pop /cairo_font exch def /cairo_font_matrix where
      { pop cairo_selectfont } if } bind def
/Td { matrix translate cairo_font_matrix matrix concatmatrix dup
      /cairo_font_matrix exch def dup 4 get exch 5 get cairo_store_point
      /cairo_font where { pop cairo_selectfont } if } bind def
/Tm { 2 copy 8 2 roll 6 array astore /cairo_font_matrix exch def
      cairo_store_point /cairo_font where { pop cairo_selectfont } if } bind def
/g { setgray } bind def
/rg { setrgbcolor } bind def
/d1 { setcachedevice } bind def
%%EndProlog
%%BeginSetup
%%EndSetup
%%Page: 1 1
%%BeginPageSetup
%%PageBoundingBox: 130 0 361 489
%%EndPageSetup
q 130 0 231 489 rectclip q
0.643137 0.788235 1 rg
222.824 72.887 m 216.719 55.449 l 216.516 54.848 216.406 54.227 216.406
 53.598 c 216.406 50.578 l 216.406 47.152 219.504 44.383 223.332 44.383 
c 283.73 44.383 l 288.141 44.383 292.125 46.734 293.859 50.359 c 293.859
 53.391 l 293.859 56.637 291.938 59.645 288.805 61.285 c 266.684 72.887 
l h
222.824 72.887 m f
0.215686 0.384314 0.8 rg
283.73 40.391 m 223.332 40.391 l 217.309 40.391 212.414 44.957 212.414 
50.578 c 212.414 53.594 l 212.414 54.672 212.598 55.738 212.953 56.762 c
 219.059 74.203 l 219.621 75.805 221.129 76.879 222.828 76.879 c 266.688
 76.879 l 267.336 76.879 267.973 76.719 268.543 76.422 c 290.66 64.816 l
 295.102 62.488 297.855 58.113 297.855 53.387 c 297.855 50.355 l 297.855
 49.758 297.719 49.172 297.465 48.637 c 295.062 43.625 289.676 40.391 283.73
 40.391 c h
225.66 68.895 m 220.488 54.133 l 220.426 53.957 220.402 53.777 220.402 
53.598 c 220.402 50.578 l 220.402 49.383 221.742 48.375 223.332 48.375 c
 283.734 48.375 l 286.273 48.375 288.637 49.562 289.867 51.402 c 289.867
 53.391 l 289.867 55.137 288.75 56.809 286.953 57.754 c 265.703 68.898 l
 225.66 68.898 l h
225.66 68.895 m f
0.27451 0.443137 0.776471 rg
275.738 254.961 m 275.863 258.805 l 216.016 258.805 l 214.977 225.969 l
 221.754 208.133 l 221.754 72.887 l 268.586 72.887 l 275.344 231.621 l 275.656
 238.895 l 275.863 242.055 l 275.578 242.129 l 275.863 254.953 l h
275.738 254.961 m f
0.215686 0.384314 0.8 rg
268.586 68.895 m 221.754 68.895 l 219.551 68.895 217.762 70.684 217.762
 72.887 c 217.762 207.398 l 211.246 224.551 l 211.059 225.043 210.969 225.57
 210.988 226.094 c 212.027 258.934 l 212.098 261.09 213.863 262.801 216.02
 262.801 c 275.867 262.801 l 276.949 262.801 277.984 262.363 278.734 261.586
 c 279.484 260.809 279.895 259.758 279.855 258.68 c 279.766 255.824 l 279.832
 255.516 279.867 255.191 279.859 254.871 c 279.605 243.461 l 279.801 242.945
 279.891 242.375 279.852 241.793 c 279.645 238.633 l 272.578 72.719 l 272.484
 70.582 270.723 68.895 268.586 68.895 c h
225.746 76.879 m 264.762 76.879 l 271.668 239.066 l 271.785 240.883 l 271.648
 241.305 271.578 241.754 271.586 242.215 c 271.852 254.086 l 271.797 254.324
 271.762 254.566 271.75 254.816 c 219.883 254.816 l 218.992 226.637 l 225.484
 209.551 l 225.656 209.094 225.746 208.617 225.746 208.133 c h
225.746 76.879 m f
0.976471 0.654902 0.654902 rg
278.297 125.734 m 216.703 125.734 l 213.871 125.734 211.574 128.027 211.574
 130.863 c 211.574 164.508 l 211.574 167.344 213.871 169.645 216.703 169.645
 c 278.297 169.645 l 281.133 169.645 283.43 167.344 283.43 164.508 c 283.43
 130.863 l 283.43 128.027 281.133 125.734 278.297 125.734 c h
278.297 125.734 m f
0.878431 0.921569 0.988235 rg
211.574 153.723 71.855 -12.074 re f
0.215686 0.384314 0.8 rg
278.297 121.742 m 216.703 121.742 l 211.676 121.742 207.582 125.828 207.582
 130.863 c 207.582 164.508 l 207.582 169.543 211.676 173.637 216.703 173.637
 c 278.297 173.637 l 283.328 173.637 287.422 169.543 287.422 164.508 c 287.422
 130.863 l 287.422 125.828 283.328 121.742 278.297 121.742 c h
216.703 165.652 m 216.078 165.652 215.566 165.141 215.566 164.508 c 215.566
 130.863 l 215.566 130.234 216.078 129.723 216.703 129.723 c 278.297 129.723
 l 278.926 129.723 279.438 130.234 279.438 130.863 c 279.438 164.508 l 279.438
 165.141 278.926 165.652 278.297 165.652 c h
216.703 165.652 m f
1 0.917647 0.572549 rg
339.75 231.863 m 329.348 231.863 l 327.125 231.863 325.32 233.668 325.32
 235.887 c 325.32 309.02 l 325.32 311.238 327.125 313.043 329.348 313.043
 c 339.75 313.043 l 341.969 313.043 343.77 311.238 343.77 309.02 c 343.77
 235.887 l 343.773 233.668 341.969 231.863 339.75 231.863 c h
339.75 231.863 m f
0.878431 0.921569 0.988235 rg
293.859 255.926 31.465 -14.758 re f
0.215686 0.384314 0.8 rg
339.75 227.875 m 329.348 227.875 l 324.926 227.875 321.332 231.469 321.332
 235.887 c 321.332 309.02 l 321.332 313.438 324.926 317.035 329.348 317.035
 c 339.75 317.035 l 344.168 317.035 347.762 313.438 347.762 309.02 c 347.762
 235.887 l 347.766 231.469 344.168 227.875 339.75 227.875 c h
329.348 309.051 m 329.316 235.887 l 339.754 235.855 l 339.77 235.855 339.785
 235.871 339.785 235.887 c 339.785 309.02 l h
329.348 309.051 m f
325.324 237.176 m 293.859 237.176 l 291.656 237.176 289.867 238.965 289.867
 241.168 c 289.867 255.926 l 289.867 258.133 291.656 259.918 293.859 259.918
 c 325.324 259.918 l 327.527 259.918 329.316 258.133 329.316 255.926 c 329.316
 241.168 l 329.316 238.965 327.527 237.176 325.324 237.176 c h
297.852 245.16 m 321.332 245.16 l 321.332 251.934 l 297.852 251.934 l h
297.852 245.16 m f
0.878431 0.921569 0.988235 rg
239.676 103.125 m 181.195 44.129 l 204.969 44.129 l 239.676 79.145 l h
239.676 103.125 m f
0.419608 0.866667 0.866667 rg
279.055 363.551 m 274.691 373.406 264.527 380.316 252.676 380.316 c 233.289
 380.316 l 220.516 380.316 210.168 370.375 210.168 358.109 c 210.168 245.004
 l 281.328 245.004 l 285.855 312.215 l 285.902 312.914 285.914 313.617 285.945
 314.316 c 285.973 314.316 l 288.047 345.426 279.055 363.551 279.055 363.551
 c h
279.055 363.551 m f
0.215686 0.384314 0.8 rg
281.328 241.012 m 210.168 241.012 l 207.961 241.012 206.176 242.801 206.176
 245.004 c 206.176 358.109 l 206.176 372.555 218.34 384.309 233.289 384.309
 c 252.676 384.309 l 265.734 384.309 277.488 376.84 282.656 365.27 c 283.309
 363.934 292.043 345.348 289.953 314.047 c 289.945 313.926 289.934 313.805
 289.914 313.688 c 289.898 313.328 l 289.883 312.867 289.863 312.406 289.832
 311.945 c 285.312 244.73 l 285.168 242.637 283.43 241.012 281.328 241.012
 c h
214.16 248.996 m 277.598 248.996 l 281.875 312.484 l 281.898 312.863 281.914
 313.25 281.926 313.633 c 281.965 314.52 l 281.973 314.691 281.996 314.863
 282.027 315.031 c 283.879 344.258 275.566 361.613 275.48 361.789 c 275.457
 361.836 275.43 361.891 275.41 361.938 c 271.539 370.676 262.617 376.324
 252.68 376.324 c 233.293 376.324 l 222.742 376.324 214.164 368.156 214.164
 358.109 c 214.164 248.996 l h
214.16 248.996 m f
0.976471 0.811765 0.811765 rg
253.023 479.152 m 272.621 479.152 288.512 463.262 288.512 443.664 c 288.512
 422.828 l 290.238 422.828 l 293.285 422.828 295.75 420.363 295.75 417.316
 c 295.75 414.273 293.285 411.805 290.238 411.805 c 287.547 411.805 l 284.488
 398.668 274.184 388.316 261.035 385.281 c 261.035 380.402 l 258.07 381.406
 254.906 381.977 251.602 381.977 c 233.711 381.977 l 232.43 381.977 231.188
 381.844 229.965 381.652 c 229.965 392.887 l 222.355 399.395 217.531 409.059
 217.531 419.855 c 217.531 443.668 l 217.531 463.262 233.422 479.152 253.023
 479.152 c h
253.023 479.152 m f
0.215686 0.384314 0.8 rg
275.539 422.543 m 277.344 422.543 278.809 424.008 278.809 425.816 c 278.809
 431.273 l 278.809 433.078 277.344 434.543 275.539 434.543 c 273.73 434.543
 272.266 433.078 272.266 431.273 c 272.266 425.816 l 272.262 424.008 273.73
 422.543 275.539 422.543 c h
275.539 422.543 m f
0.976471 0.811765 0.811765 rg
260.066 421.801 m 260.066 414.859 254.441 409.234 247.5 409.234 c 240.562
 409.234 234.938 414.859 234.938 421.801 c 234.938 428.738 240.562 434.363
 247.5 434.363 c 254.441 434.363 260.066 428.738 260.066 421.801 c h
260.066 421.801 m f
0.215686 0.384314 0.8 rg
261.035 376.41 m 260.609 376.41 260.176 376.48 259.758 376.621 c 257.086
 377.523 254.344 377.984 251.598 377.984 c 233.711 377.984 l 232.77 377.984
 231.75 377.895 230.586 377.711 c 229.434 377.527 228.258 377.855 227.371
 378.613 c 226.48 379.375 225.973 380.48 225.973 381.652 c 225.973 391.109
 l 218.047 398.562 213.539 408.938 213.539 419.855 c 213.539 443.668 l 213.539
 465.434 231.25 483.148 253.023 483.148 c 274.793 483.148 292.504 465.434
 292.504 443.668 c 292.504 426.551 l 296.656 425.535 299.742 421.781 299.742
 417.32 c 299.742 412.195 295.664 408.004 290.578 407.82 c 286.699 395.73
 277.082 386.113 265.023 382.246 c 265.023 380.402 l 265.023 379.117 264.406
 377.91 263.359 377.16 c 262.68 376.668 261.859 376.41 261.035 376.41 c 
h
233.953 385.965 m 251.598 385.965 l 253.422 385.965 255.242 385.816 257.047
 385.512 c 257.148 387.277 258.398 388.773 260.137 389.176 c 271.723 391.848
 280.953 401.09 283.656 412.711 c 284.074 414.52 285.688 415.801 287.543
 415.801 c 290.234 415.801 l 291.074 415.801 291.758 416.484 291.758 417.32
 c 291.758 418.16 291.074 418.836 290.234 418.836 c 288.512 418.836 l 286.305
 418.836 284.52 420.625 284.52 422.828 c 284.52 443.668 l 284.52 461.035
 270.391 475.164 253.02 475.164 c 235.652 475.164 221.52 461.035 221.52 
443.668 c 221.52 419.855 l 221.52 410.648 225.543 401.922 232.555 395.922
 c 233.441 395.164 233.953 394.055 233.953 392.887 c h
233.953 385.965 m f
0.27451 0.443137 0.776471 rg
211.164 468.051 m 211.168 468.047 l 217.5 477.723 228.812 484.172 241.719
 484.172 c 244.469 484.172 246.695 482.062 246.695 479.461 c 246.695 478.473
 l 246.695 479.637 247.051 480.715 247.656 481.617 c 247.656 481.617 247.828
 481.965 248.332 482.438 c 249 483.113 249.836 483.629 250.773 483.914 c
 252.09 484.438 253.926 484.875 256.457 484.98 c 256.457 484.984 l 256.473
 484.984 l 259.098 485.094 262.48 484.848 266.809 483.973 c 269.965 483.625
 272.973 482.82 275.773 481.629 c 275.785 481.625 275.797 481.621 275.805
 481.617 c 275.805 481.613 l 277.395 480.934 278.91 480.125 280.348 479.203
 c 280.977 478.82 281.293 478.582 281.293 478.578 c 289.379 473 294.668 
463.777 294.668 453.332 c 294.668 442.027 l 294.668 441.508 294.234 441.082
 293.703 441.082 c 246.699 441.082 l 246.699 407.336 l 241.031 395.766 l
 240.867 395.441 240.531 395.23 240.156 395.23 c 225.434 395.23 l 223.945
 395.23 222.48 395.445 221.086 395.844 c 221.039 395.859 219.547 396.492
 218.941 397.465 c 217.512 399.75 214.145 405.148 211.074 410.074 c 206.531
 417.387 203.945 425.742 203.742 434.309 c 203.184 457.793 211.164 468.051
 211.164 468.051 c h
211.164 468.051 m f
0.215686 0.384314 0.8 rg
240.156 391.238 m 225.434 391.238 l 223.594 391.238 221.762 391.496 219.988
 392.008 c 219.824 392.051 219.664 392.109 219.512 392.176 c 218.699 392.523
 216.691 393.527 215.559 395.348 c 214.129 397.637 210.758 403.035 207.691
 407.965 c 202.719 415.965 199.973 425.043 199.754 434.215 c 199.199 457.789
 206.949 469.055 207.934 470.387 c 215.293 481.52 227.914 488.16 241.727
 488.16 c 243.695 488.16 245.516 487.543 247 486.496 c 247.738 486.992 248.57
 487.398 249.445 487.684 c 251.355 488.422 253.641 488.855 256.234 488.969
 c 256.277 488.973 256.312 488.973 256.352 488.973 c 259.551 489.102 263.281
 488.746 267.434 487.922 c 270.816 487.531 274.113 486.668 277.23 485.348
 c 277.254 485.34 277.273 485.332 277.293 485.324 c 277.383 485.289 277.473
 485.25 277.559 485.207 c 279.254 484.469 280.918 483.586 282.504 482.57
 c 283.098 482.211 283.484 481.934 283.629 481.828 c 293.043 475.297 298.664
 464.652 298.664 453.332 c 298.664 442.027 l 298.664 439.305 296.441 437.09
 293.707 437.09 c 250.695 437.09 l 250.695 407.336 l 250.695 406.73 250.555
 406.125 250.285 405.578 c 244.617 394.012 l 243.785 392.328 242.035 391.238
 240.156 391.238 c h
222.48 399.598 m 223.445 399.352 224.438 399.223 225.434 399.223 c 238.27
 399.223 l 242.703 408.262 l 242.703 441.082 l 242.703 443.285 244.488 445.074
 246.695 445.074 c 290.676 445.074 l 290.676 453.332 l 290.676 462.055 286.316
 470.266 279.027 475.293 c 278.984 475.324 278.941 475.355 278.898 475.383
 c 278.871 475.406 278.656 475.559 278.266 475.801 c 276.93 476.648 275.594
 477.359 274.234 477.941 c 274.199 477.957 274.168 477.973 274.137 477.984
 c 271.613 479.043 269.027 479.711 266.379 480 c 266.258 480.016 266.141
 480.031 266.02 480.055 c 262.41 480.785 259.25 481.102 256.637 480.992 
c 256.574 480.988 256.512 480.988 256.441 480.988 c 254.395 480.895 253.023
 480.512 252.258 480.207 c 252.148 480.164 252.039 480.125 251.93 480.094
 c 251.645 480.008 251.383 479.848 251.176 479.629 c 251.176 479.629 251.094
 479.551 251.047 479.504 c 251.023 479.465 250.996 479.426 250.969 479.383
 c 250.781 479.105 250.688 478.797 250.688 478.469 c 250.688 476.27 248.898
 474.48 246.695 474.48 c 244.488 474.48 242.703 476.27 242.703 478.469 c
 242.703 479.461 l 242.703 479.801 242.297 480.176 241.719 480.176 c 230.547
 480.176 220.375 474.82 214.508 465.859 c 214.441 465.754 214.367 465.656
 214.293 465.559 c 213.68 464.688 207.242 454.977 207.73 434.402 c 207.914
 426.652 210.242 418.969 214.465 412.184 c 217.445 407.387 220.711 402.152
 222.207 399.766 c 222.281 399.715 222.379 399.652 222.48 399.598 c h
251.23 479.84 m 251.23 479.832 l 251.23 479.836 251.23 479.836 251.23 479.84
 c h
251.234 479.848 m 251.234 479.844 251.234 479.844 251.23 479.84 c 251.234
 479.84 251.234 479.844 251.234 479.848 c h
251.238 479.855 m 251.238 479.852 251.238 479.852 251.234 479.848 c 251.234
 479.848 251.238 479.852 251.238 479.855 c h
251.238 479.855 m f
0.976471 0.811765 0.811765 rg
260.066 421.801 m 260.066 414.859 254.441 409.234 247.5 409.234 c 240.562
 409.234 234.938 414.859 234.938 421.801 c 234.938 428.738 240.562 434.363
 247.5 434.363 c 254.441 434.363 260.066 428.738 260.066 421.801 c h
260.066 421.801 m f
0.976471 0.654902 0.654902 rg
245.137 299.879 m 245.137 326.289 l 245.137 330.738 241.535 334.34 237.09
 334.34 c 208.352 334.34 l 205.461 334.34 202.711 333.098 200.801 330.93
 c 192.227 321.199 l 190.609 319.363 189.715 317 189.715 314.551 c 189.715
 242.309 l 189.715 236.754 194.219 232.25 199.773 232.25 c 269.051 232.25
 l 269.051 275.969 l 269.051 284.43 262.191 291.289 253.727 291.289 c 248.984
 291.289 245.137 295.137 245.137 299.879 c h
245.137 299.879 m f
288.668 278.332 m 268.84 278.332 l 264.805 278.332 261.531 281.609 261.531
 285.648 c 261.531 316.383 l 261.531 320.418 264.805 323.695 268.84 323.695
 c 288.668 323.695 l 291.98 323.695 294.668 321.008 294.668 317.695 c 294.668
 284.332 l 294.668 281.02 291.98 278.332 288.668 278.332 c h
288.668 278.332 m f
289.758 232.25 m 269.051 232.25 l 269.051 261.301 l 289.758 261.301 l 292.465
 261.301 294.668 259.102 294.668 256.391 c 294.668 237.164 l 294.668 234.449
 292.465 232.25 289.758 232.25 c h
289.758 232.25 m f
0.27451 0.443137 0.776471 rg
171.621 22.441 m 171.621 12.25 163.359 3.992 153.168 3.992 c 142.98 3.992
 134.719 12.25 134.719 22.441 c 134.719 32.633 142.98 40.895 153.168 40.895
 c 163.359 40.895 171.621 32.633 171.621 22.441 c h
171.621 22.441 m f
0.643137 0.788235 1 rg
162.398 22.441 m 162.398 17.348 158.266 13.219 153.168 13.219 c 148.074
 13.219 143.945 17.348 143.945 22.441 c 143.945 27.539 148.074 31.668 153.168
 31.668 c 158.266 31.668 162.398 27.539 162.398 22.441 c h
162.398 22.441 m f
0.27451 0.443137 0.776471 rg
356.121 22.441 m 356.121 12.25 347.859 3.992 337.672 3.992 c 327.48 3.992
 319.219 12.25 319.219 22.441 c 319.219 32.633 327.48 40.895 337.672 40.895
 c 347.859 40.895 356.121 32.633 356.121 22.441 c h
356.121 22.441 m f
0.643137 0.788235 1 rg
346.898 22.441 m 346.898 17.348 342.766 13.219 337.672 13.219 c 332.574
 13.219 328.445 17.348 328.445 22.441 c 328.445 27.539 332.574 31.668 337.672
 31.668 c 342.766 31.668 346.898 27.539 346.898 22.441 c h
346.898 22.441 m f
0.215686 0.384314 0.8 rg
269.051 228.258 m 199.773 228.258 l 192.023 228.258 185.723 234.559 185.723
 242.312 c 185.723 314.551 l 185.723 317.973 186.969 321.273 189.23 323.84
 c 197.801 333.57 l 200.469 336.594 204.312 338.332 208.348 338.332 c 237.086
 338.332 l 243.723 338.332 249.125 332.93 249.125 326.289 c 249.125 299.883
 l 249.125 297.344 251.191 295.285 253.723 295.285 c 264.375 295.285 273.039
 286.617 273.039 275.969 c 273.039 232.25 l 273.043 230.043 271.254 228.258
 269.051 228.258 c h
208.352 330.348 m 206.609 330.348 204.949 329.602 203.797 328.289 c 195.227
 318.559 l 194.246 317.453 193.707 316.027 193.707 314.551 c 193.707 242.309
 l 193.707 238.961 196.43 236.238 199.777 236.238 c 265.062 236.238 l 265.062
 275.965 l 265.062 282.211 259.977 287.297 253.73 287.297 c 246.793 287.297
 241.148 292.941 241.148 299.879 c 241.148 326.289 l 241.148 328.527 239.328
 330.348 237.094 330.348 c h
208.352 330.348 m f
288.668 274.34 m 268.84 274.34 l 262.609 274.34 257.539 279.414 257.539
 285.648 c 257.539 316.383 l 257.539 322.613 262.613 327.688 268.84 327.688
 c 288.668 327.688 l 294.176 327.688 298.66 323.203 298.66 317.695 c 298.66
 284.332 l 298.66 278.824 294.176 274.34 288.668 274.34 c h
268.844 319.703 m 267.012 319.703 265.523 318.215 265.523 316.383 c 265.523
 285.648 l 265.523 283.812 267.012 282.324 268.844 282.324 c 288.668 282.324
 l 289.777 282.324 290.676 283.227 290.676 284.332 c 290.676 317.695 l 290.676
 318.801 289.777 319.703 288.668 319.703 c h
268.844 319.703 m f
289.758 228.258 m 269.051 228.258 l 266.844 228.258 265.059 230.043 265.059
 232.25 c 265.059 261.301 l 265.059 263.504 266.844 265.293 269.051 265.293
 c 289.758 265.293 l 294.664 265.293 298.66 261.301 298.66 256.391 c 298.66
 237.164 l 298.66 232.25 294.664 228.258 289.758 228.258 c h
273.043 236.242 m 289.758 236.242 l 290.262 236.242 290.676 236.656 290.676
 237.164 c 290.676 256.391 l 290.676 256.895 290.262 257.309 289.758 257.309
 c 273.043 257.309 l h
273.043 236.242 m f
0.976471 0.811765 0.811765 rg
226.922 323.695 m 226.922 288.422 l 226.922 286.262 227.574 284.148 228.789
 282.363 c 231.559 278.305 l 233.434 275.555 236.48 273.828 239.809 273.629
 c 309.164 269.531 l 310.812 269.434 312.406 268.93 313.809 268.062 c 321.078
 263.57 l 322.391 262.762 323.898 262.336 325.438 262.336 c 342.152 262.336
 l 345.816 262.336 348.785 265.305 348.785 268.965 c 348.785 286.379 l 348.785
 290.043 345.812 293.012 342.152 293.012 c 319.586 293.012 l 318.34 293.012
 317.105 292.73 315.984 292.188 c 314.504 291.477 l 312.66 290.586 310.586
 290.285 308.57 290.621 c 264.301 297.91 l 262.605 298.188 261.402 299.715
 261.531 301.426 c 263.172 323.695 l h
226.922 323.695 m f
0.215686 0.384314 0.8 rg
342.152 258.344 m 325.438 258.344 l 323.152 258.344 320.918 258.977 318.98
 260.176 c 311.711 264.664 l 310.875 265.184 309.91 265.488 308.93 265.547
 c 239.574 269.645 l 235.043 269.914 230.812 272.309 228.258 276.062 c 225.496
 280.113 l 223.82 282.574 222.93 285.445 222.93 288.426 c 222.93 323.695
 l 222.93 325.898 224.719 327.688 226.922 327.688 c 263.172 327.688 l 264.285
 327.688 265.344 327.227 266.098 326.41 c 266.852 325.598 267.234 324.504
 267.152 323.402 c 265.559 301.75 l 309.215 294.562 l 310.434 294.359 311.66
 294.539 312.773 295.074 c 314.254 295.785 l 315.906 296.582 317.75 297.004
 319.586 297.004 c 342.152 297.004 l 348.012 297.004 352.777 292.238 352.777
 286.379 c 352.777 268.965 l 352.777 263.109 348.008 258.344 342.152 258.344
 c h
230.914 319.703 m 230.914 288.426 l 230.914 287.059 231.32 285.738 232.086
 284.613 c 234.852 280.555 l 236.023 278.84 237.965 277.738 240.043 277.617
 c 309.398 273.516 l 311.699 273.379 313.949 272.668 315.906 271.457 c 323.176
 266.965 l 323.859 266.547 324.637 266.324 325.438 266.324 c 342.152 266.324
 l 343.609 266.324 344.793 267.512 344.793 268.965 c 344.793 286.379 l 344.793
 287.832 343.609 289.02 342.152 289.02 c 319.582 289.02 l 318.938 289.02
 318.297 288.871 317.719 288.594 c 316.234 287.879 l 313.637 286.629 310.762
 286.211 307.914 286.684 c 263.648 293.969 l 259.887 294.59 257.266 297.918
 257.543 301.719 c 258.875 319.699 l 230.914 319.699 l h
230.914 319.703 m f
0.419608 0.866667 0.866667 rg
266.488 323.695 m 223.785 323.695 l 223.785 356.656 l 223.785 368.449 233.344
 378.008 245.137 378.008 c 256.93 378.008 266.488 368.449 266.488 356.656
 c h
266.488 323.695 m f
0.215686 0.384314 0.8 rg
266.488 319.703 m 223.785 319.703 l 221.582 319.703 219.793 321.492 219.793
 323.695 c 219.793 356.652 l 219.793 370.625 231.16 381.996 245.137 381.996
 c 259.105 381.996 270.48 370.625 270.48 356.652 c 270.48 323.691 l 270.48
 321.488 268.691 319.703 266.488 319.703 c h
227.777 327.688 m 262.496 327.688 l 262.496 356.652 l 262.496 366.227 254.707
 374.012 245.137 374.012 c 235.562 374.012 227.777 366.227 227.777 356.652
 c h
227.777 327.688 m f
1 0.917647 0.572549 rg
333.98 44.129 m 156.859 44.129 l 154.973 44.129 153.438 42.715 153.215 
40.891 c 160.887 40.871 167.457 36.164 170.223 29.48 c 320.617 29.48 l 323.383
 36.164 329.953 40.871 337.625 40.891 c 337.402 42.715 335.867 44.129 333.98
 44.129 c h
333.98 44.129 m f
0.215686 0.384314 0.8 rg
153.168 0 m 140.793 0 130.727 10.07 130.727 22.441 c 130.727 34.82 140.793
 44.887 153.168 44.887 c 165.543 44.887 175.613 34.82 175.613 22.441 c 175.613
 10.07 165.543 0 153.168 0 c h
153.168 36.902 m 145.199 36.902 138.711 30.414 138.711 22.441 c 138.711
 14.469 145.199 7.984 153.168 7.984 c 161.141 7.984 167.629 14.469 167.629
 22.441 c 167.629 30.414 161.141 36.902 153.168 36.902 c h
153.168 36.902 m f
337.672 0 m 325.297 0 315.227 10.07 315.227 22.441 c 315.227 34.82 325.297
 44.887 337.672 44.887 c 350.043 44.887 360.113 34.82 360.113 22.441 c 360.113
 10.07 350.043 0 337.672 0 c h
337.672 36.902 m 329.699 36.902 323.211 30.414 323.211 22.441 c 323.211
 14.469 329.699 7.984 337.672 7.984 c 345.648 7.984 352.129 14.469 352.129
 22.441 c 352.129 30.414 345.648 36.902 337.672 36.902 c h
337.672 36.902 m f
320.621 25.492 m 170.223 25.492 l 168.602 25.492 167.148 26.465 166.531
 27.957 c 164.293 33.371 159.059 36.887 153.203 36.902 c 152.062 36.902 
150.98 37.395 150.223 38.25 c 149.465 39.109 149.113 40.246 149.25 41.375
 c 149.727 45.223 152.992 48.121 156.859 48.121 c 333.98 48.121 l 337.844
 48.121 341.113 45.223 341.59 41.379 c 341.727 40.246 341.375 39.109 340.617
 38.25 c 339.863 37.395 338.777 36.902 337.637 36.902 c 331.781 36.887 326.547
 33.375 324.309 27.957 c 323.695 26.465 322.238 25.492 320.621 25.492 c 
h
172.711 33.473 m 318.133 33.473 l 319.602 36.09 321.555 38.344 323.855 
40.137 c 166.984 40.137 l 169.285 38.34 171.238 36.09 172.711 33.473 c h
333.98 40.137 m 334.004 40.137 l h
333.98 40.137 m f
204.969 40.137 m 181.195 40.137 l 179.586 40.137 178.125 41.102 177.512
 42.594 c 176.891 44.078 177.223 45.793 178.359 46.934 c 236.836 105.934
 l 237.977 107.082 239.695 107.43 241.195 106.812 c 242.691 106.199 243.664
 104.738 243.664 103.121 c 243.664 79.141 l 243.664 78.086 243.25 77.078
 242.508 76.328 c 207.801 41.316 l 207.051 40.562 206.031 40.137 204.969
 40.137 c h
190.773 48.121 m 203.301 48.121 l 235.684 80.785 l 235.684 93.426 l h
190.773 48.121 m f
1 0.917647 0.572549 rg
259.555 80.504 m 235.445 80.504 l 221.41 44.383 l 273.59 44.383 l h
259.555 80.504 m f
0.215686 0.384314 0.8 rg
273.59 40.391 m 221.41 40.391 l 220.094 40.391 218.859 41.039 218.117 42.125
 c 217.371 43.211 217.211 44.598 217.691 45.828 c 231.727 81.949 l 232.32
 83.484 233.801 84.496 235.445 84.496 c 259.559 84.496 l 261.203 84.496 
262.684 83.484 263.277 81.949 c 277.312 45.828 l 277.793 44.602 277.633 
43.215 276.887 42.125 c 276.145 41.039 274.906 40.391 273.59 40.391 c h
227.242 48.375 m 267.758 48.375 l 256.828 76.512 l 238.172 76.512 l h
227.242 48.375 m f
273.59 40.391 m 221.41 40.391 l 220.094 40.391 218.859 41.039 218.117 42.125
 c 217.371 43.211 217.211 44.598 217.691 45.828 c 231.727 81.949 l 232.32
 83.484 233.801 84.496 235.445 84.496 c 259.559 84.496 l 261.203 84.496 
262.684 83.484 263.277 81.949 c 277.312 45.828 l 277.793 44.602 277.633 
43.215 276.887 42.125 c 276.145 41.039 274.906 40.391 273.59 40.391 c h
227.242 48.375 m 267.758 48.375 l 256.828 76.512 l 238.172 76.512 l h
227.242 48.375 m f
0.878431 0.921569 0.988235 rg
246.992 80.504 m 255.418 80.504 l 255.418 232.25 l 239.676 232.25 l 239.676
 80.504 l h
246.992 80.504 m f
0.215686 0.384314 0.8 rg
255.418 76.512 m 239.676 76.512 l 237.473 76.512 235.684 78.297 235.684
 80.504 c 235.684 232.25 l 235.684 234.453 237.473 236.242 239.676 236.242
 c 255.418 236.242 l 257.621 236.242 259.41 234.453 259.41 232.25 c 259.41
 80.504 l 259.41 78.297 257.621 76.512 255.418 76.512 c h
243.66 84.496 m 251.426 84.496 l 251.426 228.258 l 243.66 228.258 l h
243.66 84.496 m f
Q Q
showpage
%%Trailer
end restore
%%EOF
