%!PS-Adobe-3.0 EPSF-3.0
%%Creator: cairo 1.14.8 (http://cairographics.org)
%%CreationDate: Wed Mar 20 09:06:38 2019
%%Pages: 1
%%DocumentData: Clean7Bit
%%LanguageLevel: 2
%%BoundingBox: 0 1 486 484
%%EndComments
%%BeginProlog
save
50 dict begin
/q { gsave } bind def
/Q { grestore } bind def
/cm { 6 array astore concat } bind def
/w { setlinewidth } bind def
/J { setlinecap } bind def
/j { setlinejoin } bind def
/M { setmiterlimit } bind def
/d { setdash } bind def
/m { moveto } bind def
/l { lineto } bind def
/c { curveto } bind def
/h { closepath } bind def
/re { exch dup neg 3 1 roll 5 3 roll moveto 0 rlineto
      0 exch rlineto 0 rlineto closepath } bind def
/S { stroke } bind def
/f { fill } bind def
/f* { eofill } bind def
/n { newpath } bind def
/W { clip } bind def
/W* { eoclip } bind def
/BT { } bind def
/ET { } bind def
/pdfmark where { pop globaldict /?pdfmark /exec load put }
    { globaldict begin /?pdfmark /pop load def /pdfmark
    /cleartomark load def end } ifelse
/BDC { mark 3 1 roll /BDC pdfmark } bind def
/EMC { mark /EMC pdfmark } bind def
/cairo_store_point { /cairo_point_y exch def /cairo_point_x exch def } def
/Tj { show currentpoint cairo_store_point } bind def
/TJ {
  {
    dup
    type /stringtype eq
    { show } { -0.001 mul 0 cairo_font_matrix dtransform rmoveto } ifelse
  } forall
  currentpoint cairo_store_point
} bind def
/cairo_selectfont { cairo_font_matrix aload pop pop pop 0 0 6 array astore
    cairo_font exch selectfont cairo_point_x cairo_point_y moveto } bind def
/Tf { pop /cairo_font exch def /cairo_font_matrix where
      { pop cairo_selectfont } if } bind def
/Td { matrix translate cairo_font_matrix matrix concatmatrix dup
      /cairo_font_matrix exch def dup 4 get exch 5 get cairo_store_point
      /cairo_font where { pop cairo_selectfont } if } bind def
/Tm { 2 copy 8 2 roll 6 array astore /cairo_font_matrix exch def
      cairo_store_point /cairo_font where { pop cairo_selectfont } if } bind def
/g { setgray } bind def
/rg { setrgbcolor } bind def
/d1 { setcachedevice } bind def
%%EndProlog
%%BeginSetup
%%EndSetup
%%Page: 1 1
%%BeginPageSetup
%%PageBoundingBox: 0 1 486 484
%%EndPageSetup
q 0 1 486 483 rectclip q
0.878431 0.921569 0.988235 rg
316.746 451.75 m 329.348 451.75 l 329.348 451.75 345.594 451.949 358.383
 440.094 c 365.34 440.094 l 371.262 440.094 376.941 439.07 382.227 437.207
 c 382.227 440.094 l 382.227 461.801 364.633 479.391 342.93 479.391 c 324.879
 479.391 309.68 467.219 305.074 450.637 c 308.855 451.359 312.758 451.75
 316.746 451.75 c h
316.746 451.75 m f
0.419608 0.866667 0.866667 rg
408.148 221.094 m 408.137 221.332 408.117 221.57 408.105 221.812 c 408.074
 222.277 408.043 222.738 408 223.195 c 407.977 223.48 407.941 223.766 407.91
 224.051 c 407.863 224.457 407.816 224.859 407.758 225.266 c 407.719 225.57
 407.668 225.879 407.621 226.18 c 407.562 226.551 407.496 226.918 407.426
 227.289 c 407.367 227.613 407.309 227.934 407.242 228.25 c 407.172 228.59
 407.094 228.926 407.016 229.258 c 406.938 229.598 406.859 229.941 406.773
 230.277 c 406.703 230.551 406.621 230.82 406.547 231.098 c 406.137 232.57
 405.656 234.02 405.105 235.434 c 405.059 235.551 405.012 235.672 404.965
 235.789 c 404.777 236.258 404.578 236.719 404.379 237.18 c 404.32 237.309
 404.266 237.441 404.207 237.566 c 403.996 238.035 403.777 238.496 403.551
 238.953 c 403.5 239.055 403.449 239.16 403.398 239.262 c 403.152 239.75
 402.902 240.23 402.641 240.707 c 402.621 240.75 402.598 240.789 402.574
 240.832 c 395.141 254.281 381.074 263.559 364.777 264.223 c 364.668 264.078
 l 364.75 264.078 l 359.43 250.066 l 358.148 246.688 354.91 244.453 351.297
 244.453 c 319.402 244.453 l 315.789 244.453 312.555 246.684 311.27 250.066
 c 306.652 262.234 l 306.328 262.816 306.09 263.434 305.949 264.082 c 293.109
 262.953 281.816 256.461 274.297 246.871 c 274.289 246.871 l 274.262 246.836
 274.234 246.797 274.207 246.762 c 273.961 246.445 273.723 246.125 273.484
 245.801 c 273.336 245.602 273.191 245.406 273.047 245.203 c 272.824 244.887
 272.609 244.566 272.391 244.25 c 272.242 244.031 272.098 243.812 271.957
 243.598 c 271.746 243.277 271.547 242.957 271.344 242.633 c 271.203 242.398
 271.062 242.168 270.926 241.934 c 270.734 241.609 270.547 241.293 270.367
 240.965 c 270.227 240.719 270.098 240.469 269.965 240.223 c 269.797 239.898
 269.621 239.578 269.457 239.246 c 269.324 238.98 269.203 238.715 269.074
 238.449 c 268.918 238.129 268.762 237.812 268.617 237.484 c 268.477 237.168
 268.344 236.844 268.207 236.523 c 267.992 236.012 267.785 235.496 267.586
 234.977 c 267.453 234.621 267.316 234.266 267.191 233.902 c 267.09 233.617
 267 233.328 266.906 233.043 c 266.797 232.695 266.68 232.348 266.574 231.996
 c 266.488 231.707 266.41 231.414 266.328 231.121 c 266.23 230.766 266.133
 230.41 266.043 230.051 c 265.969 229.758 265.898 229.461 265.828 229.164
 c 265.746 228.801 265.664 228.434 265.59 228.066 c 265.531 227.773 265.473
 227.48 265.418 227.184 c 265.348 226.801 265.285 226.418 265.227 226.031
 c 265.18 225.746 265.137 225.461 265.094 225.172 c 265.039 224.766 264.992
 224.355 264.949 223.945 c 264.918 223.672 264.887 223.402 264.859 223.129
 c 264.816 222.672 264.789 222.215 264.758 221.754 c 264.746 221.523 264.727
 221.293 264.715 221.059 c 264.684 220.367 264.664 219.672 264.664 218.969
 c 264.664 209.902 l 408.199 209.902 l 408.199 218.969 l 408.203 219.68 
408.184 220.387 408.148 221.094 c h
408.148 221.094 m f
0.976471 0.811765 0.811765 rg
313.398 244.453 m 357.297 244.453 l 364.75 264.078 l 364.699 264.078 l 
364.824 264.586 364.914 265.109 364.914 265.641 c 364.914 277.969 l 356.066
 273.359 346.016 270.75 335.344 270.75 c 324.68 270.75 314.629 273.359 305.781
 277.969 c 305.781 265.602 l 305.781 265.086 305.863 264.578 305.988 264.078
 c 305.945 264.078 l h
313.398 244.453 m f
0.419608 0.866667 0.866667 rg
305.82 265.102 m 305.855 264.758 305.906 264.414 305.988 264.078 c 305.945
 264.078 l 313.395 244.449 l 357.293 244.449 l 364.746 264.074 l 364.695
 264.074 l 364.781 264.41 364.836 264.754 364.871 265.098 c 305.82 265.098
 l h
305.82 265.102 m f
0.643137 0.788235 1 rg
196.672 267.988 m 185.723 267.988 l 185.695 267.992 185.676 267.992 185.652
 267.992 c 185.648 267.988 l 113.602 267.988 l 94.57 267.988 79.141 252.562
 79.141 233.527 c 79.141 211.332 l 231.137 211.332 l 231.137 233.527 l 231.133
 252.562 215.703 267.988 196.672 267.988 c h
196.672 267.988 m f
0.976471 0.811765 0.811765 rg
155.137 275.918 m 144.094 275.918 133.676 278.543 124.477 283.203 c 124.477
 269.273 l 124.477 268.797 124.547 268.316 124.648 267.848 c 124.648 267.848
 124.652 267.848 124.656 267.852 c 124.754 267.383 124.906 266.926 125.094
 266.488 c 125.121 266.43 125.141 266.375 125.168 266.316 c 125.254 266.141
 125.348 265.969 125.445 265.797 c 125.543 265.633 125.652 265.473 125.762
 265.312 c 125.824 265.227 125.879 265.137 125.941 265.055 c 130.297 259.52
 l 134.633 254 140.648 250.012 147.457 248.414 c 148.371 248.199 149.32 
248.016 150.297 247.867 c 161.355 246.211 172.41 250.918 179.285 259.789
 c 185.633 267.98 l 185.723 268.422 185.777 268.867 185.777 269.316 c 185.777
 283.195 l 176.586 278.539 166.172 275.918 155.137 275.918 c h
155.137 275.918 m f
0.643137 0.788235 1 rg
124.477 270.371 m 124.477 266.383 l 124.477 265.902 124.547 265.422 124.648
 264.953 c 124.648 264.953 124.652 264.953 124.656 264.957 c 124.754 264.488
 124.906 264.031 125.094 263.594 c 125.121 263.535 125.141 263.48 125.168
 263.422 c 125.254 263.242 125.348 263.07 125.445 262.902 c 125.543 262.738
 125.652 262.578 125.762 262.418 c 125.824 262.332 125.879 262.242 125.941
 262.16 c 130.297 256.625 l 134.633 251.105 140.648 247.117 147.457 245.52
 c 148.371 245.305 149.32 245.121 150.297 244.973 c 161.355 243.316 172.41
 248.023 179.285 256.895 c 185.633 265.086 l 185.723 265.527 185.777 265.973
 185.777 266.422 c 185.777 270.371 l h
124.477 270.371 m f
0.215686 0.384314 0.8 rg
382.23 396.801 m 303.637 396.801 l 301.43 396.801 299.641 398.594 299.641
 400.797 c 299.641 440.094 l 299.641 463.965 319.062 483.387 342.934 483.387
 c 366.805 483.387 386.227 463.965 386.227 440.094 c 386.227 400.797 l 386.227
 398.594 384.434 396.801 382.23 396.801 c h
307.625 404.793 m 378.234 404.793 l 378.234 440.094 l 378.234 459.562 362.398
 475.398 342.934 475.398 c 323.465 475.398 307.625 459.562 307.625 440.094
 c h
307.625 404.793 m f
0.878431 0.921569 0.988235 rg
413.957 361.82 m 413.957 401.723 378.867 434.062 335.582 434.062 c 292.297
 434.062 257.211 401.723 257.211 361.82 c 257.211 321.926 292.297 289.582
 335.582 289.582 c 378.867 289.582 413.957 321.926 413.957 361.82 c h
413.957 361.82 m f
0.215686 0.384314 0.8 rg
335.582 285.59 m 290.164 285.59 253.215 319.789 253.215 361.82 c 253.215
 403.859 290.164 438.059 335.582 438.059 c 381.004 438.059 417.957 403.859
 417.957 361.82 c 417.957 319.789 381.004 285.59 335.582 285.59 c h
335.582 430.066 m 294.57 430.066 261.203 399.453 261.203 361.82 c 261.203
 324.195 294.57 293.582 335.582 293.582 c 376.598 293.582 409.965 324.195
 409.965 361.82 c 409.965 399.453 376.598 430.066 335.582 430.066 c h
335.582 430.066 m f
0.976471 0.811765 0.811765 rg
399.906 359.309 m 399.766 359.309 399.637 359.289 399.504 359.289 c 399.504
 365.352 l 399.504 400.781 370.777 429.508 335.344 429.508 c 299.918 429.508
 271.191 400.781 271.191 365.352 c 271.191 359.289 l 271.055 359.289 270.922
 359.309 270.785 359.309 c 259.977 359.309 251.215 350.547 251.215 339.738
 c 251.215 328.926 259.977 320.164 270.785 320.164 c 271.496 320.164 272.199
 320.203 272.887 320.277 c 279.504 291.895 304.945 270.746 335.344 270.746
 c 365.742 270.746 391.184 291.895 397.809 320.277 c 398.5 320.203 399.199
 320.164 399.906 320.164 c 410.719 320.164 419.48 328.926 419.48 339.738
 c 419.48 350.547 410.719 359.309 399.906 359.309 c h
399.906 359.309 m f
0.215686 0.384314 0.8 rg
335.344 266.754 m 304.605 266.754 278.117 286.922 269.82 316.188 c 257.27
 316.699 247.219 327.066 247.219 339.738 c 247.219 351.512 255.898 361.301
 267.195 363.031 c 267.195 365.348 l 267.195 402.926 297.766 433.5 335.344
 433.5 c 372.926 433.5 403.496 402.926 403.496 365.348 c 403.496 363.031
 l 414.797 361.301 423.477 351.512 423.477 339.738 c 423.477 327.066 413.426
 316.699 400.875 316.188 c 392.578 286.922 366.086 266.754 335.344 266.754
 c h
272.891 324.277 m 274.727 324.277 276.352 323.012 276.777 321.188 c 283.152
 293.848 307.238 274.746 335.344 274.746 c 363.453 274.746 387.535 293.848
 393.914 321.188 c 394.375 323.152 396.215 324.473 398.234 324.254 c 398.785
 324.195 399.344 324.16 399.906 324.16 c 408.496 324.16 415.484 331.148 
415.484 339.738 c 415.484 348.309 408.531 355.285 399.961 355.316 c 399.805
 355.309 399.562 355.293 399.504 355.297 c 398.453 355.297 397.445 355.703
 396.695 356.445 c 395.938 357.195 395.508 358.223 395.508 359.289 c 395.508
 365.348 l 395.508 398.523 368.52 425.512 335.344 425.512 c 302.176 425.512
 275.188 398.523 275.188 365.348 c 275.188 359.289 l 275.188 358.223 274.758
 357.195 273.996 356.445 c 273.234 355.691 272.25 355.234 271.133 355.297
 c 271.062 355.297 270.797 355.309 270.723 355.316 c 262.195 355.316 255.207
 348.328 255.207 339.738 c 255.207 331.148 262.195 324.16 270.785 324.16
 c 271.348 324.16 271.91 324.195 272.461 324.254 c 272.605 324.27 272.75
 324.277 272.891 324.277 c h
272.891 324.277 m f
408.203 205.902 m 264.668 205.902 l 262.465 205.902 260.676 207.691 260.676
 209.898 c 260.676 218.965 l 260.676 219.73 260.695 220.484 260.727 221.234
 c 260.77 221.984 l 260.805 222.496 260.836 222.992 260.883 223.488 c 260.973
 224.367 l 261.023 224.82 261.074 225.27 261.137 225.711 c 261.273 226.645
 l 261.34 227.066 261.41 227.484 261.488 227.902 c 261.547 228.219 261.609
 228.535 261.672 228.859 c 261.754 229.258 261.844 229.652 261.934 230.055
 c 262.008 230.383 262.082 230.703 262.164 231.023 c 262.266 231.418 262.371
 231.805 262.48 232.191 c 262.598 232.617 262.672 232.883 262.75 233.145
 c 262.844 233.453 262.945 233.766 263.047 234.078 c 263.422 235.219 l 263.539
 235.547 263.664 235.875 263.789 236.207 c 264.066 236.953 264.293 237.516
 264.527 238.074 c 264.719 238.531 264.84 238.828 264.973 239.113 c 265.098
 239.402 265.234 239.684 265.371 239.965 c 265.883 241.031 l 266.055 241.371
 266.227 241.691 266.402 242.02 c 266.875 242.902 l 267.078 243.266 267.281
 243.613 267.488 243.965 c 267.941 244.715 l 268.16 245.074 268.383 245.422
 268.609 245.77 c 269.078 246.48 l 269.312 246.828 269.559 247.184 269.805
 247.527 c 270.277 248.172 l 270.527 248.516 270.785 248.859 271.051 249.203
 c 271.066 249.223 271.164 249.352 271.18 249.371 c 271.211 249.41 271.242
 249.449 271.273 249.484 c 278.871 259.098 289.824 265.551 301.789 267.57
 c 301.789 277.969 l 301.789 279.363 302.52 280.66 303.711 281.383 c 304.906
 282.109 306.395 282.152 307.625 281.508 c 316.246 277.016 325.574 274.742
 335.344 274.742 c 345.117 274.742 354.441 277.016 363.062 281.508 c 364.305
 282.152 365.785 282.105 366.98 281.383 c 368.176 280.66 368.902 279.363
 368.902 277.969 c 368.902 267.883 l 384.426 265.961 398.422 256.594 406.062
 242.758 c 406.426 242.098 406.699 241.574 406.965 241.051 c 407.133 240.711
 l 407.375 240.223 407.613 239.719 407.84 239.215 c 407.973 238.918 l 408.25
 238.285 408.469 237.785 408.672 237.273 c 408.781 236.988 l 409.414 235.359
 409.945 233.77 410.391 232.16 c 410.637 231.273 l 410.719 230.965 410.789
 230.652 410.859 230.348 c 410.984 229.801 411.07 229.438 411.148 229.074
 c 411.336 228.105 l 411.43 227.613 411.496 227.215 411.562 226.809 c 411.711
 225.816 l 411.773 225.379 411.828 224.934 411.879 224.488 c 411.973 223.559
 l 412.02 223.062 412.055 222.562 412.086 222.055 c 412.137 221.289 l 412.137
 221.273 l 412.172 220.504 412.191 219.738 412.191 218.965 c 412.191 209.898
 l 412.195 207.691 410.406 205.902 408.203 205.902 c h
268.664 213.891 m 404.207 213.891 l 404.207 218.965 l 404.207 219.617 404.188
 220.254 404.16 220.902 c 404.117 221.551 l 404.09 221.988 404.062 222.406
 404.023 222.824 c 403.953 223.477 l 403.898 223.977 403.855 224.344 403.805
 224.707 c 403.676 225.547 l 403.625 225.891 403.562 226.223 403.5 226.559
 c 402.695 230.023 l 402.324 231.375 401.883 232.699 401.383 233.977 c 401.379
 233.992 401.312 234.156 401.309 234.176 c 401.086 234.73 400.906 235.148
 400.723 235.562 c 400.559 235.934 l 400.375 236.34 400.172 236.766 399.965
 237.184 c 399.82 237.477 l 399.602 237.918 399.375 238.352 399.137 238.785
 c 392.195 251.34 379.191 259.48 365.051 260.207 c 364.367 260.148 363.66
 260.266 363.008 260.582 c 361.312 261.398 360.387 263.242 360.824 265.074
 c 360.883 265.324 360.914 265.516 360.914 265.645 c 360.914 271.738 l 344.742
 265.199 325.945 265.199 309.777 271.738 c 309.777 265.609 l 309.777 265.473
 309.812 265.273 309.871 265.02 c 310.156 263.828 309.883 262.574 309.125
 261.613 c 308.406 260.699 307.328 260.148 306.176 260.09 c 294.918 259.066
 284.453 253.355 277.441 244.41 c 277.402 244.367 277.367 244.32 277.332
 244.277 c 277.102 243.977 276.902 243.707 276.703 243.438 c 276.312 242.898
 l 276.098 242.594 275.898 242.305 275.707 242.02 c 275.305 241.418 l 275.117
 241.129 274.934 240.84 274.75 240.543 c 274.375 239.914 l 274.195 239.609
 274.023 239.312 273.855 239.012 c 273.547 238.445 l 273.547 238.441 273.453
 238.266 273.449 238.266 c 273.305 237.996 273.16 237.723 273.031 237.453
 c 271.898 234.984 l 271.695 234.508 271.508 234.035 271.328 233.559 c 271.328
 233.559 271.254 233.371 271.254 233.367 c 271.156 233.109 271.055 232.848
 270.965 232.586 c 270.227 230.234 l 270.082 229.719 269.992 229.395 269.914
 229.07 c 269.727 228.27 l 269.648 227.938 269.574 227.602 269.508 227.266
 c 269.352 226.465 l 269.285 226.109 269.227 225.762 269.172 225.414 c 269.055
 224.621 l 269.004 224.254 268.961 223.883 268.922 223.508 c 268.84 222.777
 l 268.801 222.348 268.777 221.926 268.75 221.504 c 268.711 220.875 l 268.68
 220.246 268.664 219.613 268.664 218.969 c h
268.664 213.891 m f
335.344 297.039 m 325.27 297.039 317.371 302.891 317.371 310.352 c 317.371
 312.555 319.164 314.348 321.367 314.348 c 323.57 314.348 325.363 312.555
 325.363 310.352 c 325.363 307.84 329.633 305.031 335.344 305.031 c 341.059
 305.031 345.328 307.84 345.328 310.352 c 345.328 312.555 347.117 314.348
 349.324 314.348 c 351.531 314.348 353.316 312.555 353.316 310.352 c 353.316
 302.891 345.426 297.039 335.344 297.039 c h
335.344 297.039 m f
0.878431 0.921569 0.988235 rg
329.348 368.086 m 256.77 368.086 l 255.797 368.086 255.008 368.875 255.008
 369.848 c 255.008 390.012 l 255.008 424.109 282.648 451.75 316.746 451.75
 c 329.348 451.75 l 351.523 451.75 369.496 433.777 369.496 411.602 c 369.496
 408.234 l 369.496 386.066 351.523 368.086 329.348 368.086 c h
329.348 368.086 m f
412.77 359.785 m 399.164 359.785 l 376.645 359.785 358.387 378.043 358.387
 400.562 c 358.387 440.094 l 365.344 440.094 l 393.402 440.094 416.152 417.34
 416.152 389.281 c 416.152 363.176 l 416.156 361.305 414.641 359.785 412.77
 359.785 c h
412.77 359.785 m f
0.215686 0.384314 0.8 rg
412.77 355.789 m 399.164 355.789 l 383.352 355.789 368.91 364.082 360.871
 377.352 c 352.629 368.961 341.23 364.094 329.348 364.094 c 256.77 364.094
 l 253.598 364.094 251.016 366.676 251.016 369.848 c 251.016 390.012 l 251.016
 426.262 280.5 455.746 316.746 455.746 c 329.348 455.746 l 330.016 455.738
 346.328 455.812 359.91 444.09 c 365.344 444.09 l 395.566 444.09 420.152
 419.5 420.152 389.281 c 420.152 363.176 l 420.152 359.102 416.84 355.789
 412.77 355.789 c h
361.695 388.457 m 361.848 388.457 362 388.449 362.148 388.43 c 363.57 388.266
 364.797 387.355 365.363 386.043 c 371.184 372.52 384.445 363.781 399.16
 363.781 c 412.156 363.781 l 412.156 389.281 l 412.156 415.098 391.156 436.098
 365.344 436.098 c 358.383 436.098 l 357.375 436.098 356.402 436.477 355.672
 437.164 c 344.172 447.816 329.477 447.824 329.398 447.758 c 316.746 447.758
 l 284.91 447.758 259.004 421.852 259.004 390.012 c 259.004 372.082 l 329.348
 372.082 l 340.793 372.082 351.68 377.594 358.48 386.828 c 359.238 387.859
 360.434 388.457 361.695 388.457 c h
361.695 388.457 m f
305.121 330.289 m 301.43 330.289 298.426 333.293 298.426 336.984 c 298.426
 348.141 l 298.426 351.832 301.43 354.836 305.121 354.836 c 308.812 354.836
 311.816 351.832 311.816 348.141 c 311.816 336.984 l 311.816 333.293 308.812
 330.289 305.121 330.289 c h
305.121 330.289 m f
365.574 330.289 m 361.883 330.289 358.879 333.293 358.879 336.984 c 358.879
 348.141 l 358.879 351.832 361.883 354.836 365.574 354.836 c 369.262 354.836
 372.266 351.832 372.266 348.141 c 372.266 336.984 l 372.266 333.293 369.266
 330.289 365.574 330.289 c h
365.574 330.289 m f
367.262 291.562 m 367.184 291.562 367.109 291.566 367.031 291.574 c 365.934
 291.699 365.148 292.691 365.273 293.785 c 367.18 310.59 358.148 315.207
 357.762 315.395 c 356.777 315.871 356.355 317.062 356.828 318.055 c 357.301
 319.039 358.473 319.469 359.469 319.004 c 359.961 318.773 371.492 313.141
 369.242 293.336 c 369.125 292.316 368.262 291.562 367.262 291.562 c h
367.262 291.562 m f
303.902 291.562 m 302.906 291.562 302.039 292.316 301.922 293.336 c 299.68
 313.145 311.203 318.773 311.695 319.008 c 312.699 319.465 313.887 319.043
 314.352 318.047 c 314.82 317.051 314.395 315.867 313.402 315.398 c 313.012
 315.203 303.988 310.586 305.895 293.789 c 306.02 292.691 305.23 291.703
 304.133 291.578 c 304.055 291.566 303.98 291.562 303.902 291.562 c h
303.902 291.562 m f
305.121 319.508 m 292.41 319.508 282.07 329.852 282.07 342.562 c 282.07
 355.273 292.41 365.613 305.121 365.613 c 317.832 365.613 328.176 355.273
 328.176 342.562 c 328.176 329.852 317.832 319.508 305.121 319.508 c h
305.121 357.625 m 296.816 357.625 290.059 350.867 290.059 342.562 c 290.059
 334.254 296.816 327.5 305.121 327.5 c 313.426 327.5 320.184 334.254 320.184
 342.562 c 320.184 350.867 313.426 357.625 305.121 357.625 c h
305.121 357.625 m f
365.578 319.508 m 352.863 319.508 342.52 329.852 342.52 342.562 c 342.52
 355.273 352.863 365.613 365.578 365.613 c 378.285 365.613 388.629 355.273
 388.629 342.562 c 388.629 329.852 378.285 319.508 365.578 319.508 c h
365.578 357.625 m 357.27 357.625 350.508 350.867 350.508 342.562 c 350.508
 334.254 357.266 327.5 365.578 327.5 c 373.883 327.5 380.641 334.254 380.641
 342.562 c 380.641 350.867 373.879 357.625 365.578 357.625 c h
365.578 357.625 m f
349.324 338.566 m 321.367 338.566 l 319.164 338.566 317.371 340.355 317.371
 342.562 c 317.371 344.766 319.164 346.555 321.367 346.555 c 349.324 346.555
 l 351.531 346.555 353.316 344.766 353.316 342.562 c 353.316 340.355 351.531
 338.566 349.324 338.566 c h
349.324 338.566 m f
0.976471 0.811765 0.811765 rg
223.137 368.355 m 222.992 368.355 222.855 368.336 222.711 368.332 c 222.711
 374.66 l 222.711 411.645 192.457 441.625 155.137 441.625 c 117.82 441.625
 87.566 411.645 87.566 374.66 c 87.566 368.332 l 87.422 368.336 87.281 368.355
 87.137 368.355 c 75.75 368.355 66.52 359.207 66.52 347.926 c 66.52 336.645
 75.75 327.496 87.137 327.496 c 87.887 327.496 88.621 327.539 89.348 327.617
 c 96.32 297.992 123.117 275.918 155.137 275.918 c 187.152 275.918 213.949
 297.992 220.922 327.617 c 221.648 327.543 222.387 327.496 223.133 327.496
 c 234.52 327.496 243.75 336.645 243.75 347.926 c 243.754 359.207 234.523
 368.355 223.137 368.355 c h
223.137 368.355 m f
0.215686 0.384314 0.8 rg
155.137 271.926 m 122.816 271.926 94.965 292.973 86.289 323.516 c 73.109
 323.961 62.527 334.738 62.527 347.926 c 62.527 360.195 71.684 370.375 83.57
 372.098 c 83.57 374.66 l 83.57 413.789 115.676 445.617 155.137 445.617 
c 194.598 445.617 226.707 413.789 226.707 374.66 c 226.707 372.098 l 238.59
 370.379 247.746 360.195 247.746 347.926 c 247.746 334.738 237.164 323.961
 223.984 323.516 c 215.309 292.973 187.457 271.926 155.137 271.926 c h
89.355 331.613 m 91.188 331.613 92.812 330.355 93.238 328.531 c 99.977 
299.91 125.43 279.914 155.137 279.914 c 184.844 279.914 210.301 299.91 217.039
 328.531 c 217.5 330.496 219.332 331.801 221.352 331.59 c 221.938 331.527
 222.535 331.488 223.137 331.488 c 232.301 331.488 239.754 338.863 239.754
 347.926 c 239.754 356.965 232.34 364.328 223.203 364.363 c 223.012 364.352
 222.855 364.348 222.707 364.344 c 221.656 364.344 220.648 364.758 219.902
 365.488 c 219.141 366.242 218.711 367.27 218.711 368.336 c 218.711 374.66
 l 218.711 409.383 190.191 437.629 155.137 437.629 c 120.078 437.629 91.555
 409.383 91.555 374.66 c 91.555 368.336 l 91.555 367.27 91.129 366.242 90.371
 365.488 c 89.609 364.742 88.594 364.305 87.512 364.344 c 87.363 364.344
 87.219 364.352 87.074 364.363 c 77.973 364.363 70.516 356.992 70.516 347.926
 c 70.516 338.863 77.973 331.488 87.137 331.488 c 87.742 331.488 88.336 
331.527 88.922 331.59 c 89.066 331.605 89.211 331.613 89.355 331.613 c h
89.355 331.613 m f
0.878431 0.921569 0.988235 rg
203.613 384.66 m 238.523 384.66 l 241.07 384.66 243.129 386.723 243.129
 389.27 c 243.129 414.945 l 243.129 444.203 219.414 467.918 190.156 467.918
 c 188 467.918 l 180.367 467.918 174.184 461.73 174.184 454.102 c 174.184
 414.094 l 174.184 397.84 187.355 384.66 203.613 384.66 c h
203.613 384.66 m f
132.914 384.66 m 72.18 384.66 l 69.625 384.66 67.555 386.73 67.555 389.285
 c 67.555 410.414 l 67.555 442.172 93.301 467.918 125.059 467.918 c 160.516
 467.918 l 168.137 467.918 174.316 461.738 174.316 454.117 c 174.316 426.066
 l 174.316 403.195 155.781 384.66 132.914 384.66 c h
132.914 384.66 m f
0.215686 0.384314 0.8 rg
238.523 380.664 m 203.613 380.664 l 185.18 380.664 170.188 395.664 170.188
 414.094 c 170.188 454.102 l 170.188 463.918 178.176 471.914 188 471.914
 c 190.16 471.914 l 221.57 471.914 247.125 446.355 247.125 414.945 c 247.125
 389.27 l 247.125 384.523 243.266 380.664 238.523 380.664 c h
188 463.922 m 182.582 463.922 178.176 459.516 178.176 454.102 c 178.176
 414.094 l 178.176 400.07 189.586 388.66 203.613 388.66 c 238.523 388.66
 l 238.863 388.66 239.133 388.934 239.133 389.27 c 239.133 414.945 l 239.133
 441.953 217.164 463.922 190.156 463.922 c h
188 463.922 m f
132.914 380.664 m 72.18 380.664 l 67.426 380.664 63.559 384.531 63.559 
389.285 c 63.559 410.414 l 63.559 444.328 91.148 471.914 125.059 471.914
 c 160.516 471.914 l 170.328 471.914 178.309 463.926 178.309 454.117 c 178.309
 426.066 l 178.309 401.031 157.945 380.664 132.914 380.664 c h
125.059 463.922 m 95.555 463.922 71.551 439.918 71.551 410.414 c 71.551
 389.289 l 71.551 388.941 71.836 388.66 72.18 388.66 c 132.91 388.66 l 153.535
 388.66 170.32 405.438 170.32 426.066 c 170.32 454.117 l 170.32 459.523 
165.922 463.922 160.516 463.922 c h
125.059 463.922 m f
231.133 207.34 m 79.141 207.34 l 76.938 207.34 75.148 209.129 75.148 211.332
 c 75.148 233.527 l 75.148 254.73 92.398 271.984 113.602 271.984 c 120.48
 271.984 l 120.48 283.199 l 120.48 284.586 121.199 285.875 122.383 286.605
 c 123.566 287.328 125.039 287.395 126.277 286.762 c 135.262 282.219 144.973
 279.91 155.137 279.91 c 165.289 279.91 174.996 282.211 183.977 286.754 
c 185.219 287.383 186.688 287.32 187.871 286.59 c 189.059 285.867 189.773
 284.578 189.773 283.191 c 189.773 271.984 l 196.668 271.984 l 217.875 271.984
 235.125 254.73 235.125 233.527 c 235.125 211.332 l 235.129 209.125 233.34
 207.34 231.133 207.34 c h
83.137 215.328 m 227.137 215.328 l 227.137 233.527 l 227.137 250.328 213.473
 263.992 196.672 263.992 c 185.723 263.992 l 185.695 263.992 185.672 263.992
 185.645 263.992 c 184.445 263.992 183.312 264.531 182.555 265.453 c 181.793
 266.379 181.484 267.594 181.719 268.77 c 181.754 268.949 181.785 269.133
 181.785 269.312 c 181.785 277.004 l 173.344 273.629 164.406 271.922 155.137
 271.922 c 145.863 271.922 136.922 273.629 128.469 277.012 c 128.469 269.273
 l 128.469 269.102 128.504 268.934 128.539 268.766 c 128.77 267.59 128.465
 266.375 127.707 265.453 c 126.945 264.527 125.812 263.992 124.621 263.992
 c 113.602 263.992 l 96.805 263.992 83.137 250.328 83.137 233.527 c h
83.137 215.328 m f
0.878431 0.921569 0.988235 rg
221.945 384.66 m 222.441 381.398 222.711 378.059 222.711 374.66 c 222.711
 368.336 l 222.855 368.336 222.992 368.355 223.137 368.355 c 228.477 368.355
 233.324 366.328 236.984 363.031 c 236.984 384.66 l h
221.945 384.66 m f
0.215686 0.384314 0.8 rg
236.988 359.031 m 236.02 359.031 235.062 359.387 234.312 360.059 c 231.234
 362.836 227.266 364.363 223.141 364.363 c 223.047 364.352 222.867 364.344
 222.711 364.34 c 221.66 364.34 220.652 364.754 219.906 365.488 c 219.145
 366.238 218.715 367.266 218.715 368.332 c 218.715 374.66 l 218.715 377.742
 218.473 380.906 217.992 384.062 c 217.82 385.211 218.156 386.383 218.914
 387.266 c 219.676 388.148 220.781 388.656 221.945 388.656 c 236.988 388.656
 l 239.191 388.656 240.984 386.863 240.984 384.66 c 240.984 363.027 l 240.984
 361.453 240.051 360.02 238.613 359.379 c 238.09 359.145 237.535 359.031
 236.988 359.031 c h
226.707 372.09 m 228.875 371.773 230.992 371.168 232.988 370.297 c 232.988
 380.664 l 226.441 380.664 l 226.617 378.648 226.707 376.641 226.707 374.66
 c h
226.707 372.09 m f
0.878431 0.921569 0.988235 rg
73.699 384.66 m 73.699 363.395 l 77.309 366.477 81.996 368.355 87.141 368.355
 c 87.285 368.355 87.426 368.336 87.566 368.332 c 87.566 374.66 l 87.566
 378.059 87.84 381.398 88.328 384.66 c h
73.699 384.66 m f
0.215686 0.384314 0.8 rg
73.699 359.402 m 73.129 359.402 72.559 359.523 72.027 359.77 c 70.609 360.426
 69.703 361.84 69.703 363.398 c 69.703 384.66 l 69.703 386.863 71.492 388.656
 73.699 388.656 c 88.328 388.656 l 89.492 388.656 90.602 388.148 91.359 
387.266 c 92.117 386.387 92.453 385.215 92.281 384.062 c 91.801 380.906 
91.559 377.742 91.559 374.66 c 91.559 368.332 l 91.559 367.266 91.129 366.238
 90.371 365.488 c 89.609 364.738 88.594 364.305 87.512 364.34 c 87.367 364.344
 87.219 364.352 87.074 364.363 c 83.164 364.363 79.316 362.938 76.293 360.359
 c 75.559 359.73 74.633 359.402 73.699 359.402 c h
77.695 380.664 m 77.695 370.473 l 79.574 371.25 81.551 371.793 83.57 372.094
 c 83.57 374.66 l 83.57 376.645 83.66 378.652 83.836 380.668 c 77.695 380.668
 l h
77.695 380.664 m f
153.109 304.242 m 142.414 304.242 134.344 309.137 134.344 315.621 c 134.344
 317.828 136.137 319.617 138.34 319.617 c 140.547 319.617 142.336 317.828
 142.336 315.621 c 142.613 314.641 146.613 312.234 153.109 312.234 c 159.609
 312.234 163.613 314.641 163.891 315.668 c 163.891 317.875 165.676 319.641
 167.883 319.641 c 170.09 319.641 171.875 317.832 171.875 315.621 c 171.875
 309.137 163.809 304.242 153.109 304.242 c h
153.109 304.242 m f
121.922 339.781 m 117.785 339.781 114.418 343.148 114.418 347.285 c 114.418
 359.793 l 114.418 363.934 117.785 367.301 121.922 367.301 c 126.062 367.301
 129.43 363.934 129.43 359.793 c 129.43 347.285 l 129.43 343.148 126.062
 339.781 121.922 339.781 c h
121.922 339.781 m f
184.297 339.781 m 180.16 339.781 176.793 343.148 176.793 347.285 c 176.793
 359.793 l 176.793 363.934 180.16 367.301 184.297 367.301 c 188.438 367.301
 191.805 363.934 191.805 359.793 c 191.805 347.285 l 191.805 343.148 188.438
 339.781 184.297 339.781 c h
184.297 339.781 m f
186.371 298.176 m 186.297 298.176 186.223 298.18 186.145 298.191 c 185.047
 298.312 184.258 299.305 184.383 300.395 c 186.395 318.125 176.852 322.988
 176.441 323.188 c 175.453 323.668 175.031 324.855 175.508 325.844 c 175.98
 326.84 177.156 327.262 178.148 326.801 c 178.664 326.559 190.703 320.68
 188.355 299.953 c 188.238 298.93 187.371 298.176 186.371 298.176 c h
186.371 298.176 m f
119.848 298.176 m 118.848 298.176 117.984 298.93 117.867 299.953 c 115.52
 320.68 127.562 326.559 128.07 326.801 c 129.074 327.262 130.262 326.84 
130.73 325.836 c 131.191 324.84 130.77 323.66 129.777 323.188 c 129.348 
322.98 119.832 318.102 121.84 300.398 c 121.961 299.305 121.176 298.312 
120.078 298.191 c 120 298.18 119.922 298.176 119.848 298.176 c h
119.848 298.176 m f
121.371 327.621 m 108.133 327.621 97.363 338.391 97.363 351.629 c 97.363
 364.867 108.133 375.633 121.371 375.633 c 134.609 375.633 145.379 364.863
 145.379 351.625 c 145.379 338.387 134.609 327.621 121.371 327.621 c h
121.371 367.645 m 112.543 367.645 105.355 360.457 105.355 351.625 c 105.355
 342.797 112.543 335.609 121.371 335.609 c 130.203 335.609 137.387 342.797
 137.387 351.625 c 137.387 360.457 130.207 367.645 121.371 367.645 c h
121.371 367.645 m f
184.848 327.621 m 171.609 327.621 160.844 338.391 160.844 351.629 c 160.844
 364.867 171.609 375.633 184.848 375.633 c 198.086 375.633 208.855 364.863
 208.855 351.625 c 208.855 338.387 198.086 327.621 184.848 327.621 c h
184.848 367.645 m 176.02 367.645 168.832 360.457 168.832 351.625 c 168.832
 342.797 176.016 335.609 184.848 335.609 c 193.68 335.609 200.867 342.797
 200.867 351.625 c 200.867 360.457 193.68 367.645 184.848 367.645 c h
184.848 367.645 m f
167.789 347.629 m 138.43 347.629 l 136.227 347.629 134.434 349.422 134.434
 351.625 c 134.434 353.828 136.227 355.617 138.43 355.617 c 167.789 355.617
 l 169.992 355.617 171.781 353.828 171.781 351.625 c 171.781 349.422 169.996
 347.629 167.789 347.629 c h
167.789 347.629 m f
0.976471 0.654902 0.654902 rg
315.023 259.156 m 297.336 259.156 l 280.156 221.168 l 280.156 209.902 l
 332.203 209.902 l 332.203 221.168 l h
315.023 259.156 m f
0.215686 0.384314 0.8 rg
332.203 205.902 m 280.152 205.902 l 277.949 205.902 276.156 207.691 276.156
 209.898 c 276.156 221.168 l 276.156 221.738 276.281 222.301 276.516 222.816
 c 293.695 260.801 l 294.344 262.234 295.766 263.148 297.336 263.148 c 315.023
 263.148 l 316.594 263.148 318.02 262.234 318.664 260.801 c 335.84 222.816
 l 336.074 222.301 336.199 221.738 336.199 221.168 c 336.199 209.898 l 336.199
 207.691 334.41 205.902 332.203 205.902 c h
284.152 213.891 m 328.211 213.891 l 328.211 220.305 l 312.449 255.16 l 
299.914 255.16 l 284.152 220.305 l h
284.152 213.891 m f
0.976471 0.654902 0.654902 rg
311.02 279.133 m 297.066 279.133 l 295.066 279.133 293.449 277.512 293.449
 275.512 c 293.449 273.953 292.449 272.57 290.969 272.082 c 281.148 268.82
 l 279.668 268.328 278.672 266.941 278.672 265.387 c 278.672 253.168 l 278.672
 251.938 279.289 250.793 280.32 250.129 c 289.406 244.246 l 289.723 244.039
 290.07 243.887 290.438 243.789 c 305.348 239.789 l 305.652 239.707 305.969
 239.664 306.285 239.664 c 378.629 239.664 l 379.301 239.664 379.957 239.852
 380.527 240.199 c 390.293 246.207 l 391.363 246.867 392.016 248.031 392.016
 249.289 c 392.016 264.383 l 392.016 265.82 391.164 267.121 389.848 267.695
 c 385.031 269.797 l 383.719 270.375 382.863 271.676 382.863 273.113 c 382.863
 275.508 l 382.863 277.508 381.242 279.129 379.242 279.129 c 311.02 279.129
 l h
311.02 279.133 m f
0.215686 0.384314 0.8 rg
378.629 235.668 m 306.289 235.668 l 305.621 235.668 304.957 235.754 304.316
 235.926 c 289.402 239.926 l 288.625 240.137 287.906 240.461 287.242 240.887
 c 278.152 246.773 l 275.98 248.18 274.676 250.57 274.676 253.164 c 274.676
 265.383 l 274.676 268.668 276.773 271.57 279.891 272.605 c 289.457 275.785
 l 289.602 279.855 292.957 283.125 297.066 283.125 c 379.242 283.125 l 383.441
 283.125 386.859 279.711 386.859 275.508 c 386.859 273.359 l 391.441 271.359
 l 394.219 270.148 396.012 267.406 396.012 264.383 c 396.012 249.285 l 396.012
 246.621 394.656 244.199 392.387 242.801 c 382.613 236.793 l 381.422 236.059
 380.043 235.668 378.629 235.668 c h
282.664 253.371 m 291.578 247.598 l 306.387 243.645 l 378.52 243.66 l 388.02
 249.5 l 388.02 264.137 l 383.434 266.141 l 380.66 267.348 378.867 270.09
 378.867 273.117 c 378.867 275.141 l 297.434 275.141 l 297.281 272.012 295.227
 269.281 292.227 268.285 c 282.664 265.109 l h
379.246 275.141 m 379.266 275.141 l h
379.246 275.141 m f
0.976471 0.654902 0.654902 rg
133.32 260.586 m 115.633 260.586 l 98.453 222.605 l 98.453 211.332 l 150.496
 211.332 l 150.496 222.605 l h
133.32 260.586 m f
0.215686 0.384314 0.8 rg
150.496 207.34 m 98.453 207.34 l 96.25 207.34 94.457 209.129 94.457 211.332
 c 94.457 222.605 l 94.457 223.168 94.578 223.73 94.812 224.246 c 111.992
 262.238 l 112.637 263.664 114.062 264.586 115.633 264.586 c 133.32 264.586
 l 134.891 264.586 136.316 263.664 136.961 262.238 c 154.141 224.246 l 154.375
 223.73 154.496 223.168 154.496 222.605 c 154.496 211.332 l 154.492 209.125
 152.707 207.34 150.496 207.34 c h
102.449 215.328 m 146.504 215.328 l 146.504 221.738 l 130.742 256.594 l
 118.207 256.594 l 102.445 221.738 l 102.445 215.328 l h
102.449 215.328 m f
0.976471 0.654902 0.654902 rg
128.785 279.133 m 114.832 279.133 l 112.832 279.133 111.211 277.512 111.211
 275.512 c 111.211 273.953 110.211 272.57 108.734 272.082 c 98.914 268.82
 l 97.434 268.328 96.438 266.941 96.438 265.387 c 96.438 253.168 l 96.438
 251.938 97.059 250.793 98.086 250.129 c 107.172 244.246 l 107.488 244.039
 107.836 243.887 108.199 243.789 c 123.113 239.789 l 123.418 239.707 123.734
 239.664 124.051 239.664 c 196.391 239.664 l 197.059 239.664 197.719 239.852
 198.289 240.199 c 208.055 246.207 l 209.125 246.867 209.777 248.031 209.777
 249.289 c 209.777 264.383 l 209.777 265.82 208.922 267.121 207.609 267.695
 c 202.793 269.797 l 201.477 270.375 200.625 271.676 200.625 273.113 c 200.625
 275.508 l 200.625 277.508 199 279.129 197.004 279.129 c 128.785 279.129
 l h
128.785 279.133 m f
0.215686 0.384314 0.8 rg
196.395 235.668 m 124.055 235.668 l 123.391 235.668 122.727 235.754 122.082
 235.926 c 107.172 239.926 l 106.391 240.137 105.672 240.461 105.008 240.887
 c 95.922 246.773 l 93.746 248.18 92.445 250.57 92.445 253.164 c 92.445 
265.383 l 92.445 268.668 94.539 271.57 97.656 272.605 c 107.223 275.785 
l 107.367 279.855 110.727 283.125 114.836 283.125 c 197.012 283.125 l 201.211
 283.125 204.629 279.711 204.629 275.508 c 204.629 273.359 l 209.211 271.359
 l 211.984 270.148 213.781 267.406 213.781 264.383 c 213.781 249.285 l 213.781
 246.621 212.426 244.199 210.156 242.801 c 200.387 236.793 l 199.184 236.059
 197.809 235.668 196.395 235.668 c h
100.43 253.371 m 109.348 247.598 l 124.152 243.645 l 196.289 243.66 l 205.785
 249.5 l 205.785 264.137 l 201.203 266.141 l 198.426 267.348 196.633 270.09
 196.633 273.117 c 196.633 275.141 l 115.199 275.141 l 115.047 272.012 112.992
 269.281 109.992 268.285 c 100.43 265.109 l h
197.008 275.141 m 197.031 275.141 l h
197.008 275.141 m f
412.77 355.789 m 399.164 355.789 l 383.352 355.789 368.91 364.082 360.871
 377.352 c 352.629 368.961 341.23 364.094 329.348 364.094 c 256.77 364.094
 l 253.598 364.094 251.016 366.676 251.016 369.848 c 251.016 390.012 l 251.016
 426.262 280.5 455.746 316.746 455.746 c 329.348 455.746 l 330.016 455.738
 346.328 455.812 359.91 444.09 c 365.344 444.09 l 395.566 444.09 420.152
 419.5 420.152 389.281 c 420.152 363.176 l 420.152 359.102 416.84 355.789
 412.77 355.789 c h
361.695 388.457 m 361.848 388.457 362 388.449 362.148 388.43 c 363.57 388.266
 364.797 387.355 365.363 386.043 c 371.184 372.52 384.445 363.781 399.16
 363.781 c 412.156 363.781 l 412.156 389.281 l 412.156 415.098 391.156 436.098
 365.344 436.098 c 358.383 436.098 l 357.375 436.098 356.402 436.477 355.672
 437.164 c 344.172 447.816 329.477 447.824 329.398 447.758 c 316.746 447.758
 l 284.91 447.758 259.004 421.852 259.004 390.012 c 259.004 372.082 l 329.348
 372.082 l 340.793 372.082 351.68 377.594 358.48 386.828 c 359.238 387.859
 360.434 388.457 361.695 388.457 c h
361.695 388.457 m f
0.976471 0.811765 0.811765 rg
482.004 287.32 m 481 289.191 479.363 290.727 477.203 291.5 c 462.355 296.848
 445.883 289.125 440.41 274.254 c 414.375 203.496 l 412.535 198.508 409.004
 194.328 404.398 191.68 c 329.211 148.484 l 319.25 141.898 l 372.914 186.926
 l 385.043 197.105 386.57 215.234 376.258 227.297 c 373.109 230.98 367.516
 231.316 363.801 228.203 c 301.762 176.141 l 297.414 172.496 293.91 167.941
 291.488 162.809 c 281.207 140.988 l 281.207 140.988 268.137 110.883 263.523
 72.93 c 255.258 5.008 l 335.5 5.008 l 335.5 58.285 l 335.5 63.621 337.625
 68.738 341.395 72.516 c 435.555 166.734 l 435.648 166.828 435.742 166.918
 435.832 167.008 c 439.512 170.641 l 442.465 173.684 444.75 177.312 446.215
 181.293 c 482.004 278.547 l h
482.004 287.32 m f
231.836 5.008 m 223.574 72.93 l 218.953 110.883 205.887 140.988 205.887
 140.988 c 195.605 162.809 l 193.184 167.945 189.684 172.496 185.332 176.141
 c 123.293 228.203 l 119.578 231.316 113.984 230.98 110.836 227.297 c 100.523
 215.234 102.051 197.105 114.18 186.926 c 167.848 141.898 l 157.883 148.484
 l 82.695 191.68 l 78.09 194.324 74.559 198.508 72.719 203.496 c 46.684 
274.254 l 41.211 289.121 24.738 296.848 9.891 291.5 c 5.223 289.824 2.836
 284.668 4.559 279.996 c 40.879 181.293 l 42.344 177.309 44.629 173.684 
47.586 170.637 c 51.262 167.008 l 51.352 166.914 51.445 166.824 51.535 166.734
 c 145.699 72.512 l 149.473 68.734 151.594 63.617 151.594 58.281 c 151.594
 5.008 l h
231.836 5.008 m f
0.215686 0.384314 0.8 rg
335.504 1.012 m 255.258 1.012 l 254.117 1.012 253.027 1.504 252.27 2.359
 c 251.508 3.219 251.156 4.355 251.297 5.492 c 259.559 73.414 l 264.188 
111.504 276.996 141.324 277.543 142.578 c 287.875 164.512 l 290.523 170.133
 294.438 175.207 299.195 179.203 c 361.234 231.262 l 366.66 235.809 374.766
 235.199 379.293 229.891 c 384.977 223.242 387.707 214.789 386.984 206.078
 c 386.262 197.371 382.176 189.48 375.48 183.863 c 359.633 170.566 l 402.41
 195.145 l 406.195 197.316 409.113 200.773 410.625 204.875 c 436.66 275.629
 l 442.879 292.531 461.676 301.336 478.559 295.258 c 481.535 294.188 484.008
 292.039 485.527 289.203 c 485.84 288.625 486 287.977 486 287.32 c 486 278.543
 l 486 278.078 485.918 277.605 485.758 277.168 c 449.965 179.914 l 448.301
 175.383 445.75 171.328 442.383 167.859 c 438.383 163.91 l 344.223 69.691
 l 341.18 66.645 339.504 62.59 339.504 58.285 c 339.504 5.008 l 339.5 2.805
 337.711 1.012 335.504 1.012 c h
259.77 9.004 m 331.512 9.004 l 331.512 58.285 l 331.512 64.727 334.016 
70.781 338.57 75.336 c 433.055 169.875 l 436.703 173.484 l 439.23 176.09
 441.188 179.195 442.465 182.676 c 478.008 279.258 l 478.008 286.164 l 477.543
 286.766 476.852 287.383 475.852 287.738 c 463.082 292.336 448.867 285.664
 444.16 272.875 c 418.117 202.113 l 415.961 196.258 411.797 191.324 406.387
 188.215 c 331.312 145.082 l 321.453 138.566 l 319.684 137.391 317.312 137.809
 316.051 139.508 c 314.781 141.207 315.059 143.594 316.68 144.961 c 370.344
 189.988 l 375.395 194.227 378.473 200.176 379.02 206.746 c 379.566 213.312
 377.508 219.691 373.219 224.703 c 371.523 226.691 368.449 226.887 366.371
 225.145 c 304.328 173.086 l 300.453 169.832 297.262 165.691 295.102 161.113
 c 284.82 139.289 l 284.742 139.102 271.977 109.336 267.488 72.453 c h
259.77 9.004 m f
231.836 1.012 m 151.594 1.012 l 149.387 1.012 147.598 2.805 147.598 5.008
 c 147.598 58.285 l 147.598 62.59 145.918 66.645 142.875 69.691 c 48.484
 164.137 l 44.773 167.797 l 41.355 171.324 38.797 175.379 37.133 179.91 
c 0.809 278.617 l -0.398 281.891 -0.25 285.426 1.219 288.574 c 2.68 291.711
 5.281 294.082 8.539 295.258 c 25.422 301.336 44.215 292.531 50.434 275.629
 c 76.473 204.871 l 77.984 200.773 80.898 197.316 84.691 195.145 c 127.461
 170.566 l 111.617 183.863 l 104.922 189.48 100.836 197.371 100.117 206.078
 c 99.395 214.789 102.121 223.242 107.801 229.891 c 112.34 235.199 120.441
 235.805 125.859 231.262 c 187.906 179.203 l 192.664 175.211 196.574 170.133
 199.223 164.512 c 209.504 142.688 l 210.102 141.324 222.906 111.504 227.543
 73.41 c 235.805 5.488 l 235.945 4.352 235.59 3.215 234.832 2.359 c 234.07
 1.504 232.977 1.012 231.836 1.012 c h
155.59 9.004 m 227.324 9.004 l 219.609 72.449 l 215.109 109.395 202.348
 139.102 202.223 139.398 c 191.992 161.109 l 189.832 165.688 186.645 169.828
 182.766 173.082 c 120.723 225.141 l 118.648 226.883 115.574 226.688 113.871
 224.703 c 109.586 219.691 107.527 213.312 108.074 206.742 c 108.617 200.172
 111.699 194.223 116.746 189.984 c 170.414 144.957 l 172.031 143.594 172.312
 141.203 171.047 139.508 c 169.777 137.809 167.41 137.391 165.637 138.562
 c 155.785 145.082 l 80.707 188.215 l 75.297 191.324 71.129 196.258 68.973
 202.113 c 42.934 272.871 l 38.227 285.664 24.016 292.336 11.242 287.738
 c 10.004 287.293 9.012 286.391 8.457 285.199 c 7.895 283.996 7.84 282.637
 8.305 281.379 c 44.633 182.672 l 45.91 179.195 47.867 176.086 50.453 173.426
 c 54.379 169.543 l 148.527 75.34 l 153.078 70.781 155.59 64.727 155.59 
58.285 c h
155.59 9.004 m f
Q Q
showpage
%%Trailer
end restore
%%EOF
