%!PS-Adobe-3.0 EPSF-3.0
%%Creator: cairo 1.14.8 (http://cairographics.org)
%%CreationDate: Wed Mar 20 09:06:38 2019
%%Pages: 1
%%DocumentData: Clean7Bit
%%LanguageLevel: 2
%%BoundingBox: 0 6 486 480
%%EndComments
%%BeginProlog
save
50 dict begin
/q { gsave } bind def
/Q { grestore } bind def
/cm { 6 array astore concat } bind def
/w { setlinewidth } bind def
/J { setlinecap } bind def
/j { setlinejoin } bind def
/M { setmiterlimit } bind def
/d { setdash } bind def
/m { moveto } bind def
/l { lineto } bind def
/c { curveto } bind def
/h { closepath } bind def
/re { exch dup neg 3 1 roll 5 3 roll moveto 0 rlineto
      0 exch rlineto 0 rlineto closepath } bind def
/S { stroke } bind def
/f { fill } bind def
/f* { eofill } bind def
/n { newpath } bind def
/W { clip } bind def
/W* { eoclip } bind def
/BT { } bind def
/ET { } bind def
/pdfmark where { pop globaldict /?pdfmark /exec load put }
    { globaldict begin /?pdfmark /pop load def /pdfmark
    /cleartomark load def end } ifelse
/BDC { mark 3 1 roll /BDC pdfmark } bind def
/EMC { mark /EMC pdfmark } bind def
/cairo_store_point { /cairo_point_y exch def /cairo_point_x exch def } def
/Tj { show currentpoint cairo_store_point } bind def
/TJ {
  {
    dup
    type /stringtype eq
    { show } { -0.001 mul 0 cairo_font_matrix dtransform rmoveto } ifelse
  } forall
  currentpoint cairo_store_point
} bind def
/cairo_selectfont { cairo_font_matrix aload pop pop pop 0 0 6 array astore
    cairo_font exch selectfont cairo_point_x cairo_point_y moveto } bind def
/Tf { pop /cairo_font exch def /cairo_font_matrix where
      { pop cairo_selectfont } if } bind def
/Td { matrix translate cairo_font_matrix matrix concatmatrix dup
      /cairo_font_matrix exch def dup 4 get exch 5 get cairo_store_point
      /cairo_font where { pop cairo_selectfont } if } bind def
/Tm { 2 copy 8 2 roll 6 array astore /cairo_font_matrix exch def
      cairo_store_point /cairo_font where { pop cairo_selectfont } if } bind def
/g { setgray } bind def
/rg { setrgbcolor } bind def
/d1 { setcachedevice } bind def
%%EndProlog
%%BeginSetup
%%EndSetup
%%Page: 1 1
%%BeginPageSetup
%%PageBoundingBox: 0 6 486 480
%%EndPageSetup
q 0 6 486 474 rectclip q
0.976471 0.654902 0.654902 rg
314.727 437.543 m 314.727 413.992 l 371.031 363.199 l 371.031 437.543 l
 h
314.727 437.543 m f
362.973 124.266 m 115.422 124.266 l 107.383 124.266 100.863 130.789 100.863
 138.828 c 100.863 318.473 l 377.535 318.473 l 377.535 138.828 l 377.535
 130.789 371.016 124.266 362.973 124.266 c h
362.973 124.266 m f
236.945 473.152 m 82.965 334.332 l 76.773 328.75 80.723 318.473 89.055 
318.473 c 396.938 318.473 l 405.273 318.473 409.223 328.746 403.031 334.332
 c 249.133 473.152 l 245.672 476.277 240.406 476.277 236.945 473.152 c h
236.945 473.152 m f
373.391 437.543 m 311.016 437.543 l 309.371 437.543 308.043 438.871 308.043
 440.512 c 308.043 464.273 l 308.043 465.914 309.371 467.246 311.016 467.246
 c 373.391 467.246 l 375.031 467.246 376.359 465.914 376.359 464.273 c 376.359
 440.512 l 376.355 438.871 375.031 437.543 373.391 437.543 c h
373.391 437.543 m f
0.419608 0.866667 0.866667 rg
348.008 168.492 m 348 168.645 347.988 168.797 347.977 168.949 c 347.957
 169.242 347.938 169.531 347.91 169.824 c 347.895 170.008 347.871 170.188
 347.852 170.367 c 347.824 170.625 347.793 170.883 347.758 171.141 c 347.73
 171.336 347.699 171.531 347.668 171.723 c 347.629 171.961 347.59 172.195
 347.543 172.43 c 347.508 172.633 347.469 172.84 347.426 173.043 c 347.383
 173.254 347.332 173.465 347.281 173.68 c 347.234 173.898 347.184 174.113
 347.129 174.328 c 347.086 174.504 347.031 174.676 346.984 174.848 c 346.727
 175.789 346.418 176.711 346.066 177.605 c 346.035 177.684 346.008 177.758
 345.98 177.836 c 345.863 178.133 345.738 178.426 345.609 178.719 c 345.574
 178.801 345.535 178.883 345.5 178.965 c 345.367 179.262 345.227 179.559
 345.082 179.848 c 345.051 179.914 345.02 179.98 344.984 180.043 c 344.828
 180.355 344.668 180.656 344.504 180.957 c 344.488 180.984 344.473 181.012
 344.457 181.039 c 339.734 189.594 330.785 195.492 320.426 195.914 c 320.355
 195.82 l 320.406 195.82 l 317.027 186.914 l 316.211 184.762 314.152 183.344
 311.855 183.344 c 291.578 183.344 l 289.277 183.344 287.223 184.762 286.406
 186.914 c 283.469 194.652 l 283.262 195.02 283.109 195.414 283.023 195.824
 c 274.859 195.105 267.676 190.98 262.898 184.883 c 262.891 184.883 l 262.875
 184.859 262.859 184.836 262.84 184.812 c 262.688 184.609 262.535 184.41
 262.387 184.203 c 262.293 184.078 262.199 183.949 262.109 183.824 c 261.965
 183.621 261.828 183.418 261.688 183.211 c 261.598 183.074 261.504 182.938
 261.414 182.797 c 261.281 182.594 261.152 182.391 261.023 182.184 c 260.934
 182.035 260.848 181.891 260.758 181.742 c 260.637 181.535 260.52 181.332
 260.402 181.121 c 260.316 180.969 260.234 180.809 260.145 180.648 c 260.035
 180.445 259.926 180.242 259.824 180.031 c 259.738 179.863 259.66 179.695
 259.578 179.523 c 259.48 179.32 259.379 179.117 259.289 178.91 c 259.199
 178.707 259.113 178.504 259.027 178.297 c 258.895 177.973 258.766 177.645
 258.637 177.312 c 258.551 177.086 258.465 176.859 258.383 176.633 c 258.32
 176.449 258.266 176.266 258.203 176.086 c 258.133 175.863 258.059 175.645
 257.992 175.418 c 257.938 175.234 257.887 175.047 257.836 174.859 c 257.773
 174.633 257.711 174.41 257.652 174.18 c 257.605 173.992 257.562 173.805
 257.52 173.617 c 257.465 173.383 257.414 173.152 257.367 172.918 c 257.328
 172.734 257.293 172.547 257.258 172.359 c 257.215 172.117 257.172 171.871
 257.133 171.625 c 257.105 171.445 257.078 171.262 257.051 171.078 c 257.016
 170.82 256.988 170.559 256.957 170.297 c 256.941 170.125 256.918 169.953
 256.902 169.781 c 256.875 169.492 256.855 169.199 256.84 168.91 c 256.832
 168.762 256.816 168.617 256.809 168.469 c 256.789 168.027 256.777 167.586
 256.777 167.137 c 256.777 161.375 l 348.043 161.375 l 348.043 167.137 l
 348.039 167.594 348.027 168.043 348.008 168.492 c h
348.008 168.492 m f
0.976471 0.811765 0.811765 rg
287.762 183.344 m 315.672 183.344 l 320.41 195.82 l 320.379 195.82 l 320.457
 196.145 320.516 196.477 320.516 196.812 c 320.516 204.652 l 314.891 201.727
 308.496 200.062 301.715 200.062 c 294.934 200.062 288.547 201.727 282.918
 204.652 c 282.918 196.793 l 282.918 196.461 282.969 196.141 283.047 195.82
 c 283.02 195.82 l h
287.762 183.344 m f
0.419608 0.866667 0.866667 rg
282.941 196.473 m 282.965 196.254 282.996 196.035 283.047 195.82 c 283.023
 195.82 l 287.762 183.344 l 315.672 183.344 l 320.41 195.82 l 320.379 195.82
 l 320.43 196.035 320.465 196.25 320.488 196.469 c 282.941 196.469 l h
282.941 196.473 m f
0.643137 0.788235 1 rg
213.543 198.312 m 206.578 198.312 l 206.562 198.312 206.547 198.316 206.531
 198.316 c 206.531 198.312 l 160.719 198.312 l 148.621 198.312 138.809 188.5
 138.809 176.402 c 138.809 162.285 l 235.453 162.285 l 235.453 176.402 l
 235.453 188.496 225.641 198.312 213.543 198.312 c h
213.543 198.312 m f
0.976471 0.811765 0.811765 rg
187.129 203.348 m 180.109 203.348 173.484 205.02 167.637 207.98 c 167.637
 199.133 l 167.637 198.824 167.68 198.52 167.742 198.223 c 167.75 198.223
 l 167.812 197.922 167.91 197.633 168.031 197.355 c 168.047 197.32 168.059
 197.281 168.078 197.246 c 168.133 197.133 168.191 197.02 168.25 196.914
 c 168.312 196.809 168.379 196.707 168.453 196.605 c 168.488 196.551 168.523
 196.492 168.566 196.441 c 171.34 192.922 l 174.094 189.414 177.922 186.879
 182.25 185.863 c 182.832 185.727 183.43 185.609 184.051 185.516 c 191.082
 184.461 198.117 187.457 202.484 193.094 c 206.52 198.305 l 206.574 198.582
 206.609 198.867 206.609 199.152 c 206.609 207.973 l 200.77 205.02 194.148
 203.348 187.129 203.348 c h
187.129 203.348 m f
0.643137 0.788235 1 rg
167.637 199.82 m 167.637 197.289 l 167.637 196.98 167.68 196.676 167.742
 196.379 c 167.75 196.379 l 167.812 196.078 167.91 195.789 168.031 195.516
 c 168.047 195.48 168.062 195.441 168.078 195.406 c 168.133 195.293 168.191
 195.18 168.25 195.074 c 168.312 194.969 168.379 194.863 168.453 194.766
 c 168.488 194.711 168.523 194.652 168.566 194.602 c 171.34 191.082 l 174.094
 187.574 177.922 185.031 182.25 184.023 c 182.832 183.887 183.43 183.77 
184.051 183.676 c 191.082 182.621 198.117 185.613 202.484 191.254 c 206.52
 196.461 l 206.574 196.738 206.609 197.023 206.609 197.309 c 206.609 199.82
 l h
167.637 199.82 m f
0.976471 0.811765 0.811765 rg
342.766 256.375 m 342.68 256.375 342.594 256.363 342.508 256.359 c 342.508
 260.215 l 342.508 282.742 324.246 301.012 301.719 301.012 c 279.188 301.012
 260.926 282.742 260.926 260.215 c 260.926 256.359 l 260.84 256.363 260.758
 256.375 260.668 256.375 c 253.797 256.375 248.223 250.805 248.223 243.934
 c 248.223 237.059 253.797 231.484 260.668 231.484 c 261.121 231.484 261.566
 231.516 262.004 231.559 c 266.215 213.512 282.391 200.066 301.719 200.066
 c 321.047 200.066 337.223 213.516 341.434 231.559 c 341.875 231.516 342.316
 231.484 342.766 231.484 c 349.645 231.484 355.211 237.059 355.211 243.934
 c 355.211 250.805 349.645 256.375 342.766 256.375 c h
342.766 256.375 m f
0.215686 0.384314 0.8 rg
301.715 212.969 m 295.613 212.969 290.832 216.449 290.832 220.895 c 290.832
 222 291.727 222.891 292.832 222.891 c 293.934 222.891 294.828 222 294.828
 220.895 c 294.828 219.035 297.656 216.965 301.715 216.965 c 305.777 216.965
 308.605 219.035 308.605 220.895 c 308.605 222 309.5 222.891 310.605 222.891
 c 311.711 222.891 312.602 222 312.602 220.895 c 312.602 216.449 307.82 
212.969 301.715 212.969 c h
301.715 212.969 m f
0.878431 0.921569 0.988235 rg
297.902 261.957 m 251.754 261.957 l 251.137 261.957 250.637 262.461 250.637
 263.078 c 250.637 275.898 l 250.637 297.582 268.211 315.156 289.891 315.156
 c 297.902 315.156 l 312 315.156 323.43 303.73 323.43 289.633 c 323.43 287.484
 l 323.43 273.387 312 261.957 297.902 261.957 c h
297.902 261.957 m f
350.945 256.676 m 342.293 256.676 l 327.973 256.676 316.367 268.285 316.367
 282.605 c 316.367 307.742 l 320.789 307.742 l 338.633 307.742 353.102 293.281
 353.102 275.43 c 353.102 258.832 l 353.102 257.645 352.133 256.676 350.945
 256.676 c h
350.945 256.676 m f
0.215686 0.384314 0.8 rg
282.496 237.922 m 280.152 237.922 278.238 239.836 278.238 242.18 c 278.238
 249.273 l 278.238 251.621 280.152 253.531 282.496 253.531 c 284.848 253.531
 286.754 251.621 286.754 249.273 c 286.754 242.18 l 286.754 239.836 284.844
 237.922 282.496 237.922 c h
282.496 237.922 m f
320.938 237.922 m 318.59 237.922 316.68 239.836 316.68 242.18 c 316.68 
249.273 l 316.68 251.621 318.594 253.531 320.938 253.531 c 323.281 253.531
 325.195 251.621 325.195 249.273 c 325.195 242.18 l 325.191 239.836 323.281
 237.922 320.938 237.922 c h
320.938 237.922 m f
322.012 208.215 m 321.938 208.215 321.859 208.219 321.785 208.23 c 320.688
 208.355 319.898 209.344 320.023 210.441 c 321.188 220.727 315.723 223.406
 315.668 223.434 c 314.672 223.898 314.238 225.094 314.707 226.09 c 315.176
 227.09 316.367 227.516 317.363 227.051 c 317.695 226.895 325.48 223.098
 323.988 209.988 c 323.875 208.969 323.016 208.215 322.012 208.215 c h
322.012 208.215 m f
281.723 208.215 m 280.723 208.215 279.855 208.969 279.742 209.992 c 278.254
 223.102 286.039 226.898 286.367 227.055 c 287.371 227.52 288.562 227.09
 289.027 226.09 c 289.488 225.102 289.07 223.918 288.086 223.445 c 287.82
 223.312 282.566 220.516 283.711 210.441 c 283.836 209.344 283.047 208.355
 281.949 208.23 c 281.871 208.219 281.797 208.215 281.723 208.215 c h
281.723 208.215 m f
282.5 230.754 m 274.715 230.754 268.383 237.09 268.383 244.871 c 268.383
 252.652 274.719 258.988 282.5 258.988 c 290.281 258.988 296.617 252.652
 296.617 244.871 c 296.617 237.09 290.285 230.754 282.5 230.754 c h
282.5 254.992 m 276.922 254.992 272.379 250.453 272.379 244.875 c 272.379
 239.293 276.922 234.754 282.5 234.754 c 288.082 234.754 292.621 239.293
 292.621 244.875 c 292.621 250.453 288.082 254.992 282.5 254.992 c h
282.5 254.992 m f
320.941 230.754 m 313.156 230.754 306.824 237.09 306.824 244.871 c 306.824
 252.652 313.156 258.988 320.941 258.988 c 328.723 258.988 335.051 252.652
 335.051 244.871 c 335.051 237.09 328.723 230.754 320.941 230.754 c h
320.941 254.992 m 315.363 254.992 310.82 250.453 310.82 244.875 c 310.82
 239.293 315.363 234.754 320.941 234.754 c 326.523 234.754 331.055 239.293
 331.055 244.875 c 331.055 250.453 326.523 254.992 320.941 254.992 c h
320.941 254.992 m f
310.609 242.875 m 292.832 242.875 l 291.727 242.875 290.832 243.77 290.832
 244.875 c 290.832 245.977 291.727 246.871 292.832 246.871 c 310.609 246.871
 l 311.715 246.871 312.605 245.977 312.605 244.875 c 312.605 243.77 311.715
 242.875 310.609 242.875 c h
310.609 242.875 m f
0.976471 0.811765 0.811765 rg
230.367 262.129 m 230.277 262.129 230.188 262.117 230.098 262.113 c 230.098
 266.141 l 230.098 289.656 210.859 308.719 187.129 308.719 c 163.402 308.719
 144.164 289.656 144.164 266.141 c 144.164 262.113 l 144.074 262.117 143.984
 262.129 143.895 262.129 c 136.656 262.129 130.785 256.312 130.785 249.137
 c 130.785 241.961 136.652 236.148 143.895 236.148 c 144.371 236.148 144.836
 236.176 145.301 236.227 c 149.73 217.391 166.773 203.352 187.129 203.352
 c 207.488 203.352 224.531 217.391 228.961 236.227 c 229.422 236.18 229.891
 236.148 230.367 236.148 c 237.605 236.148 243.477 241.961 243.477 249.137
 c 243.477 256.312 237.605 262.129 230.367 262.129 c h
230.367 262.129 m f
0.878431 0.921569 0.988235 rg
217.953 272.496 m 240.148 272.496 l 241.77 272.496 243.082 273.809 243.082
 275.422 c 243.082 291.75 l 243.082 310.352 228 325.434 209.402 325.434 
c 208.027 325.434 l 203.172 325.434 199.238 321.5 199.238 316.648 c 199.238
 291.207 l 199.238 280.875 207.617 272.496 217.953 272.496 c h
217.953 272.496 m f
173 272.496 m 134.383 272.496 l 132.758 272.496 131.441 273.812 131.441
 275.434 c 131.441 288.871 l 131.441 309.066 147.812 325.434 168.008 325.434
 c 190.551 325.434 l 195.395 325.434 199.324 321.504 199.324 316.66 c 199.324
 298.82 l 199.324 284.281 187.535 272.496 173 272.496 c h
173 272.496 m f
229.609 272.496 m 229.922 270.422 230.098 268.301 230.098 266.141 c 230.098
 262.113 l 230.188 262.117 230.277 262.129 230.367 262.129 c 233.762 262.129
 236.844 260.836 239.176 258.742 c 239.176 272.496 l h
229.609 272.496 m f
135.348 272.496 m 135.348 258.977 l 137.645 260.934 140.625 262.129 143.895
 262.129 c 143.984 262.129 144.074 262.117 144.164 262.113 c 144.164 266.141
 l 144.164 268.301 144.336 270.422 144.652 272.496 c h
135.348 272.496 m f
0.215686 0.384314 0.8 rg
185.844 217.551 m 179.352 217.551 174.453 220.426 174.453 224.242 c 174.453
 225.352 175.352 226.238 176.449 226.238 c 177.555 226.238 178.449 225.352
 178.449 224.242 c 178.449 223.316 181.328 221.547 185.844 221.547 c 190.355
 221.547 193.234 223.316 193.234 224.242 c 193.234 225.352 194.129 226.238
 195.23 226.238 c 196.336 226.238 197.23 225.352 197.23 224.242 c 197.23
 220.426 192.336 217.551 185.844 217.551 c h
185.844 217.551 m f
166.012 243.957 m 163.383 243.957 161.238 246.098 161.238 248.73 c 161.238
 256.684 l 161.238 259.316 163.383 261.457 166.012 261.457 c 168.641 261.457
 170.785 259.316 170.785 256.684 c 170.785 248.73 l 170.785 246.098 168.641
 243.957 166.012 243.957 c h
166.012 243.957 m f
205.676 243.957 m 203.043 243.957 200.902 246.098 200.902 248.73 c 200.902
 256.684 l 200.902 259.316 203.043 261.457 205.676 261.457 c 208.305 261.457
 210.445 259.316 210.445 256.684 c 210.445 248.73 l 210.441 246.098 208.305
 243.957 205.676 243.957 c h
205.676 243.957 m f
206.992 212.422 m 206.914 212.422 206.84 212.426 206.762 212.438 c 205.668
 212.559 204.883 213.551 205.004 214.645 c 206.215 225.344 200.594 228.281
 200.355 228.398 c 199.379 228.887 198.961 230.074 199.438 231.062 c 199.914
 232.047 201.082 232.473 202.07 232.012 c 202.414 231.848 210.523 227.887
 208.977 214.199 c 208.859 213.176 207.992 212.422 206.992 212.422 c h
206.992 212.422 m f
164.691 212.422 m 163.691 212.422 162.824 213.176 162.711 214.199 c 161.156
 227.891 169.266 231.848 169.613 232.012 c 170.613 232.469 171.805 232.047
 172.27 231.047 c 172.73 230.051 172.309 228.875 171.328 228.398 c 171.043
 228.258 165.473 225.301 166.68 214.648 c 166.805 213.551 166.016 212.559
 164.918 212.438 c 164.844 212.426 164.766 212.422 164.691 212.422 c h
164.691 212.422 m f
165.664 235.914 m 157.543 235.914 150.941 242.516 150.941 250.633 c 150.941
 258.754 157.543 265.355 165.664 265.355 c 173.781 265.355 180.383 258.75
 180.383 250.633 c 180.383 242.516 173.777 235.914 165.664 235.914 c h
165.664 261.359 m 159.75 261.359 154.938 256.547 154.938 250.637 c 154.938
 244.723 159.746 239.91 165.664 239.91 c 171.582 239.91 176.387 244.723 
176.387 250.637 c 176.387 256.547 171.578 261.359 165.664 261.359 c h
165.664 261.359 m f
206.02 235.914 m 197.906 235.914 191.297 242.516 191.297 250.633 c 191.297
 258.754 197.906 265.355 206.02 265.355 c 214.141 265.355 220.746 258.75
 220.746 250.633 c 220.746 242.516 214.141 235.914 206.02 235.914 c h
206.02 261.359 m 200.109 261.359 195.293 256.547 195.293 250.637 c 195.293
 244.723 200.105 239.91 206.02 239.91 c 211.938 239.91 216.75 244.723 216.75
 250.637 c 216.75 256.547 211.938 261.359 206.02 261.359 c h
206.02 261.359 m f
195.172 248.637 m 176.508 248.637 l 175.406 248.637 174.512 249.527 174.512
 250.633 c 174.512 251.742 175.406 252.629 176.508 252.629 c 195.172 252.629
 l 196.277 252.629 197.172 251.742 197.172 250.633 c 197.172 249.527 196.277
 248.637 195.172 248.637 c h
195.172 248.637 m f
0.27451 0.443137 0.776471 rg
288.797 192.691 m 277.551 192.691 l 266.621 168.539 l 266.621 161.375 l
 299.719 161.375 l 299.719 168.539 l h
288.797 192.691 m f
286.246 205.395 m 277.379 205.395 l 276.105 205.395 275.074 204.363 275.074
 203.094 c 275.074 202.102 274.438 201.223 273.5 200.91 c 267.254 198.836
 l 266.316 198.523 265.68 197.645 265.68 196.652 c 265.68 188.883 l 265.68
 188.102 266.078 187.375 266.73 186.949 c 272.508 183.211 l 272.707 183.082
 272.93 182.98 273.164 182.918 c 282.645 180.375 l 282.836 180.324 283.039
 180.297 283.238 180.297 c 329.234 180.297 l 329.664 180.297 330.082 180.418
 330.441 180.637 c 336.652 184.457 l 337.336 184.879 337.75 185.617 337.75
 186.418 c 337.75 196.016 l 337.75 196.93 337.207 197.758 336.367 198.129
 c 333.309 199.465 l 332.469 199.828 331.926 200.656 331.926 201.574 c 331.926
 203.098 l 331.926 204.367 330.895 205.398 329.625 205.398 c 286.246 205.398
 l h
286.246 205.395 m f
173.258 193.602 m 162.012 193.602 l 151.086 169.449 l 151.086 162.285 l
 184.18 162.285 l 184.18 169.449 l h
173.258 193.602 m f
170.375 205.395 m 161.504 205.395 l 160.234 205.395 159.203 204.363 159.203
 203.094 c 159.203 202.102 158.566 201.223 157.625 200.91 c 151.383 198.836
 l 150.441 198.523 149.805 197.645 149.805 196.652 c 149.805 188.883 l 149.805
 188.102 150.199 187.375 150.855 186.949 c 156.633 183.211 l 156.836 183.082
 157.055 182.98 157.285 182.918 c 166.77 180.375 l 166.965 180.324 167.168
 180.297 167.367 180.297 c 213.363 180.297 l 213.785 180.297 214.203 180.418
 214.566 180.637 c 220.781 184.457 l 221.457 184.879 221.871 185.617 221.871
 186.418 c 221.871 196.016 l 221.871 196.93 221.328 197.758 220.492 198.129
 c 217.43 199.465 l 216.594 199.828 216.055 200.656 216.055 201.574 c 216.055
 203.098 l 216.055 204.367 215.02 205.398 213.75 205.398 c 170.375 205.398
 l h
170.375 205.395 m f
0.878431 0.921569 0.988235 rg
289.891 315.156 m 297.902 315.156 l 305.168 315.156 311.719 312.105 316.363
 307.227 c 316.363 307.742 l 320.789 307.742 l 324.559 307.742 328.164 307.062
 331.527 305.875 c 331.527 307.742 l 331.527 321.543 320.34 332.73 306.539
 332.73 c 295.062 332.73 285.41 324.98 282.484 314.438 c 284.887 314.895
 287.355 315.156 289.891 315.156 c h
289.891 315.156 m f
0.215686 0.384314 0.8 rg
362.977 120.266 m 115.422 120.266 l 105.191 120.266 96.867 128.594 96.867
 138.828 c 96.867 314.477 l 89.059 314.477 l 83.594 314.477 78.793 317.773
 76.836 322.875 c 74.875 327.984 76.23 333.641 80.293 337.301 c 234.27 476.121
 l 239.273 480.633 246.812 480.629 251.809 476.121 c 405.711 337.297 l 409.77
 333.637 411.121 327.977 409.164 322.875 c 407.203 317.773 402.402 314.477
 396.938 314.477 c 381.531 314.477 l 381.531 138.832 l 381.531 128.594 373.207
 120.266 362.977 120.266 c h
243.039 471.508 m 241.816 471.508 240.594 471.066 239.621 470.188 c 85.641
 331.367 l 83.223 329.184 84 326.512 84.293 325.742 c 84.59 324.973 85.801
 322.469 89.055 322.469 c 100.859 322.469 l 103.07 322.469 104.855 320.676
 104.855 318.473 c 104.855 138.832 l 104.855 133.004 109.598 128.262 115.422
 128.262 c 362.977 128.262 l 368.801 128.262 373.539 133.004 373.539 138.832
 c 373.539 318.473 l 373.539 320.676 375.332 322.469 377.535 322.469 c 396.938
 322.469 l 400.191 322.469 401.406 324.973 401.707 325.742 c 402 326.512
 402.773 329.188 400.359 331.363 c 246.461 470.188 l 245.484 471.066 244.262
 471.508 243.039 471.508 c h
243.039 471.508 m f
371.031 359.203 m 370.062 359.203 369.102 359.555 368.355 360.23 c 312.047
 411.023 l 311.211 411.781 310.73 412.859 310.73 413.992 c 310.73 433.551
 l 307.02 433.699 304.047 436.762 304.047 440.512 c 304.047 464.273 l 304.047
 468.113 307.168 471.238 311.012 471.238 c 373.391 471.238 l 377.23 471.238
 380.352 468.113 380.352 464.273 c 380.352 440.512 l 380.352 437.234 378.082
 434.477 375.027 433.742 c 375.027 363.199 l 375.027 361.621 374.098 360.188
 372.652 359.547 c 372.137 359.316 371.582 359.203 371.031 359.203 c h
318.719 415.766 m 367.035 372.188 l 367.035 437.543 l 367.035 439.746 368.824
 441.535 371.031 441.535 c 372.359 441.535 l 372.359 463.246 l 312.035 463.246
 l 312.035 441.535 l 314.727 441.535 l 316.93 441.535 318.723 439.746 318.723
 437.543 c 318.723 415.766 l h
318.719 415.766 m f
362.977 120.266 m 115.422 120.266 l 105.191 120.266 96.867 128.594 96.867
 138.828 c 96.867 314.477 l 89.059 314.477 l 83.594 314.477 78.793 317.773
 76.836 322.875 c 74.875 327.984 76.23 333.641 80.293 337.301 c 234.27 476.121
 l 239.273 480.633 246.812 480.629 251.809 476.121 c 405.711 337.297 l 409.77
 333.637 411.121 327.977 409.164 322.875 c 407.203 317.773 402.402 314.477
 396.938 314.477 c 381.531 314.477 l 381.531 138.832 l 381.531 128.594 373.207
 120.266 362.977 120.266 c h
243.039 471.508 m 241.816 471.508 240.594 471.066 239.621 470.188 c 85.641
 331.367 l 83.223 329.184 84 326.512 84.293 325.742 c 84.59 324.973 85.801
 322.469 89.055 322.469 c 100.859 322.469 l 103.07 322.469 104.855 320.676
 104.855 318.473 c 104.855 138.832 l 104.855 133.004 109.598 128.262 115.422
 128.262 c 362.977 128.262 l 368.801 128.262 373.539 133.004 373.539 138.832
 c 373.539 318.473 l 373.539 320.676 375.332 322.469 377.535 322.469 c 396.938
 322.469 l 400.191 322.469 401.406 324.973 401.707 325.742 c 402 326.512
 402.773 329.188 400.359 331.363 c 246.461 470.188 l 245.484 471.066 244.262
 471.508 243.039 471.508 c h
243.039 471.508 m f
0.976471 0.811765 0.811765 rg
348.918 30.617 m 354.125 31.152 359.168 32.773 363.715 35.375 c 476.418
 99.914 l 481.758 102.969 483.586 109.734 480.504 115.027 c 470.699 131.867
 448.988 137.641 432.012 127.914 c 351.215 81.652 l 345.523 78.391 338.859
 77.234 332.398 78.391 c 226.992 97.211 l 212.34 98.887 l 298.844 98.887
 l 318.293 98.887 334.055 114.648 334.055 134.094 c 334.055 140.207 329.102
 145.16 322.988 145.16 c 222.98 145.16 l 215.973 145.16 209.047 143.641 
202.676 140.703 c 137.07 110.426 l 126.812 105.695 115.656 103.246 104.363
 103.246 c 39.465 103.246 l 39.465 102.902 l 3.996 102.902 l 3.996 10.996
 l 39.465 10.996 l 39.465 10.691 l 121.508 10.691 l 342.078 30.059 l 342.234
 30.074 342.391 30.086 342.551 30.098 c h
348.918 30.617 m f
0.215686 0.384314 0.8 rg
121.508 6.703 m 39.465 6.703 l 38.922 6.703 38.406 6.805 37.934 7 c 3.996
 7 l 1.793 7 0 8.793 0 10.996 c 0 102.902 l 0 105.105 1.793 106.898 3.996
 106.898 c 37.84 106.898 l 38.336 107.117 38.883 107.242 39.461 107.242 
c 104.363 107.242 l 115.004 107.242 125.734 109.598 135.395 114.055 c 201.004
 144.328 l 207.844 147.484 215.441 149.156 222.98 149.156 c 322.992 149.156
 l 331.293 149.156 338.051 142.398 338.051 134.094 c 338.051 112.48 320.461
 94.891 298.844 94.891 c 262.715 94.891 l 333.105 82.324 l 338.633 81.34
 344.359 82.332 349.234 85.117 c 430.023 131.383 l 448.879 142.176 473.07
 135.742 483.957 117.035 c 485.98 113.559 486.523 109.504 485.484 105.621
 c 484.441 101.719 481.93 98.457 478.402 96.441 c 365.699 31.906 l 360.641
 29.008 355.129 27.234 349.328 26.641 c 349.301 26.637 349.273 26.633 349.246
 26.633 c 342.418 26.078 l 121.855 6.715 l 121.742 6.707 121.625 6.703 121.508
 6.703 c h
40.988 14.691 m 121.332 14.691 l 342.262 34.086 l 348.551 34.598 l 353.223
 35.082 357.652 36.512 361.727 38.844 c 474.434 103.383 l 476.094 104.332
 477.277 105.859 477.77 107.691 c 478.25 109.5 478 111.398 477.055 113.02
 c 468.363 127.941 449.047 133.07 433.996 124.449 c 353.203 78.188 l 346.703
 74.469 339.07 73.145 331.699 74.461 c 226.414 93.258 l 211.887 94.918 l
 209.785 95.16 208.23 97.004 208.352 99.117 c 208.473 101.234 210.223 102.887
 212.344 102.887 c 298.848 102.887 l 316.055 102.887 330.062 116.887 330.062
 134.102 c 330.062 137.996 326.891 141.168 322.992 141.168 c 222.984 141.168
 l 216.594 141.168 210.152 139.75 204.355 137.078 c 138.742 106.797 l 128.039
 101.855 116.152 99.25 104.363 99.25 c 41.078 99.25 l 40.582 99.031 40.035
 98.906 39.465 98.906 c 7.996 98.906 l 7.996 14.992 l 39.465 14.992 l 40
 14.992 40.516 14.883 40.988 14.691 c h
348.922 30.617 m 348.941 30.617 l h
348.922 30.617 m f
Q Q
showpage
%%Trailer
end restore
%%EOF
