%!PS-Adobe-3.0 EPSF-3.0
%%Creator: cairo 1.14.8 (http://cairographics.org)
%%CreationDate: Wed Mar 20 09:06:38 2019
%%Pages: 1
%%DocumentData: Clean7Bit
%%LanguageLevel: 2
%%BoundingBox: 0 7 480 473
%%EndComments
%%BeginProlog
save
50 dict begin
/q { gsave } bind def
/Q { grestore } bind def
/cm { 6 array astore concat } bind def
/w { setlinewidth } bind def
/J { setlinecap } bind def
/j { setlinejoin } bind def
/M { setmiterlimit } bind def
/d { setdash } bind def
/m { moveto } bind def
/l { lineto } bind def
/c { curveto } bind def
/h { closepath } bind def
/re { exch dup neg 3 1 roll 5 3 roll moveto 0 rlineto
      0 exch rlineto 0 rlineto closepath } bind def
/S { stroke } bind def
/f { fill } bind def
/f* { eofill } bind def
/n { newpath } bind def
/W { clip } bind def
/W* { eoclip } bind def
/BT { } bind def
/ET { } bind def
/pdfmark where { pop globaldict /?pdfmark /exec load put }
    { globaldict begin /?pdfmark /pop load def /pdfmark
    /cleartomark load def end } ifelse
/BDC { mark 3 1 roll /BDC pdfmark } bind def
/EMC { mark /EMC pdfmark } bind def
/cairo_store_point { /cairo_point_y exch def /cairo_point_x exch def } def
/Tj { show currentpoint cairo_store_point } bind def
/TJ {
  {
    dup
    type /stringtype eq
    { show } { -0.001 mul 0 cairo_font_matrix dtransform rmoveto } ifelse
  } forall
  currentpoint cairo_store_point
} bind def
/cairo_selectfont { cairo_font_matrix aload pop pop pop 0 0 6 array astore
    cairo_font exch selectfont cairo_point_x cairo_point_y moveto } bind def
/Tf { pop /cairo_font exch def /cairo_font_matrix where
      { pop cairo_selectfont } if } bind def
/Td { matrix translate cairo_font_matrix matrix concatmatrix dup
      /cairo_font_matrix exch def dup 4 get exch 5 get cairo_store_point
      /cairo_font where { pop cairo_selectfont } if } bind def
/Tm { 2 copy 8 2 roll 6 array astore /cairo_font_matrix exch def
      cairo_store_point /cairo_font where { pop cairo_selectfont } if } bind def
/g { setgray } bind def
/rg { setrgbcolor } bind def
/d1 { setcachedevice } bind def
%%EndProlog
%%BeginSetup
%%EndSetup
%%Page: 1 1
%%BeginPageSetup
%%PageBoundingBox: 0 7 480 473
%%EndPageSetup
q 0 7 480 466 rectclip q
0.27451 0.443137 0.776471 rg
420.57 127.957 m 420.57 171.977 384.902 207.66 340.902 207.66 c 296.902
 207.66 261.23 171.977 261.23 127.957 c 261.23 83.945 296.902 48.262 340.902
 48.262 c 384.902 48.262 420.57 83.945 420.57 127.957 c h
420.57 127.957 m f
0.643137 0.788235 1 rg
282.68 73.586 m 395.277 186.184 l 390.852 190.328 385.945 193.961 380.66
 197.016 c 271.855 88.215 l 274.902 82.926 278.539 78.02 282.68 73.586 c
 h
282.68 73.586 m f
329.527 48.945 m 418.812 138.23 l 417.348 149.613 413.5 160.246 407.758
 169.602 c 298.172 60.016 l 307.52 54.27 318.148 50.418 329.527 48.945 c
 h
329.527 48.945 m f
0.27451 0.443137 0.776471 rg
219.496 127.957 m 219.496 171.977 183.824 207.66 139.824 207.66 c 95.828
 207.66 60.156 171.977 60.156 127.957 c 60.156 83.945 95.828 48.262 139.824
 48.262 c 183.824 48.262 219.496 83.945 219.496 127.957 c h
219.496 127.957 m f
0.643137 0.788235 1 rg
82.684 73.586 m 195.281 186.184 l 190.852 190.328 185.945 193.961 180.66
 197.016 c 71.859 88.215 l 74.906 82.926 78.543 78.02 82.684 73.586 c h
82.684 73.586 m f
129.531 48.945 m 218.816 138.23 l 217.352 149.613 213.504 160.246 207.762
 169.602 c 98.176 60.016 l 107.523 54.27 118.152 50.418 129.531 48.945 c
 h
129.531 48.945 m f
1 0.917647 0.572549 rg
355 353.996 m 355 290.484 303.512 238.996 240 238.996 c 176.484 238.996
 125.004 290.484 125.004 353.996 c 125.004 417.504 176.484 468.992 240 468.992
 c 303.512 468.992 355 417.504 355 353.996 c h
355 353.996 m f
0.643137 0.788235 1 rg
331 353.996 m 331 303.738 290.258 262.996 240 262.996 c 189.742 262.996
 149 303.738 149 353.996 c 149 404.25 189.742 444.992 240 444.992 c 290.258
 444.992 331 404.25 331 353.996 c h
331 353.996 m f
0.215686 0.384314 0.8 rg
139.824 44.262 m 93.691 44.262 56.156 81.809 56.156 127.957 c 56.156 174.113
 93.691 211.66 139.824 211.66 c 185.961 211.66 223.496 174.113 223.496 127.957
 c 223.496 81.809 185.961 44.262 139.824 44.262 c h
139.824 203.66 m 98.102 203.66 64.156 169.699 64.156 127.957 c 64.156 86.215
 98.102 52.258 139.824 52.258 c 181.551 52.258 215.496 86.215 215.496 127.957
 c 215.496 169.699 181.551 203.66 139.824 203.66 c h
139.824 203.66 m f
340.902 44.262 m 294.766 44.262 257.23 81.809 257.23 127.957 c 257.23 174.113
 294.766 211.66 340.902 211.66 c 387.039 211.66 424.57 174.113 424.57 127.957
 c 424.57 81.809 387.039 44.262 340.902 44.262 c h
340.902 203.66 m 299.176 203.66 265.23 169.699 265.23 127.957 c 265.23 
86.215 299.176 52.258 340.902 52.258 c 382.629 52.258 416.57 86.215 416.57
 127.957 c 416.57 169.699 382.629 203.66 340.902 203.66 c h
340.902 203.66 m f
0.878431 0.921569 0.988235 rg
307.066 377.672 m 307.066 377.668 l 302.473 382.684 297.168 387.262 291.164
 391.246 c 276.07 401.262 258.793 406.113 241.66 406.211 c 241.66 406.172
 l 223.453 406.715 204.918 401.906 188.855 391.246 c 182.852 387.262 177.547
 382.684 172.953 377.668 c 172.953 377.672 l 172.953 377.672 162.812 367.152
 155.289 354.742 c 176.016 333.906 l 177.266 332.605 178.559 331.355 179.883
 330.145 c 179.891 330.133 179.902 330.121 179.918 330.109 c 179.914 330.113
 l 196.75 314.746 219.102 306.766 241.66 307.035 c 241.66 307.055 l 263.09
 307.562 284.098 315.492 300.109 330.113 c 300.105 330.109 l 300.117 330.121
 300.129 330.133 300.141 330.145 c 301.465 331.355 302.754 332.605 304.008
 333.906 c 324.734 354.742 l 317.207 367.152 307.066 377.672 307.066 377.672
 c h
307.066 377.672 m f
0.27451 0.443137 0.776471 rg
288.672 356.621 m 288.672 330.375 267.395 309.098 241.145 309.098 c 214.898
 309.098 193.621 330.375 193.621 356.621 c 193.621 382.867 214.898 404.141
 241.145 404.141 c 267.395 404.141 288.672 382.867 288.672 356.621 c h
288.672 356.621 m f
0.878431 0.921569 0.988235 rg
274.73 372.18 m 274.73 361.629 266.176 353.074 255.621 353.074 c 245.066
 353.074 236.512 361.629 236.512 372.18 c 236.512 382.734 245.066 391.289
 255.621 391.289 c 266.176 391.289 274.73 382.734 274.73 372.18 c h
274.73 372.18 m f
257.434 116.574 m 223.293 116.574 l 217.004 116.574 211.91 121.668 211.91
 127.957 c 211.91 127.961 l 211.91 134.25 217.004 139.344 223.293 139.344
 c 257.434 139.344 l 263.723 139.344 268.816 134.25 268.816 127.961 c 268.816
 127.957 l 268.816 121.668 263.719 116.574 257.434 116.574 c h
257.434 116.574 m f
0.215686 0.384314 0.8 rg
257.434 112.574 m 223.293 112.574 l 214.812 112.574 207.91 119.473 207.91
 127.957 c 207.91 136.441 214.812 143.344 223.293 143.344 c 257.434 143.344
 l 265.918 143.344 272.816 136.441 272.816 127.961 c 272.816 119.473 265.918
 112.574 257.434 112.574 c h
223.293 135.344 m 219.219 135.344 215.91 132.031 215.91 127.961 c 215.91
 123.887 219.219 120.574 223.293 120.574 c 257.434 120.574 l 261.504 120.574
 264.816 123.883 264.816 127.957 c 264.816 132.031 261.504 135.344 257.434
 135.344 c h
223.293 135.344 m f
0.643137 0.788235 1 rg
60.156 127.957 m 60.156 133.824 60.809 139.531 62.012 145.035 c 44.98 145.035
 l 40.789 145.035 37.391 141.637 37.391 137.445 c 37.391 118.465 l 37.391
 114.273 40.789 110.875 44.98 110.875 c 62.012 110.875 l 60.809 116.383 
60.156 122.094 60.156 127.957 c h
60.156 127.957 m f
435.746 145.035 m 418.715 145.035 l 419.918 139.531 420.57 133.824 420.57
 127.957 c 420.57 122.094 419.918 116.383 418.715 110.879 c 435.746 110.879
 l 439.938 110.879 443.336 114.277 443.336 118.469 c 443.336 137.449 l 443.336
 141.637 439.938 145.035 435.746 145.035 c h
435.746 145.035 m f
0.878431 0.921569 0.988235 rg
98.727 312.758 m 54.273 312.758 l 46.973 312.758 40.566 307.574 39.035 
300.438 c 4.352 138.82 l 3.359 134.191 4.496 129.43 7.473 125.75 c 10.445
 122.07 14.863 119.957 19.594 119.957 c 37.395 119.957 l 37.395 135.957 
l 20.102 135.957 l 54.609 296.758 l 98.73 296.758 l 103.148 296.758 106.73
 300.34 106.73 304.758 c 106.73 309.176 103.145 312.758 98.727 312.758 c
 h
98.727 312.758 m f
475.645 138.82 m 440.961 300.438 l 439.43 307.578 433.023 312.758 425.723
 312.758 c 381.27 312.758 l 376.852 312.758 373.27 309.176 373.27 304.758
 c 373.27 300.34 376.852 296.758 381.27 296.758 c 425.387 296.758 l 459.895
 135.957 l 443.336 135.957 l 443.336 119.957 l 460.406 119.957 l 465.133
 119.957 469.551 122.07 472.527 125.75 c 475.5 129.43 476.637 134.191 475.645
 138.82 c h
475.645 138.82 m f
0.215686 0.384314 0.8 rg
62.012 106.883 m 44.98 106.883 l 38.594 106.883 33.391 112.078 33.391 118.469
 c 33.391 137.449 l 33.391 143.84 38.594 149.035 44.98 149.035 c 62.012 
149.035 l 63.219 149.035 64.367 148.488 65.125 147.543 c 65.887 146.602 
66.176 145.363 65.918 144.184 c 64.75 138.832 64.156 133.371 64.156 127.957
 c 64.156 122.543 64.75 117.082 65.918 111.73 c 66.176 110.547 65.883 109.316
 65.125 108.371 c 64.367 107.434 63.219 106.883 62.012 106.883 c h
44.98 141.035 m 43.004 141.035 41.391 139.426 41.391 137.449 c 41.391 118.469
 l 41.391 116.488 43.004 114.879 44.98 114.879 c 57.191 114.879 l 56.504
 119.219 56.156 123.602 56.156 127.957 c 56.156 132.316 56.504 136.695 57.191
 141.039 c 44.98 141.039 l h
44.98 141.035 m f
435.746 106.883 m 418.715 106.883 l 417.508 106.883 416.359 107.43 415.602
 108.375 c 414.84 109.316 414.551 110.551 414.809 111.73 c 415.977 117.086
 416.57 122.543 416.57 127.957 c 416.57 133.375 415.977 138.832 414.809 
144.184 c 414.551 145.367 414.844 146.602 415.602 147.547 c 416.359 148.488
 417.504 149.039 418.715 149.039 c 435.746 149.039 l 442.133 149.039 447.332
 143.84 447.332 137.449 c 447.332 118.469 l 447.336 112.078 442.133 106.883
 435.746 106.883 c h
423.535 114.879 m 435.746 114.879 l 437.723 114.879 439.332 116.488 439.332
 118.469 c 439.332 137.449 l 439.332 139.426 437.723 141.035 435.746 141.035
 c 423.535 141.035 l 424.223 136.695 424.57 132.312 424.57 127.957 c 424.57
 123.602 424.223 119.219 423.535 114.879 c h
423.535 114.879 m f
37.391 115.957 m 19.594 115.957 l 13.648 115.957 8.098 118.609 4.359 123.23
 c 0.621 127.859 -0.805 133.844 0.441 139.66 c 35.121 301.277 l 37.047 310.246
 45.102 316.758 54.273 316.758 c 98.73 316.758 l 105.348 316.758 110.73 
311.375 110.73 304.758 c 110.73 298.137 105.348 292.758 98.73 292.758 c 
57.84 292.758 l 25.051 139.957 l 37.391 139.957 l 39.602 139.957 41.391 
138.168 41.391 135.957 c 41.391 119.957 l 41.391 117.75 39.602 115.957 37.391
 115.957 c h
54.273 308.758 m 48.848 308.758 44.086 304.906 42.945 299.598 c 8.262 137.98
 l 7.523 134.539 8.371 131 10.582 128.262 c 12.793 125.527 16.074 123.957
 19.594 123.957 c 33.391 123.957 l 33.391 131.957 l 20.102 131.957 l 18.895
 131.957 17.75 132.504 16.988 133.445 c 16.23 134.383 15.938 135.617 16.191
 136.797 c 50.695 297.598 l 51.094 299.441 52.723 300.758 54.609 300.758
 c 98.73 300.758 l 100.938 300.758 102.73 302.551 102.73 304.758 c 102.73
 306.965 100.938 308.758 98.73 308.758 c h
54.273 308.758 m f
460.406 115.957 m 443.336 115.957 l 441.125 115.957 439.336 117.75 439.336
 119.957 c 439.336 135.957 l 439.336 138.168 441.125 139.957 443.336 139.957
 c 454.945 139.957 l 422.156 292.758 l 381.273 292.758 l 374.652 292.758
 369.273 298.137 369.273 304.758 c 369.273 311.375 374.652 316.758 381.273
 316.758 c 425.723 316.758 l 434.895 316.758 442.953 310.246 444.875 301.273
 c 479.559 139.66 l 480.805 133.844 479.375 127.855 475.641 123.23 c 471.898
 118.609 466.348 115.957 460.406 115.957 c h
447.336 123.957 m 460.406 123.957 l 463.922 123.957 467.203 125.527 469.414
 128.262 c 471.625 131 472.469 134.543 471.73 137.98 c 437.051 299.598 l
 435.914 304.906 431.148 308.758 425.719 308.758 c 381.27 308.758 l 379.062
 308.758 377.27 306.965 377.27 304.758 c 377.27 302.551 379.062 300.758 
381.27 300.758 c 425.387 300.758 l 427.273 300.758 428.902 299.441 429.297
 297.598 c 463.805 136.797 l 464.055 135.617 463.762 134.383 463.004 133.445
 c 462.246 132.504 461.102 131.957 459.891 131.957 c 447.332 131.957 l 447.332
 123.957 l h
447.336 123.957 m f
240 234.996 m 174.379 234.996 121.004 288.379 121.004 353.996 c 121.004
 419.609 174.379 472.992 240 472.992 c 305.617 472.992 359 419.609 359 353.996
 c 359 288.379 305.617 234.996 240 234.996 c h
240 464.992 m 178.793 464.992 129.004 415.199 129.004 353.996 c 129.004
 292.789 178.793 242.996 240 242.996 c 301.203 242.996 351 292.789 351 353.996
 c 351 415.199 301.203 464.992 240 464.992 c h
240 464.992 m f
1 0.917647 0.572549 rg
46.527 86.477 m 39.781 71.738 28.598 59.461 14.672 51.348 c 12.176 49.891
 12.176 46.359 14.672 44.906 c 28.598 36.793 39.781 24.512 46.527 9.773 
c 47.836 6.91 51.918 6.91 53.227 9.773 c 59.973 24.512 71.156 36.793 85.082
 44.906 c 87.582 46.359 87.582 49.891 85.082 51.348 c 71.156 59.461 59.973
 71.738 53.227 86.477 c 51.918 89.34 47.836 89.34 46.527 86.477 c h
46.527 86.477 m f
401.293 252.969 m 396.105 241.629 387.504 232.184 376.793 225.941 c 374.871
 224.824 374.871 222.105 376.793 220.988 c 387.504 214.746 396.105 205.301
 401.293 193.961 c 402.301 191.758 405.441 191.758 406.449 193.961 c 411.637
 205.297 420.242 214.746 430.953 220.988 c 432.875 222.105 432.875 224.824
 430.953 225.941 c 420.242 232.184 411.633 241.629 406.449 252.969 c 405.438
 255.172 402.301 255.172 401.293 252.969 c h
401.293 252.969 m f
294.695 426.668 m 167.324 299.301 l 172.164 292.887 177.84 287.145 184.176
 282.207 c 311.785 409.816 l 306.848 416.152 301.109 421.828 294.695 426.668
 c h
294.695 426.668 m f
Q Q
showpage
%%Trailer
end restore
%%EOF
