%!PS-Adobe-3.0 EPSF-3.0
%%Creator: cairo 1.14.8 (http://cairographics.org)
%%CreationDate: Wed Mar 20 09:06:38 2019
%%Pages: 1
%%DocumentData: Clean7Bit
%%LanguageLevel: 2
%%BoundingBox: 0 1 490 489
%%EndComments
%%BeginProlog
save
50 dict begin
/q { gsave } bind def
/Q { grestore } bind def
/cm { 6 array astore concat } bind def
/w { setlinewidth } bind def
/J { setlinecap } bind def
/j { setlinejoin } bind def
/M { setmiterlimit } bind def
/d { setdash } bind def
/m { moveto } bind def
/l { lineto } bind def
/c { curveto } bind def
/h { closepath } bind def
/re { exch dup neg 3 1 roll 5 3 roll moveto 0 rlineto
      0 exch rlineto 0 rlineto closepath } bind def
/S { stroke } bind def
/f { fill } bind def
/f* { eofill } bind def
/n { newpath } bind def
/W { clip } bind def
/W* { eoclip } bind def
/BT { } bind def
/ET { } bind def
/pdfmark where { pop globaldict /?pdfmark /exec load put }
    { globaldict begin /?pdfmark /pop load def /pdfmark
    /cleartomark load def end } ifelse
/BDC { mark 3 1 roll /BDC pdfmark } bind def
/EMC { mark /EMC pdfmark } bind def
/cairo_store_point { /cairo_point_y exch def /cairo_point_x exch def } def
/Tj { show currentpoint cairo_store_point } bind def
/TJ {
  {
    dup
    type /stringtype eq
    { show } { -0.001 mul 0 cairo_font_matrix dtransform rmoveto } ifelse
  } forall
  currentpoint cairo_store_point
} bind def
/cairo_selectfont { cairo_font_matrix aload pop pop pop 0 0 6 array astore
    cairo_font exch selectfont cairo_point_x cairo_point_y moveto } bind def
/Tf { pop /cairo_font exch def /cairo_font_matrix where
      { pop cairo_selectfont } if } bind def
/Td { matrix translate cairo_font_matrix matrix concatmatrix dup
      /cairo_font_matrix exch def dup 4 get exch 5 get cairo_store_point
      /cairo_font where { pop cairo_selectfont } if } bind def
/Tm { 2 copy 8 2 roll 6 array astore /cairo_font_matrix exch def
      cairo_store_point /cairo_font where { pop cairo_selectfont } if } bind def
/g { setgray } bind def
/rg { setrgbcolor } bind def
/d1 { setcachedevice } bind def
%%EndProlog
%%BeginSetup
%%EndSetup
%%Page: 1 1
%%BeginPageSetup
%%PageBoundingBox: 0 1 490 489
%%EndPageSetup
q 0 1 490 488 rectclip q
0.643137 0.788235 1 rg
150.445 5.582 m 278.785 5.582 l 291.473 5.582 301.754 15.863 301.754 28.555
 c 301.754 112.379 l 319.266 158.09 l 320.156 160.41 317.879 162.684 315.559
 161.797 c 267.562 143.414 l 150.445 143.414 l 137.758 143.414 127.477 133.125
 127.477 120.438 c 127.477 28.559 l 127.477 15.863 137.758 5.582 150.445
 5.582 c h
150.445 5.582 m f
0.215686 0.384314 0.8 rg
278.785 1.586 m 150.445 1.586 l 135.578 1.586 123.48 13.684 123.48 28.555
 c 123.48 120.434 l 123.48 135.301 135.578 147.402 150.445 147.402 c 266.824
 147.402 l 314.129 165.523 l 316.695 166.508 319.496 165.91 321.441 163.969
 c 323.383 162.023 323.98 159.223 323 156.656 c 305.754 111.637 l 305.754
 28.551 l 305.75 13.684 293.652 1.586 278.785 1.586 c h
150.445 139.414 m 139.98 139.414 131.469 130.898 131.469 120.434 c 131.469
 28.555 l 131.469 18.086 139.98 9.574 150.445 9.574 c 278.785 9.574 l 289.246
 9.574 297.762 18.086 297.762 28.555 c 297.762 112.379 l 297.762 112.867
 297.852 113.352 298.023 113.809 c 314.633 157.164 l 268.988 139.68 l 268.535
 139.504 268.047 139.414 267.559 139.414 c h
150.445 139.414 m f
0.419608 0.866667 0.866667 rg
329.461 484.355 m 201.121 484.355 l 188.438 484.355 178.148 474.07 178.148
 461.383 c 178.148 377.559 l 160.641 331.848 l 159.754 329.527 162.027 327.254
 164.348 328.145 c 212.348 346.527 l 329.461 346.527 l 342.148 346.527 352.434
 356.812 352.434 369.5 c 352.434 461.383 l 352.434 474.07 342.148 484.355
 329.461 484.355 c h
329.461 484.355 m f
0.878431 0.921569 0.988235 rg
231.477 415.09 m 231.477 407.316 225.172 401.016 217.402 401.016 c 209.629
 401.016 203.328 407.316 203.328 415.09 c 203.328 422.863 209.629 429.164
 217.402 429.164 c 225.172 429.164 231.477 422.863 231.477 415.09 c h
231.477 415.09 m f
280.086 415.09 m 280.086 407.316 273.781 401.016 266.008 401.016 c 258.234
 401.016 251.934 407.316 251.934 415.09 c 251.934 422.863 258.234 429.164
 266.008 429.164 c 273.781 429.164 280.086 422.863 280.086 415.09 c h
280.086 415.09 m f
328.691 415.09 m 328.691 407.316 322.387 401.016 314.617 401.016 c 306.84
 401.016 300.543 407.316 300.543 415.09 c 300.543 422.863 306.84 429.164
 314.617 429.164 c 322.387 429.164 328.691 422.863 328.691 415.09 c h
328.691 415.09 m f
0.976471 0.811765 0.811765 rg
192.566 45.047 m 192.695 44.914 192.832 44.789 192.965 44.66 c 192.934 
44.66 l h
192.566 45.047 m f
261.172 131.008 m 256.676 132.641 251.699 130.328 250.066 125.832 c 241.418
 102.074 l 187.715 102.074 l 187.715 86.281 l 177.156 108.871 l 173.934 
115.762 165.273 118.871 157.812 115.82 c 156.637 115.336 l 154.895 114.625
 154.094 112.746 154.844 111.145 c 172.871 72.582 l 174.801 69.617 l 179.113
 63.008 184.129 56.82 189.777 51.152 c 190.066 50.863 190.391 50.645 190.734
 50.484 c 194.508 44.129 201.43 39.871 209.355 39.871 c 229.348 39.871 l
 239.5 39.871 248.02 46.863 250.355 56.297 c 250.602 57.301 250.781 58.328
 250.887 59.379 c 256.777 93.594 l 266.348 119.902 l 267.988 124.398 265.672
 129.367 261.172 131.008 c h
261.172 131.008 m f
0.215686 0.384314 0.8 rg
229.348 35.875 m 209.355 35.875 l 200.699 35.875 192.543 40.332 187.844
 47.574 c 187.523 47.805 187.227 48.059 186.949 48.332 c 181.117 54.184 
175.906 60.609 171.461 67.434 c 169.527 70.395 l 169.422 70.551 169.332 
70.715 169.25 70.883 c 151.223 109.449 l 150.41 111.195 150.348 113.145 
151.051 114.941 c 151.766 116.777 153.254 118.27 155.121 119.035 c 156.301
 119.516 l 165.691 123.355 176.668 119.34 180.77 110.562 c 184.02 103.602
 l 184.621 105.051 186.051 106.066 187.711 106.066 c 238.621 106.066 l 246.309
 127.191 l 248.695 133.754 255.977 137.148 262.535 134.762 c 269.094 132.371
 272.488 125.094 270.102 118.531 c 260.645 92.562 l 254.844 58.84 l 254.719
 57.668 254.512 56.488 254.227 55.344 c 251.395 43.883 241.164 35.875 229.348
 35.875 c h
176.371 74.523 m 178.148 71.797 l 182.301 65.43 187.164 59.434 192.609 
53.973 c 193.324 53.633 193.77 53.203 194.172 52.527 c 197.344 47.184 203.16
 43.867 209.359 43.867 c 229.352 43.867 l 237.484 43.867 244.527 49.375 
246.477 57.262 c 246.684 58.09 246.828 58.93 246.91 59.773 c 246.918 59.867
 246.934 59.965 246.949 60.059 c 252.84 94.27 l 252.879 94.504 252.941 94.734
 253.023 94.961 c 262.598 121.266 l 263.477 123.684 262.227 126.371 259.805
 127.254 c 257.391 128.133 254.699 126.879 253.82 124.461 c 245.172 100.707
 l 244.602 99.133 243.098 98.078 241.422 98.078 c 191.711 98.078 l 191.711
 86.281 l 191.711 84.41 190.41 82.785 188.586 82.379 c 186.754 81.98 184.891
 82.895 184.098 84.59 c 173.535 107.18 l 171.211 112.156 164.832 114.375
 159.324 112.121 c 158.883 111.941 l h
176.371 74.523 m f
216.344 35.875 m 209.355 35.875 l 200.699 35.875 192.543 40.332 187.844
 47.574 c 187.523 47.805 187.227 48.059 186.949 48.332 c 181.117 54.184 
175.906 60.609 171.461 67.434 c 169.527 70.395 l 169.422 70.551 169.332 
70.715 169.25 70.887 c 151.223 109.449 l 150.41 111.199 150.348 113.148 
151.051 114.941 c 151.766 116.781 153.254 118.273 155.121 119.035 c 156.301
 119.516 l 165.691 123.355 176.668 119.34 180.77 110.562 c 190.523 89.699
 l 201.215 87.047 l 212.477 84.254 220.34 74.195 220.34 62.598 c 220.34 
60.391 218.551 58.602 216.344 58.602 c 214.141 58.602 212.352 60.391 212.352
 62.598 c 212.352 70.516 206.98 77.379 199.293 79.289 c 186.75 82.402 l 
185.582 82.691 184.605 83.496 184.094 84.59 c 173.535 107.18 l 171.207 112.156
 164.832 114.375 159.324 112.121 c 158.883 111.941 l 176.371 74.527 l 178.148
 71.797 l 182.301 65.434 187.164 59.438 192.609 53.977 c 193.324 53.637 
193.77 53.203 194.172 52.527 c 197.344 47.184 203.16 43.871 209.359 43.871
 c 216.344 43.871 l 218.555 43.871 220.34 42.078 220.34 39.875 c 220.34 
37.668 218.555 35.875 216.344 35.875 c h
216.344 35.875 m f
0.976471 0.811765 0.811765 rg
205.379 86.16 m 205.379 113.918 l 205.379 116.402 203.367 118.418 200.879
 118.418 c 192.215 118.418 l 189.727 118.418 187.715 116.406 187.715 113.918
 c 187.715 86.16 l 187.715 84.324 189.207 82.836 191.039 82.836 c 202.047
 82.836 l 203.891 82.832 205.379 84.324 205.379 86.16 c h
205.379 86.16 m f
223.039 86.16 m 223.039 113.918 l 223.039 116.402 221.027 118.418 218.539
 118.418 c 209.875 118.418 l 207.387 118.418 205.375 116.406 205.375 113.918
 c 205.375 86.16 l 205.375 84.324 206.867 82.836 208.699 82.836 c 219.711
 82.836 l 221.555 82.832 223.039 84.324 223.039 86.16 c h
223.039 86.16 m f
240.703 86.16 m 240.703 113.918 l 240.703 116.402 238.691 118.418 236.203
 118.418 c 227.535 118.418 l 225.051 118.418 223.039 116.406 223.039 113.918
 c 223.039 86.16 l 223.039 84.324 224.527 82.836 226.363 82.836 c 237.371
 82.836 l 239.215 82.832 240.703 84.324 240.703 86.16 c h
240.703 86.16 m f
0.215686 0.384314 0.8 rg
202.051 78.84 m 191.043 78.84 l 187.004 78.84 183.719 82.121 183.719 86.16
 c 183.719 113.918 l 183.719 118.602 187.531 122.41 192.215 122.41 c 200.879
 122.41 l 205.562 122.41 209.371 118.602 209.371 113.918 c 209.371 86.16
 l 209.375 82.121 206.09 78.84 202.051 78.84 c h
191.711 86.828 m 201.379 86.828 l 201.379 113.918 l 201.379 114.199 201.156
 114.418 200.879 114.418 c 192.215 114.418 l 191.938 114.418 191.711 114.199
 191.711 113.918 c h
191.711 86.828 m f
219.715 78.84 m 208.703 78.84 l 204.668 78.84 201.383 82.121 201.383 86.16
 c 201.383 113.918 l 201.383 118.602 205.195 122.41 209.879 122.41 c 218.543
 122.41 l 223.227 122.41 227.035 118.602 227.035 113.918 c 227.035 86.16
 l 227.035 82.121 223.75 78.84 219.715 78.84 c h
209.375 86.828 m 219.047 86.828 l 219.047 113.918 l 219.047 114.199 218.82
 114.418 218.547 114.418 c 209.879 114.418 l 209.602 114.418 209.375 114.199
 209.375 113.918 c h
209.375 86.828 m f
237.375 78.84 m 226.367 78.84 l 222.328 78.84 219.043 82.121 219.043 86.16
 c 219.043 113.918 l 219.043 118.602 222.855 122.41 227.535 122.41 c 236.203
 122.41 l 240.887 122.41 244.695 118.602 244.695 113.918 c 244.695 86.16
 l 244.699 82.121 241.414 78.84 237.375 78.84 c h
227.035 86.828 m 236.707 86.828 l 236.707 113.918 l 236.707 114.199 236.48
 114.418 236.207 114.418 c 227.539 114.418 l 227.262 114.418 227.039 114.199
 227.039 113.918 c 227.039 86.828 l h
227.035 86.828 m f
0.976471 0.811765 0.811765 rg
229.348 39.875 m 209.355 39.875 l 205.184 39.875 201.305 41.074 198.004
 43.125 c 198.004 22.223 l 240.703 22.223 l 240.703 43.113 l 237.398 41.062
 233.516 39.875 229.348 39.875 c h
229.348 39.875 m f
0.215686 0.384314 0.8 rg
240.703 18.227 m 198.004 18.227 l 195.797 18.227 194.008 20.016 194.008
 22.223 c 194.008 43.125 l 194.008 44.57 194.793 45.906 196.059 46.613 c
 197.328 47.316 198.875 47.281 200.105 46.52 c 202.91 44.781 206.109 43.867
 209.359 43.867 c 229.352 43.867 l 232.613 43.867 235.812 44.777 238.605
 46.504 c 239.832 47.266 241.387 47.301 242.648 46.598 c 243.914 45.891 
244.699 44.555 244.699 43.109 c 244.699 22.219 l 244.699 20.016 242.906 
18.227 240.703 18.227 c h
201.996 26.219 m 236.707 26.219 l 236.707 36.965 l 234.332 36.246 231.852
 35.879 229.348 35.879 c 209.355 35.879 l 206.855 35.879 204.375 36.25 201.996
 36.973 c h
201.996 26.219 m f
0.976471 0.654902 0.654902 rg
160.062 231.984 m 10.266 231.984 l 10.266 276.141 l 10.266 293.672 24.477
 307.887 42.008 307.887 c 128.32 307.887 l 145.852 307.887 160.062 293.672
 160.062 276.141 c h
160.062 231.984 m f
0.215686 0.384314 0.8 rg
160.062 227.992 m 10.266 227.992 l 8.059 227.992 6.27 229.781 6.27 231.984
 c 6.27 276.141 l 6.27 295.848 22.297 311.879 42.008 311.879 c 128.32 311.879
 l 148.027 311.879 164.059 295.848 164.059 276.141 c 164.059 231.984 l 164.059
 229.777 162.27 227.992 160.062 227.992 c h
14.258 235.98 m 156.07 235.98 l 156.07 276.141 l 156.07 291.441 143.621
 303.891 128.32 303.891 c 42.008 303.891 l 26.707 303.891 14.258 291.441
 14.258 276.141 c h
14.258 235.98 m f
0.976471 0.811765 0.811765 rg
141.652 394.039 m 141.527 394.039 141.406 394.023 141.281 394.023 c 141.281
 399.57 l 141.281 432.004 114.992 458.289 82.562 458.289 c 50.129 458.289
 23.84 432.004 23.84 399.57 c 23.84 394.023 l 23.715 394.023 23.594 394.039
 23.469 394.039 c 13.574 394.039 5.555 386.02 5.555 376.125 c 5.555 366.234
 13.574 358.211 23.469 358.211 c 24.117 358.211 24.762 358.25 25.391 358.316
 c 31.449 332.34 54.734 312.984 82.562 312.984 c 110.383 312.984 133.668
 332.34 139.727 358.316 c 140.359 358.25 141.004 358.211 141.652 358.211
 c 151.543 358.211 159.566 366.234 159.566 376.125 c 159.566 386.023 151.543
 394.039 141.652 394.039 c h
141.652 394.039 m f
0.215686 0.384314 0.8 rg
82.562 308.988 m 54.355 308.988 30.035 327.441 22.324 354.25 c 10.773 354.848
 1.559 364.434 1.559 376.129 c 1.559 386.977 9.484 396.008 19.844 397.738
 c 19.844 399.57 l 19.844 434.152 47.98 462.285 82.562 462.285 c 117.141
 462.285 145.277 434.156 145.277 399.57 c 145.277 397.738 l 155.637 396.008
 163.559 386.977 163.559 376.129 c 163.559 364.434 154.344 354.848 142.793
 354.25 c 135.082 327.438 110.762 308.988 82.562 308.988 c h
25.395 362.312 m 27.23 362.312 28.855 361.051 29.281 359.227 c 35.082 334.352
 56.992 316.977 82.562 316.977 c 108.125 316.977 130.039 334.355 135.84 
359.227 c 136.297 361.188 138.129 362.52 140.152 362.293 c 140.648 362.238
 141.148 362.207 141.652 362.207 c 149.328 362.207 155.57 368.453 155.57
 376.125 c 155.57 383.785 149.359 390.016 141.711 390.047 c 141.535 390.039
 141.352 390.031 141.281 390.031 c 140.238 390.031 139.238 390.434 138.492
 391.164 c 137.719 391.918 137.285 392.949 137.285 394.023 c 137.285 399.57
 l 137.285 429.746 112.738 454.297 82.562 454.297 c 52.383 454.297 27.836
 429.746 27.836 399.57 c 27.836 394.023 l 27.836 392.949 27.402 391.918 
26.629 391.164 c 25.859 390.414 24.867 390 23.746 390.031 c 23.684 390.031
 23.453 390.043 23.395 390.047 c 15.793 390.047 9.551 383.805 9.551 376.125
 c 9.551 368.453 15.793 362.207 23.469 362.207 c 23.977 362.207 24.477 362.238
 24.965 362.293 c 25.109 362.309 25.254 362.312 25.395 362.312 c h
25.395 362.312 m f
82.562 308.988 m 54.355 308.988 30.035 327.441 22.324 354.25 c 10.773 354.848
 1.559 364.434 1.559 376.129 c 1.559 386.977 9.484 396.008 19.844 397.738
 c 19.844 399.57 l 19.844 434.152 47.98 462.285 82.562 462.285 c 117.141
 462.285 145.277 434.156 145.277 399.57 c 145.277 397.738 l 155.637 396.008
 163.559 386.977 163.559 376.129 c 163.559 364.434 154.344 354.848 142.793
 354.25 c 135.082 327.438 110.762 308.988 82.562 308.988 c h
25.395 362.312 m 27.23 362.312 28.855 361.051 29.281 359.227 c 35.082 334.352
 56.992 316.977 82.562 316.977 c 108.125 316.977 130.039 334.355 135.84 
359.227 c 136.297 361.188 138.129 362.52 140.152 362.293 c 140.648 362.238
 141.148 362.207 141.652 362.207 c 149.328 362.207 155.57 368.453 155.57
 376.125 c 155.57 383.785 149.359 390.016 141.711 390.047 c 141.535 390.039
 141.352 390.031 141.281 390.031 c 140.238 390.031 139.238 390.434 138.492
 391.164 c 137.719 391.918 137.285 392.949 137.285 394.023 c 137.285 399.57
 l 137.285 429.746 112.738 454.297 82.562 454.297 c 52.383 454.297 27.836
 429.746 27.836 399.57 c 27.836 394.023 l 27.836 392.949 27.402 391.918 
26.629 391.164 c 25.859 390.414 24.867 390 23.746 390.031 c 23.684 390.031
 23.453 390.043 23.395 390.047 c 15.793 390.047 9.551 383.805 9.551 376.125
 c 9.551 368.453 15.793 362.207 23.469 362.207 c 23.977 362.207 24.477 362.238
 24.965 362.293 c 25.109 362.309 25.254 362.312 25.395 362.312 c h
25.395 362.312 m f
51.559 371.781 m 48.266 371.781 45.586 374.457 45.586 377.754 c 45.586 
387.703 l 45.586 391 48.266 393.676 51.559 393.676 c 54.859 393.676 57.531
 391 57.531 387.703 c 57.531 377.754 l 57.531 374.453 54.859 371.781 51.559
 371.781 c h
51.559 371.781 m f
113.559 371.781 m 110.258 371.781 107.586 374.457 107.586 377.754 c 107.586
 387.703 l 107.586 391 110.258 393.676 113.559 393.676 c 116.855 393.676
 119.531 391 119.531 387.703 c 119.531 377.754 l 119.527 374.453 116.855
 371.781 113.559 371.781 c h
113.559 371.781 m f
0.27451 0.443137 0.776471 rg
140.555 408.715 m 141.023 405.734 141.281 402.684 141.281 399.57 c 141.281
 394.023 l 141.406 394.023 141.527 394.039 141.652 394.039 c 145.129 394.039
 148.359 393.035 151.109 391.324 c 151.109 408.715 l h
140.555 408.715 m f
14.012 408.715 m 14.012 391.324 l 16.758 393.039 19.992 394.039 23.469 
394.039 c 23.594 394.039 23.715 394.023 23.84 394.023 c 23.84 399.57 l 23.84
 402.684 24.098 405.734 24.566 408.715 c h
14.012 408.715 m f
0.215686 0.384314 0.8 rg
82.562 342.18 m 73.293 342.18 66.305 346.316 66.305 351.805 c 66.305 353.461
 67.645 354.801 69.301 354.801 c 70.957 354.801 72.297 353.461 72.297 351.805
 c 72.297 350.75 75.891 348.172 82.562 348.172 c 89.23 348.172 92.82 350.75
 92.82 351.805 c 92.82 353.461 94.164 354.801 95.816 354.801 c 97.477 354.801
 98.812 353.461 98.812 351.805 c 98.812 346.316 91.828 342.18 82.562 342.18
 c h
82.562 342.18 m f
0.27451 0.443137 0.776471 rg
136.879 410.555 m 156.723 410.555 l 158.223 410.555 159.441 411.77 159.441
 413.273 c 159.441 453.059 l 159.441 470.34 145.426 484.352 128.145 484.352
 c 127.656 484.352 l 123.148 484.352 119.492 480.699 119.492 476.188 c 119.492
 427.941 l 119.492 418.336 127.281 410.555 136.879 410.555 c h
136.879 410.555 m f
95.816 410.559 m 21.348 410.559 l 11.766 410.559 3.996 418.324 3.996 427.91
 c 3.996 484.355 l 105.98 484.355 l 113.441 484.355 119.492 478.309 119.492
 470.84 c 119.492 434.23 l 119.492 421.152 108.895 410.559 95.816 410.559
 c h
95.816 410.559 m f
0.215686 0.384314 0.8 rg
156.723 406.559 m 136.879 406.559 l 125.09 406.559 115.5 416.152 115.5 
427.941 c 115.5 476.188 l 115.5 482.895 120.953 488.348 127.656 488.348 
c 128.145 488.348 l 147.605 488.348 163.434 472.516 163.434 453.059 c 163.434
 413.273 l 163.434 409.57 160.422 406.559 156.723 406.559 c h
127.66 480.359 m 125.359 480.359 123.488 478.484 123.488 476.188 c 123.488
 427.941 l 123.488 420.555 129.5 414.547 136.883 414.547 c 155.445 414.547
 l 155.445 453.059 l 155.445 468.113 143.199 480.359 128.145 480.359 c h
127.66 480.359 m f
151.109 387.332 m 150.371 387.332 149.641 387.531 148.992 387.934 c 146.773
 389.316 144.238 390.047 141.652 390.047 c 141.609 390.039 141.477 390.031
 141.344 390.031 c 140.262 390.023 139.242 390.426 138.477 391.176 c 137.711
 391.93 137.281 392.957 137.281 394.023 c 137.281 399.57 l 137.281 402.375
 137.055 405.242 136.605 408.098 c 136.43 409.25 136.758 410.43 137.52 411.312
 c 138.281 412.203 139.391 412.715 140.555 412.715 c 151.109 412.715 l 153.312
 412.715 155.102 410.922 155.102 408.719 c 155.102 391.324 l 155.102 389.875
 154.312 388.535 153.043 387.832 c 152.441 387.492 151.773 387.332 151.109
 387.332 c h
145.277 397.734 m 145.895 397.629 146.504 397.496 147.113 397.34 c 147.113
 404.723 l 145.062 404.723 l 145.203 402.992 145.277 401.273 145.277 399.57
 c h
145.277 397.734 m f
14.012 387.332 m 13.344 387.332 12.68 387.492 12.078 387.828 c 10.805 388.535
 10.02 389.871 10.02 391.324 c 10.02 408.715 l 10.02 410.918 11.809 412.711
 14.012 412.711 c 24.566 412.711 l 25.73 412.711 26.84 412.203 27.602 411.312
 c 28.355 410.426 28.691 409.25 28.512 408.098 c 28.062 405.234 27.84 402.367
 27.84 399.57 c 27.84 394.023 l 27.84 392.953 27.41 391.93 26.645 391.176
 c 25.879 390.426 24.879 390.023 23.777 390.031 c 23.703 390.031 23.453 
390.043 23.379 390.051 c 20.883 390.051 18.348 389.32 16.129 387.934 c 15.484
 387.527 14.746 387.332 14.012 387.332 c h
18.008 404.723 m 18.008 397.34 l 18.617 397.496 19.227 397.629 19.844 397.734
 c 19.844 399.57 l 19.844 401.273 19.918 402.992 20.062 404.723 c h
18.008 404.723 m f
0.976471 0.811765 0.811765 rg
82.562 312.984 m 71.973 312.984 62.055 315.793 53.48 320.691 c 53.48 297.52
 l 53.48 293.891 56.418 290.953 60.047 290.953 c 105.074 290.953 l 108.703
 290.953 111.641 293.891 111.641 297.52 c 111.641 320.691 l 103.066 315.793
 93.145 312.984 82.562 312.984 c h
82.562 312.984 m f
0.215686 0.384314 0.8 rg
105.074 286.961 m 60.047 286.961 l 54.223 286.961 49.484 291.695 49.484
 297.52 c 49.484 320.691 l 49.484 322.117 50.242 323.434 51.473 324.148 
c 52.707 324.863 54.227 324.867 55.461 324.16 c 63.68 319.465 73.051 316.977
 82.562 316.977 c 92.07 316.977 101.438 319.465 109.656 324.16 c 110.895
 324.867 112.414 324.863 113.645 324.148 c 114.879 323.434 115.637 322.117
 115.637 320.691 c 115.637 297.52 l 115.637 291.695 110.895 286.961 105.074
 286.961 c h
57.473 314.223 m 57.473 297.52 l 57.473 296.105 58.625 294.949 60.047 294.949
 c 105.074 294.949 l 106.492 294.949 107.645 296.102 107.645 297.52 c 107.645
 314.223 l 91.895 307.348 73.223 307.348 57.473 314.223 c h
57.473 314.223 m f
95.816 406.559 m 21.348 406.559 l 9.578 406.559 0 416.137 0 427.91 c 0 
484.355 l 0 486.562 1.789 488.352 3.996 488.352 c 105.98 488.352 l 115.637
 488.352 123.488 480.496 123.488 470.84 c 123.488 434.23 l 123.488 418.973
 111.074 406.559 95.816 406.559 c h
7.988 480.363 m 7.988 427.91 l 7.988 420.543 13.98 414.551 21.348 414.551
 c 95.816 414.551 l 106.672 414.551 115.5 423.379 115.5 434.234 c 115.5 
470.844 l 115.5 476.09 111.227 480.367 105.977 480.367 c 7.988 480.367 l
 h
7.988 480.363 m f
0.976471 0.654902 0.654902 rg
482.34 5.582 m 332.539 5.582 l 332.539 49.738 l 332.539 67.27 346.75 81.48
 364.281 81.48 c 450.602 81.48 l 468.133 81.48 482.34 67.27 482.34 49.738
 c h
482.34 5.582 m f
0.215686 0.384314 0.8 rg
482.34 1.586 m 332.539 1.586 l 330.332 1.586 328.543 3.375 328.543 5.582
 c 328.543 49.738 l 328.543 69.441 344.578 85.473 364.281 85.473 c 450.602
 85.473 l 470.305 85.473 486.332 69.445 486.332 49.738 c 486.332 5.582 l
 486.332 3.371 484.547 1.586 482.34 1.586 c h
336.531 9.574 m 478.344 9.574 l 478.344 49.738 l 478.344 65.035 465.898
 77.484 450.602 77.484 c 364.281 77.484 l 348.98 77.484 336.531 65.035 336.531
 49.738 c h
336.531 9.574 m f
0.976471 0.811765 0.811765 rg
466.531 167.637 m 466.406 167.637 466.285 167.621 466.16 167.621 c 466.16
 173.168 l 466.16 205.598 439.871 231.887 407.438 231.887 c 375.008 231.887
 348.719 205.598 348.719 173.168 c 348.719 167.621 l 348.594 167.621 348.473
 167.637 348.348 167.637 c 338.453 167.637 330.434 159.617 330.434 149.723
 c 330.434 139.832 338.457 131.812 348.348 131.812 c 348.996 131.812 349.641
 131.852 350.27 131.918 c 356.332 105.938 379.617 86.582 407.438 86.582 
c 435.266 86.582 458.551 105.938 464.609 131.918 c 465.242 131.852 465.883
 131.812 466.531 131.812 c 476.426 131.812 484.445 139.832 484.445 149.723
 c 484.445 159.617 476.426 167.637 466.531 167.637 c h
466.531 167.637 m f
0.215686 0.384314 0.8 rg
407.438 82.586 m 379.234 82.586 354.914 101.035 347.203 127.844 c 335.656
 128.441 326.441 138.027 326.441 149.723 c 326.441 160.574 334.363 169.605
 344.727 171.332 c 344.727 173.164 l 344.727 207.75 372.859 235.883 407.438
 235.883 c 442.02 235.883 470.156 207.75 470.156 173.164 c 470.156 171.332
 l 480.516 169.605 488.441 160.57 488.441 149.723 c 488.441 138.027 479.227
 128.445 467.676 127.844 c 459.961 101.035 435.645 82.586 407.438 82.586
 c h
350.273 135.91 m 352.109 135.91 353.738 134.648 354.16 132.82 c 359.961
 107.949 381.871 90.574 407.438 90.574 c 433.008 90.574 454.918 107.949 
460.719 132.82 c 461.176 134.785 463.004 136.109 465.035 135.887 c 465.523
 135.836 466.023 135.801 466.531 135.801 c 474.207 135.801 480.449 142.047
 480.449 149.723 c 480.449 157.379 474.238 163.609 466.594 163.645 c 466.438
 163.637 466.23 163.625 466.16 163.625 c 465.113 163.625 464.105 164.039
 463.355 164.77 c 462.594 165.523 462.168 166.551 462.168 167.617 c 462.168
 173.164 l 462.168 203.344 437.617 227.895 407.438 227.895 c 377.262 227.895
 352.715 203.344 352.715 173.164 c 352.715 167.617 l 352.715 166.551 352.285
 165.523 351.52 164.77 c 350.762 164.023 349.727 163.625 348.656 163.625
 c 348.582 163.629 348.332 163.641 348.258 163.645 c 340.672 163.645 334.426
 157.398 334.426 149.723 c 334.426 142.047 340.672 135.801 348.344 135.801
 c 348.852 135.801 349.352 135.836 349.844 135.887 c 349.992 135.902 350.137
 135.91 350.273 135.91 c h
350.273 135.91 m f
407.438 82.586 m 379.234 82.586 354.914 101.035 347.203 127.844 c 335.656
 128.441 326.441 138.027 326.441 149.723 c 326.441 160.574 334.363 169.605
 344.727 171.332 c 344.727 173.164 l 344.727 207.75 372.859 235.883 407.438
 235.883 c 442.02 235.883 470.156 207.75 470.156 173.164 c 470.156 171.332
 l 480.516 169.605 488.441 160.57 488.441 149.723 c 488.441 138.027 479.227
 128.445 467.676 127.844 c 459.961 101.035 435.645 82.586 407.438 82.586
 c h
350.273 135.91 m 352.109 135.91 353.738 134.648 354.16 132.82 c 359.961
 107.949 381.871 90.574 407.438 90.574 c 433.008 90.574 454.918 107.949 
460.719 132.82 c 461.176 134.785 463.004 136.109 465.035 135.887 c 465.523
 135.836 466.023 135.801 466.531 135.801 c 474.207 135.801 480.449 142.047
 480.449 149.723 c 480.449 157.379 474.238 163.609 466.594 163.645 c 466.438
 163.637 466.23 163.625 466.16 163.625 c 465.113 163.625 464.105 164.039
 463.355 164.77 c 462.594 165.523 462.168 166.551 462.168 167.617 c 462.168
 173.164 l 462.168 203.344 437.617 227.895 407.438 227.895 c 377.262 227.895
 352.715 203.344 352.715 173.164 c 352.715 167.617 l 352.715 166.551 352.285
 165.523 351.52 164.77 c 350.762 164.023 349.727 163.625 348.656 163.625
 c 348.582 163.629 348.332 163.641 348.258 163.645 c 340.672 163.645 334.426
 157.398 334.426 149.723 c 334.426 142.047 340.672 135.801 348.344 135.801
 c 348.852 135.801 349.352 135.836 349.844 135.887 c 349.992 135.902 350.137
 135.91 350.273 135.91 c h
350.273 135.91 m f
376.441 145.375 m 373.145 145.375 370.469 148.051 370.469 151.348 c 370.469
 161.305 l 370.469 164.598 373.145 167.273 376.441 167.273 c 379.738 167.273
 382.414 164.598 382.414 161.305 c 382.414 151.348 l 382.414 148.051 379.742
 145.375 376.441 145.375 c h
376.441 145.375 m f
438.441 145.375 m 435.141 145.375 432.469 148.051 432.469 151.348 c 432.469
 161.305 l 432.469 164.598 435.141 167.273 438.441 167.273 c 441.738 167.273
 444.414 164.598 444.414 161.305 c 444.414 151.348 l 444.414 148.051 441.738
 145.375 438.441 145.375 c h
438.441 145.375 m f
0.27451 0.443137 0.776471 rg
465.438 182.309 m 465.906 179.328 466.16 176.277 466.16 173.164 c 466.16
 167.617 l 466.285 167.621 466.406 167.637 466.531 167.637 c 470.008 167.637
 473.242 166.633 475.988 164.918 c 475.988 182.309 l h
465.438 182.309 m f
338.895 182.309 m 338.895 164.918 l 341.641 166.633 344.875 167.637 348.348
 167.637 c 348.473 167.637 348.594 167.621 348.719 167.617 c 348.719 173.164
 l 348.719 176.277 348.977 179.328 349.441 182.309 c h
338.895 182.309 m f
0.215686 0.384314 0.8 rg
407.438 114.777 m 397.445 114.777 390.188 119.246 390.188 125.402 c 390.188
 127.605 391.973 129.395 394.184 129.395 c 396.387 129.395 398.176 127.605
 398.176 125.402 c 398.496 124.777 401.773 122.77 407.438 122.77 c 413.102
 122.77 416.383 124.777 416.73 125.582 c 416.73 127.785 418.504 129.484 
420.715 129.484 c 422.918 129.484 424.691 127.609 424.691 125.402 c 424.691
 119.246 417.438 114.777 407.438 114.777 c h
407.438 114.777 m f
0.27451 0.443137 0.776471 rg
450.836 182.309 m 481.852 182.309 l 484.145 182.309 486.004 184.172 486.004
 186.465 c 486.004 210.188 l 486.004 236.566 464.621 257.953 438.242 257.953
 c 436.758 257.953 l 429.879 257.953 424.297 252.371 424.297 245.492 c 424.297
 208.848 l 424.297 194.191 436.18 182.309 450.836 182.309 c h
450.836 182.309 m f
387.086 182.309 m 333.047 182.309 l 330.742 182.309 328.875 184.18 328.875
 186.48 c 328.875 206.098 l 328.875 234.734 352.09 257.953 380.723 257.953
 c 411.977 257.953 l 418.844 257.953 424.414 252.379 424.414 245.508 c 424.414
 219.648 l 424.418 199.027 407.703 182.309 387.086 182.309 c h
387.086 182.309 m f
0.215686 0.384314 0.8 rg
481.852 178.316 m 450.836 178.316 l 434 178.316 420.305 192.012 420.305
 208.848 c 420.305 245.492 l 420.305 254.566 427.688 261.945 436.758 261.945
 c 438.242 261.945 l 466.781 261.945 490 238.727 490 210.188 c 490 186.469
 l 490 181.969 486.344 178.316 481.852 178.316 c h
436.758 253.957 m 432.09 253.957 428.293 250.156 428.293 245.488 c 428.293
 208.848 l 428.293 196.418 438.406 186.305 450.836 186.305 c 481.852 186.305
 l 481.941 186.305 482.012 186.375 482.012 186.465 c 482.012 210.184 l 482.012
 234.32 462.375 253.953 438.242 253.953 c 436.758 253.953 l h
436.758 253.957 m f
387.086 178.316 m 333.047 178.316 l 328.543 178.316 324.879 181.977 324.879
 186.48 c 324.879 206.098 l 324.879 236.895 349.934 261.945 380.727 261.945
 c 411.977 261.945 l 421.043 261.945 428.414 254.574 428.414 245.508 c 428.414
 219.648 l 428.414 196.855 409.875 178.316 387.086 178.316 c h
380.727 253.957 m 354.34 253.957 332.871 232.484 332.871 206.098 c 332.871
 186.48 l 332.871 186.387 332.949 186.305 333.047 186.305 c 387.086 186.305
 l 405.473 186.305 420.426 201.262 420.426 219.645 c 420.426 245.508 l 420.426
 250.164 416.633 253.953 411.977 253.953 c 380.727 253.953 l h
380.727 253.957 m f
475.988 160.926 m 475.25 160.926 474.516 161.129 473.875 161.527 c 471.656
 162.91 469.117 163.645 466.531 163.645 c 466.488 163.637 466.355 163.629
 466.223 163.625 c 465.164 163.625 464.121 164.023 463.355 164.77 c 462.59
 165.523 462.164 166.551 462.164 167.617 c 462.164 173.164 l 462.164 175.973
 461.938 178.84 461.488 181.695 c 461.309 182.848 461.641 184.023 462.398
 184.906 c 463.16 185.797 464.27 186.309 465.434 186.309 c 475.988 186.309
 l 478.191 186.309 479.98 184.52 479.98 182.312 c 479.98 164.918 l 479.98
 163.469 479.195 162.133 477.922 161.426 c 477.32 161.094 476.656 160.926
 475.988 160.926 c h
470.156 171.328 m 470.773 171.223 471.383 171.09 471.992 170.934 c 471.992
 178.316 l 469.938 178.316 l 470.082 176.586 470.156 174.867 470.156 173.164
 c h
470.156 171.328 m f
338.895 160.926 m 338.227 160.926 337.559 161.09 336.953 161.422 c 335.688
 162.129 334.898 163.469 334.898 164.918 c 334.898 182.309 l 334.898 184.52
 336.688 186.305 338.895 186.305 c 349.441 186.305 l 350.609 186.305 351.719
 185.793 352.48 184.906 c 353.238 184.023 353.574 182.844 353.395 181.695
 c 352.945 178.836 352.719 175.969 352.719 173.164 c 352.719 167.617 l 352.719
 166.547 352.289 165.52 351.523 164.77 c 350.766 164.02 349.73 163.621 348.656
 163.625 c 348.582 163.625 348.336 163.637 348.262 163.645 c 345.762 163.645
 343.227 162.91 341.008 161.523 c 340.363 161.129 339.625 160.926 338.895
 160.926 c h
342.887 178.316 m 342.887 170.934 l 343.496 171.09 344.105 171.223 344.727
 171.328 c 344.727 173.164 l 344.727 174.871 344.801 176.586 344.938 178.316
 c h
342.887 178.316 m f
0.976471 0.811765 0.811765 rg
407.438 86.582 m 396.855 86.582 386.934 89.387 378.359 94.289 c 378.359
 71.113 l 378.359 67.488 381.297 64.547 384.926 64.547 c 429.957 64.547 
l 433.578 64.547 436.52 67.484 436.52 71.113 c 436.52 94.289 l 427.949 89.387
 418.023 86.582 407.438 86.582 c h
407.438 86.582 m f
0.215686 0.384314 0.8 rg
429.957 60.555 m 384.926 60.555 l 379.105 60.555 374.363 65.289 374.363
 71.113 c 374.363 94.289 l 374.363 95.715 375.121 97.031 376.355 97.746 
c 377.586 98.461 379.105 98.465 380.344 97.758 c 388.562 93.062 397.93 90.578
 407.438 90.578 c 416.953 90.578 426.32 93.062 434.535 97.758 c 435.777 
98.465 437.293 98.461 438.523 97.746 c 439.754 97.031 440.516 95.715 440.516
 94.289 c 440.516 71.113 l 440.516 65.289 435.781 60.555 429.957 60.555 
c h
382.355 87.82 m 382.355 71.109 l 382.355 69.695 383.508 68.539 384.926 
68.539 c 429.957 68.539 l 431.371 68.539 432.527 69.695 432.527 71.109 c
 432.527 87.82 l 416.781 80.945 398.105 80.941 382.355 87.82 c h
382.355 87.82 m f
0.419608 0.866667 0.866667 rg
111.871 86.785 m 99.887 86.785 l 95.473 86.785 91.898 83.207 91.898 78.797
 c 91.898 74.383 95.473 70.805 99.887 70.805 c 111.871 70.805 l 116.281 
70.805 119.859 74.383 119.859 78.797 c 119.859 83.207 116.281 86.785 111.871
 86.785 c h
111.871 86.785 m f
75.879 86.785 m 71.887 86.785 l 71.887 90.781 l 71.887 95.191 68.309 98.77
 63.895 98.77 c 59.484 98.77 55.906 95.191 55.906 90.781 c 55.906 78.797
 l 55.906 74.383 59.484 70.805 63.895 70.805 c 75.879 70.805 l 80.293 70.805
 83.867 74.383 83.867 78.797 c 83.867 83.207 80.293 86.785 75.879 86.785
 c h
75.879 86.785 m f
55.906 112.855 m 55.906 108.445 59.484 104.867 63.895 104.867 c 68.309 
104.867 71.887 108.445 71.887 112.855 c 71.887 131.777 l 71.887 136.188 
68.309 139.766 63.895 139.766 c 59.484 139.766 55.906 136.188 55.906 131.777
 c h
55.906 112.855 m f
63.895 145.859 m 68.309 145.859 71.887 149.438 71.887 153.848 c 71.887 
172.77 l 71.887 177.18 68.309 180.758 63.895 180.758 c 59.484 180.758 55.906
 177.18 55.906 172.77 c 55.906 153.848 l 55.906 149.438 59.484 145.859 63.895
 145.859 c h
63.895 145.859 m f
94.285 184.555 m 96.895 188.109 96.125 193.113 92.562 195.719 c 68.621 
213.27 l 68.574 213.305 68.523 213.324 68.473 213.359 c 68.34 213.453 68.191
 213.535 68.047 213.621 c 67.777 213.785 67.508 213.938 67.223 214.07 c 
67.062 214.145 66.895 214.203 66.727 214.27 c 66.426 214.383 66.121 214.477
 65.812 214.555 c 65.656 214.594 65.508 214.637 65.348 214.668 c 64.383 
214.844 63.402 214.844 62.445 214.668 c 62.289 214.637 62.137 214.594 61.98
 214.559 c 61.672 214.48 61.363 214.387 61.059 214.27 c 60.891 214.207 60.727
 214.148 60.566 214.074 c 60.285 213.941 60.016 213.789 59.742 213.621 c
 59.602 213.535 59.457 213.457 59.32 213.359 c 59.273 213.328 59.219 213.305
 59.176 213.27 c 35.227 195.723 l 31.664 193.113 30.895 188.113 33.504 184.555
 c 35.07 182.418 37.496 181.289 39.953 181.289 c 41.594 181.289 43.246 181.793
 44.672 182.832 c 56.617 191.586 l 57.863 188.801 60.645 186.855 63.895 
186.855 c 67.145 186.855 69.93 188.801 71.18 191.586 c 83.121 182.832 l 
86.676 180.223 91.68 180.996 94.285 184.555 c h
94.285 184.555 m f
0.643137 0.788235 1 rg
423.457 343.492 m 419.043 343.492 415.465 339.918 415.465 335.504 c 415.465
 316.586 l 415.465 312.172 419.043 308.594 423.457 308.594 c 427.867 308.594
 431.445 312.172 431.445 316.586 c 431.445 335.504 l 431.445 339.918 427.867
 343.492 423.457 343.492 c h
423.457 343.492 m f
431.445 376.496 m 431.445 380.91 427.867 384.484 423.457 384.484 c 419.043
 384.484 415.465 380.91 415.465 376.496 c 415.465 357.578 l 415.465 353.164
 419.043 349.586 423.457 349.586 c 427.867 349.586 431.445 353.164 431.445
 357.578 c h
431.445 376.496 m f
411.473 402.562 m 415.465 402.562 l 415.465 398.57 l 415.465 394.156 419.043
 390.578 423.457 390.578 c 427.867 390.578 431.445 394.156 431.445 398.57
 c 431.445 410.555 l 431.445 414.965 427.867 418.543 423.457 418.543 c 411.473
 418.543 l 407.059 418.543 403.484 414.965 403.484 410.555 c 403.484 406.141
 407.059 402.562 411.473 402.562 c h
411.473 402.562 m f
395.453 410.555 m 395.453 414.965 391.879 418.543 387.465 418.543 c 375.48
 418.543 l 371.07 418.543 367.492 414.965 367.492 410.555 c 367.492 406.141
 371.07 402.562 375.48 402.562 c 387.465 402.562 l 391.879 402.562 395.453
 406.141 395.453 410.555 c h
395.453 410.555 m f
453.848 304.797 m 451.242 308.355 446.242 309.125 442.684 306.52 c 430.738
 297.766 l 429.492 300.551 426.707 302.496 423.457 302.496 c 420.207 302.496
 417.422 300.551 416.172 297.766 c 404.23 306.52 l 400.676 309.125 395.672
 308.352 393.066 304.797 c 390.457 301.238 391.227 296.238 394.789 293.629
 c 418.73 276.078 l 418.777 276.047 418.828 276.023 418.879 275.988 c 419.012
 275.895 419.16 275.82 419.305 275.73 c 419.574 275.566 419.844 275.414 
420.129 275.281 c 420.293 275.207 420.457 275.145 420.621 275.078 c 420.922
 274.965 421.23 274.871 421.535 274.793 c 421.695 274.754 421.844 274.711
 422.008 274.68 c 422.488 274.594 422.973 274.535 423.457 274.535 c 423.945
 274.535 424.422 274.594 424.902 274.68 c 425.062 274.711 425.219 274.754
 425.375 274.793 c 425.688 274.867 425.988 274.965 426.293 275.078 c 426.461
 275.141 426.625 275.207 426.789 275.281 c 427.07 275.41 427.34 275.562 
427.609 275.73 c 427.75 275.816 427.898 275.891 428.035 275.988 c 428.082
 276.02 428.133 276.043 428.18 276.078 c 452.129 293.625 l 455.688 296.238
 456.457 301.238 453.848 304.797 c h
453.848 304.797 m f
0.215686 0.384314 0.8 rg
163.289 323.945 m 161.512 323.945 159.793 324.645 158.469 325.965 c 156.523
 327.914 155.93 330.711 156.914 333.281 c 174.156 378.301 l 174.156 461.383
 l 174.156 476.25 186.254 488.352 201.121 488.352 c 329.461 488.352 l 344.332
 488.352 356.43 476.25 356.43 461.383 c 356.43 369.5 l 356.43 354.633 344.332
 342.535 329.461 342.535 c 213.082 342.535 l 165.781 324.41 l 164.961 324.098
 164.121 323.945 163.289 323.945 c h
201.121 480.363 m 190.656 480.363 182.145 471.848 182.145 461.383 c 182.145
 377.559 l 182.145 377.07 182.055 376.586 181.883 376.129 c 165.273 332.773
 l 210.918 350.258 l 211.371 350.434 211.859 350.523 212.348 350.523 c 329.461
 350.523 l 339.926 350.523 348.438 359.035 348.438 369.5 c 348.438 461.383
 l 348.438 471.848 339.926 480.363 329.461 480.363 c h
201.121 480.363 m f
Q Q
showpage
%%Trailer
end restore
%%EOF
