%!PS-Adobe-3.0 EPSF-3.0
%%Creator: cairo 1.14.8 (http://cairographics.org)
%%CreationDate: Wed Mar 20 09:06:38 2019
%%Pages: 1
%%DocumentData: Clean7Bit
%%LanguageLevel: 2
%%BoundingBox: 0 3 491 488
%%EndComments
%%BeginProlog
save
50 dict begin
/q { gsave } bind def
/Q { grestore } bind def
/cm { 6 array astore concat } bind def
/w { setlinewidth } bind def
/J { setlinecap } bind def
/j { setlinejoin } bind def
/M { setmiterlimit } bind def
/d { setdash } bind def
/m { moveto } bind def
/l { lineto } bind def
/c { curveto } bind def
/h { closepath } bind def
/re { exch dup neg 3 1 roll 5 3 roll moveto 0 rlineto
      0 exch rlineto 0 rlineto closepath } bind def
/S { stroke } bind def
/f { fill } bind def
/f* { eofill } bind def
/n { newpath } bind def
/W { clip } bind def
/W* { eoclip } bind def
/BT { } bind def
/ET { } bind def
/pdfmark where { pop globaldict /?pdfmark /exec load put }
    { globaldict begin /?pdfmark /pop load def /pdfmark
    /cleartomark load def end } ifelse
/BDC { mark 3 1 roll /BDC pdfmark } bind def
/EMC { mark /EMC pdfmark } bind def
/cairo_store_point { /cairo_point_y exch def /cairo_point_x exch def } def
/Tj { show currentpoint cairo_store_point } bind def
/TJ {
  {
    dup
    type /stringtype eq
    { show } { -0.001 mul 0 cairo_font_matrix dtransform rmoveto } ifelse
  } forall
  currentpoint cairo_store_point
} bind def
/cairo_selectfont { cairo_font_matrix aload pop pop pop 0 0 6 array astore
    cairo_font exch selectfont cairo_point_x cairo_point_y moveto } bind def
/Tf { pop /cairo_font exch def /cairo_font_matrix where
      { pop cairo_selectfont } if } bind def
/Td { matrix translate cairo_font_matrix matrix concatmatrix dup
      /cairo_font_matrix exch def dup 4 get exch 5 get cairo_store_point
      /cairo_font where { pop cairo_selectfont } if } bind def
/Tm { 2 copy 8 2 roll 6 array astore /cairo_font_matrix exch def
      cairo_store_point /cairo_font where { pop cairo_selectfont } if } bind def
/g { setgray } bind def
/rg { setrgbcolor } bind def
/d1 { setcachedevice } bind def
%%EndProlog
%%BeginSetup
%%EndSetup
%%Page: 1 1
%%BeginPageSetup
%%PageBoundingBox: 0 3 491 488
%%EndPageSetup
q 0 3 491 485 rectclip q
0.878431 0.921569 0.988235 rg
318.699 281.391 m 300.457 263.145 276.121 253.137 250.168 253.203 c 224.242
 253.266 199.879 263.379 181.578 281.688 c 143.688 319.574 143.555 381.09
 181.281 418.812 c 199.52 437.051 223.855 447.062 249.805 447 c 275.738 
446.938 300.098 436.816 318.406 418.516 c 336.719 400.203 346.836 375.836
 346.895 349.898 c 346.945 323.957 336.938 299.625 318.699 281.391 c h
318.699 281.391 m f
0.27451 0.443137 0.776471 rg
309.027 303.641 m 194.516 303.641 l 190.348 303.641 186.969 307.02 186.969
 311.188 c 186.969 381.566 l 186.969 385.734 190.348 389.113 194.516 389.113
 c 309.027 389.113 l 313.195 389.113 316.57 385.734 316.57 381.566 c 316.57
 311.188 l 316.57 307.02 313.195 303.641 309.027 303.641 c h
309.027 303.641 m f
0.643137 0.788235 1 rg
186.969 381.57 m 186.969 357.895 l 186.969 354.863 189.137 352.266 192.121
 351.715 c 249.492 341.156 l 251 340.879 252.543 340.879 254.051 341.156
 c 311.422 351.715 l 314.406 352.266 316.57 354.863 316.57 357.895 c 316.57
 381.57 l 316.57 385.738 313.195 389.113 309.023 389.113 c 194.523 389.113
 l 190.352 389.113 186.969 385.738 186.969 381.57 c h
186.969 381.57 m f
0.27451 0.443137 0.776471 rg
270.113 412.996 m 229.848 412.996 l 222.629 412.996 216.762 405.766 216.762
 396.883 c 216.762 388.934 l 227.832 388.934 l 227.832 396.883 l 227.832
 398.727 228.898 400.105 229.848 400.105 c 270.113 400.105 l 271.066 400.105
 272.129 398.727 272.129 396.883 c 272.129 388.934 l 283.195 388.934 l 283.195
 396.883 l 283.195 405.766 277.328 412.996 270.113 412.996 c h
270.113 412.996 m f
1 0.917647 0.572549 rg
244.199 351.59 m 243.23 351.59 242.441 350.801 242.441 349.828 c 242.441
 325.344 l 242.441 321.176 245.82 317.797 249.984 317.797 c 249.992 317.797
 l 254.16 317.797 257.539 321.176 257.539 325.344 c 257.539 349.828 l 257.539
 350.801 256.75 351.59 255.777 351.59 c h
244.199 351.59 m f
0.917647 0.662745 0.490196 rg
479.559 120.535 m 469.633 110.609 453.543 110.609 443.621 120.535 c 359.051
 205.098 l 355.871 208.277 355.871 213.426 359.051 216.602 c 383.484 241.039
 l 386.66 244.215 391.812 244.215 394.988 241.039 c 479.559 156.473 l 489.477
 146.547 489.477 130.457 479.559 120.535 c h
479.559 120.535 m f
0.643137 0.788235 1 rg
383.211 240.766 m 356.047 267.93 l 352.629 263.516 348.934 259.25 344.891
 255.203 c 340.84 251.152 336.574 247.457 332.156 244.039 c 359.32 216.875
 l h
383.211 240.766 m f
0.419608 0.866667 0.866667 rg
344.469 444.578 m 292.137 496.906 207.184 497.098 155.086 445.004 c 102.992
 392.906 103.184 307.953 155.508 255.625 c 207.84 203.297 292.789 203.105
 344.891 255.203 c 396.984 307.293 396.793 392.254 344.469 444.578 c h
318.699 281.391 m 300.457 263.145 276.121 253.137 250.168 253.203 c 224.242
 253.266 199.879 263.379 181.578 281.688 c 143.688 319.574 143.555 381.09
 181.281 418.812 c 199.52 437.051 223.855 447.062 249.805 447 c 275.738 
446.938 300.098 436.816 318.406 418.516 c 336.719 400.203 346.836 375.836
 346.895 349.898 c 346.945 323.957 336.938 299.625 318.699 281.391 c h
318.699 281.391 m f
0.215686 0.384314 0.8 rg
461.586 109.102 m 454.055 109.102 446.527 111.973 440.793 117.707 c 356.223
 202.273 l 351.492 207.004 351.492 214.699 356.223 219.43 c 380.656 243.867
 l 385.387 248.594 393.082 248.598 397.816 243.867 c 482.383 159.301 l 487.938
 153.746 491 146.355 491 138.5 c 491 130.645 487.938 123.262 482.383 117.707
 c 476.652 111.973 469.121 109.102 461.586 109.102 c h
389.234 239.418 m 388.176 239.418 387.117 239.016 386.312 238.211 c 361.879
 213.773 l 360.266 212.16 360.266 209.543 361.879 207.93 c 446.449 123.359
 l 454.797 115.012 468.379 115.012 476.73 123.359 c 480.77 127.406 483 132.781
 483 138.5 c 483 144.219 480.77 149.598 476.73 153.641 c 392.16 238.211 
l 391.352 239.016 390.293 239.418 389.234 239.418 c h
479.559 120.535 m 479.578 120.535 l h
479.559 120.535 m f
359.32 212.875 m 358.262 212.875 357.242 213.297 356.492 214.047 c 329.328
 241.211 l 328.516 242.023 328.094 243.148 328.164 244.293 c 328.238 245.441
 328.801 246.5 329.707 247.203 c 334.188 250.668 338.34 254.312 342.062 
258.031 c 345.781 261.75 349.418 265.902 352.883 270.379 c 353.586 271.289
 354.645 271.852 355.793 271.922 c 356.949 271.992 358.062 271.566 358.875
 270.758 c 386.039 243.594 l 387.602 242.031 387.602 239.5 386.039 237.938
 c 362.148 214.047 l 361.402 213.297 360.383 212.875 359.32 212.875 c h
338.148 243.707 m 359.32 222.531 l 377.559 240.766 l 356.383 261.945 l 
353.574 258.535 350.668 255.328 347.715 252.375 c 344.766 249.418 341.559
 246.516 338.148 243.707 c h
338.148 243.707 m f
250.586 212.254 m 215.168 212.254 179.707 225.773 152.684 252.793 c 98.797
 306.684 98.605 394.176 152.258 447.828 c 205.918 501.477 293.406 501.289
 347.297 447.402 c 401.184 393.52 401.375 306.023 347.715 252.371 c 320.969
 225.625 285.801 212.254 250.586 212.254 c h
249.387 479.953 m 216.215 479.953 183.105 467.367 157.914 442.172 c 107.379
 391.637 107.574 309.223 158.34 258.453 c 209.109 207.684 291.523 207.488
 342.062 258.031 c 392.598 308.562 392.406 390.98 341.641 441.75 c 316.176
 467.207 282.75 479.953 249.387 479.953 c h
250.41 249.203 m 250.328 249.203 250.242 249.203 250.16 249.203 c 223.164
 249.27 197.805 259.801 178.75 278.859 c 139.301 318.305 139.168 382.355
 178.453 421.641 c 197.387 440.578 222.633 451 249.562 451 c 249.816 451
 l 276.812 450.938 302.172 440.402 321.234 421.344 c 340.301 402.277 350.828
 376.91 350.891 349.906 c 350.949 322.895 340.523 297.555 321.527 278.562
 c 302.59 259.625 277.344 249.203 250.41 249.203 c h
249.562 443 m 224.77 443 201.535 433.41 184.105 415.984 c 147.945 379.816
 148.078 320.844 184.402 284.516 c 201.953 266.961 225.316 257.266 250.18
 257.203 c 250.41 257.203 l 275.207 257.199 298.441 266.789 315.871 284.219
 c 333.352 301.695 342.945 325.02 342.891 349.891 c 342.836 374.762 333.137
 398.129 315.574 415.688 c 298.02 433.238 274.66 442.941 249.793 443 c 249.715
 443 249.641 443 249.562 443 c h
249.562 443 m f
0.878431 0.921569 0.988235 rg
98.562 120.91 m 157.832 120.91 l 157.832 257.371 l 157.832 276.613 142.238
 292.211 122.992 292.211 c 99.418 292.211 l 83.887 292.211 71.301 279.621
 71.301 264.094 c 71.301 148.168 l 71.301 133.113 83.508 120.91 98.562 120.91
 c h
98.562 120.91 m f
0.215686 0.384314 0.8 rg
157.832 116.91 m 98.562 116.91 l 81.328 116.91 67.301 130.934 67.301 148.172
 c 67.301 264.098 l 67.301 281.805 81.711 296.211 99.418 296.211 c 122.996
 296.211 l 144.414 296.211 161.836 278.789 161.836 257.375 c 161.836 120.914
 l 161.832 118.703 160.043 116.91 157.832 116.91 c h
99.418 288.215 m 86.117 288.215 75.301 277.395 75.301 264.094 c 75.301 
148.168 l 75.301 135.34 85.734 124.91 98.562 124.91 c 153.832 124.91 l 153.832
 257.371 l 153.832 274.375 140 288.211 122.992 288.211 c 99.418 288.211 
l h
99.418 288.215 m f
0.976471 0.654902 0.654902 rg
165.18 239.191 m 164.594 250.25 162.312 261.184 158.402 271.652 c 156.773
 284.078 l 156.488 286.281 154.5 287.965 152.09 288.055 c 141.5 288.453 
l 141.5 280.914 l 148.633 271.652 l 149.676 200.219 l 149.699 198.406 150.52
 196.68 151.949 195.438 c 162.254 186.434 l 162.867 185.898 163.688 185.594
 164.539 185.594 c 166.434 185.594 167.945 187.051 167.852 188.793 c h
165.18 239.191 m f
0.215686 0.384314 0.8 rg
164.539 181.594 m 162.715 181.594 160.965 182.246 159.617 183.426 c 149.32
 192.422 l 147.047 194.41 145.723 197.227 145.68 200.156 c 144.652 270.266
 l 138.328 278.473 l 137.789 279.172 137.496 280.031 137.496 280.914 c 137.496
 288.457 l 137.496 289.543 137.938 290.582 138.723 291.336 c 139.504 292.09
 140.535 292.492 141.645 292.453 c 152.238 292.055 l 156.617 291.887 160.195
 288.754 160.738 284.602 c 162.309 272.621 l 166.266 261.898 168.574 250.719
 169.176 239.402 c 171.844 189.004 l 171.945 187.109 171.27 185.293 169.941
 183.891 c 168.559 182.43 166.59 181.594 164.539 181.594 c h
163.859 188.578 m 163.879 188.578 l h
145.5 282.277 m 151.797 274.098 l 152.324 273.41 152.617 272.574 152.629
 271.715 c 153.676 200.277 l 153.684 199.598 154.008 198.949 154.586 198.441
 c 163.762 190.43 l 161.188 238.977 l 160.625 249.633 158.426 260.16 154.656
 270.254 c 154.551 270.539 154.477 270.832 154.438 271.133 c 152.809 283.559
 l 152.789 283.727 152.477 284.039 151.938 284.059 c 145.5 284.301 l h
145.5 282.277 m f
0.976471 0.654902 0.654902 rg
275.102 9.66 m 334.395 47.254 l 337.863 49.453 338.895 54.051 336.695 57.52
 c 335.965 58.676 l 333.762 62.148 329.164 63.176 325.695 60.977 c 258.098
 18.117 l 261.535 12.699 l 264.441 8.113 270.516 6.75 275.102 9.66 c h
275.102 9.66 m f
0.976471 0.811765 0.811765 rg
123.711 410.379 m 147.551 410.379 166.871 391.059 166.871 367.223 c 166.871
 341.891 l 168.969 341.891 l 172.672 341.891 175.676 338.891 175.676 335.188
 c 175.676 331.484 172.672 328.484 168.969 328.484 c 165.695 328.484 l 161.98
 312.512 149.445 299.926 133.461 296.23 c 133.461 290.301 l 129.855 291.523
 126.004 292.211 121.984 292.211 c 100.23 292.211 l 98.676 292.211 97.164
 292.055 95.676 291.816 c 95.676 305.477 l 86.426 313.391 80.559 325.145
 80.559 338.27 c 80.559 367.223 l 80.559 391.059 99.879 410.379 123.711 
410.379 c h
123.711 410.379 m f
0.976471 0.654902 0.654902 rg
12.652 288.453 m 61.25 288.453 l 66.801 288.453 71.301 283.953 71.301 278.398
 c 71.301 200.32 l 64.902 195.395 59.09 189.742 53.996 183.477 c 53.996 
271.145 l 12.652 271.145 l 7.875 271.145 4 275.02 4 279.801 c 4 284.578 
7.875 288.453 12.652 288.453 c h
12.652 288.453 m f
0.215686 0.384314 0.8 rg
53.996 179.477 m 53.547 179.477 53.094 179.551 52.656 179.707 c 51.059 
180.273 49.996 181.785 49.996 183.477 c 49.996 267.148 l 12.652 267.148 
l 5.676 267.148 0 272.824 0 279.801 c 0 286.781 5.676 292.457 12.652 292.457
 c 61.246 292.457 l 68.996 292.457 75.301 286.152 75.301 278.402 c 75.301
 200.32 l 75.301 199.082 74.723 197.91 73.742 197.152 c 67.574 192.402 61.973
 186.953 57.098 180.953 c 56.324 180 55.176 179.477 53.996 179.477 c h
12.652 284.457 m 10.09 284.457 8 282.367 8 279.801 c 8 277.234 10.09 275.148
 12.652 275.148 c 53.996 275.148 l 56.203 275.148 57.996 273.355 57.996 
271.148 c 57.996 193.906 l 60.93 196.859 64.039 199.656 67.301 202.27 c 
67.301 278.402 l 67.301 281.738 64.586 284.457 61.25 284.457 c h
71.301 200.32 m 71.32 200.32 l h
71.301 200.32 m f
151.09 341.539 m 153.289 341.539 155.07 343.32 155.07 345.52 c 155.07 352.156
 l 155.07 354.355 153.289 356.137 151.09 356.137 c 148.891 356.137 147.113
 354.355 147.113 352.156 c 147.113 345.523 l 147.113 343.32 148.891 341.539
 151.09 341.539 c h
151.09 341.539 m f
0.643137 0.788235 1 rg
286.531 73.801 m 313.988 78.477 l 316.414 78.891 318.883 77.98 320.527 
76.055 c 325.273 70.512 l 326.465 69.117 327.125 67.312 327.125 65.438 c
 327.125 62.77 325.785 60.293 323.602 58.922 c 280.902 32.145 l 278.488 
30.633 275.629 30.109 272.871 30.66 c 269.531 31.336 266.652 33.531 265.012
 36.656 c 260.199 45.82 l 258.75 48.578 259.441 52.031 261.824 53.945 c 
h
286.531 73.801 m f
0.215686 0.384314 0.8 rg
275.035 26.445 m 274.051 26.445 273.062 26.547 272.078 26.742 c 267.543
 27.656 263.676 30.59 261.469 34.793 c 256.656 43.957 l 254.309 48.426 255.43
 53.938 259.32 57.062 c 284.023 76.918 l 284.559 77.344 285.188 77.629 285.859
 77.742 c 313.316 82.418 l 317.168 83.07 320.992 81.664 323.566 78.656 c
 328.312 73.109 l 330.125 70.992 331.125 68.266 331.125 65.438 c 331.125
 61.418 329.055 57.621 325.727 55.531 c 283.02 28.758 l 280.594 27.238 277.832
 26.445 275.035 26.445 c h
288.227 70.031 m 264.328 50.828 l 263.445 50.117 263.184 48.734 263.738
 47.676 c 268.551 38.512 l 269.633 36.449 271.496 35.016 273.66 34.582 c
 275.418 34.227 277.23 34.566 278.773 35.531 c 321.477 62.312 l 322.492 
62.949 323.125 64.145 323.125 65.438 c 323.125 66.359 322.809 67.238 322.234
 67.906 c 317.488 73.457 l 316.758 74.309 315.699 74.707 314.652 74.535 
c h
288.227 70.031 m f
0.27451 0.443137 0.776471 rg
205.781 181.242 m 214.543 181.242 223.137 178.613 230.637 173.637 c 237.574
 169.035 243.34 162.582 247.391 154.879 c 247.391 154.875 l 291.234 77.973
 l 292.109 76.434 291.777 74.422 290.473 73.316 c 262.652 49.855 l 261.184
 48.621 259.074 49 258.043 50.68 c 221.324 110.508 l 217.352 116.539 l 215.543
 119.285 212.652 120.91 209.566 120.91 c 98.871 120.91 l 83.641 120.91 71.301
 134.457 71.301 151.168 c 71.301 181.242 l h
205.781 181.242 m f
0.215686 0.384314 0.8 rg
260.695 45.133 m 260.328 45.133 259.961 45.16 259.594 45.219 c 257.555 
45.551 255.746 46.777 254.633 48.59 c 217.914 108.418 l 214.016 114.344 
l 212.957 115.953 211.293 116.91 209.566 116.91 c 98.871 116.91 l 81.465
 116.91 67.301 132.281 67.301 151.172 c 67.301 181.246 l 67.301 183.453 
69.094 185.246 71.301 185.246 c 205.781 185.246 l 215.328 185.246 224.688
 182.383 232.848 176.973 c 240.324 172.012 246.578 165.016 250.926 156.738
 c 294.711 79.957 l 296.531 76.758 295.816 72.594 293.051 70.262 c 265.23
 46.801 l 263.941 45.715 262.332 45.133 260.695 45.133 c h
75.301 177.242 m 75.301 151.168 l 75.301 136.688 85.871 124.91 98.871 124.91
 c 209.566 124.91 l 213.992 124.91 218.148 122.602 220.691 118.738 c 224.664
 112.707 l 260.922 53.633 l 287.656 76.172 l 243.914 152.895 l 240.117 160.102
 234.785 166.082 228.422 170.305 c 221.582 174.844 213.754 177.242 205.781
 177.242 c h
287.758 75.996 m 287.777 75.996 l h
287.758 75.996 m f
1 0.917647 0.572549 rg
231.68 111.152 m 231.68 53.777 185.164 7.266 127.789 7.266 c 70.414 7.266
 23.902 53.777 23.902 111.152 c 23.902 168.527 70.414 215.043 127.789 215.043
 c 185.164 215.043 231.68 168.527 231.68 111.152 c h
231.68 111.152 m f
0.215686 0.384314 0.8 rg
127.789 3.266 m 68.301 3.266 19.902 51.664 19.902 111.152 c 19.902 170.641
 68.301 219.039 127.789 219.039 c 187.277 219.039 235.68 170.641 235.68 
111.152 c 235.68 51.664 187.277 3.266 127.789 3.266 c h
127.789 211.043 m 72.715 211.043 27.902 166.23 27.902 111.156 c 27.902 
56.078 72.711 11.266 127.789 11.266 c 182.867 11.266 227.68 56.078 227.68
 111.156 c 227.68 166.23 182.867 211.043 127.789 211.043 c h
127.789 211.043 m f
0.643137 0.788235 1 rg
208.348 111.152 m 208.348 66.664 172.281 30.598 127.789 30.598 c 83.301
 30.598 47.238 66.664 47.238 111.152 c 47.238 155.645 83.301 191.711 127.789
 191.711 c 172.281 191.711 208.348 155.645 208.348 111.152 c h
208.348 111.152 m f
0.976471 0.811765 0.811765 rg
132.277 340.637 m 132.277 332.195 125.438 325.359 117 325.359 c 108.562
 325.359 101.723 332.195 101.723 340.637 c 101.723 349.074 108.562 355.914
 117 355.914 c 125.438 355.914 132.277 349.074 132.277 340.637 c h
132.277 340.637 m f
0.215686 0.384314 0.8 rg
133.461 286.305 m 133.031 286.305 132.598 286.371 132.18 286.516 c 128.844
 287.641 125.414 288.215 121.984 288.215 c 100.23 288.215 l 99.047 288.215
 97.766 288.102 96.301 287.867 c 95.145 287.688 93.969 288.02 93.078 288.777
 c 92.188 289.539 91.676 290.648 91.676 291.816 c 91.676 303.688 l 82.047
 312.609 76.559 325.109 76.559 338.273 c 76.559 367.219 l 76.559 393.227
 97.715 414.379 123.715 414.379 c 149.715 414.379 170.871 393.227 170.871
 367.219 c 170.871 345.719 l 175.871 344.82 179.676 340.441 179.676 335.188
 c 179.676 329.285 174.871 324.484 168.969 324.484 c 168.758 324.484 l 164.188
 309.574 152.332 297.715 137.461 293.168 c 137.461 290.301 l 137.461 289.012
 136.84 287.801 135.793 287.051 c 135.105 286.559 134.285 286.305 133.461
 286.305 c h
100.23 296.211 m 121.984 296.211 l 124.488 296.211 126.988 295.969 129.461
 295.488 c 129.461 296.234 l 129.461 298.098 130.746 299.711 132.559 300.129
 c 146.965 303.457 158.441 314.945 161.797 329.391 c 162.219 331.203 163.836
 332.484 165.695 332.484 c 168.969 332.484 l 170.461 332.484 171.676 333.699
 171.676 335.191 c 171.676 336.684 170.461 337.895 168.969 337.895 c 166.871
 337.895 l 164.664 337.895 162.871 339.688 162.871 341.895 c 162.871 367.219
 l 162.871 388.812 145.305 406.379 123.711 406.379 c 102.121 406.379 84.555
 388.812 84.555 367.219 c 84.555 338.27 l 84.555 326.824 89.555 315.98 98.277
 308.516 c 99.164 307.758 99.676 306.645 99.676 305.477 c 99.676 296.199
 l 99.863 296.207 100.047 296.211 100.23 296.211 c h
100.23 296.211 m f
0.27451 0.443137 0.776471 rg
72.82 396.875 m 72.82 396.867 l 80.523 408.633 94.277 416.473 109.977 416.473
 c 113.316 416.473 116.02 413.91 116.02 410.75 c 116.02 409.551 l 116.02
 410.965 116.453 412.277 117.191 413.371 c 117.191 413.375 l 117.191 413.375
 117.398 413.797 118.016 414.371 c 118.828 415.195 119.84 415.82 120.98 
416.168 c 122.582 416.805 124.812 417.336 127.895 417.465 c 127.895 417.469
 l 127.914 417.469 l 131.109 417.602 135.215 417.301 140.488 416.234 c 144.32
 415.816 147.98 414.84 151.383 413.387 c 151.395 413.383 151.406 413.379
 151.422 413.375 c 151.418 413.371 l 153.352 412.543 155.199 411.559 156.949
 410.441 c 157.711 409.973 158.094 409.684 158.094 409.68 c 167.926 402.898
 174.359 391.684 174.359 378.977 c 174.359 365.23 l 174.359 364.594 173.832
 364.078 173.184 364.078 c 116.02 364.078 l 116.02 323.051 l 109.129 308.98
 l 108.934 308.582 108.523 308.328 108.07 308.328 c 90.164 308.328 l 88.352
 308.328 86.574 308.586 84.875 309.074 c 84.824 309.098 83.004 309.863 82.273
 311.043 c 80.531 313.824 76.438 320.387 72.711 326.379 c 67.18 335.27 64.039
 345.43 63.789 355.852 c 63.113 384.402 72.82 396.875 72.82 396.875 c h
72.82 396.875 m f
0.215686 0.384314 0.8 rg
108.07 304.328 m 90.164 304.328 l 88.004 304.328 85.852 304.629 83.77 305.23
 c 83.633 305.27 83.5 305.316 83.367 305.367 c 82.859 305.574 80.258 306.719
 78.883 308.914 c 77.141 311.707 73.043 318.27 69.312 324.27 c 63.344 333.859
 60.051 344.75 59.789 355.754 c 59.109 384.387 68.555 397.852 69.586 399.227
 c 78.379 412.535 93.461 420.473 109.973 420.473 c 112.402 420.473 114.633
 419.633 116.367 418.242 c 117.324 418.961 118.445 419.551 119.637 419.938
 c 121.895 420.816 124.613 421.332 127.719 421.461 c 127.785 421.465 127.848
 421.465 127.918 421.465 c 131.598 421.629 136.086 421.191 141.102 420.188
 c 145.184 419.723 149.152 418.68 152.906 417.082 c 152.941 417.062 152.977
 417.047 153.016 417.035 c 155.102 416.137 157.145 415.055 159.098 413.812
 c 159.617 413.496 160.055 413.203 160.391 412.949 c 171.641 405.176 178.355
 392.48 178.355 378.977 c 178.355 365.23 l 178.355 362.391 176.031 360.082
 173.18 360.082 c 120.02 360.082 l 120.02 323.051 l 120.02 322.441 119.879
 321.836 119.609 321.289 c 112.719 307.219 l 111.859 305.465 110.031 304.328
 108.07 304.328 c h
86.258 312.844 m 87.535 312.5 88.848 312.328 90.164 312.328 c 106.312 312.328
 l 112.02 323.977 l 112.02 364.078 l 112.02 366.285 113.812 368.078 116.016
 368.078 c 170.352 368.078 l 170.352 378.977 l 170.352 389.863 164.918 400.109
 155.816 406.387 c 155.762 406.426 155.711 406.461 155.656 406.504 c 155.574
 406.562 155.305 406.754 154.859 407.027 c 153.199 408.082 151.531 408.965
 149.836 409.691 c 149.828 409.699 149.816 409.703 149.805 409.707 c 146.711
 411.031 143.426 411.891 140.043 412.258 c 139.926 412.273 139.805 412.289
 139.688 412.312 c 135.227 413.215 131.316 413.609 128.074 413.469 c 128
 413.469 127.926 413.469 127.855 413.465 c 125.801 413.371 123.879 413.02
 122.461 412.453 c 122.355 412.41 122.25 412.371 122.141 412.34 c 121.66
 412.191 121.215 411.922 120.859 411.559 c 120.801 411.508 120.758 411.461
 120.723 411.43 c 120.68 411.293 120.688 411.41 120.504 411.137 c 120.184
 410.664 120.016 410.113 120.016 409.551 c 120.016 407.344 118.223 405.551
 116.016 405.551 c 113.812 405.551 112.02 407.344 112.02 409.551 c 112.02
 410.754 l 112.02 411.703 111.102 412.473 109.973 412.473 c 96.098 412.473
 83.457 405.82 76.168 394.68 c 76.094 394.566 76.016 394.461 75.934 394.355
 c 75.152 393.254 67.184 381.273 67.789 355.949 c 68.016 346.371 70.891 
336.875 76.105 328.488 c 79.832 322.5 83.922 315.945 85.66 313.16 c 85.688
 313.16 85.98 312.98 86.258 312.844 c h
86.258 312.844 m f
0.976471 0.811765 0.811765 rg
132.277 340.637 m 132.277 332.195 125.438 325.359 117 325.359 c 108.562
 325.359 101.723 332.195 101.723 340.637 c 101.723 349.074 108.562 355.914
 117 355.914 c 125.438 355.914 132.277 349.074 132.277 340.637 c h
132.277 340.637 m f
0.215686 0.384314 0.8 rg
269.863 4.125 m 268.852 4.125 267.828 4.238 266.816 4.465 c 263.207 5.27
 260.133 7.434 258.156 10.559 c 254.723 15.977 l 254.152 16.871 253.965 
17.953 254.195 18.992 c 254.426 20.027 255.062 20.93 255.957 21.496 c 323.555
 64.352 l 326.137 65.984 329.199 66.516 332.18 65.852 c 335.16 65.184 337.703
 63.398 339.34 60.82 c 340.074 59.66 l 343.449 54.336 341.863 47.254 336.539
 43.875 c 277.246 6.277 l 275 4.859 272.457 4.125 269.863 4.125 c h
275.102 9.66 m 275.121 9.66 l h
263.617 16.883 m 264.914 14.84 l 265.746 13.523 267.043 12.609 268.562 
12.27 c 270.086 11.93 271.645 12.203 272.957 13.035 c 332.254 50.633 l 333.855
 51.648 334.332 53.773 333.316 55.379 c 332.582 56.535 l 332.09 57.312 331.328
 57.848 330.43 58.051 c 329.531 58.25 328.613 58.09 327.836 57.598 c h
263.617 16.883 m f
127.789 26.602 m 81.172 26.602 43.238 64.527 43.238 111.152 c 43.238 157.777
 81.168 195.707 127.789 195.707 c 174.418 195.707 212.348 157.777 212.348
 111.152 c 212.348 64.527 174.418 26.602 127.789 26.602 c h
127.789 187.711 m 85.578 187.711 51.234 153.367 51.234 111.156 c 51.234
 68.941 85.578 34.598 127.789 34.598 c 170.004 34.598 204.348 68.941 204.348
 111.156 c 204.348 153.367 170.004 187.711 127.789 187.711 c h
127.789 187.711 m f
0.878431 0.921569 0.988235 rg
127.789 68.215 m 104.113 68.215 84.852 87.48 84.852 111.152 c 84.852 134.828
 104.113 154.094 127.789 154.094 c 151.465 154.094 170.73 134.828 170.73
 111.152 c 170.73 87.48 151.465 68.215 127.789 68.215 c h
127.789 68.215 m f
258.098 18.117 m 271.809 26.812 l 229.949 92.352 l 228.633 85.164 226.59
 78.23 223.879 71.641 c 260.477 14.34 l 260.492 14.348 l h
258.098 18.117 m f
0.215686 0.384314 0.8 rg
260.477 10.34 m 260.223 10.34 259.965 10.367 259.711 10.414 c 258.641 10.625
 257.691 11.262 257.105 12.184 c 220.508 69.484 l 219.809 70.582 219.684
 71.953 220.18 73.16 c 222.801 79.52 224.762 86.219 226.016 93.07 c 226.312
 94.688 227.566 95.961 229.184 96.277 c 230.789 96.594 232.438 95.895 233.324
 94.504 c 275.18 28.965 l 275.754 28.07 275.945 26.98 275.715 25.941 c 275.484
 24.902 274.852 24 273.953 23.43 c 263.621 16.883 l 263.871 16.492 l 265.016
 14.691 264.543 12.309 262.801 11.082 c 262.117 10.594 261.301 10.34 260.477
 10.34 c h
228.355 72.059 m 259.293 23.609 l 266.273 28.035 l 231.707 82.16 l 230.754
 78.734 229.633 75.355 228.355 72.059 c h
228.355 72.059 m f
0.878431 0.921569 0.988235 rg
111.07 298.168 m 107.914 298.824 104.699 299.152 101.477 299.152 c 87.094
 299.152 l 84.938 299.152 83.012 297.805 82.277 295.781 c 77.949 283.91 
l 80.195 281.445 l 82.152 279.293 84.926 278.066 87.836 278.066 c 140.004
 278.066 l 141.984 278.066 143.789 279.207 144.637 280.996 c 148.09 288.273
 l 148.578 289.309 147.973 290.527 146.852 290.758 c h
111.07 298.168 m f
0.215686 0.384314 0.8 rg
140 274.066 m 87.836 274.066 l 83.809 274.066 79.949 275.773 77.238 278.75
 c 74.992 281.215 l 73.988 282.312 73.684 283.879 74.191 285.277 c 78.52
 297.148 l 79.828 300.738 83.273 303.152 87.094 303.152 c 101.477 303.152
 l 104.965 303.152 108.465 302.793 111.883 302.082 c 147.664 294.672 l 149.398
 294.316 150.855 293.195 151.648 291.602 c 152.441 290.004 152.461 288.168
 151.699 286.559 c 148.25 279.285 l 146.75 276.117 143.512 274.066 140 274.066
 c h
82.535 284.812 m 83.148 284.137 l 84.348 282.82 86.055 282.066 87.836 282.066
 c 140 282.066 l 140.434 282.066 140.836 282.32 141.02 282.711 c 143.254
 287.418 l 110.258 294.254 l 107.375 294.855 104.422 295.152 101.477 295.152
 c 87.094 295.152 l 86.621 295.152 86.195 294.859 86.031 294.414 c h
146.039 286.84 m 146.043 286.84 l h
146.039 286.84 m f
0.878431 0.921569 0.988235 rg
219.703 163.141 m 229.043 186.898 l 229.668 188.492 229.02 190.305 227.527
 191.137 c 164.758 226.152 l 160.496 228.531 156.586 231.477 153.133 234.918
 c 116.305 271.637 l 107.199 280.715 94.621 278.957 88.359 267.723 c 82.098
 256.496 84.418 239.879 93.527 230.801 c 126.566 197.859 l 126.93 197.496
 127.355 197.246 127.809 197.086 c 129.008 196.34 l 133.379 193.621 138 
191.309 142.801 189.438 c 215.277 161.207 l 217.035 160.527 219.012 161.391
 219.703 163.141 c h
219.703 163.141 m f
0.215686 0.384314 0.8 rg
216.508 156.977 m 215.613 156.977 214.707 157.141 213.828 157.484 c 141.348
 185.715 l 136.328 187.668 131.465 190.102 126.891 192.949 c 125.992 193.512
 l 125.141 193.879 124.387 194.387 123.742 195.031 c 90.699 227.973 l 80.391
 238.25 77.773 256.961 84.863 269.676 c 88.52 276.227 94.148 280.34 100.715
 281.262 c 107.281 282.184 113.82 279.77 119.129 274.469 c 155.957 237.754
 l 159.152 234.57 162.766 231.84 166.707 229.641 c 229.477 194.633 l 232.703
 192.828 234.117 188.875 232.766 185.434 c 223.426 161.68 l 222.277 158.762
 219.469 156.977 216.508 156.977 c h
129.273 200.809 m 129.5 200.723 129.715 200.613 129.922 200.484 c 131.117
 199.738 l 135.273 197.152 139.691 194.945 144.25 193.168 c 216.191 165.145
 l 225.133 187.895 l 162.809 222.66 l 158.227 225.219 154.02 228.391 150.309
 232.09 c 113.484 268.805 l 109.988 272.289 105.852 273.906 101.824 273.336
 c 97.797 272.777 94.254 270.09 91.852 265.777 c 86.473 256.148 88.535 241.422
 96.352 233.633 c h
129.273 200.809 m f
0.976471 0.811765 0.811765 rg
259.176 182.383 m 253.766 184.676 l 253.039 184.984 252.273 185.176 251.488
 185.25 c 229.543 187.32 l 229.215 187.496 l 229.176 187.297 229.121 187.098
 229.043 186.902 c 219.703 163.141 l 219.648 163 219.574 162.879 219.504
 162.75 c 220.406 162.395 l 239.203 153.867 l 240.273 153.383 241.426 153.105
 242.602 153.055 c 251.852 152.645 l 255.461 152.484 258.695 154.859 259.625
 158.352 c 263.613 173.324 l 264.598 177.027 262.703 180.891 259.176 182.383
 c h
259.176 182.383 m f
0.215686 0.384314 0.8 rg
252.18 148.637 m 252.012 148.637 251.844 148.641 251.676 148.648 c 242.422
 149.059 l 240.738 149.129 239.098 149.52 237.551 150.223 c 218.02 159.039
 l 216.957 159.461 216.125 160.32 215.738 161.395 c 215.348 162.473 215.441
 163.66 215.988 164.664 c 216.023 164.723 216.02 164.715 216 164.668 c 225.316
 188.367 l 225.562 189.613 226.367 190.621 227.516 191.16 c 228.508 191.629
 229.633 191.629 230.645 191.234 c 251.859 189.234 l 253.051 189.121 254.215
 188.828 255.32 188.359 c 260.734 186.066 l 266.066 183.809 268.961 177.883
 267.473 172.289 c 263.484 157.32 l 262.129 152.219 257.422 148.637 252.18
 148.637 c h
224.668 164.84 m 240.852 157.508 l 241.461 157.23 242.109 157.078 242.773
 157.051 c 252.027 156.641 l 253.77 156.613 255.309 157.688 255.758 159.379
 c 259.746 174.348 l 260.215 176.117 259.301 177.984 257.617 178.703 c 252.203
 180.992 l 251.855 181.141 251.484 181.234 251.109 181.273 c 231.84 183.086
 l h
215.988 164.629 m 215.984 164.617 215.98 164.602 215.977 164.59 c h
215.988 164.629 m f
Q Q
showpage
%%Trailer
end restore
%%EOF
