%!PS-Adobe-3.0 EPSF-3.0
%%Creator: cairo 1.14.8 (http://cairographics.org)
%%CreationDate: Wed Mar 20 09:06:38 2019
%%Pages: 1
%%DocumentData: Clean7Bit
%%LanguageLevel: 2
%%BoundingBox: 44 0 439 482
%%EndComments
%%BeginProlog
save
50 dict begin
/q { gsave } bind def
/Q { grestore } bind def
/cm { 6 array astore concat } bind def
/w { setlinewidth } bind def
/J { setlinecap } bind def
/j { setlinejoin } bind def
/M { setmiterlimit } bind def
/d { setdash } bind def
/m { moveto } bind def
/l { lineto } bind def
/c { curveto } bind def
/h { closepath } bind def
/re { exch dup neg 3 1 roll 5 3 roll moveto 0 rlineto
      0 exch rlineto 0 rlineto closepath } bind def
/S { stroke } bind def
/f { fill } bind def
/f* { eofill } bind def
/n { newpath } bind def
/W { clip } bind def
/W* { eoclip } bind def
/BT { } bind def
/ET { } bind def
/pdfmark where { pop globaldict /?pdfmark /exec load put }
    { globaldict begin /?pdfmark /pop load def /pdfmark
    /cleartomark load def end } ifelse
/BDC { mark 3 1 roll /BDC pdfmark } bind def
/EMC { mark /EMC pdfmark } bind def
/cairo_store_point { /cairo_point_y exch def /cairo_point_x exch def } def
/Tj { show currentpoint cairo_store_point } bind def
/TJ {
  {
    dup
    type /stringtype eq
    { show } { -0.001 mul 0 cairo_font_matrix dtransform rmoveto } ifelse
  } forall
  currentpoint cairo_store_point
} bind def
/cairo_selectfont { cairo_font_matrix aload pop pop pop 0 0 6 array astore
    cairo_font exch selectfont cairo_point_x cairo_point_y moveto } bind def
/Tf { pop /cairo_font exch def /cairo_font_matrix where
      { pop cairo_selectfont } if } bind def
/Td { matrix translate cairo_font_matrix matrix concatmatrix dup
      /cairo_font_matrix exch def dup 4 get exch 5 get cairo_store_point
      /cairo_font where { pop cairo_selectfont } if } bind def
/Tm { 2 copy 8 2 roll 6 array astore /cairo_font_matrix exch def
      cairo_store_point /cairo_font where { pop cairo_selectfont } if } bind def
/g { setgray } bind def
/rg { setrgbcolor } bind def
/d1 { setcachedevice } bind def
%%EndProlog
%%BeginSetup
%%EndSetup
%%Page: 1 1
%%BeginPageSetup
%%PageBoundingBox: 44 0 439 482
%%EndPageSetup
q 44 0 395 482 rectclip q
0.976471 0.811765 0.811765 rg
393.934 108.328 m 297.246 140.359 l 278.832 148.922 l 271.492 152.336 266.773
 160.16 266.867 168.77 c 269.559 419.039 l 269.559 478 l 75.184 478 l 75.184
 419.039 l 75.445 419.039 l 74.75 161.438 l 74.738 156.852 74.586 152.27
 74.297 147.695 c 69.941 78.789 l 69.355 69.52 71.25 60.266 75.406 52.125
 c 83.324 36.609 98.457 26.969 114.891 26.969 c 383.066 26.969 l 402.145
 26.969 417.613 42.434 417.613 61.516 c 417.613 75.535 l 417.613 90.426 
408.074 103.645 393.934 108.328 c h
393.934 108.328 m f
0.215686 0.384314 0.8 rg
383.066 22.973 m 114.895 22.973 l 96.945 22.973 80.453 33.441 71.852 50.305
 c 67.359 59.102 65.324 69.039 65.957 79.039 c 70.312 147.949 l 70.594 152.406
 70.746 156.949 70.758 161.449 c 71.449 417.617 l 71.281 418.059 71.188 
418.539 71.188 419.039 c 71.188 478.004 l 71.188 480.211 72.98 482 75.184
 482 c 269.562 482 l 271.77 482 273.559 480.211 273.559 478.004 c 273.559
 419.039 l 270.863 168.73 l 270.789 161.664 274.578 155.312 280.516 152.543
 c 298.727 144.082 l 395.188 112.121 l 410.996 106.883 421.613 92.184 421.613
 75.535 c 421.613 61.516 l 421.613 40.262 404.324 22.973 383.066 22.973 
c h
79.18 420.469 m 79.352 420.012 79.445 419.527 79.445 419.031 c 78.75 161.426
 l 78.734 156.766 78.578 152.066 78.289 147.445 c 73.93 78.535 l 73.391 
69.961 75.133 61.457 78.969 53.938 c 86.199 39.766 99.965 30.965 114.891
 30.965 c 383.066 30.965 l 399.914 30.965 413.617 44.668 413.617 61.516 
c 413.617 75.539 l 413.617 88.734 405.199 100.387 392.676 104.539 c 295.988
 136.57 l 295.84 136.617 295.703 136.676 295.562 136.742 c 277.145 145.305
 l 268.363 149.387 262.762 158.617 262.867 168.816 c 265.566 419.086 l 265.566
 474.008 l 79.18 474.008 l h
79.18 420.469 m f
0.878431 0.921569 0.988235 rg
417.613 64.594 m 163.613 64.594 l 154.191 64.594 146.551 72.82 146.551 
82.969 c 146.551 409.852 l 146.551 414.926 142.438 419.039 137.359 419.039
 c 63.281 419.039 l 58.211 419.039 54.102 414.941 54.09 409.875 c 53.426
 161.504 l 53.414 157.449 53.277 153.328 53.02 149.258 c 48.664 80.348 l
 47.797 66.66 50.582 53.07 56.715 41.059 c 68.383 18.195 90.668 3.996 114.891
 3.996 c 417.613 3.996 l 426.82 3.996 434.289 11.461 434.289 20.668 c 434.289
 47.914 l 434.293 57.125 426.824 64.594 417.613 64.594 c h
417.613 64.594 m f
0.215686 0.384314 0.8 rg
417.617 0 m 114.895 0 l 89.168 0 65.512 15.035 53.16 39.242 c 46.703 51.891
 43.77 66.191 44.676 80.598 c 49.035 149.512 l 49.289 153.543 49.422 157.582
 49.43 161.512 c 50.098 409.887 l 50.117 417.137 56.031 423.035 63.281 423.035
 c 137.359 423.035 l 144.633 423.035 150.547 417.121 150.547 409.852 c 150.547
 82.965 l 150.547 75.039 156.414 68.59 163.617 68.59 c 417.617 68.59 l 429.012
 68.59 438.285 59.316 438.285 47.914 c 438.285 20.668 l 438.285 9.273 429.012
 0 417.617 0 c h
63.281 415.043 m 60.422 415.043 58.094 412.723 58.086 409.863 c 57.418 
161.492 l 57.406 157.402 57.27 153.203 57.008 149.008 c 52.652 80.094 l 
51.832 67.117 54.465 54.25 60.273 42.871 c 71.254 21.355 92.184 7.992 114.891
 7.992 c 417.613 7.992 l 424.605 7.992 430.293 13.68 430.293 20.672 c 430.293
 47.918 l 430.293 54.91 424.605 60.598 417.613 60.598 c 163.613 60.598 l
 152.004 60.598 142.559 70.633 142.559 82.969 c 142.559 409.852 l 142.559
 412.715 140.223 415.043 137.359 415.043 c h
63.281 415.043 m f
0.878431 0.921569 0.988235 rg
274.145 223.004 m 83.707 223.004 l 79 223.004 75.184 226.82 75.184 231.527
 c 75.184 283.398 l 75.184 288.102 79 291.918 83.707 291.918 c 274.148 291.918
 l 278.855 291.918 282.668 288.102 282.668 283.398 c 282.668 231.527 l 282.668
 226.82 278.855 223.004 274.145 223.004 c h
274.145 223.004 m f
338.766 147.961 m 330.281 147.961 l 325.891 147.961 322.336 143.848 322.336
 138.773 c 322.336 29.539 l 322.336 24.465 325.891 20.348 330.281 20.348
 c 381.93 20.348 l 386.316 20.348 389.875 24.465 389.875 29.539 c 389.875
 119.922 l 389.875 123.746 387.832 127.172 384.738 128.52 c 341.574 147.367
 l 340.676 147.762 339.723 147.961 338.766 147.961 c h
338.766 147.961 m f
280.527 178.633 m 281.973 169.84 l 282.426 167.078 283.805 164.555 285.887
 162.68 c 290.895 158.18 291.355 150.488 286.914 145.426 c 188.859 33.5 
l 179.473 22.789 163.551 20.789 151.805 28.852 c 115.617 53.691 l 99.398
 64.828 99.34 88.75 115.5 99.965 c 236.801 184.141 l 241.312 187.27 246.668
 188.945 252.152 188.945 c 268.387 188.945 l 274.414 188.945 279.555 184.578
 280.527 178.633 c h
280.527 178.633 m f
274.145 330.977 m 83.707 330.977 l 79 330.977 75.184 334.789 75.184 339.496
 c 75.184 391.371 l 75.184 396.078 79 399.895 83.707 399.895 c 274.148 399.895
 l 278.855 399.895 282.668 396.078 282.668 391.371 c 282.668 339.5 l 282.668
 334.793 278.855 330.977 274.145 330.977 c h
274.145 330.977 m f
0.215686 0.384314 0.8 rg
274.148 219.008 m 83.707 219.008 l 76.809 219.008 71.188 224.625 71.188
 231.527 c 71.188 283.402 l 71.188 290.305 76.809 295.918 83.707 295.918
 c 274.148 295.918 l 281.051 295.918 286.664 290.305 286.664 283.402 c 286.664
 231.527 l 286.66 224.625 281.051 219.008 274.148 219.008 c h
83.707 287.93 m 81.211 287.93 79.18 285.895 79.18 283.398 c 79.18 231.527
 l 79.18 229.027 81.211 226.996 83.707 226.996 c 274.148 226.996 l 276.641
 226.996 278.676 229.027 278.676 231.527 c 278.676 283.398 l 278.676 285.895
 276.641 287.93 274.148 287.93 c h
83.707 287.93 m f
381.93 16.352 m 330.281 16.352 l 323.699 16.352 318.344 22.27 318.344 29.539
 c 318.344 138.773 l 318.344 146.039 323.699 151.957 330.281 151.957 c 338.766
 151.957 l 340.277 151.957 341.762 151.648 343.164 151.035 c 386.336 132.184
 l 390.914 130.184 393.867 125.375 393.867 119.922 c 393.867 29.539 l 393.871
 22.27 388.516 16.352 381.93 16.352 c h
330.281 143.965 m 328.141 143.965 326.332 141.59 326.332 138.773 c 326.332
 29.535 l 326.332 26.723 328.141 24.344 330.281 24.344 c 381.93 24.344 l
 384.07 24.344 385.879 26.719 385.879 29.535 c 385.879 119.922 l 385.879
 122.125 384.758 124.152 383.141 124.859 c 339.973 143.707 l 339.582 143.879
 339.176 143.965 338.77 143.965 c h
330.281 143.965 m f
167.695 19.922 m 161.406 19.922 155.07 21.766 149.547 25.559 c 113.359 
50.398 l 104.66 56.367 99.449 66.234 99.422 76.785 c 99.395 87.34 104.555
 97.23 113.223 103.246 c 234.527 187.426 l 239.727 191.035 245.824 192.941
 252.156 192.941 c 268.391 192.941 l 276.41 192.941 283.172 187.195 284.473
 179.277 c 285.91 170.488 l 286.215 168.629 287.156 166.91 288.559 165.652
 c 295.16 159.723 295.77 149.465 289.922 142.793 c 191.863 30.875 l 185.562
 23.676 176.672 19.922 167.695 19.922 c h
252.156 184.949 m 247.457 184.949 242.938 183.535 239.082 180.859 c 117.777
 96.68 l 111.168 92.094 107.391 84.852 107.41 76.805 c 107.434 68.766 111.25
 61.535 117.879 56.98 c 154.066 32.145 l 164.137 25.234 177.805 26.938 185.852
 36.137 c 283.91 148.055 l 286.891 151.457 286.578 156.68 283.215 159.703
 c 280.465 162.172 278.621 165.543 278.023 169.191 c 276.582 177.98 l 275.922
 182.012 272.477 184.945 268.387 184.945 c 252.156 184.945 l h
252.156 184.949 m f
274.148 326.98 m 83.707 326.98 l 76.809 326.98 71.188 332.598 71.188 339.5
 c 71.188 391.371 l 71.188 398.273 76.809 403.891 83.707 403.891 c 274.148
 403.891 l 281.051 403.891 286.664 398.273 286.664 391.371 c 286.664 339.496
 l 286.66 332.598 281.051 326.98 274.148 326.98 c h
83.707 395.898 m 81.211 395.898 79.18 393.871 79.18 391.371 c 79.18 339.496
 l 79.18 337 81.211 334.969 83.707 334.969 c 274.148 334.969 l 276.641 334.969
 278.676 337 278.676 339.496 c 278.676 391.371 l 278.676 393.871 276.641
 395.898 274.148 395.898 c h
83.707 395.898 m f
Q Q
showpage
%%Trailer
end restore
%%EOF
