%!PS-Adobe-3.0 EPSF-3.0
%%Creator: cairo 1.14.8 (http://cairographics.org)
%%CreationDate: Wed Mar 20 09:06:38 2019
%%Pages: 1
%%DocumentData: Clean7Bit
%%LanguageLevel: 2
%%BoundingBox: 0 0 489 489
%%EndComments
%%BeginProlog
save
50 dict begin
/q { gsave } bind def
/Q { grestore } bind def
/cm { 6 array astore concat } bind def
/w { setlinewidth } bind def
/J { setlinecap } bind def
/j { setlinejoin } bind def
/M { setmiterlimit } bind def
/d { setdash } bind def
/m { moveto } bind def
/l { lineto } bind def
/c { curveto } bind def
/h { closepath } bind def
/re { exch dup neg 3 1 roll 5 3 roll moveto 0 rlineto
      0 exch rlineto 0 rlineto closepath } bind def
/S { stroke } bind def
/f { fill } bind def
/f* { eofill } bind def
/n { newpath } bind def
/W { clip } bind def
/W* { eoclip } bind def
/BT { } bind def
/ET { } bind def
/pdfmark where { pop globaldict /?pdfmark /exec load put }
    { globaldict begin /?pdfmark /pop load def /pdfmark
    /cleartomark load def end } ifelse
/BDC { mark 3 1 roll /BDC pdfmark } bind def
/EMC { mark /EMC pdfmark } bind def
/cairo_store_point { /cairo_point_y exch def /cairo_point_x exch def } def
/Tj { show currentpoint cairo_store_point } bind def
/TJ {
  {
    dup
    type /stringtype eq
    { show } { -0.001 mul 0 cairo_font_matrix dtransform rmoveto } ifelse
  } forall
  currentpoint cairo_store_point
} bind def
/cairo_selectfont { cairo_font_matrix aload pop pop pop 0 0 6 array astore
    cairo_font exch selectfont cairo_point_x cairo_point_y moveto } bind def
/Tf { pop /cairo_font exch def /cairo_font_matrix where
      { pop cairo_selectfont } if } bind def
/Td { matrix translate cairo_font_matrix matrix concatmatrix dup
      /cairo_font_matrix exch def dup 4 get exch 5 get cairo_store_point
      /cairo_font where { pop cairo_selectfont } if } bind def
/Tm { 2 copy 8 2 roll 6 array astore /cairo_font_matrix exch def
      cairo_store_point /cairo_font where { pop cairo_selectfont } if } bind def
/g { setgray } bind def
/rg { setrgbcolor } bind def
/d1 { setcachedevice } bind def
%%EndProlog
%%BeginSetup
%%EndSetup
%%Page: 1 1
%%BeginPageSetup
%%PageBoundingBox: 0 0 489 489
%%EndPageSetup
q 0 0 489 489 rectclip q
0.976471 0.811765 0.811765 rg
308.715 191.293 m 295.137 193.309 l 202.672 230.484 l 201.477 230.965 200.586
 231.988 200.277 233.242 c 190.969 271.25 l 176.34 195.988 l 281.418 160.559
 l 294.57 145.047 l 324.043 136.812 l 336.668 174.371 l h
308.715 191.293 m f
0.215686 0.384314 0.8 rg
324.047 132.816 m 323.688 132.816 323.328 132.863 322.969 132.965 c 293.492
 141.199 l 292.727 141.414 292.039 141.852 291.523 142.461 c 279.09 157.129
 l 175.066 192.203 l 173.168 192.844 172.039 194.785 172.422 196.754 c 187.047
 272.012 l 187.406 273.855 189 275.199 190.875 275.242 c 192.758 275.355
 194.406 274.023 194.852 272.199 c 204.16 234.191 l 296.188 197.195 l 309.301
 195.25 l 309.824 195.172 310.332 194.992 310.785 194.715 c 338.742 177.789
 l 340.34 176.824 341.055 174.871 340.457 173.102 c 327.832 135.535 l 327.27
 133.879 325.723 132.816 324.047 132.816 c h
296.824 148.566 m 321.465 141.68 l 331.863 172.613 l 307.332 187.465 l 
294.551 189.355 l 294.238 189.402 293.934 189.484 293.645 189.602 c 201.176
 226.777 l 198.793 227.734 197.008 229.801 196.395 232.293 c 191.418 252.621
 l 180.93 198.656 l 282.695 164.34 l 283.383 164.113 283.992 163.699 284.465
 163.141 c h
296.824 148.566 m f
0.27451 0.443137 0.776471 rg
214.164 392.195 m 217.113 390.629 219.477 388.215 221.016 385.34 c 223.777
 397.113 l 212.355 399.449 l 208.91 384.777 l 212.559 383.922 l h
214.164 392.195 m f
0.215686 0.384314 0.8 rg
212.559 379.93 m 212.25 379.93 211.945 379.965 211.645 380.035 c 207.996
 380.891 l 206.961 381.133 206.07 381.777 205.512 382.676 c 204.957 383.578
 204.777 384.664 205.02 385.695 c 208.465 400.367 l 208.961 402.473 211.035
 403.812 213.152 403.367 c 224.582 401.027 l 225.637 400.812 226.562 400.18
 227.145 399.27 c 227.727 398.359 227.918 397.254 227.668 396.203 c 224.902
 384.43 l 224.523 382.812 223.184 381.598 221.535 381.383 c 219.883 381.176
 218.281 381.992 217.492 383.461 c 217.273 383.875 217.031 384.27 216.77
 384.652 c 216.477 383.164 l 216.27 382.098 215.641 381.16 214.727 380.574
 c 214.074 380.148 213.316 379.93 212.559 379.93 c h
218.633 394.082 m 218.727 394.02 218.82 393.949 218.914 393.875 c 218.949
 394.023 l h
218.633 394.082 m f
0.878431 0.921569 0.988235 rg
166.922 147.531 m 53.012 169.672 l 80.074 308.902 l 83.152 324.738 98.488
 335.082 114.324 332.004 c 170.883 321.008 l 186.719 317.93 197.062 302.598
 193.984 286.762 c h
166.922 147.531 m f
0.976471 0.811765 0.811765 rg
151.949 331.93 m 141.117 334.039 131.809 339.523 124.883 347.082 c 124.859
 347.102 124.836 347.117 124.812 347.137 c 121.031 327.691 l 120.438 324.648
 122.426 321.703 125.469 321.113 c 163.25 313.77 l 166.293 313.176 169.242
 315.164 169.828 318.207 c 172.57 332.297 l 165.996 330.77 159.004 330.562
 151.949 331.93 c h
151.949 331.93 m f
0.878431 0.921569 0.988235 rg
193.984 286.762 m 183.508 232.867 l 204.832 238.578 l 206.961 239.152 208.227
 241.34 207.656 243.473 c 195.004 290.688 l 194.867 291.211 194.676 291.711
 194.508 292.223 c 194.5 290.422 194.34 288.594 193.984 286.762 c h
193.984 286.762 m f
0.215686 0.384314 0.8 rg
183.508 228.875 m 182.512 228.875 181.535 229.25 180.785 229.949 c 179.777
 230.887 179.328 232.281 179.586 233.633 c 190.062 287.523 l 190.355 289.02
 190.504 290.609 190.512 292.242 c 190.523 294.199 191.953 295.863 193.887
 296.172 c 195.82 296.477 197.691 295.332 198.305 293.477 c 198.438 293.074
 l 198.59 292.629 198.742 292.184 198.867 291.723 c 211.516 244.508 l 212.656
 240.254 210.121 235.863 205.867 234.723 c 184.547 229.012 l 184.203 228.918
 183.855 228.875 183.508 228.875 c h
195.477 273.492 m 188.652 238.383 l 203.793 242.441 l h
195.477 273.492 m f
166.922 143.535 m 166.668 143.535 166.41 143.559 166.16 143.609 c 52.25
 165.75 l 50.082 166.168 48.672 168.266 49.09 170.438 c 76.156 309.668 l
 79.648 327.637 97.121 339.43 115.086 335.926 c 118.434 335.273 l 120.887
 347.898 l 121.164 349.32 122.184 350.48 123.559 350.93 c 124.875 351.363
 126.312 351.086 127.371 350.203 c 127.531 350.078 127.695 349.922 127.828
 349.777 c 134.453 342.547 143.055 337.73 152.711 335.852 c 159.031 334.625
 165.41 334.734 171.668 336.188 c 172.988 336.5 174.367 336.109 175.344 
335.172 c 176.316 334.227 176.746 332.863 176.488 331.531 c 175.043 324.09
 l 191.074 319.184 201.176 302.816 197.906 286 c 170.844 146.77 l 170.637
 145.727 170.031 144.812 169.156 144.219 c 168.492 143.77 167.711 143.535
 166.922 143.535 c h
57.699 172.832 m 163.762 152.215 l 190.062 287.523 l 192.719 301.172 183.77
 314.434 170.121 317.09 c 169.629 317.188 l 167.465 317.605 166.055 319.703
 166.469 321.867 c 167.543 327.375 l 162.109 326.742 156.629 326.953 151.188
 328.008 c 142.316 329.734 134.191 333.578 127.344 339.238 c 125.52 329.828
 l 125.316 328.785 124.711 327.871 123.828 327.281 c 122.949 326.688 121.871
 326.461 120.832 326.672 c 113.562 328.082 l 99.914 330.727 86.652 321.789
 84.004 308.141 c h
124.812 347.137 m 124.832 347.137 l h
124.812 347.137 m f
0.976471 0.811765 0.811765 rg
407.27 154.73 m 406.766 129.613 385.41 108.844 359.555 108.344 c 332.086
 107.809 l 332.043 105.598 l 331.965 101.695 328.648 98.473 324.633 98.391
 c 320.617 98.312 317.426 101.41 317.504 105.312 c 317.574 108.766 l 300.328
 112.344 286.945 125.285 283.277 142.055 c 276.84 141.93 l 278.242 145.754
 279.07 149.828 279.156 154.062 c 279.613 176.988 l 279.645 178.625 279.508
 180.219 279.289 181.781 c 294.102 182.066 l 302.879 191.98 315.75 198.414
 329.984 198.691 c 361.379 199.305 l 387.227 199.805 407.773 179.852 407.27
 154.73 c h
407.27 154.73 m f
0.215686 0.384314 0.8 rg
332.039 124.43 m 331.992 122.113 333.887 120.273 336.27 120.32 c 343.465
 120.461 l 345.848 120.508 347.82 122.422 347.867 124.738 c 347.91 127.055
 346.02 128.895 343.633 128.848 c 336.438 128.707 l 334.055 128.664 332.086
 126.75 332.039 124.43 c h
332.039 124.43 m f
0.976471 0.811765 0.811765 rg
346.688 167.938 m 342.695 175.781 332.777 178.738 324.543 174.539 c 316.305
 170.348 312.871 160.59 316.867 152.746 c 320.863 144.902 330.777 141.945
 339.016 146.141 c 347.246 150.34 350.684 160.098 346.688 167.938 c h
346.688 167.938 m f
0.215686 0.384314 0.8 rg
324.48 94.391 m 321.488 94.391 318.711 95.527 316.633 97.605 c 314.559 
99.68 313.449 102.445 313.508 105.391 c 313.512 105.637 l 297.43 110.117
 284.805 122.379 280.195 137.996 c 276.918 137.93 l 275.574 137.938 274.355
 138.535 273.586 139.605 c 272.82 140.68 272.637 142.062 273.086 143.301
 c 274.391 146.859 275.086 150.508 275.16 154.141 c 275.621 177.066 l 275.645
 178.32 275.551 179.68 275.328 181.211 c 275.164 182.344 275.496 183.496
 276.238 184.363 c 276.98 185.234 278.062 185.75 279.207 185.773 c 292.312
 186.031 l 302.098 196.363 315.699 202.41 329.902 202.688 c 361.301 203.297
 l 375.141 203.535 388.008 198.488 397.496 188.992 c 406.637 179.852 411.523
 167.648 411.266 154.652 c 410.723 127.461 387.559 104.891 359.633 104.348
 c 335.883 103.887 l 334.973 98.629 330.27 94.504 324.707 94.395 c 324.633
 94.395 324.555 94.391 324.48 94.391 c h
283.277 146.051 m 285.152 146.051 286.777 144.746 287.18 142.91 c 290.484
 127.789 302.734 115.926 318.383 112.68 c 320.266 112.289 321.605 110.613
 321.566 108.688 c 321.496 105.23 l 321.477 104.27 321.914 103.629 322.285
 103.258 c 322.859 102.68 323.648 102.355 324.551 102.387 c 326.41 102.422
 328.008 103.926 328.047 105.672 c 328.09 107.883 l 328.133 110.031 329.859
 111.758 332.004 111.801 c 359.473 112.336 l 383.164 112.797 402.812 131.852
 403.27 154.812 c 403.488 165.617 399.426 175.75 391.844 183.344 c 383.906
 191.281 373.121 195.5 361.453 195.305 c 330.059 194.691 l 317.484 194.449
 305.469 188.883 297.09 179.418 c 296.348 178.582 295.293 178.094 294.176
 178.07 c 283.609 177.863 l 283.613 177.539 283.613 177.223 283.609 176.906
 c 283.148 153.98 l 283.098 151.316 282.777 148.66 282.195 146.027 c 283.199
 146.051 l h
283.277 146.051 m f
0.27451 0.443137 0.776471 rg
393.699 208.082 m 393.691 208.082 l 406.289 200.215 414.5 185.883 414.168
 169.34 c 414.098 165.82 411.262 162.914 407.836 162.848 c 406.531 162.824
 l 408.066 162.852 409.477 162.422 410.652 161.668 c 410.652 161.668 411.109
 161.461 411.719 160.828 c 412.594 159.988 413.246 158.934 413.602 157.738
 c 414.262 156.066 414.793 153.727 414.867 150.484 c 414.871 150.484 l 414.871
 150.477 414.871 150.473 414.867 150.465 c 414.945 147.098 414.531 142.766
 413.262 137.191 c 412.73 133.141 411.59 129.262 409.945 125.641 c 409.938
 125.629 409.934 125.617 409.93 125.602 c 409.926 125.605 l 408.992 123.551
 407.883 121.582 406.633 119.715 c 406.109 118.898 405.789 118.492 405.789
 118.488 c 398.227 107.984 385.922 100.973 372.145 100.707 c 357.227 100.418
 l 356.547 100.402 356.004 100.949 356.016 101.629 c 357.219 161.867 l 324.914
 161.234 l 312.723 160.996 l 297.613 167.965 l 297.188 168.16 296.918 168.594
 296.926 169.062 c 297.027 174.016 l 297.062 175.781 l 297.305 187.93 l 
297.344 189.84 297.664 191.719 298.227 193.523 c 298.254 193.578 299.125
 195.508 300.418 196.309 c 303.473 198.199 310.672 202.656 317.25 206.711
 c 327.012 212.727 338.094 216.25 349.402 216.73 c 380.379 218.051 393.699
 208.082 393.699 208.082 c h
393.699 208.082 m f
0.215686 0.384314 0.8 rg
357.203 96.418 m 355.836 96.418 354.504 96.969 353.535 97.934 c 352.547
 98.926 351.992 100.305 352.023 101.707 c 353.141 157.789 l 312.797 157.004
 l 312.215 156.992 311.598 157.121 311.051 157.375 c 295.941 164.336 l 294.074
 165.195 292.887 167.082 292.934 169.145 c 293.309 188.012 l 293.355 190.273
 293.727 192.527 294.414 194.715 c 294.465 194.875 294.527 195.039 294.598
 195.191 c 295.023 196.121 296.234 198.422 298.309 199.707 c 301.367 201.598
 308.574 206.055 315.152 210.109 c 325.598 216.551 337.379 220.219 349.23
 220.727 c 380.25 222.047 394.582 212.367 396 211.352 c 410.23 202.371 418.512
 186.656 418.164 169.262 c 418.117 166.707 417.137 164.344 415.57 162.52
 c 416.348 161.512 416.98 160.324 417.383 159.047 c 418.285 156.699 418.781
 153.871 418.863 150.637 c 418.863 150.598 418.863 150.559 418.867 150.516
 c 418.953 146.48 418.395 141.758 417.203 136.48 c 416.613 132.184 415.402
 127.992 413.594 124.02 c 413.578 123.98 413.562 123.945 413.547 123.906
 c 412.547 121.711 411.336 119.555 409.957 117.492 c 409.746 117.164 409.371
 116.59 409.016 116.133 c 400.449 104.25 386.699 96.992 372.227 96.711 c
 357.305 96.418 l 357.27 96.418 357.234 96.418 357.203 96.418 c h
357.219 165.859 m 358.281 165.859 359.297 165.438 360.047 164.688 c 360.816
 163.922 361.238 162.871 361.215 161.785 c 360.066 104.465 l 372.07 104.699
 l 384.051 104.93 395.445 110.957 402.547 120.828 c 402.582 120.875 402.621
 120.922 402.66 120.969 c 402.723 121.051 402.941 121.352 403.27 121.867
 c 404.461 123.648 405.465 125.441 406.293 127.258 c 406.301 127.281 406.312
 127.301 406.32 127.324 c 407.828 130.637 408.832 134.133 409.309 137.707
 c 409.324 137.828 409.344 137.949 409.375 138.07 c 410.445 142.801 410.953
 146.938 410.875 150.367 c 410.875 150.41 410.875 150.457 410.875 150.504
 c 410.816 152.75 410.477 154.773 409.887 156.266 c 409.844 156.379 409.805
 156.488 409.77 156.605 c 409.621 157.105 409.344 157.562 408.957 157.934
 c 408.891 158 408.844 158.051 408.805 158.086 c 408.66 158.133 408.773 
158.125 408.496 158.305 c 407.949 158.656 407.293 158.875 406.613 158.824
 c 406.582 158.84 406.562 158.824 406.535 158.824 c 404.363 158.824 402.586
 160.562 402.543 162.742 c 402.5 164.949 404.25 166.773 406.457 166.816 
c 407.758 166.84 l 409.043 166.867 410.148 168.043 410.172 169.418 c 410.469
 184.047 403.516 197.234 391.578 204.688 c 391.457 204.762 391.348 204.84
 391.238 204.926 c 390.027 205.742 377.145 213.91 349.566 212.738 c 339.082
 212.289 328.633 209.027 319.348 203.305 c 312.773 199.254 305.574 194.797
 302.52 192.91 c 302.426 192.82 302.148 192.414 301.957 192.047 c 301.547
 190.672 301.328 189.258 301.301 187.848 c 300.961 170.82 l 313.566 165.004
 l 357.145 165.852 l 357.168 165.859 357.195 165.859 357.219 165.859 c h
299.277 171.602 m 299.293 171.594 l 299.285 171.594 299.281 171.598 299.277
 171.602 c h
299.277 171.602 m f
0.976471 0.811765 0.811765 rg
346.688 167.938 m 342.695 175.781 332.777 178.738 324.543 174.539 c 316.305
 170.348 312.871 160.59 316.867 152.746 c 320.863 144.902 330.777 141.945
 339.016 146.141 c 347.246 150.34 350.684 160.098 346.688 167.938 c h
346.688 167.938 m f
0.419608 0.866667 0.866667 rg
51.012 197.543 m 258.051 197.543 l 273.051 197.543 285.215 185.383 285.215
 170.383 c 285.215 166.09 l 285.215 142.148 265.809 122.742 241.863 122.742
 c 58.508 122.742 l 54.367 122.742 51.012 126.094 51.012 130.234 c h
51.012 197.543 m f
0.215686 0.384314 0.8 rg
241.863 114.801 m 58.508 114.801 l 52.172 114.801 47.016 119.957 47.016
 126.293 c 47.016 193.605 l 47.016 195.809 48.809 197.598 51.012 197.598
 c 258.051 197.598 l 275.23 197.598 289.211 183.625 289.211 166.441 c 289.211
 162.148 l 289.211 136.043 267.969 114.801 241.863 114.801 c h
55.008 189.609 m 55.008 126.293 l 55.008 124.363 56.578 122.793 58.508 
122.793 c 241.863 122.793 l 263.562 122.793 281.219 140.449 281.219 162.148
 c 281.219 166.441 l 281.219 179.215 270.824 189.609 258.051 189.609 c h
55.008 189.609 m f
0.419608 0.866667 0.866667 rg
282.992 118.801 m 216.355 118.801 l 201.211 118.801 188.934 131.078 188.934
 146.227 c 188.934 161.371 201.211 173.648 216.355 173.648 c 275.684 173.648
 l 279.719 173.648 282.992 170.375 282.992 166.336 c h
282.992 118.801 m f
0.215686 0.384314 0.8 rg
282.992 114.801 m 216.355 114.801 l 199.035 114.801 184.938 128.898 184.938
 146.227 c 184.938 163.551 199.035 177.641 216.355 177.641 c 275.684 177.641
 l 281.918 177.641 286.988 172.57 286.988 166.336 c 286.988 118.801 l 286.988
 116.594 285.203 114.801 282.992 114.801 c h
216.355 169.652 m 203.438 169.652 192.926 159.141 192.926 146.223 c 192.926
 133.305 203.438 122.793 216.355 122.793 c 279 122.793 l 279 166.332 l 279
 168.16 277.512 169.648 275.684 169.648 c 216.355 169.648 l h
216.355 169.652 m f
0.976471 0.811765 0.811765 rg
282.992 156.203 m 416.973 147.312 l 443.344 151.512 l 444.367 151.676 445.406
 151.758 446.441 151.758 c 465.699 151.758 l 473.043 151.758 479.719 147.68
 482.781 141.316 c 483.488 139.855 l 484.617 137.52 485.203 134.953 485.203
 132.355 c 485.203 118.797 l 282.992 118.797 l h
282.992 156.203 m f
0.215686 0.384314 0.8 rg
485.203 114.801 m 282.992 114.801 l 280.789 114.801 279 116.594 279 118.797
 c 279 156.203 l 279 157.312 279.461 158.363 280.266 159.121 c 281.07 159.879
 282.164 160.262 283.258 160.191 c 416.785 151.324 l 442.711 155.457 l 443.941
 155.652 445.195 155.75 446.441 155.75 c 465.699 155.75 l 474.551 155.75
 482.668 150.766 486.383 143.051 c 487.086 141.586 l 488.465 138.727 489.195
 135.535 489.195 132.355 c 489.195 118.797 l 489.199 116.594 487.406 114.801
 485.203 114.801 c h
286.988 122.793 m 481.207 122.793 l 481.207 132.355 l 481.207 134.34 480.75
 136.336 479.891 138.117 c 479.188 139.586 l 476.793 144.551 471.5 147.758
 465.699 147.758 c 446.441 147.758 l 445.621 147.758 444.789 147.691 443.977
 147.562 c 417.602 143.363 l 417.305 143.32 417.004 143.305 416.707 143.32
 c 286.988 151.93 l h
286.988 122.793 m f
0.643137 0.788235 1 rg
4.566 53.879 m 476.016 53.879 l 480.426 53.879 484.004 57.457 484.004 61.867
 c 484.004 110.812 l 484.004 115.223 480.426 118.801 476.016 118.801 c 4.566
 118.801 l h
4.566 53.879 m f
0.878431 0.921569 0.988235 rg
8.562 3.996 m 457.035 3.996 l 459.246 3.996 461.031 5.781 461.031 7.988
 c 461.031 53.875 l 4.566 53.875 l 4.566 7.988 l 4.566 5.785 6.355 3.996
 8.562 3.996 c h
8.562 3.996 m f
0.27451 0.443137 0.776471 rg
26.531 203.09 m 23.039 204.117 19.422 204.637 15.781 204.637 c 4.566 204.637
 l 4.566 118.801 l 58.508 118.801 l 58.508 195.898 l 51.012 195.898 l h
26.531 203.09 m f
0.976471 0.811765 0.811765 rg
151.949 331.93 m 125.074 337.156 107.52 363.176 112.746 390.055 c 117.523
 414.648 l 122.75 441.523 148.773 459.074 175.648 453.855 c 202.527 448.629
 220.074 422.605 214.852 395.73 c 210.07 371.133 l 204.844 344.258 178.824
 326.707 151.949 331.93 c h
151.949 331.93 m f
0.215686 0.384314 0.8 rg
145.148 382.82 m 142.383 383.359 140.574 386.035 141.113 388.805 c 142.738
 397.156 l 143.273 399.922 145.953 401.727 148.723 401.191 c 151.488 400.656
 153.293 397.973 152.762 395.207 c 151.133 386.859 l 150.598 384.086 147.914
 382.281 145.148 382.82 c h
145.148 382.82 m f
197.594 369.668 m 194.828 370.207 193.016 372.883 193.555 375.652 c 195.18
 384.004 l 195.719 386.77 198.398 388.574 201.164 388.039 c 203.93 387.5
 205.742 384.82 205.203 382.055 c 203.578 373.707 l 203.039 370.934 200.359
 369.129 197.594 369.668 c h
197.594 369.668 m f
0.976471 0.811765 0.811765 rg
131.461 398.25 m 131.461 389.055 124.004 381.602 114.812 381.602 c 105.621
 381.602 98.168 389.055 98.168 398.25 c 98.168 407.441 105.621 414.895 114.812
 414.895 c 124.004 414.895 131.461 407.441 131.461 398.25 c h
131.461 398.25 m f
0.215686 0.384314 0.8 rg
172.098 352.699 m 170.652 352.699 169.148 352.902 167.656 353.305 c 164.73
 354.082 162.148 355.559 160.379 357.445 c 158.41 359.559 157.629 362.066
 158.234 364.324 c 158.52 365.391 159.613 366.023 160.68 365.738 c 161.75
 365.449 162.379 364.355 162.094 363.293 c 161.852 362.391 162.293 361.25
 163.301 360.172 c 164.547 358.84 166.508 357.738 168.691 357.16 c 170.871
 356.574 173.117 356.543 174.859 357.074 c 176.273 357.504 177.227 358.27
 177.469 359.168 c 177.754 360.238 178.848 360.867 179.914 360.582 c 180.98
 360.297 181.613 359.199 181.328 358.133 c 180.723 355.871 178.789 354.094
 176.027 353.254 c 174.816 352.887 173.484 352.699 172.098 352.699 c h
172.098 352.699 m f
0.976471 0.811765 0.811765 rg
243.695 191.988 m 230.117 194 l 138.605 230.797 l 136.809 231.512 135.477
 233.055 135.02 234.926 c 129.957 255.594 l 88.945 244.602 l 99.68 206.141
 l 100.746 202.32 103.633 199.273 107.395 198.004 c 215.352 161.602 l 216.039
 161.371 216.648 160.957 217.117 160.402 c 226.207 149.684 l 228.387 147.113
 231.289 145.254 234.531 144.344 c 246.379 141.031 l 253.469 139.055 260.863
 142.973 263.207 149.945 c 268.152 164.652 l 270.199 170.738 267.75 177.43
 262.262 180.75 c h
243.695 191.988 m f
0.878431 0.921569 0.988235 rg
138.496 257.879 m 82.613 242.906 l 68.926 293.98 l 64.793 309.41 73.949
 325.273 89.383 329.406 c 104.812 333.543 120.672 324.383 124.809 308.953
 c h
138.496 257.879 m f
0.215686 0.384314 0.8 rg
82.617 238.91 m 81.922 238.91 81.23 239.09 80.617 239.445 c 79.699 239.977
 79.031 240.844 78.758 241.871 c 65.07 292.945 l 60.371 310.48 70.812 328.566
 88.348 333.27 c 105.879 337.973 123.969 327.52 128.668 309.988 c 142.355
 258.918 l 142.926 256.789 141.66 254.594 139.531 254.027 c 83.645 239.051
 l 83.305 238.957 82.957 238.91 82.617 238.91 c h
96.859 326.398 m 94.734 326.398 92.574 326.125 90.414 325.547 c 77.137 
321.988 69.23 308.289 72.789 295.012 c 85.438 247.797 l 133.598 260.707 
l 120.949 307.918 l 117.973 319.043 107.867 326.398 96.859 326.398 c h
96.859 326.398 m f
250.113 136.527 m 248.527 136.527 246.91 136.742 245.305 137.191 c 233.457
 140.5 l 229.43 141.621 225.867 143.91 223.16 147.102 c 214.07 157.812 l
 106.117 194.215 l 101.098 195.914 97.254 199.969 95.832 205.066 c 85.098
 243.531 l 84.809 244.555 84.945 245.656 85.473 246.582 c 86.004 247.508
 86.879 248.188 87.91 248.461 c 128.922 259.449 l 129.961 259.73 131.066
 259.578 131.992 259.027 c 132.914 258.48 133.578 257.582 133.836 256.543
 c 138.898 235.879 l 139.051 235.25 139.496 234.738 140.09 234.496 c 231.172
 197.879 l 244.281 195.941 l 244.809 195.863 245.316 195.68 245.77 195.406
 c 264.328 184.168 l 271.473 179.844 274.602 171.293 271.945 163.383 c 266.996
 148.676 l 264.504 141.254 257.586 136.527 250.113 136.527 c h
93.875 241.789 m 103.527 207.215 l 104.238 204.664 106.164 202.637 108.672
 201.789 c 216.625 165.387 l 218 164.922 219.227 164.094 220.168 162.984
 c 229.262 152.266 l 230.926 150.301 233.121 148.891 235.613 148.191 c 247.457
 144.883 l 252.504 143.48 257.758 146.258 259.426 151.223 c 264.371 165.926
 l 265.832 170.273 264.109 174.957 260.191 177.332 c 242.324 188.152 l 229.535
 190.047 l 229.23 190.094 228.926 190.176 228.633 190.293 c 137.109 227.086
 l 134.133 228.285 131.898 230.855 131.133 233.98 c 127.043 250.676 l h
93.875 241.789 m f
0.976471 0.811765 0.811765 rg
214.164 392.195 m 210.07 371.133 l 209.371 367.531 208.285 364.102 206.887
 360.867 c 214.48 361.105 221.18 366.547 222.691 374.32 c 224.121 381.68
 220.461 388.852 214.164 392.195 c h
214.164 392.195 m f
0.215686 0.384314 0.8 rg
161.426 327.02 m 158.047 327.02 154.621 327.344 151.188 328.008 c 126.414
 332.824 108.641 353.922 107.867 378.812 c 98.418 382.191 92.586 392.062
 94.547 402.191 c 96.445 411.965 104.801 418.734 114.398 418.883 c 121.523
 445.902 148.598 463.188 176.406 457.773 c 205.406 452.137 224.406 423.961
 218.773 394.965 c 213.992 370.375 l 209.027 344.816 186.543 327.02 161.426
 327.02 c h
112.395 385.836 m 112.41 385.836 112.504 385.82 112.598 385.801 c 114.523
 385.438 115.902 383.73 115.852 381.77 c 115.246 359.43 130.746 340.121 
152.715 335.852 c 177.379 331.055 201.355 347.23 206.152 371.895 c 210.93
 396.492 l 215.727 421.16 199.555 445.133 174.887 449.93 c 150.219 454.715
 126.246 438.559 121.449 413.895 c 121.035 411.77 119.008 410.363 116.875
 410.715 c 110.07 411.836 103.707 407.426 102.395 400.668 c 101.062 393.816
 105.555 387.16 112.398 385.828 c 112.391 385.832 112.387 385.836 112.395
 385.836 c h
112.395 385.836 m f
206.887 356.875 m 205.566 356.875 204.328 357.523 203.582 358.621 c 202.816
 359.754 202.676 361.195 203.219 362.453 c 204.539 365.504 205.527 368.68
 206.152 371.898 c 210.242 392.961 l 210.484 394.199 211.301 395.258 212.445
 395.801 c 213.582 396.352 214.922 396.316 216.039 395.727 c 224.105 391.438
 228.355 382.535 226.609 373.559 c 224.762 364.043 216.703 357.184 207.008
 356.875 c 206.969 356.875 206.926 356.875 206.887 356.875 c h
216.773 384.691 m 213.992 370.375 l 213.762 369.184 213.488 368 213.176
 366.832 c 216.016 368.641 218.082 371.562 218.77 375.082 c 219.441 378.531
 218.664 381.965 216.773 384.691 c h
216.773 384.691 m f
0.27451 0.443137 0.776471 rg
208.984 400.141 m 228.969 396.051 l 230.301 395.777 231.598 396.695 231.859
 398.102 c 239.262 438.184 l 241.707 451.426 233.492 464.242 220.918 466.82
 c 213.074 468.422 l 209.066 469.242 205.184 466.484 204.402 462.262 c 196.52
 419.59 l 194.859 410.598 200.441 401.887 208.984 400.141 c h
208.984 400.141 m f
165.676 413.195 m 104.898 425.629 l 102.75 426.07 101.344 428.262 101.762
 430.527 c 104.859 447.305 l 109.523 472.559 132.75 489.051 156.742 484.141
 c 201.211 475.043 l 207.625 473.73 211.816 467.191 210.57 460.438 c 207.305
 442.758 l 203.562 422.492 184.926 409.254 165.676 413.195 c h
165.676 413.195 m f
0.215686 0.384314 0.8 rg
229.453 392.004 m 229.027 392.004 228.598 392.047 228.168 392.133 c 208.184
 396.227 l 199.527 397.992 193.285 405.469 192.355 414.168 c 184.148 409.148
 174.391 407.328 164.875 409.281 c 104.098 421.715 l 99.836 422.59 97.023
 426.863 97.836 431.25 c 100.934 448.023 l 103.461 461.715 111.016 473.414
 122.211 480.953 c 132.723 488.043 145.277 490.566 157.543 488.051 c 202.016
 478.953 l 205.977 478.141 209.387 475.863 211.711 472.551 c 212.434 472.586
 213.156 472.48 213.871 472.336 c 221.719 470.727 l 236.387 467.727 246.023
 452.801 243.188 437.457 c 235.789 397.379 l 235.469 395.633 234.449 394.07
 233 393.098 c 231.934 392.375 230.703 392.004 229.453 392.004 c h
197.164 427.07 m 197.789 427.07 198.422 426.926 199.004 426.617 c 200.562
 425.809 201.41 424.074 201.09 422.348 c 200.449 418.863 l 199.184 412.008
 203.367 405.363 209.781 404.051 c 228.199 400.285 l 235.332 438.91 l 237.375
 450.004 230.551 460.766 220.109 462.902 c 212.273 464.508 l 211.809 464.598
 211.316 464.57 210.773 464.398 c 208.863 463.816 206.805 464.734 205.973
 466.555 c 204.863 468.965 202.836 470.633 200.41 471.125 c 155.941 480.23
 l 145.789 482.301 135.391 480.211 126.672 474.332 c 117.273 467.996 110.922
 458.141 108.789 446.574 c 105.691 429.801 l 105.66 429.641 105.734 429.539
 105.754 429.52 c 166.473 417.109 l 176.504 415.062 186.91 418.328 194.309
 425.871 c 195.082 426.66 196.117 427.07 197.164 427.07 c h
197.164 427.07 m f
0.27451 0.443137 0.776471 rg
117.527 414.656 m 118.062 417.402 118.828 420.051 119.77 422.586 c 104.898
 425.629 l 104.277 425.758 103.73 426.043 103.258 426.422 c 99.164 408.98
 l 101.633 408.398 l 105.27 413.105 111.301 415.688 117.527 414.656 c h
117.527 414.656 m f
0.215686 0.384314 0.8 rg
101.637 404.402 m 101.332 404.402 101.027 404.441 100.723 404.512 c 98.254
 405.09 l 97.219 405.332 96.324 405.973 95.77 406.879 c 95.211 407.777 95.031
 408.863 95.277 409.895 c 99.375 427.336 l 99.684 428.668 100.664 429.75
 101.957 430.199 c 103.25 430.645 104.688 430.398 105.758 429.539 c 120.574
 426.504 l 121.719 426.27 122.703 425.543 123.266 424.523 c 123.832 423.504
 123.922 422.285 123.512 421.188 c 122.621 418.789 121.922 416.34 121.449
 413.902 c 121.035 411.773 118.996 410.371 116.875 410.719 c 112.281 411.473
 107.652 409.656 104.797 405.961 c 104.027 404.965 102.855 404.402 101.637
 404.402 c h
106.164 421.293 m 105.012 416.402 l 107.879 417.949 111.094 418.809 114.398
 418.871 c 114.461 419.105 114.523 419.336 114.59 419.57 c h
106.164 421.293 m f
58.508 114.801 m 4.566 114.801 l 2.363 114.801 0.57 116.594 0.57 118.797
 c 0.57 204.633 l 0.57 206.844 2.363 208.629 4.566 208.629 c 15.781 208.629
 l 19.801 208.629 23.801 208.055 27.664 206.926 c 51.59 199.891 l 58.508
 199.891 l 60.715 199.891 62.504 198.102 62.504 195.895 c 62.504 118.797
 l 62.504 116.594 60.715 114.801 58.508 114.801 c h
8.562 122.793 m 54.512 122.793 l 54.512 191.898 l 51.012 191.898 l 50.633
 191.898 50.25 191.953 49.887 192.062 c 25.41 199.258 l 22.281 200.176 19.043
 200.641 15.781 200.641 c 8.562 200.641 l h
8.562 122.793 m f
476.016 49.879 m 4.566 49.879 l 2.363 49.879 0.57 51.668 0.57 53.875 c 
0.57 118.797 l 0.57 121.004 2.363 122.793 4.566 122.793 c 476.016 122.793
 l 482.629 122.793 488 117.422 488 110.809 c 488 61.863 l 488 55.258 482.625
 49.879 476.016 49.879 c h
8.562 57.867 m 476.016 57.867 l 478.219 57.867 480.008 59.664 480.008 61.863
 c 480.008 110.809 l 480.008 113.012 478.219 114.801 476.016 114.801 c 8.562
 114.801 l h
8.562 57.867 m f
457.035 0 m 8.562 0 l 4.156 0 0.57 3.586 0.57 7.988 c 0.57 53.875 l 0.57
 56.082 2.363 57.867 4.566 57.867 c 461.031 57.867 l 463.238 57.867 465.027
 56.082 465.027 53.875 c 465.027 7.988 l 465.027 3.586 461.441 0 457.035
 0 c h
8.562 49.879 m 8.562 7.988 l 457.035 7.988 l 457.035 49.879 l h
8.562 49.879 m f
Q Q
showpage
%%Trailer
end restore
%%EOF
