%!PS-Adobe-3.0 EPSF-3.0
%%Creator: cairo 1.14.8 (http://cairographics.org)
%%CreationDate: Wed Mar 20 09:06:38 2019
%%Pages: 1
%%DocumentData: Clean7Bit
%%LanguageLevel: 2
%%BoundingBox: 0 71 485 413
%%EndComments
%%BeginProlog
save
50 dict begin
/q { gsave } bind def
/Q { grestore } bind def
/cm { 6 array astore concat } bind def
/w { setlinewidth } bind def
/J { setlinecap } bind def
/j { setlinejoin } bind def
/M { setmiterlimit } bind def
/d { setdash } bind def
/m { moveto } bind def
/l { lineto } bind def
/c { curveto } bind def
/h { closepath } bind def
/re { exch dup neg 3 1 roll 5 3 roll moveto 0 rlineto
      0 exch rlineto 0 rlineto closepath } bind def
/S { stroke } bind def
/f { fill } bind def
/f* { eofill } bind def
/n { newpath } bind def
/W { clip } bind def
/W* { eoclip } bind def
/BT { } bind def
/ET { } bind def
/pdfmark where { pop globaldict /?pdfmark /exec load put }
    { globaldict begin /?pdfmark /pop load def /pdfmark
    /cleartomark load def end } ifelse
/BDC { mark 3 1 roll /BDC pdfmark } bind def
/EMC { mark /EMC pdfmark } bind def
/cairo_store_point { /cairo_point_y exch def /cairo_point_x exch def } def
/Tj { show currentpoint cairo_store_point } bind def
/TJ {
  {
    dup
    type /stringtype eq
    { show } { -0.001 mul 0 cairo_font_matrix dtransform rmoveto } ifelse
  } forall
  currentpoint cairo_store_point
} bind def
/cairo_selectfont { cairo_font_matrix aload pop pop pop 0 0 6 array astore
    cairo_font exch selectfont cairo_point_x cairo_point_y moveto } bind def
/Tf { pop /cairo_font exch def /cairo_font_matrix where
      { pop cairo_selectfont } if } bind def
/Td { matrix translate cairo_font_matrix matrix concatmatrix dup
      /cairo_font_matrix exch def dup 4 get exch 5 get cairo_store_point
      /cairo_font where { pop cairo_selectfont } if } bind def
/Tm { 2 copy 8 2 roll 6 array astore /cairo_font_matrix exch def
      cairo_store_point /cairo_font where { pop cairo_selectfont } if } bind def
/g { setgray } bind def
/rg { setrgbcolor } bind def
/d1 { setcachedevice } bind def
%%EndProlog
%%BeginSetup
%%EndSetup
%%Page: 1 1
%%BeginPageSetup
%%PageBoundingBox: 0 71 485 413
%%EndPageSetup
q 0 71 485 342 rectclip q
0.27451 0.443137 0.776471 rg
471.383 229.746 m 453.43 233.207 435.184 234.949 416.898 234.953 c 390.008
 234.953 l 390.004 234.953 389.996 234.953 389.992 234.953 c 289.957 234.953
 l 276.281 234.953 264.074 228.547 256.176 218.586 c 252.887 214.438 247.789
 212.148 242.5 212.148 c 237.211 212.148 232.105 214.438 228.824 218.586
 c 220.922 228.547 208.719 234.953 195.043 234.953 c 68.121 234.953 l 49.828
 234.953 31.582 233.207 13.621 229.746 c 13.617 229.746 l 8.031 228.668 
3.996 223.781 3.996 218.094 c 3.996 193.73 l 3.996 188.312 7.312 183.445
 12.352 181.457 c 28.047 175.273 l 42.684 129.277 l 43.418 126.312 44.344
 123.422 45.441 120.621 c 45.48 120.496 l 45.492 120.496 l 55.746 94.398
 81.152 75.914 110.887 75.914 c 149.938 75.914 l 185.844 75.914 218.328 
98.539 230.781 132.223 c 231.828 135.055 l 234.469 142.199 236.289 149.562
 237.27 157.055 c 237.613 159.684 239.852 161.637 242.5 161.637 c 245.148
 161.637 247.391 159.684 247.734 157.055 c 248.719 149.562 250.535 142.203
 253.172 135.059 c 254.227 132.215 l 266.742 98.379 299.004 75.914 335.082
 75.914 c 374.121 75.914 l 403.855 75.914 429.254 94.402 439.516 120.496
 c 439.523 120.496 l 439.562 120.621 l 440.66 123.422 441.582 126.309 442.316
 129.273 c 456.953 175.27 l 472.652 181.457 l 477.691 183.445 481.004 188.309
 481.004 193.727 c 481.004 218.094 l 481 223.777 476.969 228.668 471.383
 229.746 c h
471.383 229.746 m f
0.643137 0.788235 1 rg
56.703 234.871 m 98.285 368.648 l 99.625 372.949 102.66 375.535 106.137
 375.32 c 131.18 373.773 l 135.684 373.496 138.68 379.32 137.238 385.574
 c 134.125 399.094 124.969 408.758 115.258 408.758 c 92.359 408.758 l 89.312
 408.758 86.641 406.594 85.23 402.984 c 17.676 230.148 l 30.559 232.914 
43.605 234.508 56.703 234.871 c h
56.703 234.871 m f
363.207 373.773 m 388.113 375.32 l 391.566 375.535 394.59 372.949 395.918
 368.648 c 437.32 234.688 l 449.523 234.094 461.676 232.457 473.676 229.746
 c 474.785 229.496 475.812 229.02 476.75 228.395 c 408.898 402.984 l 407.5
 406.594 404.84 408.758 401.805 408.758 c 379.039 408.758 l 369.387 408.758
 360.277 399.094 357.18 385.574 c 355.754 379.324 358.727 373.496 363.207
 373.773 c h
363.207 373.773 m f
0.215686 0.384314 0.8 rg
374.117 71.918 m 335.078 71.918 l 297.508 71.918 263.508 95.59 250.477 
130.828 c 249.426 133.672 l 246.691 141.066 244.793 148.758 243.77 156.535
 c 243.688 157.164 243.145 157.641 242.5 157.641 c 241.863 157.641 241.316
 157.164 241.23 156.535 c 240.211 148.746 238.309 141.059 235.578 133.672
 c 234.531 130.836 l 221.5 95.594 187.504 71.922 149.938 71.922 c 110.883
 71.922 l 80.234 71.922 53.176 90.305 41.867 118.781 c 41.793 118.938 41.727
 119.105 41.672 119.277 c 40.555 122.137 39.586 125.172 38.836 128.188 c
 24.812 172.254 l 10.883 177.742 l 4.273 180.352 0 186.629 0 193.73 c 0 
218.098 l 0 225.684 5.406 232.238 12.859 233.672 c 12.922 233.684 12.992
 233.695 13.059 233.703 c 31.031 237.18 49.621 238.957 68.125 238.957 c 
195.043 238.957 l 209.496 238.957 222.949 232.438 231.957 221.066 c 234.398
 217.988 238.344 216.148 242.5 216.148 c 246.656 216.148 250.602 217.988
 253.039 221.066 c 262.051 232.438 275.504 238.957 289.957 238.957 c 416.898
 238.957 l 435.387 238.957 453.973 237.18 472.141 233.672 c 479.594 232.238
 485 225.688 485 218.098 c 485 193.734 l 485 186.629 480.727 180.352 474.113
 177.742 c 460.188 172.254 l 446.168 128.188 l 445.418 125.184 444.453 122.156
 443.293 119.203 c 443.273 119.145 443.254 119.09 443.23 119.039 c 431.984
 90.41 404.855 71.918 374.117 71.918 c h
242.5 165.633 m 247.137 165.633 251.094 162.168 251.695 157.574 c 252.637
 150.387 254.398 143.277 256.922 136.441 c 257.977 133.602 l 269.852 101.492
 300.836 79.914 335.078 79.914 c 374.117 79.914 l 401.547 79.914 425.754
 96.414 435.785 121.953 c 435.797 121.984 435.812 122.016 435.824 122.047
 c 435.828 122.055 435.832 122.066 435.836 122.07 c 436.887 124.762 437.762
 127.508 438.434 130.23 c 438.457 130.316 438.477 130.402 438.504 130.484
 c 453.141 176.48 l 453.508 177.629 454.363 178.551 455.484 178.988 c 471.18
 185.176 l 474.719 186.57 477.004 189.926 477.004 193.727 c 477.004 218.09
 l 477.004 221.852 474.32 225.105 470.625 225.82 c 452.957 229.227 434.879
 230.953 416.898 230.953 c 390.039 230.953 l 390.012 230.953 389.988 230.953
 389.961 230.953 c 289.957 230.953 l 277.961 230.953 266.793 225.539 259.309
 216.098 c 255.363 211.117 249.082 208.145 242.5 208.145 c 235.824 208.145
 229.699 211.043 225.691 216.098 c 218.211 225.539 207.035 230.953 195.043
 230.953 c 68.121 230.953 l 50.125 230.953 32.047 229.227 14.379 225.82 
c 14.316 225.809 14.246 225.793 14.18 225.785 c 10.676 225.102 7.992 221.852
 7.992 218.09 c 7.992 193.723 l 7.992 189.926 10.277 186.566 13.816 185.176
 c 29.512 178.988 l 30.629 178.547 31.492 177.625 31.855 176.48 c 46.492
 130.484 l 46.52 130.402 46.543 130.316 46.566 130.23 c 47.238 127.508 48.109
 124.762 49.16 122.07 c 49.164 122.055 49.168 122.043 49.172 122.031 c 49.184
 122.004 49.195 121.977 49.203 121.949 c 59.246 96.41 83.453 79.91 110.879
 79.91 c 149.934 79.91 l 184.172 79.91 215.152 101.488 227.023 133.605 c
 228.074 136.438 l 230.598 143.266 232.355 150.375 233.301 157.57 c 233.906
 162.168 237.863 165.633 242.5 165.633 c h
439.52 120.492 m 439.539 120.492 l h
439.52 120.492 m f
17.676 226.152 m 16.516 226.152 15.398 226.652 14.633 227.555 c 13.676 
228.676 13.418 230.23 13.953 231.602 c 81.508 404.441 l 83.508 409.566 87.668
 412.754 92.359 412.754 c 115.258 412.754 l 126.938 412.754 137.574 401.945
 141.137 386.473 c 142.277 381.516 141.266 376.41 138.504 373.148 c 136.512
 370.801 133.812 369.609 130.934 369.789 c 105.891 371.332 l 104.375 371.461
 102.863 369.91 102.098 367.461 c 60.523 233.688 l 60.016 232.059 58.523
 230.926 56.816 230.879 c 44.07 230.527 31.184 228.965 18.516 226.242 c 
18.234 226.176 17.953 226.152 17.676 226.152 c h
56.703 234.871 m 56.723 234.871 l h
92.359 404.754 m 91.016 404.754 89.742 403.547 88.953 401.531 c 24.051 
235.48 l 33.906 237.258 43.848 238.359 53.73 238.77 c 94.469 369.832 l 96.359
 375.922 101.016 379.648 106.387 379.309 c 131.43 377.762 l 131.555 377.758
 131.91 377.734 132.402 378.312 c 133.348 379.422 133.996 381.824 133.348
 384.676 c 130.664 396.309 123.059 404.754 115.258 404.754 c h
92.359 404.754 m f
476.75 224.398 m 475.98 224.398 475.207 224.617 474.535 225.066 c 473.953
 225.453 473.367 225.715 472.793 225.848 c 461.121 228.48 449.117 230.113
 437.125 230.695 c 435.441 230.777 434 231.902 433.5 233.508 c 392.098 367.465
 l 391.344 369.906 389.887 371.422 388.359 371.332 c 363.457 369.785 l 360.586
 369.605 357.91 370.789 355.934 373.121 c 353.16 376.387 352.148 381.496
 353.285 386.469 c 356.828 401.945 367.422 412.754 379.039 412.754 c 401.809
 412.754 l 406.488 412.754 410.633 409.566 412.629 404.434 c 480.477 229.844
 l 481.105 228.219 480.609 226.371 479.258 225.281 c 478.527 224.695 477.641
 224.398 476.75 224.398 c h
440.316 238.527 m 450.297 237.91 460.27 236.598 470.043 234.609 c 405.172
 401.543 l 404.391 403.555 403.133 404.758 401.805 404.758 c 379.039 404.758
 l 371.293 404.758 363.742 396.312 361.078 384.684 c 360.422 381.816 361.082
 379.41 362.027 378.301 c 362.504 377.734 362.836 377.754 362.961 377.762
 c 387.863 379.312 l 393.211 379.652 397.855 375.922 399.738 369.828 c h
440.316 238.527 m f
0.643137 0.788235 1 rg
84.348 195.41 m 84.348 188.785 78.98 183.418 72.355 183.418 c 65.73 183.418
 60.363 188.785 60.363 195.41 c 60.363 202.035 65.73 207.402 72.355 207.402
 c 78.98 207.402 84.348 202.035 84.348 195.41 c h
84.348 195.41 m f
124.324 195.41 m 124.324 188.785 118.957 183.418 112.332 183.418 c 105.707
 183.418 100.34 188.785 100.34 195.41 c 100.34 202.035 105.707 207.402 112.332
 207.402 c 118.957 207.402 124.324 202.035 124.324 195.41 c h
124.324 195.41 m f
164.301 195.41 m 164.301 188.785 158.934 183.418 152.309 183.418 c 145.684
 183.418 140.316 188.785 140.316 195.41 c 140.316 202.035 145.684 207.402
 152.309 207.402 c 158.934 207.402 164.301 202.035 164.301 195.41 c h
164.301 195.41 m f
204.277 195.41 m 204.277 188.785 198.91 183.418 192.285 183.418 c 185.66
 183.418 180.289 188.785 180.289 195.41 c 180.289 202.035 185.66 207.402
 192.285 207.402 c 198.91 207.402 204.277 202.035 204.277 195.41 c h
204.277 195.41 m f
204.277 155.434 m 204.277 148.809 198.91 143.441 192.285 143.441 c 185.66
 143.441 180.289 148.809 180.289 155.434 c 180.289 162.059 185.66 167.426
 192.285 167.426 c 198.91 167.426 204.277 162.059 204.277 155.434 c h
204.277 155.434 m f
164.301 155.434 m 164.301 148.809 158.934 143.441 152.309 143.441 c 145.684
 143.441 140.316 148.809 140.316 155.434 c 140.316 162.059 145.684 167.426
 152.309 167.426 c 158.934 167.426 164.301 162.059 164.301 155.434 c h
164.301 155.434 m f
124.324 155.434 m 124.324 148.809 118.957 143.441 112.332 143.441 c 105.707
 143.441 100.34 148.809 100.34 155.434 c 100.34 162.059 105.707 167.426 
112.332 167.426 c 118.957 167.426 124.324 162.059 124.324 155.434 c h
124.324 155.434 m f
84.348 155.434 m 84.348 148.809 78.98 143.441 72.355 143.441 c 65.73 143.441
 60.363 148.809 60.363 155.434 c 60.363 162.059 65.73 167.426 72.355 167.426
 c 78.98 167.426 84.348 162.059 84.348 155.434 c h
84.348 155.434 m f
124.324 115.457 m 124.324 108.832 118.957 103.465 112.332 103.465 c 105.707
 103.465 100.34 108.832 100.34 115.457 c 100.34 122.082 105.707 127.453 
112.332 127.453 c 118.957 127.453 124.324 122.082 124.324 115.457 c h
124.324 115.457 m f
164.301 115.457 m 164.301 108.832 158.934 103.465 152.309 103.465 c 145.684
 103.465 140.316 108.832 140.316 115.457 c 140.316 122.082 145.684 127.453
 152.309 127.453 c 158.934 127.453 164.301 122.082 164.301 115.457 c h
164.301 115.457 m f
303.891 195.41 m 303.891 188.785 298.523 183.418 291.898 183.418 c 285.273
 183.418 279.906 188.785 279.906 195.41 c 279.906 202.035 285.273 207.402
 291.898 207.402 c 298.523 207.402 303.891 202.035 303.891 195.41 c h
303.891 195.41 m f
343.867 195.41 m 343.867 188.785 338.5 183.418 331.875 183.418 c 325.25
 183.418 319.883 188.785 319.883 195.41 c 319.883 202.035 325.25 207.402
 331.875 207.402 c 338.5 207.402 343.867 202.035 343.867 195.41 c h
343.867 195.41 m f
383.844 195.41 m 383.844 188.785 378.477 183.418 371.852 183.418 c 365.227
 183.418 359.859 188.785 359.859 195.41 c 359.859 202.035 365.227 207.402
 371.852 207.402 c 378.477 207.402 383.844 202.035 383.844 195.41 c h
383.844 195.41 m f
423.82 195.41 m 423.82 188.785 418.453 183.418 411.828 183.418 c 405.203
 183.418 399.836 188.785 399.836 195.41 c 399.836 202.035 405.203 207.402
 411.828 207.402 c 418.453 207.402 423.82 202.035 423.82 195.41 c h
423.82 195.41 m f
423.82 155.434 m 423.82 148.809 418.453 143.441 411.828 143.441 c 405.203
 143.441 399.836 148.809 399.836 155.434 c 399.836 162.059 405.203 167.426
 411.828 167.426 c 418.453 167.426 423.82 162.059 423.82 155.434 c h
423.82 155.434 m f
383.844 155.434 m 383.844 148.809 378.477 143.441 371.852 143.441 c 365.227
 143.441 359.859 148.809 359.859 155.434 c 359.859 162.059 365.227 167.426
 371.852 167.426 c 378.477 167.426 383.844 162.059 383.844 155.434 c h
383.844 155.434 m f
343.867 155.434 m 343.867 148.809 338.5 143.441 331.875 143.441 c 325.25
 143.441 319.883 148.809 319.883 155.434 c 319.883 162.059 325.25 167.426
 331.875 167.426 c 338.5 167.426 343.867 162.059 343.867 155.434 c h
343.867 155.434 m f
303.891 155.434 m 303.891 148.809 298.523 143.441 291.898 143.441 c 285.273
 143.441 279.906 148.809 279.906 155.434 c 279.906 162.059 285.273 167.426
 291.898 167.426 c 298.523 167.426 303.891 162.059 303.891 155.434 c h
303.891 155.434 m f
343.867 115.457 m 343.867 108.832 338.5 103.465 331.875 103.465 c 325.25
 103.465 319.883 108.832 319.883 115.457 c 319.883 122.082 325.25 127.453
 331.875 127.453 c 338.5 127.453 343.867 122.082 343.867 115.457 c h
343.867 115.457 m f
383.844 115.457 m 383.844 108.832 378.477 103.465 371.852 103.465 c 365.227
 103.465 359.859 108.832 359.859 115.457 c 359.859 122.082 365.227 127.453
 371.852 127.453 c 378.477 127.453 383.844 122.082 383.844 115.457 c h
383.844 115.457 m f
383.844 115.457 m 383.844 108.832 378.477 103.465 371.852 103.465 c 365.227
 103.465 359.859 108.832 359.859 115.457 c 359.859 122.082 365.227 127.453
 371.852 127.453 c 378.477 127.453 383.844 122.082 383.844 115.457 c h
383.844 115.457 m f
Q Q
showpage
%%Trailer
end restore
%%EOF
