%!PS-Adobe-3.0 EPSF-3.0
%%Creator: cairo 1.14.8 (http://cairographics.org)
%%CreationDate: Wed Mar 20 09:06:38 2019
%%Pages: 1
%%DocumentData: Clean7Bit
%%LanguageLevel: 2
%%BoundingBox: 19 0 469 488
%%EndComments
%%BeginProlog
save
50 dict begin
/q { gsave } bind def
/Q { grestore } bind def
/cm { 6 array astore concat } bind def
/w { setlinewidth } bind def
/J { setlinecap } bind def
/j { setlinejoin } bind def
/M { setmiterlimit } bind def
/d { setdash } bind def
/m { moveto } bind def
/l { lineto } bind def
/c { curveto } bind def
/h { closepath } bind def
/re { exch dup neg 3 1 roll 5 3 roll moveto 0 rlineto
      0 exch rlineto 0 rlineto closepath } bind def
/S { stroke } bind def
/f { fill } bind def
/f* { eofill } bind def
/n { newpath } bind def
/W { clip } bind def
/W* { eoclip } bind def
/BT { } bind def
/ET { } bind def
/pdfmark where { pop globaldict /?pdfmark /exec load put }
    { globaldict begin /?pdfmark /pop load def /pdfmark
    /cleartomark load def end } ifelse
/BDC { mark 3 1 roll /BDC pdfmark } bind def
/EMC { mark /EMC pdfmark } bind def
/cairo_store_point { /cairo_point_y exch def /cairo_point_x exch def } def
/Tj { show currentpoint cairo_store_point } bind def
/TJ {
  {
    dup
    type /stringtype eq
    { show } { -0.001 mul 0 cairo_font_matrix dtransform rmoveto } ifelse
  } forall
  currentpoint cairo_store_point
} bind def
/cairo_selectfont { cairo_font_matrix aload pop pop pop 0 0 6 array astore
    cairo_font exch selectfont cairo_point_x cairo_point_y moveto } bind def
/Tf { pop /cairo_font exch def /cairo_font_matrix where
      { pop cairo_selectfont } if } bind def
/Td { matrix translate cairo_font_matrix matrix concatmatrix dup
      /cairo_font_matrix exch def dup 4 get exch 5 get cairo_store_point
      /cairo_font where { pop cairo_selectfont } if } bind def
/Tm { 2 copy 8 2 roll 6 array astore /cairo_font_matrix exch def
      cairo_store_point /cairo_font where { pop cairo_selectfont } if } bind def
/g { setgray } bind def
/rg { setrgbcolor } bind def
/d1 { setcachedevice } bind def
%%EndProlog
%%BeginSetup
%%EndSetup
%%Page: 1 1
%%BeginPageSetup
%%PageBoundingBox: 19 0 469 488
%%EndPageSetup
q 19 0 450 488 rectclip q
1 0.917647 0.572549 rg
52.727 344.93 m 45.984 330.191 34.797 317.91 20.875 309.797 c 18.375 308.344
 18.375 304.809 20.875 303.355 c 34.797 295.242 45.984 282.965 52.727 268.227
 c 54.039 265.363 58.117 265.363 59.43 268.227 c 66.172 282.965 77.359 295.242
 91.285 303.355 c 93.781 304.812 93.781 308.344 91.285 309.797 c 77.359 
317.91 66.172 330.191 59.43 344.93 c 58.117 347.789 54.039 347.789 52.727
 344.93 c h
52.727 344.93 m f
245.84 147.039 m 241.121 136.723 233.289 128.129 223.543 122.449 c 221.797
 121.43 221.797 118.957 223.543 117.938 c 233.289 112.262 241.121 103.664
 245.84 93.348 c 246.758 91.344 249.617 91.344 250.531 93.348 c 255.25 103.664
 263.082 112.258 272.828 117.938 c 274.578 118.957 274.578 121.43 272.828
 122.449 c 263.082 128.129 255.25 136.723 250.531 147.039 c 249.617 149.043
 246.758 149.043 245.84 147.039 c h
245.84 147.039 m f
0.419608 0.866667 0.866667 rg
264.293 484 m 101.293 484 l 101.293 349 l 101.293 346.789 103.082 345 105.293
 345 c 247.648 345 l 249.711 345 251.438 346.57 251.629 348.629 c h
264.293 484 m f
264.293 484 m 427.293 484 l 427.293 349 l 427.293 346.789 425.5 345 423.293
 345 c 280.934 345 l 278.871 345 277.145 346.57 276.953 348.629 c h
264.293 484 m f
0.643137 0.788235 1 rg
220.086 251 m 220.086 220.305 195.207 195.426 164.512 195.426 c 133.816
 195.426 108.934 220.305 108.934 251 c 108.934 281.695 133.816 306.574 164.512
 306.574 c 195.207 306.574 220.086 281.695 220.086 251 c h
220.086 251 m f
0.976471 0.654902 0.654902 rg
164.512 219.426 m 147.102 219.426 132.934 233.59 132.934 251 c 132.934 
268.41 147.102 282.574 164.512 282.574 c 181.922 282.574 196.086 268.41 
196.086 251 c 196.086 233.59 181.922 219.426 164.512 219.426 c h
164.512 219.426 m f
0.643137 0.788235 1 rg
202.238 65.738 m 202.238 43.641 184.324 25.727 162.227 25.727 c 140.125
 25.727 122.211 43.641 122.211 65.738 c 122.211 87.84 140.125 105.754 162.227
 105.754 c 184.324 105.754 202.238 87.84 202.238 65.738 c h
202.238 65.738 m f
0.976471 0.654902 0.654902 rg
162.227 43.008 m 149.691 43.008 139.492 53.203 139.492 65.738 c 139.492
 78.277 149.691 88.473 162.227 88.473 c 174.762 88.473 184.961 78.277 184.961
 65.738 c 184.961 53.203 174.762 43.008 162.227 43.008 c h
162.227 43.008 m f
0.976471 0.811765 0.811765 rg
456.957 25.691 m 404.293 45 l 411.457 197.719 l 411.82 205.484 412.273 
213.254 412.984 220.992 c 414.316 235.465 414.07 248.348 413.613 256.773
 c 413.031 267.445 412.793 278.129 412.793 288.816 c 412.793 345 l 297.324
 345 l 306.676 281.699 l 307.469 277.504 l 307.301 277.48 l 310.832 259.492
 l 312.508 250.961 313.352 242.289 313.352 233.594 c 313.352 226.176 l 314.332
 213.941 l 328.293 40 l 328.293 20 l 328.293 11.164 335.457 4 344.293 4 
c 453.105 4 l 459.285 4 464.293 9.008 464.293 15.188 c 464.293 19.879 461.363
 24.074 456.957 25.691 c h
456.957 25.691 m f
0.878431 0.921569 0.988235 rg
164.512 306.574 m 189.641 306.574 210.867 289.891 217.738 267 c 218.734
 267 l 230.254 345 l 114.793 345 l 114.793 275.824 l 123.91 294.051 142.742
 306.574 164.512 306.574 c h
164.512 306.574 m f
196.078 44.473 m 188.996 33.223 176.5 25.727 162.227 25.727 c 147.867 25.727
 135.309 33.316 128.25 44.68 c 123.996 44.508 119.785 43.715 115.781 42.246
 c 70.629 25.691 l 66.223 24.074 63.293 19.879 63.293 15.188 c 63.293 9.008
 68.301 4 74.477 4 c 187.293 4 l 193.918 4 199.293 9.371 199.293 16 c 199.293
 40 l 199.293 42.082 197.945 43.836 196.078 44.473 c h
196.078 44.473 m f
162.227 105.754 m 180.148 105.754 195.312 93.969 200.406 77.727 c 214.23
 226.176 l 205.113 207.949 186.281 195.426 164.512 195.426 c 142.742 195.426
 123.91 207.949 114.793 226.176 c 123.074 74.008 l 126.887 92.137 142.961
 105.754 162.227 105.754 c h
162.227 105.754 m f
0.215686 0.384314 0.8 rg
247.648 341 m 105.293 341 l 100.879 341 97.293 344.59 97.293 349 c 97.293
 484 l 97.293 486.207 99.082 488 101.293 488 c 264.293 488 l 265.418 488
 266.492 487.527 267.25 486.695 c 268.008 485.863 268.379 484.746 268.277
 483.629 c 255.613 348.258 l 255.227 344.121 251.805 341 247.648 341 c h
105.293 480 m 105.293 349 l 247.648 349 l 259.898 480 l h
105.293 480 m f
423.293 341 m 280.934 341 l 276.781 341 273.355 344.121 272.969 348.258
 c 260.309 483.629 l 260.203 484.746 260.578 485.863 261.336 486.695 c 262.094
 487.527 263.164 488 264.293 488 c 427.293 488 l 429.5 488 431.293 486.207
 431.293 484 c 431.293 349 l 431.293 344.59 427.703 341 423.293 341 c h
268.684 480 m 280.934 349 l 423.293 349 l 423.293 480 l h
268.684 480 m f
164.512 191.426 m 131.66 191.426 104.934 218.148 104.934 251 c 104.934 
283.852 131.66 310.574 164.512 310.574 c 197.363 310.574 224.086 283.852
 224.086 251 c 224.086 218.148 197.363 191.426 164.512 191.426 c h
164.512 302.574 m 136.074 302.574 112.934 279.441 112.934 251 c 112.934
 222.559 136.07 199.426 164.512 199.426 c 192.953 199.426 216.086 222.559
 216.086 251 c 216.086 279.441 192.949 302.574 164.512 302.574 c h
164.512 302.574 m f
162.227 21.727 m 137.957 21.727 118.211 41.473 118.211 65.738 c 118.211
 90.008 137.957 109.754 162.227 109.754 c 186.496 109.754 206.238 90.012
 206.238 65.738 c 206.238 41.469 186.496 21.727 162.227 21.727 c h
162.227 101.754 m 142.367 101.754 126.211 85.598 126.211 65.738 c 126.211
 45.883 142.367 29.727 162.227 29.727 c 182.082 29.727 198.238 45.883 198.238
 65.738 c 198.238 85.598 182.082 101.754 162.227 101.754 c h
162.227 101.754 m f
453.102 0 m 344.293 0 l 333.262 0 324.293 8.973 324.293 20 c 324.293 39.84
 l 309.363 225.855 l 309.355 225.961 309.352 226.066 309.352 226.176 c 309.352
 233.594 l 309.352 242.012 308.531 250.469 306.906 258.723 c 303.375 276.711
 l 303.297 277.105 303.281 277.512 303.324 277.902 c 302.746 280.953 l 293.371
 344.41 l 293.199 345.562 293.539 346.73 294.297 347.609 c 295.059 348.488
 296.164 348.996 297.324 348.996 c 412.793 348.996 l 415 348.996 416.793
 347.203 416.793 344.996 c 416.793 288.812 l 416.793 277.457 417.059 267.047
 417.609 256.984 c 418.066 248.555 418.328 235.402 416.969 220.621 c 416.191
 212.172 415.75 203.84 415.453 197.527 c 408.426 47.738 l 458.332 29.441
 l 464.293 27.258 468.293 21.527 468.293 15.184 c 468.293 6.812 461.48 0
 453.102 0 c h
317.352 226.336 m 332.281 40.32 l 332.289 40.215 332.293 40.105 332.293
 40 c 332.293 20 l 332.293 13.383 337.672 8 344.293 8 c 453.102 8 l 457.066
 8 460.293 11.223 460.293 15.188 c 460.293 18.188 458.398 20.898 455.578
 21.934 c 402.914 41.242 l 401.277 41.848 400.215 43.441 400.297 45.188 
c 407.461 197.906 l 407.762 204.305 408.207 212.75 409 221.363 c 410.32 
235.66 410.066 248.391 409.621 256.555 c 409.066 266.762 408.793 277.312
 408.793 288.816 c 408.793 341 l 301.961 341 l 310.637 282.285 l 311.398
 278.242 l 311.473 277.867 311.484 277.484 311.449 277.109 c 314.758 260.266
 l 316.477 251.508 317.352 242.531 317.352 233.598 c h
317.352 226.336 m f
218.734 263 m 217.734 263 l 215.969 263 214.41 264.156 213.902 265.852 
c 207.41 287.473 187.102 302.574 164.508 302.574 c 144.852 302.574 127.172
 291.641 118.367 274.035 c 117.539 272.379 115.672 271.504 113.871 271.934
 c 112.066 272.359 110.789 273.969 110.789 275.824 c 110.789 345 l 110.789
 347.207 112.582 349 114.789 349 c 230.254 349 l 231.418 349 232.523 348.492
 233.281 347.613 c 234.043 346.734 234.379 345.566 234.211 344.414 c 222.688
 266.414 l 222.402 264.453 220.719 263 218.734 263 c h
164.512 310.574 m 186.289 310.574 206.23 298.426 216.594 279.887 c 225.625
 341.004 l 118.793 341.004 l 118.793 289.227 l 129.953 302.641 146.516 310.574
 164.512 310.574 c h
164.512 310.574 m f
187.293 0 m 74.48 0 l 66.105 0 59.293 6.812 59.293 15.188 c 59.293 21.531
 63.297 27.262 69.25 29.445 c 114.406 46 l 118.727 47.586 123.328 48.48 
128.09 48.672 c 129.512 48.707 130.887 48.008 131.648 46.785 c 138.285 36.102
 149.719 29.723 162.227 29.723 c 174.652 29.723 186.043 36.035 192.695 46.602
 c 193.684 48.172 195.621 48.859 197.379 48.254 c 200.918 47.039 203.293
 43.719 203.293 39.996 c 203.293 15.996 l 203.293 7.18 196.113 0 187.293
 0 c h
126.195 40.531 m 123.055 40.227 120.027 39.543 117.156 38.488 c 72.004 
21.934 l 69.184 20.898 67.293 18.191 67.293 15.188 c 67.293 11.223 70.516
 8 74.477 8 c 187.293 8 l 191.703 8 195.293 11.59 195.293 16 c 195.293 36.734
 l 186.996 27.23 175.066 21.727 162.227 21.727 c 147.742 21.727 134.449 
28.707 126.195 40.531 c h
126.195 40.531 m f
123.078 70.008 m 122.977 70.008 122.875 70.012 122.773 70.02 c 120.77 70.172
 119.191 71.785 119.082 73.789 c 110.797 225.957 l 110.695 227.852 111.934
 229.555 113.766 230.039 c 115.605 230.523 117.52 229.656 118.367 227.965
 c 127.176 210.359 144.855 199.426 164.508 199.426 c 184.164 199.426 201.844
 210.359 210.652 227.965 c 211.516 229.684 213.48 230.551 215.328 230.02
 c 217.18 229.492 218.391 227.719 218.211 225.805 c 204.387 77.355 l 204.211
 75.461 202.723 73.949 200.828 73.75 c 198.93 73.543 197.16 74.711 196.59
 76.531 c 191.859 91.617 178.047 101.754 162.223 101.754 c 145.285 101.754
 130.469 89.738 126.988 73.184 c 126.598 71.32 124.957 70.008 123.078 70.008
 c h
119.578 211.852 m 126.16 90.926 l 134.223 102.398 147.574 109.754 162.227
 109.754 c 176.586 109.754 189.594 102.918 197.707 91.848 c 208.812 211.133
 l 197.695 198.715 181.762 191.426 164.512 191.426 c 146.934 191.426 130.723
 198.996 119.578 211.852 c h
119.578 211.852 m f
164.512 215.426 m 144.898 215.426 128.938 231.383 128.938 251 c 128.938
 270.617 144.895 286.574 164.512 286.574 c 184.129 286.574 200.086 270.617
 200.086 251 c 200.086 231.383 184.129 215.426 164.512 215.426 c h
164.512 278.574 m 149.309 278.574 136.938 266.207 136.938 251 c 136.938
 235.793 149.309 223.426 164.512 223.426 c 179.719 223.426 192.086 235.793
 192.086 251 c 192.086 266.207 179.719 278.574 164.512 278.574 c h
164.512 278.574 m f
162.227 39.008 m 147.484 39.008 135.492 51 135.492 65.738 c 135.492 80.48
 147.484 92.473 162.227 92.473 c 176.965 92.473 188.961 80.48 188.961 65.738
 c 188.961 50.996 176.969 39.008 162.227 39.008 c h
162.227 84.473 m 151.895 84.473 143.492 76.07 143.492 65.738 c 143.492 
55.41 151.895 47.008 162.227 47.008 c 172.555 47.008 180.961 55.41 180.961
 65.738 c 180.961 76.07 172.555 84.473 162.227 84.473 c h
162.227 84.473 m f
Q Q
showpage
%%Trailer
end restore
%%EOF
