%!PS-Adobe-3.0 EPSF-3.0
%%Creator: cairo 1.14.8 (http://cairographics.org)
%%CreationDate: Wed Mar 20 09:06:38 2019
%%Pages: 1
%%DocumentData: Clean7Bit
%%LanguageLevel: 2
%%BoundingBox: 15 0 474 488
%%EndComments
%%BeginProlog
save
50 dict begin
/q { gsave } bind def
/Q { grestore } bind def
/cm { 6 array astore concat } bind def
/w { setlinewidth } bind def
/J { setlinecap } bind def
/j { setlinejoin } bind def
/M { setmiterlimit } bind def
/d { setdash } bind def
/m { moveto } bind def
/l { lineto } bind def
/c { curveto } bind def
/h { closepath } bind def
/re { exch dup neg 3 1 roll 5 3 roll moveto 0 rlineto
      0 exch rlineto 0 rlineto closepath } bind def
/S { stroke } bind def
/f { fill } bind def
/f* { eofill } bind def
/n { newpath } bind def
/W { clip } bind def
/W* { eoclip } bind def
/BT { } bind def
/ET { } bind def
/pdfmark where { pop globaldict /?pdfmark /exec load put }
    { globaldict begin /?pdfmark /pop load def /pdfmark
    /cleartomark load def end } ifelse
/BDC { mark 3 1 roll /BDC pdfmark } bind def
/EMC { mark /EMC pdfmark } bind def
/cairo_store_point { /cairo_point_y exch def /cairo_point_x exch def } def
/Tj { show currentpoint cairo_store_point } bind def
/TJ {
  {
    dup
    type /stringtype eq
    { show } { -0.001 mul 0 cairo_font_matrix dtransform rmoveto } ifelse
  } forall
  currentpoint cairo_store_point
} bind def
/cairo_selectfont { cairo_font_matrix aload pop pop pop 0 0 6 array astore
    cairo_font exch selectfont cairo_point_x cairo_point_y moveto } bind def
/Tf { pop /cairo_font exch def /cairo_font_matrix where
      { pop cairo_selectfont } if } bind def
/Td { matrix translate cairo_font_matrix matrix concatmatrix dup
      /cairo_font_matrix exch def dup 4 get exch 5 get cairo_store_point
      /cairo_font where { pop cairo_selectfont } if } bind def
/Tm { 2 copy 8 2 roll 6 array astore /cairo_font_matrix exch def
      cairo_store_point /cairo_font where { pop cairo_selectfont } if } bind def
/g { setgray } bind def
/rg { setrgbcolor } bind def
/d1 { setcachedevice } bind def
%%EndProlog
%%BeginSetup
%%EndSetup
%%Page: 1 1
%%BeginPageSetup
%%PageBoundingBox: 15 0 474 488
%%EndPageSetup
q 15 0 459 488 rectclip q
0.643137 0.788235 1 rg
133.199 59.5 m 120.34 45.48 l 119.84 44.934 119.426 44.316 119.109 43.648
 c 118.152 41.621 l 116.43 37.961 117.965 33.582 121.586 31.84 c 171.668
 7.711 l 175.379 5.922 179.785 6.543 182.871 9.289 c 184.227 12.172 l 185.68
 15.262 185.406 18.898 183.508 21.73 c 170.098 41.727 l h
133.199 59.5 m f
0.215686 0.384314 0.8 rg
176.09 2.695 m 174 2.695 171.898 3.16 169.934 4.105 c 119.848 28.238 l 
114.27 30.926 111.887 37.691 114.535 43.324 c 115.488 45.348 l 115.977 46.391
 116.617 47.34 117.395 48.188 c 130.254 62.207 l 131.445 63.504 133.348 
63.871 134.938 63.105 c 171.828 45.324 l 172.473 45.016 173.016 44.543 173.414
 43.953 c 186.824 23.957 l 189.496 19.977 189.883 14.809 187.84 10.469 c
 186.48 7.59 l 186.25 7.102 185.926 6.664 185.523 6.309 c 182.863 3.93 179.496
 2.695 176.09 2.695 c h
134.141 54.609 m 123.285 42.781 l 123.059 42.531 122.867 42.25 122.727 
41.941 c 121.77 39.914 l 120.984 38.234 121.676 36.23 123.32 35.441 c 173.406
 11.312 l 175.445 10.332 177.816 10.543 179.645 11.828 c 180.609 13.875 
l 181.461 15.688 181.301 17.84 180.188 19.5 c 167.383 38.594 l h
134.141 54.609 m f
0.27451 0.443137 0.776471 rg
186.574 216.785 m 186.574 189.211 l 186.574 188.008 186.332 186.816 185.867
 185.707 c 133.109 60.23 l 171.945 41.363 l 238.172 164.895 l 239.395 167.18
 240.039 169.742 240.039 172.344 c 240.039 216.785 l h
186.574 216.785 m f
0.215686 0.384314 0.8 rg
171.941 37.363 m 171.355 37.363 170.758 37.492 170.199 37.766 c 131.359
 56.637 l 129.449 57.566 128.602 59.824 129.422 61.781 c 182.18 187.254 
l 182.441 187.879 182.574 188.535 182.574 189.211 c 182.574 216.785 l 182.574
 218.988 184.367 220.781 186.57 220.781 c 240.039 220.781 l 242.242 220.781
 244.035 218.988 244.035 216.785 c 244.035 172.344 l 244.035 169.098 243.223
 165.867 241.691 163.004 c 175.469 39.473 l 174.75 38.133 173.371 37.363
 171.941 37.363 c h
138.262 62.172 m 170.242 46.637 l 234.645 166.785 l 235.559 168.488 236.039
 170.406 236.039 172.344 c 236.039 212.785 l 190.574 212.785 l 190.574 189.211
 l 190.574 187.465 190.23 185.766 189.555 184.156 c h
138.262 62.172 m f
0.419608 0.866667 0.866667 rg
273.023 348.637 m 270.445 359.902 261.16 369.258 248.684 371.684 c 228.273
 375.648 l 214.832 378.266 201.902 369.914 199.391 357.004 c 176.25 237.941
 l 173.742 216.785 l 253.672 216.785 l 256.148 242.203 l 269.672 293.207
 l 269.863 293.934 270.02 294.668 270.199 295.398 c 270.23 295.395 l 278.777
 327.715 273.023 348.637 273.023 348.637 c h
273.023 348.637 m f
0.215686 0.384314 0.8 rg
253.676 212.785 m 173.742 212.785 l 172.602 212.785 171.512 213.273 170.754
 214.129 c 170 214.984 169.641 216.121 169.773 217.254 c 172.281 238.414
 l 172.293 238.512 172.309 238.609 172.324 238.707 c 195.469 357.766 l 196.895
 365.086 201.191 371.387 207.566 375.504 c 213.895 379.594 221.523 381.035
 229.039 379.574 c 249.449 375.605 l 263.09 372.953 273.859 362.758 276.898
 349.617 c 277.352 347.918 282.641 326.68 274.098 294.367 c 274.062 294.246
 274.027 294.129 273.984 294.012 c 273.895 293.641 l 273.781 293.152 273.668
 292.664 273.535 292.18 c 260.098 241.492 l 257.648 216.395 l 257.449 214.348
 255.73 212.785 253.676 212.785 c h
178.242 220.781 m 250.043 220.781 l 252.172 242.594 l 252.191 242.809 252.227
 243.023 252.285 243.23 c 265.809 294.234 l 265.918 294.641 266.012 295.047
 266.105 295.457 c 266.32 296.352 l 266.363 296.527 266.418 296.699 266.484
 296.863 c 274.441 327.348 269.215 347.387 269.164 347.586 c 269.148 347.637
 269.133 347.699 269.121 347.746 c 266.816 357.852 258.492 365.703 247.918
 367.758 c 227.512 371.727 l 222.023 372.785 216.484 371.75 211.902 368.789
 c 207.367 365.863 204.32 361.406 203.316 356.238 c 180.203 237.324 l h
178.242 220.781 m f
0.878431 0.921569 0.988235 rg
465.531 239.754 m 22.742 239.754 l 20.82 239.754 19.262 241.305 19.262 
243.23 c 19.262 256.055 l 19.262 257.977 20.82 259.539 22.742 259.539 c 
465.531 259.539 l 467.453 259.539 469.012 257.98 469.012 256.055 c 469.012
 243.23 l 469.012 241.305 467.453 239.754 465.531 239.754 c h
465.531 239.754 m f
0.976471 0.654902 0.654902 rg
49.836 5.469 m 49.836 36.055 l 49.836 37.676 51.156 38.992 52.777 38.992
 c 78.551 38.992 l 80.176 38.992 81.492 37.676 81.492 36.055 c 81.492 5.469
 l 81.492 4.656 80.836 3.996 80.02 3.996 c 51.309 3.996 l 50.496 3.996 49.836
 4.656 49.836 5.469 c h
49.836 5.469 m f
410.738 5.469 m 410.738 36.055 l 410.738 37.676 412.055 38.992 413.68 38.992
 c 439.449 38.992 l 441.078 38.992 442.395 37.676 442.395 36.055 c 442.395
 5.469 l 442.395 4.656 441.738 3.996 440.922 3.996 c 412.207 3.996 l 411.398
 3.996 410.738 4.656 410.738 5.469 c h
410.738 5.469 m f
0.976471 0.811765 0.811765 rg
269.27 475.656 m 289.902 471.645 303.383 451.664 299.367 431.031 c 295.109
 409.105 l 296.922 408.75 l 300.129 408.125 302.223 405.027 301.598 401.82
 c 300.977 398.617 297.871 396.523 294.668 397.148 c 291.832 397.699 l 285.93
 384.496 272.961 375.711 258.5 375.203 c 257.504 370.07 l 254.586 371.734
 251.371 372.973 247.891 373.652 c 229.059 377.312 l 227.711 377.574 226.379
 377.695 225.051 377.738 c 227.348 389.562 l 220.672 397.973 217.57 409.133
 219.777 420.5 c 224.648 445.559 l 228.66 466.188 248.637 479.664 269.27
 475.656 c h
269.27 475.656 m f
0.215686 0.384314 0.8 rg
281.391 411.453 m 283.289 411.086 285.133 412.328 285.504 414.23 c 286.617
 419.973 l 286.988 421.875 285.746 423.719 283.84 424.09 c 281.941 424.457
 280.098 423.215 279.727 421.312 c 278.609 415.57 l 278.242 413.668 279.484
 411.824 281.391 411.453 c h
281.391 411.453 m f
0.976471 0.811765 0.811765 rg
265.199 416.406 m 265.199 408.965 259.168 402.934 251.723 402.934 c 244.281
 402.934 238.25 408.965 238.25 416.406 c 238.25 423.848 244.281 429.879 
251.723 429.879 c 259.168 429.879 265.199 423.848 265.199 416.406 c h
265.199 416.406 m f
0.215686 0.384314 0.8 rg
257.504 366.066 m 256.816 366.066 256.133 366.242 255.523 366.59 c 252.871
 368.105 250.047 369.156 247.133 369.723 c 228.297 373.383 l 227.289 373.578
 226.188 373.695 224.918 373.738 c 223.75 373.777 222.652 374.328 221.926
 375.242 c 221.195 376.16 220.902 377.352 221.125 378.5 c 223.086 388.57
 l 216.262 397.992 213.629 409.797 215.855 421.262 c 220.723 446.32 l 225.152
 469.086 247.273 484.004 270.031 479.578 c 292.801 475.152 307.723 453.031
 303.297 430.27 c 299.75 412.039 l 301.469 411.297 302.941 410.078 304.012
 408.492 c 305.492 406.297 306.027 403.66 305.523 401.055 c 305.02 398.461
 303.531 396.215 301.34 394.734 c 299.188 393.285 296.609 392.738 294.062
 393.195 c 287.535 381.188 275.387 372.984 261.844 371.445 c 261.43 369.305
 l 261.184 368.039 260.344 366.969 259.172 366.434 c 258.641 366.188 258.07
 366.066 257.504 366.066 c h
229.801 381.234 m 229.809 381.234 229.812 381.234 229.82 381.23 c 248.652
 377.57 l 250.664 377.184 252.637 376.613 254.555 375.875 c 254.574 375.965
 l 254.93 377.793 256.5 379.133 258.359 379.199 c 271.211 379.645 282.914
 387.547 288.184 399.328 c 288.945 401.023 290.777 401.977 292.594 401.617
 c 295.43 401.066 l 296.117 400.941 296.617 401.191 296.863 401.359 c 297.109
 401.523 297.543 401.902 297.672 402.578 c 297.805 403.258 297.547 403.77
 297.383 404.016 c 297.215 404.258 296.836 404.691 296.164 404.82 c 294.344
 405.176 l 292.176 405.598 290.762 407.695 291.184 409.863 c 295.449 431.793
 l 299.031 450.227 286.945 468.145 268.508 471.727 c 250.078 475.305 232.16
 463.23 228.574 444.789 c 223.703 419.73 l 221.801 409.953 224.273 399.867
 230.48 392.043 c 231.207 391.129 231.496 389.941 231.273 388.793 c h
229.801 381.234 m f
0.27451 0.443137 0.776471 rg
222.941 472.527 m 222.941 472.523 l 231.586 481.41 244.812 485.883 258.402
 483.242 c 261.293 482.68 263.203 480.008 262.672 477.273 c 262.469 476.234
 l 262.707 477.457 263.301 478.516 264.125 479.34 c 264.125 479.344 l 264.125
 479.344 264.379 479.676 265.008 480.07 c 265.848 480.645 266.832 481.016
 267.875 481.125 c 269.363 481.41 271.391 481.492 274.078 481.086 c 274.086
 481.086 274.09 481.086 274.094 481.082 c 276.883 480.66 280.391 479.711
 284.77 477.898 c 288.02 476.895 291.02 475.43 293.727 473.598 c 293.734
 473.594 293.746 473.59 293.754 473.582 c 293.754 473.578 l 295.289 472.539
 296.719 471.375 298.047 470.113 c 298.629 469.582 298.91 469.266 298.91
 469.266 c 306.281 461.742 309.965 450.945 307.824 439.949 c 305.508 428.051
 l 305.402 427.5 304.859 427.141 304.301 427.25 c 254.816 436.867 l 249.805
 411.078 l 247.914 401.348 l 239.582 390.332 l 239.344 390.02 238.945 389.867
 238.555 389.945 c 234.488 390.734 l 233.039 391.016 l 223.055 392.957 l
 221.488 393.262 219.988 393.781 218.605 394.488 c 218.562 394.52 217.117
 395.488 216.68 396.633 c 215.641 399.34 213.199 405.707 210.98 411.52 c
 207.688 420.152 206.68 429.469 208.219 438.535 c 212.441 463.367 222.941
 472.527 222.941 472.527 c h
222.941 472.527 m f
0.215686 0.384314 0.8 rg
238.742 385.93 m 238.426 385.93 238.105 385.961 237.789 386.023 c 222.293
 389.031 l 220.379 389.402 218.531 390.043 216.789 390.934 c 216.664 390.996
 216.543 391.066 216.426 391.141 c 215.996 391.422 213.82 392.926 212.945
 395.199 c 211.91 397.906 209.465 404.277 207.246 410.094 c 203.664 419.48
 202.641 429.543 204.281 439.203 c 208.512 464.129 218.98 474.324 220.207
 475.449 c 230.172 485.59 244.719 489.98 259.164 487.164 c 261.195 486.77
 263 485.754 264.359 484.273 c 265.266 484.672 266.266 484.953 267.285 485.078
 c 269.434 485.465 271.922 485.453 274.676 485.035 c 274.707 485.031 274.734
 485.023 274.766 485.02 c 278.129 484.504 281.953 483.379 286.133 481.66
 c 289.586 480.57 292.855 478.996 295.855 476.988 c 295.965 476.922 296.066
 476.852 296.164 476.773 c 297.785 475.656 299.348 474.395 300.805 473.008
 c 301.48 472.391 301.848 471.977 301.879 471.941 c 310.324 463.328 314.055
 451.035 311.746 439.18 c 309.438 427.285 l 309.18 425.957 308.414 424.816
 307.289 424.07 c 306.176 423.332 304.844 423.066 303.539 423.324 c 257.984
 432.18 l 251.84 400.586 l 251.723 399.988 251.473 399.426 251.105 398.938
 c 242.77 387.918 l 241.809 386.652 240.301 385.93 238.742 385.93 c h
220.688 397.922 m 221.688 397.441 222.738 397.09 223.82 396.879 c 237.512
 394.219 l 244.168 403.02 l 250.895 437.629 l 251.098 438.672 251.703 439.586
 252.586 440.18 c 253.465 440.773 254.539 440.996 255.582 440.789 c 302.16
 431.738 l 303.902 440.707 l 305.703 449.98 302.773 459.609 296.062 466.465
 c 295.902 466.637 295.703 466.84 295.355 467.16 c 294.105 468.344 292.832
 469.375 291.508 470.273 c 291.484 470.289 291.465 470.305 291.445 470.316
 c 289.031 471.941 286.387 473.211 283.586 474.082 c 283.469 474.117 283.355
 474.156 283.242 474.207 c 279.566 475.727 276.285 476.711 273.5 477.133
 c 273.465 477.137 273.434 477.141 273.398 477.148 c 271.039 477.492 269.504
 477.367 268.621 477.195 c 268.512 477.176 268.406 477.16 268.293 477.148
 c 267.926 477.109 267.57 476.98 267.258 476.77 c 267.258 476.77 267.137
 476.688 267.078 476.648 c 267.039 476.605 267 476.562 266.957 476.523 c
 266.66 476.227 266.469 475.871 266.395 475.473 c 265.973 473.305 263.887
 471.875 261.703 472.309 c 259.539 472.73 258.121 474.828 258.543 476.996
 c 258.746 478.031 l 258.805 478.336 258.68 478.586 258.566 478.746 c 258.445
 478.914 258.164 479.215 257.633 479.32 c 245.793 481.609 233.879 478.043
 225.805 469.742 c 225.715 469.648 225.621 469.562 225.527 469.48 c 224.691
 468.676 215.867 459.723 212.16 437.867 c 210.758 429.617 211.641 421.004
 214.711 412.949 c 216.883 407.258 219.27 401.031 220.34 398.242 c 220.426
 398.148 220.559 398.027 220.688 397.922 c h
293.73 473.598 m 293.75 473.598 l h
267.32 476.93 m 267.32 476.93 267.316 476.93 267.316 476.926 c 267.316 
476.93 267.32 476.93 267.32 476.93 c h
267.324 476.938 m 267.324 476.938 267.32 476.934 267.32 476.934 c 267.32
 476.934 267.324 476.938 267.324 476.938 c h
267.324 476.938 m f
0.976471 0.811765 0.811765 rg
265.199 416.406 m 265.199 408.965 259.168 402.934 251.723 402.934 c 244.281
 402.934 238.25 408.965 238.25 416.406 c 238.25 423.848 244.281 429.879 
251.723 429.879 c 259.168 429.879 265.199 423.848 265.199 416.406 c h
265.199 416.406 m f
0.878431 0.921569 0.988235 rg
416.57 239.754 19.988 -200.762 re f
54.668 239.754 21.988 -200.762 re f
0.215686 0.384314 0.8 rg
80.02 0 m 51.309 0 l 48.293 0 45.836 2.453 45.836 5.469 c 45.836 36.055
 l 45.836 39.879 48.953 42.996 52.777 42.996 c 78.551 42.996 l 82.375 42.996
 85.492 39.879 85.492 36.055 c 85.492 5.469 l 85.488 2.449 83.035 0 80.02
 0 c h
53.832 7.996 m 77.492 7.996 l 77.492 35 l 53.832 35 l h
53.832 7.996 m f
440.922 0 m 412.207 0 l 409.191 0 406.742 2.453 406.742 5.469 c 406.742
 36.055 l 406.742 39.879 409.855 42.996 413.684 42.996 c 439.453 42.996 
l 443.277 42.996 446.395 39.879 446.395 36.055 c 446.395 5.469 l 446.395
 2.449 443.938 0 440.922 0 c h
414.738 7.996 m 438.398 7.996 l 438.398 35 l 414.738 35 l h
414.738 7.996 m f
436.559 34.996 m 416.57 34.996 l 414.367 34.996 412.574 36.789 412.574 
38.992 c 412.574 239.754 l 412.574 241.957 414.367 243.75 416.57 243.75 
c 436.559 243.75 l 438.766 243.75 440.559 241.957 440.559 239.754 c 440.559
 38.992 l 440.559 36.789 438.766 34.996 436.559 34.996 c h
420.57 42.992 m 432.562 42.992 l 432.562 235.754 l 420.57 235.754 l h
420.57 42.992 m f
76.656 34.996 m 54.668 34.996 l 52.461 34.996 50.672 36.789 50.672 38.992
 c 50.672 239.754 l 50.672 241.957 52.461 243.75 54.668 243.75 c 76.656 
243.75 l 78.867 243.75 80.652 241.957 80.652 239.754 c 80.652 38.992 l 80.652
 36.789 78.867 34.996 76.656 34.996 c h
58.668 42.992 m 72.66 42.992 l 72.66 235.754 l 58.668 235.754 l h
58.668 42.992 m f
465.531 235.754 m 22.742 235.754 l 18.617 235.754 15.266 239.109 15.266
 243.227 c 15.266 256.055 l 15.266 260.18 18.617 263.531 22.742 263.531 
c 465.531 263.531 l 469.656 263.531 473.008 260.18 473.008 256.055 c 473.008
 243.227 l 473.008 239.109 469.656 235.754 465.531 235.754 c h
23.262 243.75 m 465.012 243.75 l 465.012 255.535 l 23.262 255.535 l h
23.262 243.75 m f
224.582 298.355 m 223.047 298.355 221.586 299.242 220.922 300.738 c 206.613
 333.055 l 203.707 339.621 203.531 346.93 206.117 353.633 c 208.707 360.332
 213.746 365.629 220.316 368.535 c 226.887 371.441 234.195 371.621 240.891
 369.031 c 247.594 366.441 252.887 361.398 255.793 354.828 c 270.102 322.512
 l 270.996 320.492 270.082 318.133 268.066 317.234 c 226.195 298.699 l 225.672
 298.469 225.121 298.355 224.582 298.355 c h
231.199 362.855 m 228.598 362.855 226.008 362.309 223.555 361.223 c 218.941
 359.184 215.395 355.465 213.574 350.754 c 211.758 346.047 211.883 340.91
 213.922 336.297 c 226.613 307.633 l 261.176 322.934 l 248.484 351.598 l
 246.445 356.215 242.723 359.754 238.016 361.574 c 235.805 362.426 233.504
 362.855 231.199 362.855 c h
231.199 362.855 m f
0.976471 0.811765 0.811765 rg
353.129 267.242 m 344.961 262.359 l 279.211 288.98 l 277.32 289.746 275.797
 291.211 274.965 293.074 c 263.117 319.418 l 231.996 305.637 l 251.008 268.578
 l 252.664 265.348 255.605 262.969 259.113 262.027 c 336.023 241.379 l 346.883
 232.109 l 347.73 231.387 348.84 231.055 349.945 231.191 c 374.09 234.195
 l 376.094 234.445 377.59 236.16 377.559 238.184 c 377.227 261.418 l 377.199
 263.375 375.742 265.016 373.805 265.281 c 355.699 267.762 l 354.809 267.883
 353.902 267.703 353.129 267.242 c h
353.129 267.242 m f
0.215686 0.384314 0.8 rg
349.453 227.16 m 347.578 227.16 345.734 227.832 344.293 229.062 c 334.109
 237.754 l 258.078 258.172 l 253.492 259.402 249.617 262.531 247.453 266.758
 c 228.438 303.812 l 227.938 304.793 227.859 305.938 228.227 306.973 c 228.594
 308.012 229.371 308.852 230.379 309.297 c 261.5 323.078 l 263.512 323.957
 265.867 323.062 266.77 321.059 c 278.613 294.715 l 279.027 293.789 279.773
 293.07 280.719 292.688 c 344.621 266.812 l 351.086 270.672 l 352.625 271.594
 354.449 271.973 356.238 271.723 c 374.352 269.242 l 378.277 268.703 381.164
 265.441 381.223 261.477 c 381.559 238.238 l 381.613 234.176 378.617 230.734
 374.59 230.23 c 350.441 227.223 l 350.113 227.184 349.785 227.16 349.453
 227.16 c h
237.484 303.695 m 254.559 270.406 l 255.699 268.184 257.738 266.539 260.152
 265.891 c 337.059 245.242 l 337.633 245.09 338.164 244.805 338.613 244.422
 c 349.48 235.148 l 373.594 238.164 l 373.227 261.359 l 355.168 263.801 
l 347.008 258.93 l 345.93 258.285 344.625 258.188 343.461 258.652 c 277.707
 285.277 l 274.852 286.434 272.582 288.621 271.316 291.434 c 261.105 314.152
 l h
353.129 267.242 m 353.148 267.242 l h
353.129 267.242 m f
0.643137 0.788235 1 rg
216.078 38.992 m 209.535 17.586 l 209.309 16.848 209.195 16.082 209.195
 15.316 c 209.195 11.605 l 209.195 7.406 212.523 3.996 216.621 3.996 c 281.391
 3.996 l 286.117 3.996 290.391 6.887 292.254 11.34 c 292.254 15.059 l 292.254
 19.047 290.188 22.738 286.832 24.75 c 263.113 38.992 l h
216.078 38.992 m f
0.215686 0.384314 0.8 rg
281.395 0 m 216.621 0 l 210.324 0 205.199 5.203 205.199 11.605 c 205.199
 15.312 l 205.199 16.48 205.375 17.641 205.711 18.758 c 212.258 40.164 l
 212.77 41.848 214.32 42.996 216.078 42.996 c 263.113 42.996 l 263.836 42.996
 264.551 42.797 265.172 42.426 c 288.891 28.18 l 293.43 25.453 296.254 20.426
 296.254 15.062 c 296.254 11.34 l 296.254 10.812 296.148 10.289 295.945 
9.801 c 293.457 3.844 287.746 0 281.395 0 c h
219.039 34.996 m 213.359 16.414 l 213.246 16.059 213.191 15.688 213.191
 15.312 c 213.191 11.602 l 213.191 9.609 214.73 7.996 216.621 7.996 c 281.395
 7.996 l 284.27 7.996 286.898 9.629 288.258 12.223 c 288.258 15.059 l 288.258
 17.633 286.922 20.031 284.773 21.324 c 262.004 34.996 l h
219.039 34.996 m f
0.27451 0.443137 0.776471 rg
253.07 213.656 m 253.41 216.785 l 182.086 216.785 l 180.438 208.059 180.477
 199.059 182.297 190.316 c 187.188 166.816 l 213.141 39.32 l 216.156 38.992
 l 258.32 38.992 l 258.246 39.469 l h
253.07 213.656 m f
0.215686 0.384314 0.8 rg
258.32 34.996 m 216.156 34.996 l 216.012 34.996 215.867 35.004 215.723 
35.02 c 212.707 35.348 l 210.98 35.535 209.57 36.82 209.223 38.52 c 183.273
 166.016 l 178.383 189.5 l 176.465 198.719 176.391 208.148 178.156 217.527
 c 178.512 219.41 180.164 220.781 182.086 220.781 c 253.414 220.781 l 254.543
 220.781 255.625 220.297 256.383 219.453 c 257.145 218.609 257.508 217.48
 257.383 216.352 c 257.074 213.496 l 262.23 39.844 l 262.266 39.621 l 262.453
 38.465 262.121 37.285 261.363 36.398 c 260.605 35.508 259.492 34.996 258.32
 34.996 c h
216.473 42.992 m 254.141 42.992 l 249.098 212.785 l 185.48 212.785 l 184.488
 205.52 184.727 198.25 186.211 191.125 c 191.105 167.629 l h
216.473 42.992 m f
Q Q
showpage
%%Trailer
end restore
%%EOF
