%!PS-Adobe-3.0 EPSF-3.0
%%Creator: cairo 1.14.8 (http://cairographics.org)
%%CreationDate: Wed Mar 20 09:06:38 2019
%%Pages: 1
%%DocumentData: Clean7Bit
%%LanguageLevel: 2
%%BoundingBox: 0 16 483 467
%%EndComments
%%BeginProlog
save
50 dict begin
/q { gsave } bind def
/Q { grestore } bind def
/cm { 6 array astore concat } bind def
/w { setlinewidth } bind def
/J { setlinecap } bind def
/j { setlinejoin } bind def
/M { setmiterlimit } bind def
/d { setdash } bind def
/m { moveto } bind def
/l { lineto } bind def
/c { curveto } bind def
/h { closepath } bind def
/re { exch dup neg 3 1 roll 5 3 roll moveto 0 rlineto
      0 exch rlineto 0 rlineto closepath } bind def
/S { stroke } bind def
/f { fill } bind def
/f* { eofill } bind def
/n { newpath } bind def
/W { clip } bind def
/W* { eoclip } bind def
/BT { } bind def
/ET { } bind def
/pdfmark where { pop globaldict /?pdfmark /exec load put }
    { globaldict begin /?pdfmark /pop load def /pdfmark
    /cleartomark load def end } ifelse
/BDC { mark 3 1 roll /BDC pdfmark } bind def
/EMC { mark /EMC pdfmark } bind def
/cairo_store_point { /cairo_point_y exch def /cairo_point_x exch def } def
/Tj { show currentpoint cairo_store_point } bind def
/TJ {
  {
    dup
    type /stringtype eq
    { show } { -0.001 mul 0 cairo_font_matrix dtransform rmoveto } ifelse
  } forall
  currentpoint cairo_store_point
} bind def
/cairo_selectfont { cairo_font_matrix aload pop pop pop 0 0 6 array astore
    cairo_font exch selectfont cairo_point_x cairo_point_y moveto } bind def
/Tf { pop /cairo_font exch def /cairo_font_matrix where
      { pop cairo_selectfont } if } bind def
/Td { matrix translate cairo_font_matrix matrix concatmatrix dup
      /cairo_font_matrix exch def dup 4 get exch 5 get cairo_store_point
      /cairo_font where { pop cairo_selectfont } if } bind def
/Tm { 2 copy 8 2 roll 6 array astore /cairo_font_matrix exch def
      cairo_store_point /cairo_font where { pop cairo_selectfont } if } bind def
/g { setgray } bind def
/rg { setrgbcolor } bind def
/d1 { setcachedevice } bind def
%%EndProlog
%%BeginSetup
%%EndSetup
%%Page: 1 1
%%BeginPageSetup
%%PageBoundingBox: 0 16 483 467
%%EndPageSetup
q 0 16 483 451 rectclip q
0.976471 0.811765 0.811765 rg
461.629 116.484 m 84.082 116.484 l 79.664 116.484 76.082 120.066 76.082
 124.484 c 76.082 260.582 l 469.629 260.582 l 469.629 124.484 l 469.629 
120.066 466.047 116.484 461.629 116.484 c h
461.629 116.484 m f
0.878431 0.921569 0.988235 rg
115.594 166.812 m 95.598 166.812 l 93.664 166.812 92.102 168.379 92.102
 170.309 c 92.102 214.059 l 92.102 215.992 93.668 217.555 95.598 217.555
 c 115.594 217.555 l 117.523 217.555 119.09 215.988 119.09 214.059 c 119.09
 170.309 l 119.09 168.379 117.523 166.812 115.594 166.812 c h
115.594 166.812 m f
164.316 166.812 m 144.324 166.812 l 142.391 166.812 140.824 168.379 140.824
 170.309 c 140.824 214.059 l 140.824 215.992 142.391 217.555 144.324 217.555
 c 164.316 217.555 l 166.246 217.555 167.812 215.988 167.812 214.059 c 167.812
 170.309 l 167.812 168.379 166.246 166.812 164.316 166.812 c h
164.316 166.812 m f
400.914 166.812 m 380.922 166.812 l 378.992 166.812 377.426 168.379 377.426
 170.309 c 377.426 214.059 l 377.426 215.992 378.992 217.555 380.922 217.555
 c 400.914 217.555 l 402.848 217.555 404.414 215.988 404.414 214.059 c 404.414
 170.309 l 404.414 168.379 402.848 166.812 400.914 166.812 c h
400.914 166.812 m f
449.645 166.812 m 429.648 166.812 l 427.715 166.812 426.148 168.379 426.148
 170.309 c 426.148 214.059 l 426.148 215.992 427.715 217.555 429.648 217.555
 c 449.645 217.555 l 451.574 217.555 453.141 215.988 453.141 214.059 c 453.141
 170.309 l 453.141 168.379 451.574 166.812 449.645 166.812 c h
449.645 166.812 m f
0.215686 0.384314 0.8 rg
461.629 112.488 m 84.078 112.488 l 77.461 112.488 72.078 117.867 72.078
 124.484 c 72.078 260.586 l 72.078 262.793 73.871 264.586 76.078 264.586
 c 469.629 264.586 l 471.836 264.586 473.629 262.793 473.629 260.586 c 473.629
 124.484 l 473.629 117.867 468.246 112.488 461.629 112.488 c h
80.078 256.586 m 80.078 124.484 l 80.078 122.277 81.871 120.484 84.078 
120.484 c 461.629 120.484 l 463.836 120.484 465.629 122.277 465.629 124.484
 c 465.629 256.586 l h
80.078 256.586 m f
0.976471 0.654902 0.654902 rg
66.707 277.195 412.293 -30.203 re f
0.215686 0.384314 0.8 rg
479 242.992 m 66.707 242.992 l 64.5 242.992 62.707 244.785 62.707 246.992
 c 62.707 277.199 l 62.707 279.406 64.5 281.199 66.707 281.199 c 479 281.199
 l 481.211 281.199 483 279.406 483 277.199 c 483 246.992 l 483 244.785 481.211
 242.992 479 242.992 c h
70.707 250.992 m 475 250.992 l 475 273.199 l 70.707 273.199 l h
70.707 250.992 m f
0.419608 0.866667 0.866667 rg
272.977 462.949 43.781 -30.203 re f
0.643137 0.788235 1 rg
272.848 388.324 m 181.18 318.359 l 181.18 116.488 l 364.52 116.488 l 364.52
 318.359 l h
272.848 388.324 m f
0.419608 0.866667 0.866667 rg
339.191 116.484 m 206.414 116.484 l 204.422 116.484 202.809 118.102 202.809
 120.09 c 202.809 130.625 l 202.809 132.617 204.422 134.23 206.414 134.23
 c 339.191 134.23 l 341.184 134.23 342.797 132.617 342.797 130.625 c 342.797
 120.09 l 342.797 118.102 341.184 116.484 339.191 116.484 c h
339.191 116.484 m f
0.27451 0.443137 0.776471 rg
308.848 137.781 m 236.855 137.781 l 236.855 193.203 l 236.855 206.773 247.855
 217.773 261.426 217.773 c 284.285 217.773 l 297.855 217.773 308.852 206.773
 308.852 193.203 c 308.852 137.781 l h
308.848 137.781 m f
1 0.917647 0.572549 rg
312.973 286.379 m 312.973 264.285 295.066 246.383 272.977 246.383 c 250.891
 246.383 232.984 264.285 232.984 286.379 c 232.984 308.465 250.891 326.375
 272.977 326.375 c 295.066 326.375 312.973 308.465 312.973 286.379 c h
312.973 286.379 m f
0.878431 0.921569 0.988235 rg
300.977 286.379 m 300.977 270.914 288.441 258.383 272.977 258.383 c 257.516
 258.383 244.98 270.914 244.98 286.379 c 244.98 301.84 257.516 314.375 272.977
 314.375 c 288.441 314.375 300.977 301.84 300.977 286.379 c h
300.977 286.379 m f
0.215686 0.384314 0.8 rg
272.977 393.051 m 270.773 393.051 268.98 394.844 268.98 397.051 c 268.98
 462.949 l 268.98 465.16 270.773 466.949 272.977 466.949 c 275.184 466.949
 276.977 465.16 276.977 462.949 c 276.977 397.051 l 276.977 394.84 275.188
 393.051 272.977 393.051 c h
272.977 393.051 m f
0.976471 0.654902 0.654902 rg
385.031 327.52 m 272.848 413.559 l 160.668 327.52 l 159.094 326.312 158.641
 324.137 159.602 322.406 c 165.496 311.777 l 166.684 309.641 169.492 309.055
 171.43 310.543 c 272.848 388.328 l 374.27 310.543 l 376.207 309.055 379.016
 309.637 380.199 311.777 c 386.094 322.406 l 387.059 324.137 386.605 326.312
 385.031 327.52 c h
385.031 327.52 m f
0.215686 0.384314 0.8 rg
364.523 112.492 m 181.18 112.492 l 178.969 112.492 177.18 114.285 177.18
 116.488 c 177.18 318.359 l 177.18 319.609 177.762 320.785 178.754 321.539
 c 270.426 391.504 l 271.859 392.598 273.844 392.598 275.277 391.504 c 366.949
 321.539 l 367.941 320.785 368.523 319.609 368.523 318.359 c 368.523 116.488
 l 368.523 114.281 366.73 112.492 364.523 112.492 c h
185.18 120.488 m 360.523 120.488 l 360.523 316.383 l 272.848 383.293 l 
185.18 316.383 l h
185.18 120.488 m f
168.996 305.715 m 168.453 305.715 167.91 305.77 167.367 305.883 c 165.09
 306.355 163.137 307.797 162.004 309.836 c 156.105 320.465 l 154.199 323.898
 155.109 328.297 158.23 330.695 c 270.422 416.73 l 271.855 417.832 273.852
 417.832 275.285 416.73 c 387.473 330.695 l 390.59 328.301 391.504 323.902
 389.598 320.465 c 383.699 309.836 l 382.57 307.797 380.617 306.359 378.336
 305.883 c 376.051 305.414 373.688 305.949 371.84 307.367 c 272.852 383.285
 l 173.863 307.367 l 172.457 306.285 170.742 305.715 168.996 305.715 c h
272.848 408.516 m 163.102 324.348 l 168.996 313.715 l 270.418 391.5 l 271.852
 392.602 273.848 392.602 275.281 391.5 c 376.703 313.715 l 382.602 324.348
 l h
272.848 408.516 m f
339.191 112.488 m 206.414 112.488 l 202.219 112.488 198.812 115.898 198.812
 120.09 c 198.812 130.629 l 198.812 134.824 202.219 138.234 206.414 138.234
 c 339.191 138.234 l 343.387 138.234 346.797 134.824 346.797 130.629 c 346.797
 120.09 l 346.793 115.898 343.387 112.488 339.191 112.488 c h
206.809 120.484 m 338.797 120.484 l 338.797 130.23 l 206.809 130.23 l h
206.809 120.484 m f
316.758 428.746 m 272.977 428.746 l 270.773 428.746 268.98 430.539 268.98
 432.746 c 268.98 462.949 l 268.98 465.16 270.773 466.949 272.977 466.949
 c 316.758 466.949 l 318.965 466.949 320.758 465.16 320.758 462.949 c 320.758
 432.746 l 320.758 430.539 318.965 428.746 316.758 428.746 c h
276.977 436.746 m 312.758 436.746 l 312.758 458.949 l 276.977 458.949 l
 h
276.977 436.746 m f
0.976471 0.654902 0.654902 rg
218.625 22.855 m 265.57 52.617 l 268.316 54.359 269.129 57.996 267.387 
60.742 c 266.809 61.656 l 265.066 64.406 261.426 65.219 258.68 63.477 c 
205.164 29.551 l 207.883 25.258 l 210.188 21.633 214.996 20.555 218.625 
22.855 c h
218.625 22.855 m f
0.976471 0.811765 0.811765 rg
98.773 340.094 m 117.645 340.094 132.941 324.801 132.941 305.93 c 132.941
 285.875 l 134.602 285.875 l 137.531 285.875 139.91 283.5 139.91 280.57 
c 139.91 277.641 137.531 275.266 134.602 275.266 c 132.008 275.266 l 129.07
 262.617 119.145 252.652 106.492 249.73 c 106.492 245.035 l 103.633 246 
100.586 246.547 97.406 246.547 c 80.188 246.547 l 78.957 246.547 77.758 
246.422 76.582 246.234 c 76.582 257.051 l 69.258 263.312 64.609 272.617 
64.609 283.012 c 64.609 305.93 l 64.609 324.801 79.906 340.094 98.773 340.094
 c h
98.773 340.094 m f
0.976471 0.654902 0.654902 rg
10.852 243.57 m 49.324 243.57 l 53.719 243.57 57.281 240.008 57.281 235.609
 c 57.281 173.801 l 52.215 169.895 47.613 165.422 43.582 160.461 c 43.582
 229.867 l 10.852 229.867 l 7.066 229.867 4 232.938 4 236.719 c 4.004 240.504
 7.066 243.57 10.852 243.57 c h
10.852 243.57 m f
0.215686 0.384314 0.8 rg
43.582 156.461 m 43.133 156.461 42.684 156.535 42.242 156.691 c 40.648 
157.258 39.582 158.77 39.582 160.461 c 39.582 225.867 l 10.852 225.867 l
 4.867 225.867 0 230.734 0 236.719 c 0 242.703 4.867 247.57 10.852 247.57
 c 49.324 247.57 l 55.914 247.57 61.277 242.203 61.277 235.613 c 61.277 
173.801 l 61.277 172.559 60.703 171.387 59.719 170.629 c 54.895 166.914 
50.512 162.645 46.684 157.941 c 45.91 156.984 44.762 156.461 43.582 156.461
 c h
10.852 239.57 m 9.281 239.57 8 238.289 8 236.719 c 8 235.148 9.281 233.867
 10.852 233.867 c 43.582 233.867 l 45.789 233.867 47.582 232.074 47.582 
229.867 c 47.582 170.707 l 49.406 172.465 51.309 174.145 53.285 175.738 
c 53.285 235.609 l 53.285 237.793 51.508 239.566 49.324 239.566 c 10.852
 239.566 l h
57.281 173.797 m 57.301 173.797 l h
57.281 173.797 m f
120.449 285.598 m 122.191 285.598 123.602 287.008 123.602 288.75 c 123.602
 294.004 l 123.602 295.742 122.191 297.148 120.449 297.148 c 118.711 297.148
 117.297 295.742 117.297 294.004 c 117.297 288.75 l 117.297 287.012 118.711
 285.598 120.449 285.598 c h
120.449 285.598 m f
0.643137 0.788235 1 rg
227.676 73.637 m 249.406 77.336 l 251.332 77.664 253.285 76.945 254.59 
75.418 c 258.344 71.031 l 259.289 69.926 259.812 68.496 259.812 67.016 c
 259.812 64.898 258.75 62.941 257.02 61.855 c 223.215 40.66 l 221.305 39.461
 219.043 39.043 216.855 39.484 c 214.211 40.02 211.934 41.758 210.633 44.227
 c 206.824 51.48 l 205.68 53.664 206.223 56.398 208.109 57.914 c h
227.676 73.637 m f
0.215686 0.384314 0.8 rg
218.578 35.312 m 217.742 35.312 216.902 35.395 216.066 35.566 c 212.23 
36.34 208.957 38.816 207.094 42.367 c 203.285 49.621 l 201.242 53.512 202.219
 58.312 205.605 61.035 c 225.168 76.75 l 225.699 77.18 226.332 77.461 227.004
 77.578 c 248.734 81.277 l 252.078 81.848 255.398 80.625 257.629 78.02 c
 261.383 73.633 l 262.945 71.805 263.812 69.453 263.812 67.012 c 263.812
 63.547 262.023 60.27 259.148 58.465 c 225.34 37.27 l 223.281 35.98 220.949
 35.312 218.578 35.312 c h
229.371 69.867 m 210.617 54.797 l 210.223 54.48 210.109 53.828 210.367 
53.34 c 214.176 46.082 l 214.918 44.676 216.184 43.699 217.648 43.402 c 
218.828 43.16 220.047 43.387 221.09 44.043 c 254.898 65.242 l 255.457 65.594
 255.812 66.277 255.812 67.012 c 255.812 67.547 255.629 68.051 255.309 68.43
 c 251.547 72.816 l 251.164 73.273 250.621 73.488 250.074 73.395 c h
229.371 69.867 m f
0.27451 0.443137 0.776471 rg
163.746 158.695 m 170.684 158.695 177.488 156.613 183.426 152.672 c 188.918
 149.031 193.48 143.922 196.688 137.82 c 231.402 76.938 l 232.094 75.723
 231.832 74.129 230.797 73.254 c 208.77 54.676 l 207.609 53.699 205.938 
53.996 205.121 55.328 c 176.051 102.695 l 172.906 107.473 l 171.477 109.645
 169.184 110.93 166.742 110.93 c 79.109 110.93 l 67.051 110.93 57.281 121.652
 57.281 134.887 c 57.281 158.695 l h
163.746 158.695 m f
0.215686 0.384314 0.8 rg
207.219 50.102 m 206.887 50.102 206.551 50.129 206.219 50.18 c 204.363 
50.477 202.719 51.594 201.707 53.234 c 172.641 100.605 l 169.566 105.273
 l 168.879 106.309 167.824 106.93 166.738 106.93 c 79.109 106.93 l 64.867
 106.93 53.285 119.469 53.285 134.883 c 53.285 158.691 l 53.285 160.898 
55.07 162.691 57.281 162.691 c 163.746 162.691 l 171.469 162.691 179.039
 160.379 185.633 156.004 c 191.668 152 196.711 146.359 200.219 139.684 c
 234.871 78.91 l 236.508 76.047 235.863 72.297 233.371 70.195 c 211.344 
51.617 l 210.176 50.633 208.711 50.102 207.219 50.102 c h
61.281 154.691 m 61.281 134.887 l 61.281 123.879 69.277 114.926 79.109 
114.926 c 166.738 114.926 l 170.523 114.926 174.078 112.969 176.246 109.672
 c 179.391 104.895 l 207.602 58.93 l 227.496 75.707 l 193.211 135.84 l 190.254
 141.453 186.125 146.082 181.207 149.348 c 175.93 152.844 169.891 154.695
 163.742 154.695 c 61.281 154.695 l h
227.926 74.957 m 227.945 74.957 l h
227.926 74.957 m f
0.419608 0.866667 0.866667 rg
78.863 110.93 m 125.789 110.93 l 125.789 218.965 l 125.789 234.195 113.438
 246.547 98.203 246.547 c 79.543 246.547 l 67.25 246.547 57.281 236.578 
57.281 224.285 c 57.281 132.512 l 57.281 120.59 66.945 110.93 78.863 110.93
 c h
78.863 110.93 m f
0.215686 0.384314 0.8 rg
125.789 106.93 m 78.863 106.93 l 64.758 106.93 53.285 118.402 53.285 132.508
 c 53.285 224.285 l 53.285 238.766 65.062 250.547 79.543 250.547 c 98.203
 250.547 l 115.621 250.547 129.785 236.375 129.785 218.965 c 129.785 110.93
 l 129.785 108.723 127.996 106.93 125.789 106.93 c h
79.543 242.547 m 69.473 242.547 61.281 234.355 61.281 224.285 c 61.281 
132.508 l 61.281 122.812 69.168 114.926 78.863 114.926 c 121.789 114.926
 l 121.789 218.961 l 121.789 231.965 111.211 242.543 98.203 242.543 c 79.543
 242.543 l h
79.543 242.547 m f
1 0.917647 0.572549 rg
184.25 103.207 m 184.25 57.785 147.426 20.961 102.004 20.961 c 56.578 20.961
 19.758 57.785 19.758 103.207 c 19.758 148.633 56.578 185.453 102.004 185.453
 c 147.426 185.453 184.25 148.633 184.25 103.207 c h
184.25 103.207 m f
0.215686 0.384314 0.8 rg
102.004 16.961 m 54.445 16.961 15.762 55.652 15.762 103.207 c 15.762 150.762
 54.445 189.449 102.004 189.449 c 149.559 189.449 188.25 150.762 188.25 
103.207 c 188.25 55.652 149.559 16.961 102.004 16.961 c h
102.004 181.453 m 58.859 181.453 23.758 146.352 23.758 103.207 c 23.758
 60.062 58.859 24.961 102.004 24.961 c 145.145 24.961 180.25 60.062 180.25
 103.207 c 180.25 146.352 145.145 181.453 102.004 181.453 c h
102.004 181.453 m f
0.643137 0.788235 1 rg
165.773 103.207 m 165.773 67.988 137.223 39.434 102.004 39.434 c 66.781
 39.434 38.23 67.988 38.23 103.207 c 38.23 138.43 66.781 166.98 102.004 
166.98 c 137.223 166.98 165.773 138.43 165.773 103.207 c h
165.773 103.207 m f
0.976471 0.811765 0.811765 rg
105.555 284.883 m 105.555 278.199 100.141 272.785 93.457 272.785 c 86.781
 272.785 81.363 278.199 81.363 284.883 c 81.363 291.562 86.781 296.977 93.457
 296.977 c 100.141 296.977 105.555 291.562 105.555 284.883 c h
105.555 284.883 m f
0.215686 0.384314 0.8 rg
106.492 241.035 m 106.059 241.035 105.625 241.102 105.207 241.242 c 102.652
 242.109 100.027 242.543 97.406 242.543 c 80.188 242.543 l 79.293 242.543
 78.316 242.457 77.207 242.281 c 76.055 242.098 74.871 242.43 73.984 243.188
 c 73.094 243.949 72.582 245.062 72.582 246.23 c 72.582 255.266 l 64.949
 262.469 60.609 272.477 60.609 283.008 c 60.609 305.93 l 60.609 326.973 
77.734 344.094 98.777 344.094 c 119.824 344.094 136.941 326.973 136.941 
305.93 c 136.941 289.578 l 140.945 288.535 143.91 284.891 143.91 280.566
 c 143.91 275.586 139.973 271.508 135.047 271.273 c 131.285 259.672 122.062
 250.441 110.492 246.691 c 110.492 245.035 l 110.492 243.742 109.871 242.535
 108.824 241.785 c 108.137 241.289 107.316 241.035 106.492 241.035 c h
80.578 250.547 m 97.406 250.547 l 99.113 250.547 100.816 250.406 102.512
 250.133 c 102.68 251.824 103.91 253.242 105.59 253.629 c 116.688 256.191
 125.531 265.035 128.113 276.168 c 128.535 277.977 130.148 279.262 132.008
 279.262 c 134.602 279.262 l 135.324 279.262 135.91 279.848 135.91 280.566
 c 135.91 281.289 135.324 281.875 134.602 281.875 c 132.941 281.875 l 130.73
 281.875 128.941 283.668 128.941 285.875 c 128.941 305.93 l 128.941 322.562
 115.41 336.094 98.773 336.094 c 82.141 336.094 68.609 322.566 68.609 305.93
 c 68.609 283.012 l 68.609 274.191 72.461 265.836 79.18 260.086 c 80.066
 259.328 80.578 258.215 80.578 257.047 c h
80.578 250.547 m f
0.27451 0.443137 0.776471 rg
58.48 329.406 m 58.484 329.402 l 64.582 338.711 75.473 344.918 87.898 344.918
 c 90.543 344.918 92.684 342.891 92.684 340.387 c 92.684 339.438 l 92.684
 340.559 93.027 341.598 93.613 342.465 c 93.613 342.465 93.777 342.801 94.266
 343.254 c 94.906 343.902 95.707 344.398 96.613 344.676 c 97.879 345.184
 99.648 345.602 102.086 345.703 c 102.086 345.707 l 102.102 345.707 l 104.633
 345.812 107.883 345.574 112.055 344.73 c 115.09 344.398 117.988 343.625
 120.684 342.473 c 120.695 342.469 120.703 342.469 120.715 342.465 c 120.711
 342.461 l 122.242 341.805 123.703 341.027 125.094 340.141 c 125.695 339.773
 125.996 339.539 126 339.539 c 133.777 334.172 138.871 325.289 138.871 315.23
 c 138.871 304.352 l 138.871 303.848 138.453 303.438 137.941 303.438 c 92.684
 303.438 l 92.684 270.953 l 87.227 259.816 l 87.074 259.504 86.75 259.305
 86.391 259.305 c 72.215 259.305 l 70.781 259.305 69.375 259.508 68.027 
259.891 c 67.984 259.906 66.547 260.516 65.965 261.449 c 64.586 263.652 
61.344 268.848 58.395 273.59 c 54.02 280.633 51.531 288.676 51.336 296.922
 c 50.801 319.531 58.48 329.406 58.48 329.406 c h
58.48 329.406 m f
0.215686 0.384314 0.8 rg
86.391 255.305 m 72.215 255.305 l 70.43 255.305 68.648 255.559 66.926 256.055
 c 66.785 256.094 66.648 256.141 66.516 256.195 c 65.891 256.449 63.766 
257.43 62.574 259.332 c 61.195 261.535 57.949 266.73 55 271.48 c 50.199 
279.203 47.547 287.969 47.34 296.828 c 46.797 319.621 54.324 330.512 55.242
 331.758 c 62.363 342.508 74.551 348.918 87.898 348.918 c 89.785 348.918
 91.535 348.336 92.969 347.348 c 93.672 347.805 94.449 348.184 95.273 348.449
 c 97.141 349.172 99.375 349.594 101.91 349.703 c 105.031 349.824 108.637
 349.492 112.664 348.684 c 115.922 348.309 119.09 347.48 122.098 346.219
 c 122.223 346.172 122.344 346.117 122.465 346.059 c 124.102 345.348 125.707
 344.492 127.234 343.516 c 127.801 343.168 128.172 342.898 128.301 342.805
 c 137.422 336.496 142.863 326.195 142.863 315.238 c 142.863 304.355 l 142.863
 301.648 140.656 299.445 137.934 299.445 c 96.684 299.445 l 96.684 270.961
 l 96.684 270.352 96.543 269.75 96.273 269.203 c 90.816 258.066 l 89.977
 256.359 88.285 255.305 86.391 255.305 c h
69.43 263.656 m 70.344 263.422 71.277 263.301 72.215 263.301 c 84.48 263.301
 l 88.688 271.887 l 88.688 303.441 l 88.688 305.648 90.48 307.441 92.684
 307.441 c 134.867 307.441 l 134.867 315.234 l 134.867 323.582 130.699 331.438
 123.723 336.25 c 123.688 336.273 123.652 336.297 123.617 336.324 c 123.574
 336.359 123.367 336.508 123 336.727 c 121.711 337.547 120.434 338.227 119.133
 338.785 c 119.125 338.785 119.117 338.793 119.113 338.793 c 116.727 339.809
 114.207 340.469 111.613 340.75 c 111.496 340.766 111.375 340.781 111.258
 340.805 c 107.785 341.508 104.758 341.809 102.262 341.707 c 100.137 341.617
 98.824 341.25 98.098 340.957 c 97.988 340.918 97.879 340.875 97.77 340.844
 c 97.523 340.77 97.293 340.629 97.105 340.441 c 97.105 340.441 97.039 340.375
 96.996 340.332 c 96.973 340.297 96.953 340.266 96.93 340.23 c 96.766 339.984
 96.684 339.715 96.684 339.434 c 96.684 337.227 94.891 335.434 92.684 335.434
 c 90.477 335.434 88.688 337.227 88.688 339.434 c 88.688 340.387 l 88.688
 340.637 88.352 340.918 87.898 340.918 c 77.191 340.918 67.449 335.789 61.832
 327.211 c 61.762 327.105 61.688 327.004 61.609 326.902 c 60.977 326 54.863
 316.676 55.332 297.02 c 55.508 289.59 57.742 282.219 61.789 275.707 c 64.648
 271.109 67.781 266.09 69.223 263.781 c 69.285 263.742 69.359 263.699 69.43
 263.656 c h
97.184 340.672 m 97.184 340.664 l 97.184 340.668 97.184 340.668 97.184 
340.672 c h
97.191 340.688 m 97.191 340.684 97.188 340.676 97.188 340.672 c 97.188 
340.676 97.191 340.684 97.191 340.688 c h
97.195 340.695 m 97.195 340.691 97.195 340.691 97.191 340.688 c 97.195 
340.691 97.195 340.691 97.195 340.695 c h
97.199 340.703 m 97.199 340.699 97.199 340.695 97.195 340.695 c 97.199 
340.695 97.199 340.699 97.199 340.703 c h
97.199 340.703 m f
0.976471 0.811765 0.811765 rg
105.555 284.883 m 105.555 278.199 100.141 272.785 93.457 272.785 c 86.781
 272.785 81.363 278.199 81.363 284.883 c 81.363 291.562 86.781 296.977 93.457
 296.977 c 100.141 296.977 105.555 291.562 105.555 284.883 c h
105.555 284.883 m f
0.215686 0.384314 0.8 rg
214.477 17.648 m 210.574 17.648 206.75 19.582 204.508 23.117 c 201.785 
27.41 l 201.219 28.305 201.027 29.391 201.262 30.426 c 201.492 31.465 202.125
 32.363 203.02 32.93 c 256.535 66.859 l 258.77 68.27 261.418 68.734 263.996
 68.156 c 266.574 67.578 268.773 66.031 270.188 63.801 c 270.766 62.887 
l 272.176 60.656 272.637 58.008 272.066 55.43 c 271.488 52.852 269.938 50.652
 267.707 49.238 c 220.766 19.477 l 218.816 18.238 216.633 17.648 214.477
 17.648 c h
218.625 22.852 m 218.645 22.852 l h
210.684 28.316 m 211.262 27.402 l 212.379 25.641 214.723 25.117 216.48 
26.234 c 263.426 55.996 l 264 56.359 264.195 56.891 264.258 57.176 c 264.32
 57.465 264.375 58.031 264.008 58.605 c 263.43 59.516 l 263.066 60.094 262.531
 60.289 262.246 60.352 c 261.957 60.414 261.395 60.469 260.82 60.102 c h
210.684 28.316 m f
102.004 35.434 m 64.633 35.434 34.23 65.836 34.23 103.207 c 34.23 140.578
 64.633 170.98 102.004 170.98 c 139.371 170.98 169.773 140.578 169.773 103.207
 c 169.773 65.836 139.371 35.434 102.004 35.434 c h
102.004 162.98 m 69.043 162.98 42.23 136.164 42.23 103.207 c 42.23 70.246
 69.043 43.43 102.004 43.43 c 134.961 43.43 161.777 70.246 161.777 103.207
 c 161.777 136.164 134.961 162.98 102.004 162.98 c h
102.004 162.98 m f
0.878431 0.921569 0.988235 rg
135.996 103.207 m 135.996 84.43 120.777 69.215 102.004 69.215 c 83.23 69.215
 68.008 84.43 68.008 103.207 c 68.008 121.98 83.23 137.203 102.004 137.203
 c 120.777 137.203 135.996 121.98 135.996 103.207 c h
135.996 103.207 m f
0.976471 0.811765 0.811765 rg
20.461 117.426 m 26.301 132.691 l 50.066 204.805 l 50.066 204.801 50.066
 204.801 50.07 204.801 c 72.797 184.73 l 72.914 184.629 73.039 184.547 73.164
 184.469 c 46.438 126.66 l 45.855 109.223 l 45.836 108.598 45.715 107.98
 45.508 107.395 c 43.957 103.008 l 42.945 100.148 39.98 98.469 37.008 99.07
 c 24.98 101.504 l 22.176 102.07 20.145 104.512 20.098 107.371 c 19.977 
114.699 l 19.965 115.633 20.129 116.559 20.461 117.426 c h
20.461 117.426 m f
0.215686 0.384314 0.8 rg
38.195 94.953 m 37.539 94.953 36.879 95.016 36.215 95.152 c 24.188 97.586
 l 19.582 98.52 16.184 102.609 16.105 107.309 c 15.984 114.637 l 15.961 
116.078 16.211 117.496 16.727 118.852 c 16.727 118.855 16.727 118.855 16.727
 118.859 c 22.562 134.121 l 46.266 206.055 l 46.688 207.332 47.723 208.312
 49.02 208.664 c 50.316 209.008 51.707 208.691 52.719 207.797 c 75.344 187.816
 l 76.965 186.727 77.621 184.574 76.797 182.789 c 50.41 125.719 l 49.855
 109.09 l 49.82 108.066 49.629 107.047 49.285 106.066 c 47.73 101.676 l 
46.289 97.602 42.391 94.953 38.195 94.953 c h
24.199 116 m 24.047 115.605 23.973 115.191 23.98 114.77 c 24.105 107.441
 l 24.121 106.469 24.82 105.621 25.777 105.426 c 37.805 102.992 l 38.812
 102.793 39.844 103.367 40.188 104.344 c 41.738 108.73 l 41.809 108.93 41.852
 109.141 41.859 109.352 c 42.441 126.801 l 42.461 127.332 42.586 127.859
 42.809 128.344 c 68.266 183.398 l 51.969 197.789 l 30.102 131.438 l h
24.199 116 m f
0.419608 0.866667 0.866667 rg
50.07 204.801 m 72.797 184.73 l 73.895 183.762 75.574 183.867 76.543 184.965
 c 104.777 216.941 l 111.289 224.312 110.59 235.57 103.211 242.082 c 95.836
 248.594 84.582 247.895 78.07 240.52 c 49.84 208.543 l 48.867 207.445 48.969
 205.77 50.07 204.801 c h
50.07 204.801 m f
0.215686 0.384314 0.8 rg
74.551 180.07 m 72.984 180.07 71.418 180.617 70.152 181.73 c 47.422 201.801
 l 46.09 202.977 45.297 204.602 45.184 206.375 c 45.074 208.148 45.66 209.863
 46.84 211.195 c 75.07 243.164 l 83.027 252.184 96.84 253.043 105.859 245.082
 c 114.875 237.121 115.734 223.309 107.773 214.293 c 79.539 182.316 l 78.227
 180.832 76.395 180.07 74.551 180.07 c h
75.445 187.727 m 75.465 187.727 l h
53.727 206.906 m 74.438 188.617 l 101.777 219.59 l 106.82 225.293 106.273
 234.043 100.562 239.086 c 94.855 244.129 86.113 243.582 81.066 237.871 
c h
52.715 207.801 m 52.715 207.797 52.715 207.797 52.715 207.801 c h
52.715 207.801 m f
0.878431 0.921569 0.988235 rg
205.164 29.551 m 216.016 36.43 l 182.879 88.316 l 181.836 82.625 180.219
 77.141 178.074 71.922 c 207.043 26.555 l 207.055 26.562 l h
205.164 29.551 m f
0.215686 0.384314 0.8 rg
207.047 22.562 m 205.723 22.562 204.43 23.215 203.672 24.406 c 174.703 
69.773 l 174 70.871 173.879 72.242 174.375 73.449 c 176.426 78.426 177.965
 83.672 178.945 89.039 c 179.242 90.656 180.496 91.926 182.109 92.246 c 
183.723 92.57 185.367 91.859 186.25 90.473 c 219.387 38.586 l 219.957 37.695
 220.152 36.605 219.922 35.566 c 219.691 34.527 219.055 33.625 218.16 33.055
 c 210.66 28.305 l 211.062 27.469 211.164 26.512 210.941 25.602 c 210.676
 24.543 209.992 23.637 209.043 23.094 c 208.414 22.734 207.727 22.562 207.047
 22.562 c h
182.547 72.352 m 206.367 35.051 l 210.488 37.66 l 184.562 78.254 l 183.961
 76.262 183.289 74.289 182.547 72.352 c h
182.547 72.352 m f
Q Q
showpage
%%Trailer
end restore
%%EOF
