%!PS-Adobe-3.0 EPSF-3.0
%%Creator: cairo 1.14.8 (http://cairographics.org)
%%CreationDate: Wed Mar 20 09:06:38 2019
%%Pages: 1
%%DocumentData: Clean7Bit
%%LanguageLevel: 2
%%BoundingBox: 0 57 498 440
%%EndComments
%%BeginProlog
save
50 dict begin
/q { gsave } bind def
/Q { grestore } bind def
/cm { 6 array astore concat } bind def
/w { setlinewidth } bind def
/J { setlinecap } bind def
/j { setlinejoin } bind def
/M { setmiterlimit } bind def
/d { setdash } bind def
/m { moveto } bind def
/l { lineto } bind def
/c { curveto } bind def
/h { closepath } bind def
/re { exch dup neg 3 1 roll 5 3 roll moveto 0 rlineto
      0 exch rlineto 0 rlineto closepath } bind def
/S { stroke } bind def
/f { fill } bind def
/f* { eofill } bind def
/n { newpath } bind def
/W { clip } bind def
/W* { eoclip } bind def
/BT { } bind def
/ET { } bind def
/pdfmark where { pop globaldict /?pdfmark /exec load put }
    { globaldict begin /?pdfmark /pop load def /pdfmark
    /cleartomark load def end } ifelse
/BDC { mark 3 1 roll /BDC pdfmark } bind def
/EMC { mark /EMC pdfmark } bind def
/cairo_store_point { /cairo_point_y exch def /cairo_point_x exch def } def
/Tj { show currentpoint cairo_store_point } bind def
/TJ {
  {
    dup
    type /stringtype eq
    { show } { -0.001 mul 0 cairo_font_matrix dtransform rmoveto } ifelse
  } forall
  currentpoint cairo_store_point
} bind def
/cairo_selectfont { cairo_font_matrix aload pop pop pop 0 0 6 array astore
    cairo_font exch selectfont cairo_point_x cairo_point_y moveto } bind def
/Tf { pop /cairo_font exch def /cairo_font_matrix where
      { pop cairo_selectfont } if } bind def
/Td { matrix translate cairo_font_matrix matrix concatmatrix dup
      /cairo_font_matrix exch def dup 4 get exch 5 get cairo_store_point
      /cairo_font where { pop cairo_selectfont } if } bind def
/Tm { 2 copy 8 2 roll 6 array astore /cairo_font_matrix exch def
      cairo_store_point /cairo_font where { pop cairo_selectfont } if } bind def
/g { setgray } bind def
/rg { setrgbcolor } bind def
/d1 { setcachedevice } bind def
%%EndProlog
%%BeginSetup
%%EndSetup
%%Page: 1 1
%%BeginPageSetup
%%PageBoundingBox: 0 57 498 440
%%EndPageSetup
q 0 57 498 383 rectclip q
0.878431 0.921569 0.988235 rg
351.383 396.895 m 368.875 396.895 l 368.875 396.895 391.426 397.168 409.188
 380.707 c 418.848 380.707 l 427.066 380.707 434.957 379.289 442.289 376.703
 c 442.289 380.707 l 442.289 410.84 417.863 435.27 387.734 435.27 c 362.676
 435.27 341.574 418.363 335.176 395.344 c 340.426 396.348 345.84 396.895
 351.383 396.895 c h
351.383 396.895 m f
0.419608 0.866667 0.866667 rg
478.273 76.668 m 478.258 77 478.23 77.328 478.211 77.664 c 478.172 78.309
 478.129 78.945 478.07 79.586 c 478.035 79.98 477.984 80.375 477.941 80.77
 c 477.879 81.332 477.812 81.895 477.734 82.453 c 477.672 82.883 477.609
 83.301 477.543 83.727 c 477.461 84.246 477.367 84.758 477.273 85.27 c 477.191
 85.711 477.105 86.16 477.016 86.602 c 476.918 87.074 476.812 87.539 476.703
 88 c 476.59 88.473 476.484 88.949 476.363 89.418 c 476.266 89.797 476.156
 90.168 476.051 90.547 c 475.48 92.598 474.809 94.609 474.047 96.57 c 473.98
 96.738 473.922 96.906 473.855 97.066 c 473.594 97.715 473.32 98.355 473.039
 98.996 c 472.957 99.176 472.883 99.352 472.801 99.531 c 472.508 100.18 
472.207 100.824 471.891 101.461 c 471.82 101.598 471.75 101.742 471.68 101.883
 c 471.34 102.559 470.992 103.227 470.629 103.891 c 470.594 103.941 470.562
 104 470.527 104.062 c 460.211 122.738 440.684 135.617 418.059 136.539 c
 417.902 136.344 l 418.02 136.344 l 410.633 116.883 l 408.852 112.195 404.359
 109.09 399.344 109.09 c 355.062 109.09 l 350.047 109.09 345.555 112.195
 343.773 116.883 c 337.363 133.781 l 336.91 134.582 336.578 135.445 336.387
 136.348 c 318.562 134.773 302.883 125.766 292.445 112.453 c 292.438 112.453
 l 292.395 112.402 292.359 112.348 292.32 112.301 c 291.98 111.863 291.648
 111.414 291.324 110.969 c 291.121 110.695 290.914 110.418 290.715 110.137
 c 290.402 109.699 290.098 109.254 289.793 108.805 c 289.59 108.508 289.391
 108.207 289.191 107.902 c 288.906 107.461 288.625 107.016 288.352 106.566
 c 288.152 106.242 287.961 105.922 287.77 105.598 c 287.504 105.152 287.242
 104.703 286.988 104.25 c 286.801 103.91 286.621 103.566 286.434 103.219
 c 286.195 102.77 285.957 102.32 285.727 101.863 c 285.543 101.504 285.371
 101.133 285.191 100.762 c 284.977 100.316 284.758 99.871 284.559 99.418
 c 284.363 98.98 284.18 98.531 283.992 98.086 c 283.695 97.375 283.406 96.66
 283.133 95.934 c 282.945 95.438 282.754 94.945 282.578 94.449 c 282.438
 94.051 282.316 93.652 282.184 93.25 c 282.031 92.766 281.871 92.289 281.723
 91.797 c 281.602 91.395 281.492 90.988 281.379 90.578 c 281.242 90.086 
281.105 89.598 280.98 89.098 c 280.879 88.691 280.785 88.277 280.688 87.867
 c 280.57 87.363 280.457 86.852 280.352 86.34 c 280.27 85.934 280.191 85.523
 280.117 85.117 c 280.016 84.59 279.93 84.055 279.844 83.52 c 279.785 83.121
 279.723 82.723 279.668 82.32 c 279.59 81.758 279.527 81.188 279.465 80.621
 c 279.422 80.242 279.379 79.867 279.344 79.488 c 279.285 78.855 279.246
 78.219 279.207 77.578 c 279.184 77.258 279.16 76.938 279.145 76.617 c 279.098
 75.656 279.074 74.688 279.074 73.715 c 279.074 61.129 l 478.34 61.129 l
 478.34 73.715 l 478.348 74.703 478.32 75.688 478.273 76.668 c h
478.273 76.668 m f
0.976471 0.811765 0.811765 rg
346.73 109.09 m 407.676 109.09 l 418.02 136.344 l 417.949 136.344 l 418.125
 137.047 418.246 137.77 418.246 138.512 c 418.246 155.625 l 405.965 149.23
 392.012 145.605 377.207 145.605 c 362.398 145.605 348.441 149.23 336.16
 155.625 c 336.16 138.461 l 336.16 137.742 336.277 137.035 336.441 136.348
 c 336.387 136.348 l h
346.73 109.09 m f
0.419608 0.866667 0.866667 rg
336.211 137.762 m 336.254 137.281 336.328 136.809 336.441 136.348 c 336.387
 136.348 l 346.73 109.09 l 407.676 109.09 l 418.02 136.344 l 417.949 136.344
 l 418.066 136.805 418.141 137.281 418.191 137.762 c h
336.211 137.762 m f
0.643137 0.788235 1 rg
184.676 141.77 m 169.477 141.77 l 169.441 141.773 169.41 141.777 169.375
 141.777 c 169.371 141.77 l 69.352 141.77 l 42.934 141.77 21.512 120.352
 21.512 93.93 c 21.512 63.113 l 232.523 63.113 l 232.523 93.93 l 232.523
 120.352 211.102 141.77 184.676 141.77 c h
184.676 141.77 m f
0.976471 0.811765 0.811765 rg
127.016 152.777 m 111.688 152.777 97.223 156.43 84.449 162.891 c 84.449
 143.562 l 84.449 142.891 84.547 142.23 84.684 141.578 c 84.699 141.578 
l 84.832 140.93 85.043 140.297 85.309 139.691 c 85.344 139.613 85.375 139.531
 85.414 139.453 c 85.531 139.203 85.66 138.961 85.797 138.727 c 85.934 138.5
 86.082 138.277 86.238 138.055 c 86.324 137.938 86.398 137.812 86.488 137.699
 c 92.531 130.012 l 98.555 122.359 106.906 116.812 116.355 114.598 c 117.621
 114.301 118.941 114.043 120.301 113.84 c 135.652 111.539 151.004 118.074
 160.547 130.387 c 169.359 141.758 l 169.48 142.367 169.562 142.988 169.562
 143.609 c 169.562 162.875 l 156.793 156.422 142.336 152.777 127.016 152.777
 c h
127.016 152.777 m f
0.643137 0.788235 1 rg
84.449 145.078 m 84.449 139.539 l 84.449 138.867 84.547 138.207 84.684 
137.555 c 84.688 137.555 84.695 137.555 84.699 137.559 c 84.832 136.906 
85.043 136.277 85.309 135.672 c 85.344 135.594 85.375 135.512 85.414 135.434
 c 85.531 135.184 85.66 134.941 85.797 134.703 c 85.934 134.473 86.082 134.25
 86.238 134.035 c 86.324 133.918 86.398 133.793 86.488 133.68 c 92.531 125.988
 l 98.555 118.332 106.906 112.793 116.355 110.578 c 117.621 110.281 118.941
 110.023 120.301 109.82 c 135.652 107.52 151.004 114.055 160.547 126.367
 c 169.359 137.738 l 169.48 138.348 169.562 138.961 169.562 139.59 c 169.562
 145.074 l 84.449 145.074 l h
84.449 145.078 m f
0.215686 0.384314 0.8 rg
442.293 322.156 m 333.176 322.156 l 330.973 322.156 329.184 323.949 329.184
 326.152 c 329.184 380.707 l 329.184 412.992 355.449 439.262 387.734 439.262
 c 420.02 439.262 446.289 412.992 446.289 380.707 c 446.289 326.152 l 446.289
 323.945 444.5 322.156 442.293 322.156 c h
337.168 330.145 m 438.297 330.145 l 438.297 380.707 l 438.297 408.59 415.617
 431.273 387.734 431.273 c 359.852 431.273 337.168 408.59 337.168 380.707
 c h
337.168 330.145 m f
0.878431 0.921569 0.988235 rg
486.336 272.043 m 486.336 327.434 437.621 372.336 377.527 372.336 c 317.438
 372.336 268.723 327.434 268.723 272.043 c 268.723 216.656 317.438 171.75
 377.527 171.75 c 437.621 171.75 486.336 216.656 486.336 272.043 c h
486.336 272.043 m f
0.215686 0.384314 0.8 rg
377.527 167.758 m 315.332 167.758 264.73 214.543 264.73 272.043 c 264.73
 329.543 315.332 376.324 377.527 376.324 c 439.73 376.324 490.332 329.543
 490.332 272.043 c 490.332 214.543 439.73 167.758 377.527 167.758 c h
377.527 368.344 m 319.734 368.344 272.719 325.141 272.719 272.043 c 272.719
 218.945 319.734 175.746 377.527 175.746 c 435.324 175.746 482.344 218.945
 482.344 272.043 c 482.344 325.141 435.324 368.344 377.527 368.344 c h
377.527 368.344 m f
0.976471 0.811765 0.811765 rg
466.832 268.555 m 466.645 268.555 466.457 268.531 466.27 268.527 c 466.27
 276.941 l 466.27 326.133 426.391 366.008 377.207 366.008 c 328.012 366.008
 288.137 326.133 288.137 276.941 c 288.137 268.527 l 287.949 268.531 287.762
 268.555 287.574 268.555 c 272.57 268.555 260.402 256.391 260.402 241.379
 c 260.402 226.375 272.57 214.211 287.574 214.211 c 288.562 214.211 289.531
 214.27 290.488 214.371 c 299.68 174.969 335 145.609 377.207 145.609 c 419.406
 145.609 454.727 174.969 463.918 214.371 c 464.875 214.27 465.848 214.211
 466.832 214.211 c 481.836 214.211 494.004 226.375 494.004 241.379 c 494.008
 256.391 481.84 268.555 466.832 268.555 c h
466.832 268.555 m f
0.215686 0.384314 0.8 rg
377.207 141.609 m 334.844 141.609 298.391 169.648 287.418 210.215 c 270.305
 210.301 256.41 224.246 256.41 241.379 c 256.41 257.402 268.566 270.648 
284.145 272.359 c 284.145 276.941 l 284.145 328.254 325.891 370 377.207 
370 c 428.516 370 470.262 328.254 470.262 276.941 c 470.262 272.359 l 485.84
 270.648 498 257.406 498 241.379 c 498 224.246 484.102 210.301 466.992 210.215
 c 456.016 169.648 419.562 141.609 377.207 141.609 c h
290.492 218.363 m 292.328 218.363 293.949 217.102 294.375 215.277 c 303.395
 176.605 337.457 149.598 377.203 149.598 c 416.945 149.598 451.008 176.605
 460.027 215.281 c 460.488 217.242 462.332 218.559 464.34 218.34 c 465.211
 218.246 466.023 218.203 466.832 218.203 c 479.609 218.203 490.012 228.602
 490.012 241.379 c 490.012 254.152 479.633 264.539 466.871 264.559 c 466.648
 264.543 466.496 264.535 466.348 264.531 c 465.266 264.516 464.238 264.922
 463.473 265.672 c 462.707 266.422 462.273 267.453 462.273 268.527 c 462.273
 276.941 l 462.273 323.852 424.105 362.012 377.203 362.012 c 330.293 362.012
 292.125 323.852 292.125 276.941 c 292.125 268.527 l 292.125 267.453 291.691
 266.422 290.926 265.672 c 290.16 264.922 289.105 264.508 288.051 264.531
 c 287.898 264.535 287.746 264.543 287.594 264.555 c 287.59 264.555 287.586
 264.555 287.582 264.555 c 274.781 264.555 264.391 254.16 264.391 241.379
 c 264.391 228.602 274.789 218.199 287.566 218.199 c 288.375 218.199 289.188
 218.242 290.062 218.336 c 290.211 218.355 290.352 218.363 290.492 218.363
 c h
290.492 218.363 m f
478.348 57.133 m 279.078 57.133 l 276.875 57.133 275.082 58.922 275.082
 61.125 c 275.082 73.715 l 275.082 74.742 275.109 75.773 275.156 76.793 
c 275.223 77.82 l 275.262 78.5 275.309 79.18 275.371 79.855 c 275.395 80.152
 275.426 80.465 275.465 80.77 c 275.496 81.047 l 275.562 81.656 275.633 
82.258 275.711 82.855 c 275.906 84.137 l 275.996 84.707 276.09 85.273 276.195
 85.836 c 276.27 86.262 276.355 86.695 276.445 87.129 c 276.559 87.684 276.676
 88.223 276.801 88.762 c 277.109 90.055 l 277.246 90.598 277.391 91.121 
277.535 91.648 c 277.684 92.199 277.793 92.57 277.902 92.941 c 278.059 93.461
 278.227 93.977 278.395 94.492 c 278.508 94.832 l 278.605 95.145 278.711
 95.457 278.816 95.766 c 278.965 96.199 279.133 96.641 279.301 97.082 c 
279.402 97.344 l 279.691 98.109 279.996 98.871 280.312 99.629 c 280.492 
100.059 l 280.633 100.391 280.77 100.723 280.918 101.051 c 281.082 101.418
 281.254 101.773 281.43 102.133 c 281.758 102.824 l 281.891 103.102 282.023
 103.383 282.156 103.656 c 282.359 104.055 282.57 104.449 282.781 104.844
 c 283.512 106.203 l 283.773 106.672 284.055 107.148 284.332 107.625 c 284.531
 107.969 284.738 108.316 284.949 108.652 c 285.246 109.137 285.543 109.609
 285.848 110.078 c 286.492 111.043 l 286.805 111.512 287.129 111.988 287.461
 112.457 c 287.645 112.715 287.84 112.98 288.039 113.242 c 288.461 113.816
 288.812 114.289 289.172 114.754 c 289.215 114.809 289.258 114.863 289.301
 114.914 c 289.301 114.918 l 299.887 128.422 315.34 137.371 332.164 139.867
 c 332.164 155.629 l 332.164 157.023 332.895 158.316 334.086 159.043 c 335.281
 159.762 336.762 159.812 338 159.172 c 350.199 152.816 363.387 149.602 377.207
 149.602 c 391.02 149.602 404.207 152.82 416.406 159.172 c 417.641 159.812
 419.129 159.762 420.32 159.043 c 421.512 158.316 422.242 157.023 422.242
 155.629 c 422.242 140.246 l 443.848 138.023 463.434 125.168 474.027 105.996
 c 474.031 105.992 474.133 105.816 474.133 105.812 c 474.52 105.105 474.891
 104.391 475.25 103.676 c 475.473 103.23 l 475.809 102.555 476.129 101.871
 476.441 101.184 c 476.688 100.621 l 476.992 99.926 477.285 99.25 477.562
 98.559 c 477.77 98.016 l 478.578 95.945 479.301 93.789 479.898 91.617 c
 480.227 90.426 l 480.328 90.035 480.418 89.656 480.508 89.273 c 480.645
 88.68 l 480.742 88.258 480.84 87.84 480.926 87.418 c 481.027 86.949 481.113
 86.477 481.203 86.008 c 481.309 85.453 481.402 84.906 481.492 84.352 c 
481.562 83.914 481.629 83.465 481.691 83.016 c 481.777 82.402 481.848 81.805
 481.914 81.207 c 481.973 80.672 482.016 80.312 482.047 79.953 c 482.109
 79.273 482.156 78.594 482.199 77.918 c 482.223 77.559 l 482.242 77.32 482.258
 77.082 482.266 76.844 c 482.312 75.805 482.344 74.762 482.344 73.715 c 
482.344 61.125 l 482.34 58.922 480.555 57.133 478.348 57.133 c h
283.07 65.117 m 474.355 65.117 l 474.355 73.715 l 474.355 74.637 474.328
 75.559 474.285 76.473 c 474.285 76.484 474.285 76.492 474.285 76.504 c 
474.227 77.43 l 474.188 78.016 474.148 78.617 474.094 79.215 c 473.973 80.32
 l 473.914 80.859 473.848 81.387 473.777 81.914 c 473.723 82.293 473.66 
82.695 473.598 83.09 c 473.52 83.582 473.434 84.059 473.348 84.539 c 473.27
 84.953 473.188 85.371 473.102 85.793 c 473.027 86.156 472.941 86.52 472.859
 86.883 c 472.723 87.469 l 472.648 87.781 472.578 88.102 472.496 88.418 
c 472.203 89.48 l 471.672 91.395 471.043 93.289 470.324 95.117 c 470.141
 95.609 l 469.91 96.188 469.652 96.789 469.387 97.387 c 469.16 97.902 l 
468.891 98.496 468.605 99.102 468.309 99.695 c 468.121 100.074 l 467.789
 100.734 467.469 101.355 467.129 101.969 c 467.008 102.184 l 457.215 119.914
 438.617 131.527 418.41 132.531 c 417.695 132.449 416.949 132.562 416.273
 132.891 c 414.578 133.715 413.645 135.543 414.09 137.371 c 414.203 137.836
 414.258 138.207 414.258 138.516 c 414.258 149.309 l 402.625 144.262 389.938
 141.613 377.207 141.613 c 364.469 141.613 351.785 144.258 340.148 149.309
 c 340.148 138.465 l 340.148 138.148 340.207 137.762 340.32 137.289 c 340.609
 136.102 340.336 134.844 339.582 133.883 c 338.855 132.961 337.766 132.406
 336.598 132.359 c 320.535 130.906 305.594 122.758 295.59 109.992 c 295.559
 109.953 295.527 109.914 295.492 109.875 c 295.48 109.859 295.473 109.848
 295.473 109.848 c 295.152 109.434 294.844 109.016 294.535 108.598 c 293.969
 107.832 l 293.676 107.414 293.391 106.996 293.109 106.582 c 292.535 105.723
 l 292.273 105.316 292.008 104.898 291.746 104.473 c 291.211 103.574 l 290.961
 103.156 290.719 102.734 290.48 102.312 c 289.824 101.098 l 289.645 100.762
 289.465 100.422 289.293 100.078 c 288.621 98.672 l 288.48 98.379 288.336
 98.086 288.203 97.785 c 288.082 97.523 287.973 97.254 287.859 96.98 c 287.664
 96.527 l 287.391 95.875 287.121 95.203 286.867 94.527 c 286.758 94.25 l
 286.625 93.879 286.48 93.516 286.355 93.145 c 285.98 92.012 l 285.832 91.562
 285.684 91.109 285.547 90.656 c 285.453 90.336 285.363 90.02 285.277 89.703
 c 285.094 89.055 284.969 88.594 284.848 88.125 c 284.582 87.008 l 284.465
 86.5 284.367 86.02 284.266 85.535 c 284.191 85.172 284.117 84.789 284.047
 84.41 c 283.953 83.898 283.871 83.402 283.793 82.906 c 283.621 81.77 l 
283.555 81.262 283.492 80.723 283.43 80.191 c 283.32 79.145 l 283.262 78.531
 283.227 77.938 283.188 77.34 c 283.133 76.426 l 283.09 75.539 283.066 74.629
 283.066 73.719 c 283.066 65.117 l h
283.07 65.117 m f
377.207 183.656 m 364.082 183.656 353.805 191.094 353.805 200.586 c 353.805
 202.793 355.594 204.578 357.797 204.578 c 360 204.578 361.789 202.793 361.789
 200.586 c 361.789 196.355 368.117 191.645 377.207 191.645 c 386.289 191.645
 392.617 196.355 392.617 200.586 c 392.617 202.793 394.406 204.578 396.609
 204.578 c 398.812 204.578 400.602 202.793 400.602 200.586 c 400.602 191.094
 390.324 183.656 377.207 183.656 c h
377.207 183.656 m f
0.878431 0.921569 0.988235 rg
368.875 280.742 m 268.113 280.742 l 266.762 280.742 265.672 281.836 265.672
 283.184 c 265.672 311.176 l 265.672 358.516 304.043 396.891 351.383 396.891
 c 368.875 396.891 l 399.66 396.891 424.613 371.938 424.613 341.156 c 424.613
 336.473 l 424.613 305.695 399.66 280.742 368.875 280.742 c h
368.875 280.742 m f
484.688 269.215 m 465.797 269.215 l 434.535 269.215 409.188 294.559 409.188
 325.824 c 409.188 380.707 l 418.848 380.707 l 457.809 380.707 489.391 349.125
 489.391 310.164 c 489.391 273.918 l 489.391 271.32 487.285 269.215 484.688
 269.215 c h
484.688 269.215 m f
0.215686 0.384314 0.8 rg
484.688 265.223 m 465.797 265.223 l 443.703 265.223 423.586 277.184 412.938
 296.172 c 401.691 283.91 385.645 276.746 368.875 276.746 c 268.113 276.746
 l 264.562 276.746 261.676 279.633 261.676 283.18 c 261.676 311.176 l 261.676
 360.645 301.918 400.887 351.383 400.887 c 368.875 400.887 l 369.793 400.883
 392.238 400.965 410.723 384.703 c 418.848 384.703 l 459.945 384.703 493.383
 351.262 493.383 310.164 c 493.383 273.918 l 493.383 269.121 489.48 265.223
 484.688 265.223 c h
413.781 307.465 m 413.934 307.465 414.086 307.457 414.238 307.438 c 415.66
 307.273 416.883 306.363 417.449 305.051 c 425.777 285.707 444.754 273.211
 465.797 273.211 c 484.688 273.211 l 485.078 273.211 485.398 273.527 485.398
 273.918 c 485.398 310.164 l 485.398 346.859 455.543 376.715 418.848 376.715
 c 409.188 376.715 l 408.18 376.715 407.215 377.098 406.473 377.781 c 390.047
 393.004 369.117 392.914 368.926 392.902 c 351.383 392.902 l 306.324 392.902
 269.664 356.242 269.664 311.18 c 269.664 284.738 l 368.875 284.738 l 385.25
 284.738 400.836 292.621 410.566 305.84 c 411.324 306.867 412.52 307.465
 413.781 307.465 c h
413.781 307.465 m f
335.242 228.266 m 330.117 228.266 325.945 232.434 325.945 237.559 c 325.945
 253.047 l 325.945 258.172 330.117 262.34 335.242 262.34 c 340.363 262.34
 344.535 258.172 344.535 253.047 c 344.535 237.559 l 344.535 232.434 340.363
 228.266 335.242 228.266 c h
335.242 228.266 m f
419.164 228.266 m 414.043 228.266 409.871 232.434 409.871 237.559 c 409.871
 253.047 l 409.871 258.172 414.043 262.34 419.164 262.34 c 424.293 262.34
 428.461 258.172 428.461 253.047 c 428.461 237.559 l 428.461 232.434 424.293
 228.266 419.164 228.266 c h
419.164 228.266 m f
421.504 175.277 m 421.43 175.277 421.355 175.281 421.281 175.289 c 420.184
 175.414 419.398 176.402 419.52 177.5 c 422.234 201.441 409.219 208.016 
408.664 208.285 c 407.672 208.758 407.25 209.949 407.719 210.938 c 408.191
 211.93 409.375 212.355 410.363 211.895 c 411.023 211.582 426.543 203.996
 423.488 177.047 c 423.375 176.027 422.508 175.277 421.504 175.277 c h
421.504 175.277 m f
333.555 175.277 m 332.555 175.277 331.688 176.027 331.574 177.047 c 328.516
 204 344.039 211.586 344.699 211.895 c 345.695 212.363 346.891 211.93 347.352
 210.93 c 347.816 209.938 347.391 208.754 346.398 208.285 c 345.84 208.016
 332.828 201.438 335.539 177.5 c 335.664 176.402 334.879 175.414 333.781
 175.293 c 333.703 175.281 333.629 175.277 333.555 175.277 c h
333.555 175.277 m f
335.238 214.852 m 318.449 214.852 304.789 228.512 304.789 245.305 c 304.789
 262.09 318.449 275.754 335.238 275.754 c 352.027 275.754 365.688 262.09
 365.688 245.305 c 365.688 228.512 352.031 214.852 335.238 214.852 c h
335.238 267.77 m 322.852 267.77 312.773 257.691 312.773 245.305 c 312.773
 232.918 322.852 222.84 335.238 222.84 c 347.625 222.84 357.703 232.918 
357.703 245.305 c 357.703 257.688 347.625 267.77 335.238 267.77 c h
335.238 267.77 m f
419.168 214.852 m 402.379 214.852 388.719 228.512 388.719 245.305 c 388.719
 262.09 402.379 275.754 419.168 275.754 c 435.957 275.754 449.617 262.09
 449.617 245.305 c 449.617 228.512 435.957 214.852 419.168 214.852 c h
419.168 267.77 m 406.781 267.77 396.703 257.691 396.703 245.305 c 396.703
 232.918 406.781 222.84 419.168 222.84 c 431.555 222.84 441.633 232.918 
441.633 245.305 c 441.633 257.688 431.555 267.77 419.168 267.77 c h
419.168 267.77 m f
396.609 241.309 m 357.797 241.309 l 355.594 241.309 353.805 243.102 353.805
 245.305 c 353.805 247.508 355.594 249.297 357.797 249.297 c 396.609 249.297
 l 398.812 249.297 400.602 247.508 400.602 245.305 c 400.602 243.102 398.812
 241.309 396.609 241.309 c h
396.609 241.309 m f
0.976471 0.811765 0.811765 rg
221.422 281.113 m 221.223 281.113 221.027 281.086 220.828 281.082 c 220.828
 289.863 l 220.828 341.207 178.828 382.832 127.016 382.832 c 75.207 382.832
 33.207 341.207 33.207 289.863 c 33.207 281.082 l 33.004 281.086 32.812 
281.113 32.609 281.113 c 16.805 281.113 3.988 268.414 3.988 252.75 c 3.988
 237.086 16.809 224.391 32.609 224.391 c 33.652 224.391 34.672 224.453 35.684
 224.559 c 45.359 183.426 82.562 152.777 127.016 152.777 c 171.469 152.777
 208.668 183.426 218.352 224.559 c 219.363 224.453 220.383 224.391 221.422
 224.391 c 237.23 224.391 250.039 237.086 250.039 252.75 c 250.039 268.414
 237.227 281.113 221.422 281.113 c h
221.422 281.113 m f
0.215686 0.384314 0.8 rg
127.016 148.785 m 82.453 148.785 44.109 178.062 32.621 220.391 c 32.617
 220.391 32.617 220.391 32.613 220.391 c 14.633 220.391 0 234.91 0 252.746
 c 0 269.449 12.82 283.238 29.211 284.934 c 29.211 289.863 l 29.211 343.328
 73.09 386.828 127.016 386.828 c 180.949 386.828 224.82 343.328 224.82 289.863
 c 224.82 284.934 l 241.211 283.238 254.035 269.453 254.035 252.746 c 254.035
 234.906 239.406 220.391 221.422 220.391 c 221.418 220.391 l 209.926 178.062
 171.578 148.785 127.016 148.785 c h
35.688 228.551 m 37.52 228.551 39.141 227.289 39.57 225.469 c 49.094 185.027
 85.047 156.773 127.016 156.773 c 168.984 156.773 204.941 185.023 214.461
 225.469 c 214.922 227.43 216.766 228.746 218.77 228.527 c 219.695 228.43
 220.566 228.383 221.422 228.383 c 235 228.383 246.047 239.312 246.047 252.75
 c 246.047 266.176 235.02 277.102 221.453 277.121 c 221.215 277.105 221.062
 277.094 220.906 277.094 c 219.852 277.07 218.797 277.484 218.031 278.23
 c 217.266 278.98 216.836 280.012 216.836 281.082 c 216.836 289.863 l 216.836
 338.926 176.543 378.84 127.016 378.84 c 77.492 378.84 37.199 338.926 37.199
 289.863 c 37.199 281.082 l 37.199 280.012 36.766 278.98 35.996 278.23 c
 35.234 277.484 34.188 277.066 33.129 277.094 c 32.969 277.094 32.812 277.105
 32.656 277.117 c 32.652 277.117 32.648 277.117 32.645 277.117 c 19.027 
277.117 7.984 266.188 7.984 252.75 c 7.984 239.312 19.031 228.383 32.609
 228.383 c 33.469 228.383 34.332 228.43 35.262 228.527 c 35.406 228.543 
35.547 228.551 35.688 228.551 c h
35.688 228.551 m f
0.878431 0.921569 0.988235 rg
194.312 303.75 m 242.781 303.75 l 246.312 303.75 249.18 306.613 249.18 
310.148 c 249.18 345.793 l 249.18 386.41 216.254 419.336 175.637 419.336
 c 172.641 419.336 l 162.043 419.336 153.457 410.742 153.457 400.152 c 153.457
 344.609 l 153.453 322.047 171.746 303.75 194.312 303.75 c h
194.312 303.75 m f
96.164 303.75 m 11.848 303.75 l 8.297 303.75 5.426 306.625 5.426 310.172
 c 5.426 339.504 l 5.426 383.594 41.164 419.336 85.254 419.336 c 134.48 
419.336 l 145.062 419.336 153.641 410.754 153.641 400.176 c 153.641 361.23
 l 153.641 329.48 127.906 303.75 96.164 303.75 c h
96.164 303.75 m f
0.215686 0.384314 0.8 rg
242.781 299.758 m 194.312 299.758 l 169.582 299.758 149.461 319.875 149.461
 344.609 c 149.461 400.148 l 149.461 412.926 159.859 423.324 172.641 423.324
 c 175.637 423.324 l 218.391 423.324 253.172 388.543 253.172 345.789 c 253.172
 310.145 l 253.172 304.418 248.512 299.758 242.781 299.758 c h
172.641 415.336 m 164.262 415.336 157.445 408.523 157.445 400.148 c 157.445
 344.609 l 157.445 324.281 173.984 307.742 194.312 307.742 c 242.781 307.742
 l 244.105 307.742 245.184 308.82 245.184 310.145 c 245.184 345.793 l 245.184
 384.141 213.988 415.34 175.637 415.34 c 172.641 415.34 l h
172.641 415.336 m f
96.164 299.758 m 11.848 299.758 l 6.102 299.758 1.43 304.426 1.43 310.172
 c 1.43 339.5 l 1.43 385.723 39.035 423.324 85.254 423.324 c 134.48 423.324
 l 147.246 423.324 157.633 412.938 157.633 400.172 c 157.633 361.23 l 157.633
 327.332 130.059 299.758 96.164 299.758 c h
85.258 415.336 m 43.441 415.336 9.422 381.316 9.422 339.5 c 9.422 310.172
 l 9.422 308.832 10.508 307.746 11.848 307.746 c 96.164 307.746 l 125.656
 307.746 149.652 331.738 149.652 361.23 c 149.652 400.176 l 149.652 408.535
 142.844 415.34 134.484 415.34 c 85.258 415.34 l h
85.258 415.336 m f
232.523 59.125 m 21.512 59.125 l 19.309 59.125 17.516 60.91 17.516 63.117
 c 17.516 93.93 l 17.516 122.512 40.77 145.762 69.352 145.762 c 80.453 145.762
 l 80.453 162.891 l 80.453 164.277 81.172 165.566 82.355 166.293 c 83.539
 167.02 85.008 167.078 86.25 166.457 c 98.941 160.031 112.66 156.773 127.012
 156.773 c 141.359 156.773 155.066 160.027 167.758 166.441 c 168.992 167.066
 170.473 167.004 171.652 166.281 c 172.836 165.551 173.551 164.266 173.551
 162.875 c 173.551 145.762 l 184.676 145.762 l 213.258 145.762 236.512 122.512
 236.512 93.93 c 236.512 63.117 l 236.516 60.91 234.73 59.125 232.523 59.125
 c h
25.504 67.109 m 228.531 67.109 l 228.531 93.93 l 228.531 118.105 208.859
 137.777 184.676 137.777 c 169.477 137.777 l 169.438 137.777 169.406 137.777
 169.371 137.777 c 168.176 137.777 167.039 138.316 166.277 139.238 c 165.523
 140.16 165.211 141.375 165.445 142.547 c 165.531 142.969 165.57 143.316
 165.57 143.609 c 165.57 156.613 l 153.406 151.414 140.465 148.785 127.016
 148.785 c 113.555 148.785 100.613 151.422 88.445 156.625 c 88.445 143.559
 l 88.445 143.301 88.484 142.98 88.57 142.551 c 88.805 141.379 88.496 140.164
 87.738 139.238 c 86.98 138.316 85.848 137.781 84.652 137.781 c 69.355 137.781
 l 45.18 137.781 25.508 118.109 25.508 93.934 c 25.508 67.109 l h
25.504 67.109 m f
0.878431 0.921569 0.988235 rg
219.762 303.746 m 220.449 299.219 220.828 294.586 220.828 289.863 c 220.828
 281.082 l 221.027 281.086 221.223 281.113 221.422 281.113 c 228.828 281.113
 235.566 278.293 240.645 273.715 c 240.645 303.746 l h
219.762 303.746 m f
0.215686 0.384314 0.8 rg
240.648 269.723 m 239.684 269.723 238.723 270.074 237.973 270.75 c 233.414
 274.859 227.539 277.117 221.422 277.117 c 221.23 277.102 221.07 277.094
 220.906 277.09 c 219.852 277.066 218.797 277.48 218.031 278.227 c 217.266
 278.977 216.836 280.008 216.836 281.078 c 216.836 289.859 l 216.836 294.227
 216.496 298.691 215.816 303.148 c 215.645 304.297 215.98 305.469 216.738
 306.348 c 217.496 307.23 218.602 307.738 219.766 307.738 c 240.648 307.738
 l 242.852 307.738 244.645 305.949 244.645 303.742 c 244.645 273.711 l 244.645
 272.133 243.715 270.707 242.273 270.062 c 241.75 269.836 241.199 269.723
 240.648 269.723 c h
224.82 284.93 m 228.973 284.496 232.988 283.27 236.656 281.336 c 236.656
 299.754 l 224.301 299.754 l 224.648 296.438 224.82 293.125 224.82 289.863
 c h
224.82 284.93 m f
0.878431 0.921569 0.988235 rg
13.953 303.746 m 13.953 274.227 l 18.965 278.508 25.477 281.109 32.609 
281.109 c 32.812 281.109 33.004 281.086 33.207 281.082 c 33.207 289.863 
l 33.207 294.582 33.582 299.215 34.266 303.746 c h
13.953 303.746 m f
0.215686 0.384314 0.8 rg
13.953 270.234 m 13.387 270.234 12.816 270.359 12.285 270.605 c 10.867 
271.254 9.961 272.672 9.961 274.227 c 9.961 303.75 l 9.961 305.953 11.75
 307.746 13.953 307.746 c 34.266 307.746 l 35.434 307.746 36.539 307.238
 37.297 306.352 c 38.059 305.473 38.391 304.305 38.219 303.152 c 37.543 
298.699 37.199 294.23 37.199 289.867 c 37.199 281.086 l 37.199 280.016 36.766
 278.984 36 278.23 c 35.234 277.484 34.191 277.07 33.129 277.094 c 32.969
 277.098 32.809 277.105 32.645 277.117 c 32.641 277.117 32.633 277.117 32.625
 277.117 c 26.719 277.117 21.02 275.016 16.551 271.191 c 15.812 270.562 
14.887 270.234 13.953 270.234 c h
17.945 299.754 m 17.945 281.633 l 21.465 283.391 25.277 284.516 29.211 
284.93 c 29.211 289.863 l 29.211 293.121 29.383 296.434 29.73 299.754 c 
h
17.945 299.754 m f
124.199 193.656 m 110.238 193.656 99.707 199.777 99.707 207.902 c 99.707
 210.105 101.492 211.895 103.699 211.895 c 105.902 211.895 107.695 210.105
 107.695 207.902 c 107.695 205.695 113.961 201.641 124.199 201.641 c 134.445
 201.641 140.715 205.695 140.715 207.902 c 140.715 210.105 142.504 211.895
 144.711 211.895 c 146.914 211.895 148.703 210.105 148.703 207.902 c 148.699
 199.777 138.164 193.656 124.199 193.656 c h
124.199 193.656 m f
80.906 241.438 m 75.16 241.438 70.488 246.109 70.488 251.859 c 70.488 269.223
 l 70.488 274.973 75.16 279.645 80.906 279.645 c 86.652 279.645 91.328 274.973
 91.328 269.223 c 91.328 251.859 l 91.328 246.109 86.652 241.438 80.906 
241.438 c h
80.906 241.438 m f
167.5 241.438 m 161.754 241.438 157.078 246.109 157.078 251.859 c 157.078
 269.223 l 157.078 274.973 161.754 279.645 167.5 279.645 c 173.242 279.645
 177.918 274.973 177.918 269.223 c 177.918 251.859 l 177.918 246.109 173.242
 241.438 167.5 241.438 c h
167.5 241.438 m f
170.379 184.457 m 170.305 184.457 170.23 184.461 170.152 184.469 c 169.055
 184.594 168.27 185.582 168.391 186.68 c 171.273 212.086 157.086 219.031
 156.941 219.102 c 155.945 219.566 155.516 220.754 155.98 221.758 c 156.449
 222.754 157.637 223.184 158.637 222.715 c 159.328 222.391 175.562 214.461
 172.363 186.227 c 172.246 185.207 171.379 184.457 170.379 184.457 c h
170.379 184.457 m f
78.023 184.457 m 77.027 184.457 76.16 185.207 76.047 186.227 c 72.848 214.461
 89.078 222.391 89.77 222.715 c 90.773 223.18 91.957 222.754 92.426 221.758
 c 92.891 220.758 92.465 219.574 91.473 219.105 c 90.867 218.812 77.16 211.883
 80.016 186.68 c 80.137 185.582 79.352 184.594 78.254 184.469 c 78.176 184.461
 78.098 184.457 78.023 184.457 c h
78.023 184.457 m f
80.141 226.109 m 62.621 226.109 48.363 240.363 48.363 257.887 c 48.363 
275.406 62.617 289.66 80.141 289.66 c 97.66 289.66 111.918 275.406 111.918
 257.887 c 111.918 240.367 97.66 226.109 80.141 226.109 c h
80.141 281.676 m 67.023 281.676 56.352 271.004 56.352 257.887 c 56.352 
244.77 67.023 234.094 80.141 234.094 c 93.258 234.094 103.93 244.77 103.93
 257.887 c 103.93 271.004 93.258 281.676 80.141 281.676 c h
80.141 281.676 m f
168.266 226.109 m 150.742 226.109 136.488 240.363 136.488 257.887 c 136.488
 275.406 150.742 289.66 168.266 289.66 c 185.785 289.66 200.039 275.406 
200.039 257.887 c 200.039 240.367 185.785 226.109 168.266 226.109 c h
168.266 281.676 m 155.145 281.676 144.477 271.004 144.477 257.887 c 144.477
 244.77 155.145 234.094 168.266 234.094 c 181.383 234.094 192.051 244.77
 192.051 257.887 c 192.051 271.004 181.383 281.676 168.266 281.676 c h
168.266 281.676 m f
144.582 253.895 m 103.824 253.895 l 101.621 253.895 99.832 255.68 99.832
 257.887 c 99.832 260.09 101.621 261.879 103.824 261.879 c 144.582 261.879
 l 146.785 261.879 148.574 260.09 148.574 257.887 c 148.574 255.68 146.785
 253.895 144.582 253.895 c h
144.582 253.895 m f
0.976471 0.654902 0.654902 rg
348.988 129.508 m 324.43 129.508 l 300.582 76.77 l 300.582 61.125 l 372.836
 61.125 l 372.836 76.77 l h
348.988 129.508 m f
0.215686 0.384314 0.8 rg
372.836 57.133 m 300.582 57.133 l 298.375 57.133 296.586 58.922 296.586
 61.125 c 296.586 76.77 l 296.586 77.34 296.707 77.898 296.941 78.414 c 
320.793 131.152 l 321.438 132.582 322.859 133.504 324.43 133.504 c 348.988
 133.504 l 350.559 133.504 351.98 132.582 352.625 131.152 c 376.477 78.414
 l 376.711 77.898 376.832 77.34 376.832 76.77 c 376.832 61.125 l 376.832
 58.922 375.043 57.133 372.836 57.133 c h
304.574 65.117 m 368.844 65.117 l 368.844 75.91 l 346.414 125.516 l 327.004
 125.516 l 304.574 75.91 l h
304.574 65.117 m f
0.976471 0.654902 0.654902 rg
343.43 157.246 m 324.059 157.246 l 321.285 157.246 319.035 154.992 319.035
 152.223 c 319.035 150.059 317.648 148.133 315.594 147.453 c 301.965 142.926
 l 299.91 142.242 298.523 140.32 298.523 138.156 c 298.523 121.191 l 298.523
 119.488 299.387 117.898 300.816 116.977 c 313.43 108.809 l 313.871 108.523
 314.352 108.312 314.855 108.176 c 335.559 102.621 l 335.984 102.508 336.422
 102.449 336.863 102.449 c 437.297 102.449 l 438.223 102.449 439.137 102.707
 439.926 103.195 c 453.492 111.535 l 454.977 112.449 455.883 114.066 455.883
 115.812 c 455.883 136.77 l 455.883 138.766 454.695 140.578 452.867 141.371
 c 446.188 144.289 l 444.359 145.09 443.176 146.898 443.176 148.895 c 443.176
 152.223 l 443.176 154.996 440.922 157.246 438.148 157.246 c h
343.43 157.246 m f
0.215686 0.384314 0.8 rg
437.297 98.453 m 336.863 98.453 l 336.07 98.453 335.293 98.559 334.531 
98.762 c 313.824 104.312 l 312.91 104.559 312.051 104.938 311.262 105.453
 c 298.645 113.621 l 296.066 115.289 294.531 118.117 294.531 121.191 c 294.531
 138.156 l 294.531 142.043 297.012 145.484 300.703 146.711 c 314.336 151.238
 l 314.758 151.379 315.039 151.773 315.039 152.219 c 315.039 157.191 319.086
 161.238 324.059 161.238 c 438.148 161.238 l 443.121 161.238 447.168 157.191
 447.168 152.219 c 447.168 148.891 l 447.168 148.48 447.41 148.109 447.785
 147.945 c 454.465 145.031 l 457.754 143.594 459.875 140.352 459.875 136.766
 c 459.875 115.809 l 459.875 112.703 458.234 109.758 455.586 108.133 c 442.023
 99.789 l 440.594 98.918 438.965 98.453 437.297 98.453 c h
324.059 153.25 m 323.492 153.25 323.027 152.785 323.027 152.219 c 323.027
 148.324 320.547 144.887 316.852 143.66 c 303.219 139.129 l 302.801 138.992
 302.516 138.602 302.516 138.156 c 302.516 121.191 l 302.516 120.836 302.691
 120.516 302.98 120.324 c 315.594 112.156 l 315.684 112.098 315.785 112.055
 315.891 112.027 c 336.59 106.473 l 336.672 106.453 336.77 106.438 336.859
 106.438 c 437.293 106.438 l 437.484 106.438 437.664 106.492 437.828 106.594
 c 451.391 114.938 l 451.691 115.121 451.879 115.461 451.879 115.812 c 451.879
 136.766 l 451.879 137.176 451.637 137.547 451.262 137.711 c 444.578 140.629
 l 441.293 142.066 439.172 145.312 439.172 148.895 c 439.172 152.223 l 439.172
 152.789 438.711 153.25 438.141 153.25 c h
324.059 153.25 m f
0.976471 0.654902 0.654902 rg
96.727 131.5 m 72.168 131.5 l 48.316 78.758 l 48.316 63.117 l 120.578 63.117
 l 120.578 78.758 l h
96.727 131.5 m f
0.215686 0.384314 0.8 rg
120.578 59.125 m 48.316 59.125 l 46.113 59.125 44.324 60.91 44.324 63.117
 c 44.324 78.758 l 44.324 79.324 44.449 79.887 44.684 80.406 c 68.527 133.141
 l 69.176 134.57 70.602 135.492 72.168 135.492 c 96.727 135.492 l 98.297
 135.492 99.719 134.57 100.367 133.141 c 124.215 80.406 l 124.445 79.887
 124.57 79.324 124.57 78.758 c 124.57 63.117 l 124.57 60.91 122.781 59.125
 120.578 59.125 c h
52.309 67.109 m 116.586 67.109 l 116.586 77.898 l 94.148 127.504 l 74.746
 127.504 l 52.309 77.898 l h
52.309 67.109 m f
0.976471 0.654902 0.654902 rg
90.43 157.246 m 71.059 157.246 l 68.285 157.246 66.039 154.992 66.039 152.223
 c 66.039 150.059 64.652 148.133 62.598 147.453 c 48.965 142.926 l 46.91
 142.242 45.523 140.32 45.523 138.156 c 45.523 121.191 l 45.523 119.488 
46.387 117.898 47.816 116.977 c 60.43 108.809 l 60.871 108.523 61.355 108.312
 61.859 108.176 c 82.562 102.621 l 82.988 102.508 83.426 102.449 83.867 
102.449 c 184.301 102.449 l 185.227 102.449 186.141 102.707 186.926 103.195
 c 200.492 111.535 l 201.977 112.449 202.883 114.066 202.883 115.812 c 202.883
 136.77 l 202.883 138.766 201.699 140.578 199.871 141.371 c 193.191 144.289
 l 191.359 145.09 190.176 146.898 190.176 148.895 c 190.176 152.223 l 190.176
 154.996 187.926 157.246 185.152 157.246 c h
90.43 157.246 m f
0.215686 0.384314 0.8 rg
184.297 98.453 m 83.863 98.453 l 83.074 98.453 82.293 98.559 81.535 98.762
 c 60.824 104.312 l 59.91 104.559 59.051 104.941 58.262 105.453 c 45.645
 113.621 l 43.066 115.293 41.531 118.121 41.531 121.191 c 41.531 138.156
 l 41.531 142.047 44.012 145.488 47.703 146.711 c 61.34 151.242 l 61.758
 151.383 62.043 151.773 62.043 152.223 c 62.043 157.191 66.09 161.238 71.059
 161.238 c 185.148 161.238 l 190.121 161.238 194.164 157.195 194.164 152.223
 c 194.164 148.895 l 194.164 148.48 194.41 148.109 194.785 147.949 c 201.465
 145.031 l 204.754 143.594 206.875 140.355 206.875 136.766 c 206.875 115.812
 l 206.875 112.703 205.23 109.758 202.582 108.133 c 189.023 99.789 l 187.594
 98.918 185.965 98.453 184.297 98.453 c h
71.059 153.25 m 70.492 153.25 70.031 152.785 70.031 152.219 c 70.031 148.324
 67.547 144.887 63.852 143.66 c 50.223 139.129 l 49.805 138.992 49.52 138.602
 49.52 138.156 c 49.52 121.191 l 49.52 120.836 49.695 120.516 49.984 120.32
 c 62.598 112.156 l 62.688 112.098 62.789 112.055 62.898 112.027 c 83.594
 106.473 l 83.676 106.453 83.77 106.438 83.863 106.438 c 184.297 106.438
 l 184.488 106.438 184.668 106.492 184.832 106.594 c 198.398 114.938 l 198.703
 115.125 198.887 115.453 198.887 115.812 c 198.887 136.766 l 198.887 137.18
 198.641 137.547 198.27 137.711 c 191.586 140.629 l 188.301 142.066 186.18
 145.312 186.18 148.895 c 186.18 152.223 l 186.18 152.789 185.715 153.25
 185.145 153.25 c h
71.059 153.25 m f
484.688 265.223 m 465.797 265.223 l 443.703 265.223 423.586 277.184 412.938
 296.172 c 401.691 283.91 385.645 276.746 368.875 276.746 c 268.113 276.746
 l 264.562 276.746 261.676 279.633 261.676 283.18 c 261.676 311.176 l 261.676
 360.645 301.918 400.887 351.383 400.887 c 368.875 400.887 l 369.793 400.883
 392.238 400.965 410.723 384.703 c 418.848 384.703 l 459.945 384.703 493.383
 351.262 493.383 310.164 c 493.383 273.918 l 493.383 269.121 489.48 265.223
 484.688 265.223 c h
413.781 307.465 m 413.934 307.465 414.086 307.457 414.238 307.438 c 415.66
 307.273 416.883 306.363 417.449 305.051 c 425.777 285.707 444.754 273.211
 465.797 273.211 c 484.688 273.211 l 485.078 273.211 485.398 273.527 485.398
 273.918 c 485.398 310.164 l 485.398 346.859 455.543 376.715 418.848 376.715
 c 409.188 376.715 l 408.18 376.715 407.215 377.098 406.473 377.781 c 390.047
 393.004 369.117 392.914 368.926 392.902 c 351.383 392.902 l 306.324 392.902
 269.664 356.242 269.664 311.18 c 269.664 284.738 l 368.875 284.738 l 385.25
 284.738 400.836 292.621 410.566 305.84 c 411.324 306.867 412.52 307.465
 413.781 307.465 c h
413.781 307.465 m f
Q Q
showpage
%%Trailer
end restore
%%EOF
