%!PS-Adobe-3.0 EPSF-3.0
%%Creator: cairo 1.14.8 (http://cairographics.org)
%%CreationDate: Wed Mar 20 09:06:38 2019
%%Pages: 1
%%DocumentData: Clean7Bit
%%LanguageLevel: 2
%%BoundingBox: 4 0 487 491
%%EndComments
%%BeginProlog
save
50 dict begin
/q { gsave } bind def
/Q { grestore } bind def
/cm { 6 array astore concat } bind def
/w { setlinewidth } bind def
/J { setlinecap } bind def
/j { setlinejoin } bind def
/M { setmiterlimit } bind def
/d { setdash } bind def
/m { moveto } bind def
/l { lineto } bind def
/c { curveto } bind def
/h { closepath } bind def
/re { exch dup neg 3 1 roll 5 3 roll moveto 0 rlineto
      0 exch rlineto 0 rlineto closepath } bind def
/S { stroke } bind def
/f { fill } bind def
/f* { eofill } bind def
/n { newpath } bind def
/W { clip } bind def
/W* { eoclip } bind def
/BT { } bind def
/ET { } bind def
/pdfmark where { pop globaldict /?pdfmark /exec load put }
    { globaldict begin /?pdfmark /pop load def /pdfmark
    /cleartomark load def end } ifelse
/BDC { mark 3 1 roll /BDC pdfmark } bind def
/EMC { mark /EMC pdfmark } bind def
/cairo_store_point { /cairo_point_y exch def /cairo_point_x exch def } def
/Tj { show currentpoint cairo_store_point } bind def
/TJ {
  {
    dup
    type /stringtype eq
    { show } { -0.001 mul 0 cairo_font_matrix dtransform rmoveto } ifelse
  } forall
  currentpoint cairo_store_point
} bind def
/cairo_selectfont { cairo_font_matrix aload pop pop pop 0 0 6 array astore
    cairo_font exch selectfont cairo_point_x cairo_point_y moveto } bind def
/Tf { pop /cairo_font exch def /cairo_font_matrix where
      { pop cairo_selectfont } if } bind def
/Td { matrix translate cairo_font_matrix matrix concatmatrix dup
      /cairo_font_matrix exch def dup 4 get exch 5 get cairo_store_point
      /cairo_font where { pop cairo_selectfont } if } bind def
/Tm { 2 copy 8 2 roll 6 array astore /cairo_font_matrix exch def
      cairo_store_point /cairo_font where { pop cairo_selectfont } if } bind def
/g { setgray } bind def
/rg { setrgbcolor } bind def
/d1 { setcachedevice } bind def
%%EndProlog
%%BeginSetup
%%EndSetup
%%Page: 1 1
%%BeginPageSetup
%%PageBoundingBox: 4 0 487 491
%%EndPageSetup
q 4 0 483 491 rectclip q
0.878431 0.921569 0.988235 rg
226.227 309.719 m 403.516 487.004 l 375.262 487.004 l 214.211 325.953 l
 216.766 321.77 220.988 315.461 226.227 309.719 c h
226.227 309.719 m f
0.976471 0.654902 0.654902 rg
480.418 121.797 m 477.852 123.504 474.07 128.984 471.262 133.441 c 469.973
 135.211 468.754 137.277 467.578 139.574 c 467.539 139.645 467.512 139.688
 467.512 139.688 c 467.516 139.695 l 460.75 153.035 455.684 174.074 450.109
 190.395 c 442.117 213.781 429.035 225.812 429.035 225.816 c 425.859 228.164
 423.938 228.945 423.938 228.945 c 414.574 193.535 l 431.098 130.027 463.727
 117.922 480.383 116.059 c 481.27 115.961 481.941 116.613 482.273 117.523
 c 482.785 118.941 482.148 120.535 480.926 121.418 c 480.609 121.652 480.418
 121.797 480.418 121.797 c h
480.418 121.797 m f
0.215686 0.384314 0.8 rg
480.559 112.055 m 480.352 112.055 480.148 112.066 479.941 112.09 c 461.359
 114.168 427.66 127.379 410.707 192.527 c 410.535 193.195 410.535 193.891
 410.711 194.555 c 420.074 229.973 l 420.367 231.078 421.125 232.012 422.156
 232.523 c 423.184 233.039 424.383 233.082 425.449 232.648 c 425.691 232.551
 427.934 231.602 431.41 229.027 c 431.527 228.941 431.637 228.848 431.742
 228.75 c 432.309 228.227 445.695 215.672 453.891 191.688 c 455.723 186.32
 457.531 180.352 459.281 174.582 c 462.914 162.594 466.668 150.195 471.078
 141.508 c 471.086 141.492 471.094 141.477 471.102 141.461 c 471.117 141.434
 471.129 141.41 471.141 141.395 c 472.258 139.199 473.391 137.316 474.492
 135.789 c 474.543 135.719 474.594 135.648 474.645 135.57 c 479.945 127.16
 482.227 125.395 482.629 125.125 c 482.695 125.082 482.762 125.035 482.824
 124.988 c 483.277 124.656 l 485.992 122.684 487.129 119.195 486.031 116.172
 c 485.121 113.641 482.969 112.055 480.559 112.055 c h
418.707 193.531 m 432.914 139.969 458.441 124.812 475.41 120.949 c 473.754
 122.746 471.352 125.816 467.953 131.203 c 466.609 133.062 465.332 135.203
 464.031 137.746 c 464.008 137.793 463.984 137.844 463.957 137.891 c 459.227
 147.207 455.367 159.945 451.637 172.262 c 449.832 178.23 448.121 183.867
 446.332 189.105 c 439.234 209.879 427.844 221.402 426.461 222.75 c 426.453
 222.754 426.445 222.762 426.438 222.766 c h
418.707 193.531 m f
0.976471 0.654902 0.654902 rg
430.195 215.941 m 426.129 225.645 l 416.062 249.664 394.305 266.102 369.297
 268.562 c 345.105 270.949 l 326.84 272.754 l 326.855 272.602 l 297.965 
275.207 l 249.547 282.113 l 249.125 282.176 248.703 282.293 248.312 282.465
 c 208.668 299.645 199.801 315.605 198.109 323.809 c 198.047 324.121 198.02
 324.43 198.02 324.746 c 198.02 365.312 l 198.02 374.633 194.441 383.168
 188.488 389.875 c 173.895 403.289 136.629 408.699 136.629 408.699 c 108.766
 408.699 l 101.293 408.699 94.27 406.309 88.496 402.195 c 88.246 402.016
 87.98 401.867 87.695 401.746 c 75.812 396.727 67.398 384.555 67.398 370.273
 c 67.398 368.156 l 67.398 365.926 65.832 364.004 63.652 363.547 c 22.34
 354.941 l 14.285 353.266 8.516 346.164 8.516 337.938 c 8.516 315.359 l 
8.516 305.766 14.137 296.996 22.941 293.195 c 23.41 292.992 23.887 292.793
 24.359 292.602 c 24.836 292.406 25.27 292.129 25.66 291.793 c 28.598 289.277
 32.34 287.766 36.426 287.766 c 89.793 287.766 l 90.727 287.766 91.645 287.5
 92.414 286.965 c 93.32 286.34 94.633 285.293 96.176 283.668 c 96.176 283.668
 107.598 255.789 111.164 183.121 c 111.148 175.055 l 111.16 172.27 111.391
 169.547 111.805 166.887 c 111.805 166.883 l 115.57 142.746 135.309 124.238
 159.039 124.137 c 204.547 123.941 l 204.547 123.941 245.23 116.684 280.062
 110.777 c 311.102 105.457 l 311.102 105.457 355.328 99.734 378.781 95.953
 c 381.707 95.48 384.328 97.805 384.223 100.766 c 384.121 103.719 386.73
 106.039 389.652 105.578 c 414.422 101.711 l 416.875 101.324 419.203 102.914
 419.742 105.344 c 434.215 170.77 l 437.562 185.891 436.152 201.73 430.195
 215.941 c h
430.195 215.941 m f
0.215686 0.384314 0.8 rg
96.551 355.715 m 95.801 355.715 l 91.617 355.715 88.227 359.105 88.227 
363.289 c 88.227 372.41 l 88.227 376.59 91.617 379.98 95.801 379.98 c 96.551
 379.98 l 100.734 379.98 104.125 376.59 104.125 372.41 c 104.125 363.289
 l 104.129 359.105 100.734 355.715 96.551 355.715 c h
96.551 355.715 m f
0.27451 0.443137 0.776471 rg
21.492 333.465 m 26.23 336.734 l 29.332 338.883 31.188 342.414 31.188 346.188
 c 31.188 356.785 l 17.535 353.941 l 12.277 352.844 8.516 348.211 8.516 
342.848 c 8.516 332.516 l 12.641 331.664 l 15.711 331.031 18.91 331.684 
21.492 333.465 c h
21.492 333.465 m f
0.976471 0.654902 0.654902 rg
187.543 391.488 m 187.383 391.926 187.277 392.387 187.254 392.863 c 185.418
 432.543 170.277 434.793 165.605 434.535 c 164.824 434.492 164.059 434.258
 163.395 433.848 c 152.703 427.293 145.492 418.977 140.625 410.93 c 135.656
 405.426 l 135.656 405.426 152.188 375.891 187.543 391.488 c h
187.543 391.488 m f
0.215686 0.384314 0.8 rg
379.539 91.898 m 379.078 91.898 378.609 91.938 378.148 92.012 c 355.023
 95.738 311.027 101.441 310.59 101.496 c 279.387 106.844 l 246.621 112.398
 208.199 119.238 204.188 119.953 c 159.023 120.145 l 133.527 120.254 112.008
 139.648 107.859 166.27 c 107.402 169.188 107.164 172.137 107.152 175.039
 c 107.168 183.027 l 103.969 248.051 94.426 276.836 92.738 281.477 c 91.637
 282.57 90.734 283.27 90.145 283.684 c 90.062 283.738 89.938 283.77 89.797
 283.77 c 36.43 283.77 l 31.578 283.77 26.832 285.539 23.07 288.758 c 22.945
 288.863 22.871 288.895 22.855 288.902 c 22.355 289.102 21.859 289.312 21.359
 289.527 c 11.129 293.945 4.52 304.082 4.52 315.359 c 4.52 337.938 l 4.52
 348.004 11.676 356.801 21.527 358.855 c 62.84 367.461 l 63.168 367.531 
63.406 367.824 63.406 368.16 c 63.406 370.277 l 63.406 385.797 72.328 399.594
 86.145 405.43 c 92.832 410.191 100.645 412.695 108.766 412.695 c 136.633
 412.695 l 136.703 412.695 136.77 412.695 136.84 412.691 c 137.414 413.324
 l 143.445 423.188 151.484 431.234 161.309 437.258 c 162.543 438.012 163.953
 438.449 165.391 438.527 c 168.016 438.668 173.176 438.238 178.246 433.656
 c 185.949 426.699 190.324 413.035 191.25 393.051 c 191.25 393.051 191.254
 392.988 191.305 392.848 c 191.328 392.785 191.352 392.719 191.371 392.652
 c 191.41 392.613 191.449 392.57 191.484 392.531 c 198.281 384.875 202.023
 375.211 202.023 365.316 c 202.023 324.75 l 203.234 318.758 210.316 303.289
 249.906 286.133 c 249.969 286.105 250.047 286.086 250.109 286.074 c 298.43
 279.18 l 326.164 276.676 l 326.516 276.746 326.875 276.77 327.238 276.734
 c 369.695 272.543 l 396.152 269.934 419.191 252.551 429.82 227.184 c 433.883
 217.488 l 440.117 202.621 441.621 185.723 438.125 169.91 c 423.648 104.484
 l 422.656 100.012 418.34 97.062 413.809 97.77 c 389.043 101.637 l 388.77
 101.684 388.574 101.57 388.461 101.469 c 388.344 101.367 388.211 101.188
 388.219 100.91 c 388.312 98.297 387.238 95.805 385.281 94.078 c 383.676
 92.66 381.641 91.898 379.539 91.898 c h
108.766 404.707 m 102.312 404.707 96.105 402.711 90.816 398.941 c 90.324
 398.59 89.805 398.301 89.258 398.07 c 78.406 393.484 71.395 382.578 71.395
 370.277 c 71.395 368.16 l 71.395 364.059 68.48 360.477 64.469 359.637 c
 23.16 351.031 l 16.992 349.746 12.512 344.238 12.512 337.938 c 12.512 315.359
 l 12.512 307.273 17.227 300.016 24.527 296.867 c 24.965 296.676 25.41 296.492
 25.859 296.309 c 26.711 295.965 27.516 295.473 28.258 294.84 c 30.613 292.824
 33.438 291.766 36.426 291.766 c 89.793 291.766 l 91.566 291.766 93.262 
291.242 94.684 290.258 c 96.145 289.25 97.621 287.961 99.074 286.422 c 99.414
 286.062 99.684 285.645 99.875 285.188 c 100.352 284.023 111.594 255.836
 115.152 183.32 c 115.156 183.254 115.156 183.188 115.156 183.117 c 115.141
 175.051 l 115.152 172.574 115.355 170.031 115.75 167.508 c 119.293 144.785
 137.508 128.23 159.055 128.141 c 204.562 127.945 l 204.793 127.945 205.023
 127.926 205.246 127.883 c 205.656 127.812 246.316 120.562 280.727 114.727
 c 311.773 109.406 l 312.055 109.371 356.168 103.656 379.414 99.91 c 379.676
 99.867 379.871 99.977 379.988 100.074 c 380.102 100.18 380.238 100.359 
380.227 100.641 c 380.137 103.242 381.203 105.73 383.152 107.457 c 385.105
 109.184 387.699 109.941 390.27 109.543 c 415.039 105.672 l 415.406 105.609
 415.758 105.855 415.84 106.219 c 430.316 171.648 l 433.461 185.863 432.109
 201.051 426.508 214.41 c 422.445 224.105 l 412.953 246.762 392.438 262.277
 368.906 264.598 c 327.508 268.684 l 327.18 268.617 326.836 268.598 326.5
 268.629 c 297.609 271.238 l 297.539 271.246 297.473 271.254 297.406 271.262
 c 248.984 278.172 l 248.219 278.277 247.457 278.492 246.734 278.805 c 207.32
 295.887 196.41 312.27 194.199 323.012 c 194.082 323.57 194.031 324.141 
194.031 324.758 c 194.031 365.312 l 194.031 373.297 191.133 380.812 185.641
 387.066 c 185.25 387.418 184.836 387.766 184.41 388.105 c 183.312 388.988
 182.754 390.379 182.949 391.77 c 183 392.148 183.105 392.512 183.258 392.852
 c 182.215 414.871 177.051 423.965 172.895 427.715 c 169.969 430.359 167.207
 430.629 165.832 430.547 c 165.707 430.543 165.59 430.504 165.48 430.438
 c 156.645 425.023 149.434 417.762 144.047 408.859 c 143.918 408.641 143.766
 408.438 143.594 408.246 c 141.336 405.742 l 140.422 404.734 139.059 404.254
 137.711 404.484 c 137.078 404.59 136.605 404.664 136.332 404.707 c h
108.766 404.707 m f
0.976471 0.654902 0.654902 rg
111.477 175.098 m 112.586 165.816 117.035 136.871 131.32 111.129 c 142.051
 48.902 l 126.883 48.902 l 114.812 48.902 105.031 38.141 105.031 24.867 
c 105.031 14.027 l 105.031 9.965 108.023 6.668 111.719 6.668 c 157.535 6.668
 l 167.574 6.668 175.609 15.832 175.246 26.871 c 174.855 38.578 l 175.258
 37.762 l 182.906 124.039 l 182.906 190.789 l h
111.477 175.098 m f
0.215686 0.384314 0.8 rg
157.539 2.672 m 111.723 2.672 l 105.828 2.672 101.039 7.766 101.039 14.027
 c 101.039 24.867 l 101.039 40.324 112.629 52.898 126.887 52.898 c 137.309
 52.898 l 127.496 109.789 l 113 136.234 108.535 166.055 107.508 174.617 
c 107.262 176.668 107.172 177.805 107.172 177.805 c 106.996 180.004 108.637
 181.93 110.832 182.105 c 113.039 182.285 114.957 180.645 115.137 178.449
 c 115.141 178.402 115.227 177.379 115.445 175.57 c 116.434 167.312 120.762
 138.398 134.816 113.07 c 135.035 112.68 135.184 112.254 135.262 111.809
 c 145.992 49.586 l 146.191 48.422 145.867 47.234 145.113 46.332 c 144.352
 45.43 143.23 44.91 142.051 44.91 c 126.887 44.91 l 117.035 44.91 109.027
 35.922 109.027 24.871 c 109.027 14.031 l 109.027 12.207 110.258 10.668 
111.723 10.668 c 157.539 10.668 l 160.977 10.668 164.262 12.113 166.805 
14.734 c 169.785 17.816 171.406 22.195 171.254 26.738 c 170.867 38.445 l
 170.84 39.289 171.078 40.094 171.516 40.762 c 178.914 124.215 l 178.914
 190.789 l 178.914 193 180.707 194.785 182.91 194.785 c 185.117 194.785 
186.906 193 186.906 190.789 c 186.906 124.039 l 186.906 123.922 186.902 
123.801 186.891 123.684 c 179.242 37.406 l 179.203 36.984 179.098 36.578
 178.938 36.199 c 179.242 27.004 l 179.465 20.301 177.023 13.805 172.543
 9.176 c 168.488 4.98 163.164 2.672 157.539 2.672 c h
157.539 2.672 m f
0.976471 0.654902 0.654902 rg
398.34 160.105 m 358.211 140.141 l 325.926 124.281 l 393.285 72.336 l 394
 67.738 l 397.023 46.23 l 384.66 46.23 l 374.824 46.23 366.848 35.465 366.848
 22.191 c 366.848 11.355 l 366.848 7.598 368.938 4.531 371.629 4.086 c 371.551
 3.996 l 418.887 3.996 l 423.207 3.996 426.703 8.676 426.703 14.457 c 426.703
 82.047 l 421.523 96.312 l 421.352 96.965 421.16 97.602 420.934 98.223 c
 h
398.34 160.105 m f
0.215686 0.384314 0.8 rg
351.164 100.824 m 351.102 100.824 351.035 100.824 350.965 100.828 c 284.609
 104.086 285.316 189.992 285.328 190.855 c 285.367 193.062 287.18 194.879
 289.391 194.781 c 291.598 194.746 293.355 192.93 293.32 190.723 c 293.27
 187.496 292.73 111.688 351.359 108.809 c 353.559 108.703 355.262 106.824
 355.152 104.621 c 355.051 102.488 353.281 100.824 351.164 100.824 c h
351.164 100.824 m f
418.887 0 m 371.551 0 l 370.879 0 370.234 0.168 369.664 0.477 c 365.645
 1.84 362.852 6.191 362.852 11.355 c 362.852 22.195 l 362.852 37.648 372.633
 50.227 384.66 50.227 c 392.43 50.227 l 389.582 70.145 l 348.727 101.656
 l 346.977 103.004 346.652 105.516 348 107.258 c 349.352 109.008 351.859
 109.332 353.602 107.984 c 395.727 75.5 l 396.539 74.875 397.074 73.957 
397.234 72.949 c 397.945 68.352 l 400.98 46.789 l 401.141 45.641 400.797
 44.484 400.039 43.613 c 399.281 42.738 398.18 42.238 397.023 42.238 c 384.664
 42.238 l 377.172 42.238 370.848 33.059 370.848 22.195 c 370.848 11.359 
l 370.848 9.32 371.855 8.102 372.289 8.027 c 372.355 8.02 372.418 8.004 
372.48 7.992 c 418.891 7.992 l 420.695 7.992 422.711 10.758 422.711 14.461
 c 422.711 81.348 l 417.766 94.957 l 417.727 95.07 417.688 95.191 417.656
 95.312 c 417.52 95.836 417.367 96.355 417.18 96.859 c 414.754 103.535 l
 414 105.613 415.07 107.902 417.145 108.656 c 419.219 109.41 421.512 108.34
 422.266 106.266 c 424.691 99.59 l 424.938 98.918 425.148 98.223 425.34 
97.516 c 430.461 83.414 l 430.621 82.977 430.699 82.516 430.699 82.051 c
 430.699 14.461 l 430.699 6.352 425.516 0 418.887 0 c h
418.887 0 m f
0.419608 0.866667 0.866667 rg
222.16 114.559 m 201.043 117.168 l 198.855 117.434 197.297 119.434 197.566
 121.621 c 219.074 295.816 l 219.344 298.004 221.34 299.562 223.527 299.293
 c 244.645 296.68 l 246.836 296.41 248.391 294.418 248.121 292.23 c 226.617
 118.035 l 226.344 115.844 224.352 114.285 222.16 114.559 c h
222.16 114.559 m f
91.621 254.039 m 84.188 271.273 l 83.312 273.301 84.246 275.652 86.273 
276.527 c 207.621 328.863 l 209.648 329.734 212 328.801 212.875 326.777 
c 220.309 309.547 l 221.184 307.516 220.25 305.168 218.223 304.293 c 96.875
 251.957 l 94.848 251.078 92.496 252.016 91.621 254.039 c h
91.621 254.039 m f
0.215686 0.384314 0.8 rg
222.668 110.531 m 222.336 110.531 222.004 110.551 221.676 110.594 c 200.551
 113.203 l 196.184 113.738 193.059 117.738 193.602 122.109 c 215.109 296.301
 l 215.371 298.422 216.441 300.309 218.125 301.625 c 219.805 302.938 221.895
 303.512 224.02 303.254 c 245.137 300.648 l 249.508 300.105 252.629 296.109
 252.086 291.738 c 230.582 117.547 l 230.32 115.43 229.25 113.543 227.57
 112.227 c 226.148 111.117 224.438 110.531 222.668 110.531 c h
222.652 118.523 m 222.656 118.523 l 244.156 292.715 l 223.039 295.324 l
 201.531 121.129 l h
222.652 118.523 m f
95.301 247.633 m 92.207 247.633 89.258 249.438 87.953 252.457 c 80.52 269.691
 l 78.773 273.738 80.645 278.445 84.691 280.195 c 206.043 332.531 l 208 
333.375 210.176 333.406 212.156 332.617 c 214.145 331.832 215.699 330.316
 216.547 328.359 c 223.98 311.125 l 224.828 309.164 224.859 306.992 224.07
 305.008 c 223.277 303.027 221.77 301.469 219.805 300.621 c 98.457 248.285
 l 97.43 247.84 96.355 247.633 95.301 247.633 c h
95.293 255.625 m 95.293 255.621 l 216.641 307.961 l 209.207 325.191 l 87.855
 272.855 l h
95.293 255.625 m f
0.419608 0.866667 0.866667 rg
213.227 327.594 m 212.199 329.336 210.039 330.031 208.18 329.211 c 198.023
 324.746 l 198.113 323.805 l 211.641 305.297 l 212.539 304.066 213.551 302.922
 214.656 301.879 c 214.656 301.879 221.609 292.754 246.77 281.246 c 248.199
 292.332 l 248.461 294.32 247.223 296.238 245.273 296.699 c 230.621 300.148
 217.762 319.891 213.227 327.594 c h
213.227 327.594 m f
0.215686 0.384314 0.8 rg
246.77 277.254 m 246.203 277.254 245.637 277.375 245.105 277.617 c 221.539
 288.398 213.215 297.387 211.723 299.156 c 210.516 300.316 209.402 301.594
 208.414 302.945 c 194.887 321.449 l 194.465 322.031 194.203 322.715 194.137
 323.434 c 194.047 324.371 l 193.887 326.082 194.84 327.711 196.414 328.406
 c 206.578 332.871 l 210.285 334.504 214.621 333.102 216.676 329.621 c 220.211
 323.609 232.789 303.742 246.191 300.59 c 250.129 299.668 252.695 295.898
 252.164 291.824 c 250.734 280.738 l 250.57 279.477 249.816 278.367 248.707
 277.754 c 248.102 277.422 247.434 277.254 246.77 277.254 c h
203.723 322.895 m 214.863 307.656 l 215.617 306.629 216.469 305.66 217.398
 304.785 c 217.559 304.633 217.703 304.473 217.836 304.297 c 217.879 304.246
 223.859 296.879 243.512 287.211 c 244.238 292.844 l 228.324 296.582 214.836
 316.973 209.781 325.562 c 209.781 325.566 l h
203.723 322.895 m f
226.227 305.723 m 226.195 305.723 226.168 305.723 226.133 305.723 c 225.047
 305.746 224.012 306.219 223.273 307.02 c 217.809 313.016 213.473 319.492
 210.801 323.871 c 209.84 325.445 210.082 327.473 211.383 328.777 c 372.434
 489.824 l 373.188 490.578 374.203 491 375.262 491 c 403.516 491 l 405.133
 491 406.59 490.027 407.211 488.535 c 407.824 487.039 407.488 485.324 406.34
 484.18 c 229.055 306.891 l 228.301 306.141 227.285 305.723 226.227 305.723
 c h
219.289 325.383 m 221.18 322.473 223.598 319.016 226.434 315.574 c 393.867
 483.008 l 376.918 483.008 l h
219.289 325.383 m f
Q Q
showpage
%%Trailer
end restore
%%EOF
