%!PS-Adobe-3.0 EPSF-3.0
%%Creator: cairo 1.14.8 (http://cairographics.org)
%%CreationDate: Wed Mar 20 09:06:38 2019
%%Pages: 1
%%DocumentData: Clean7Bit
%%LanguageLevel: 2
%%BoundingBox: 22 0 468 489
%%EndComments
%%BeginProlog
save
50 dict begin
/q { gsave } bind def
/Q { grestore } bind def
/cm { 6 array astore concat } bind def
/w { setlinewidth } bind def
/J { setlinecap } bind def
/j { setlinejoin } bind def
/M { setmiterlimit } bind def
/d { setdash } bind def
/m { moveto } bind def
/l { lineto } bind def
/c { curveto } bind def
/h { closepath } bind def
/re { exch dup neg 3 1 roll 5 3 roll moveto 0 rlineto
      0 exch rlineto 0 rlineto closepath } bind def
/S { stroke } bind def
/f { fill } bind def
/f* { eofill } bind def
/n { newpath } bind def
/W { clip } bind def
/W* { eoclip } bind def
/BT { } bind def
/ET { } bind def
/pdfmark where { pop globaldict /?pdfmark /exec load put }
    { globaldict begin /?pdfmark /pop load def /pdfmark
    /cleartomark load def end } ifelse
/BDC { mark 3 1 roll /BDC pdfmark } bind def
/EMC { mark /EMC pdfmark } bind def
/cairo_store_point { /cairo_point_y exch def /cairo_point_x exch def } def
/Tj { show currentpoint cairo_store_point } bind def
/TJ {
  {
    dup
    type /stringtype eq
    { show } { -0.001 mul 0 cairo_font_matrix dtransform rmoveto } ifelse
  } forall
  currentpoint cairo_store_point
} bind def
/cairo_selectfont { cairo_font_matrix aload pop pop pop 0 0 6 array astore
    cairo_font exch selectfont cairo_point_x cairo_point_y moveto } bind def
/Tf { pop /cairo_font exch def /cairo_font_matrix where
      { pop cairo_selectfont } if } bind def
/Td { matrix translate cairo_font_matrix matrix concatmatrix dup
      /cairo_font_matrix exch def dup 4 get exch 5 get cairo_store_point
      /cairo_font where { pop cairo_selectfont } if } bind def
/Tm { 2 copy 8 2 roll 6 array astore /cairo_font_matrix exch def
      cairo_store_point /cairo_font where { pop cairo_selectfont } if } bind def
/g { setgray } bind def
/rg { setrgbcolor } bind def
/d1 { setcachedevice } bind def
%%EndProlog
%%BeginSetup
%%EndSetup
%%Page: 1 1
%%BeginPageSetup
%%PageBoundingBox: 22 0 468 489
%%EndPageSetup
q 22 0 446 489 rectclip q
0.976471 0.811765 0.811765 rg
360.281 298.012 m 240.414 298.012 l 240.414 485 l 360.281 485 l 395.605
 485 424.238 456.371 424.238 421.047 c 424.238 361.965 l 424.238 326.645
 395.605 298.012 360.281 298.012 c h
360.281 298.012 m f
317.082 438.254 m 119.102 438.254 l 106.191 438.254 95.727 448.719 95.727
 461.629 c 95.727 474.539 106.191 485 119.102 485 c 317.082 485 l 318.062
 485 318.852 484.215 318.852 483.234 c 318.852 440.023 l 318.852 439.043
 318.062 438.254 317.082 438.254 c h
317.082 438.254 m f
294.445 344.758 m 218.617 344.758 l 211.949 344.758 206.539 350.164 206.539
 356.84 c 206.539 379.43 l 206.539 386.098 211.949 391.508 218.617 391.508
 c 294.445 391.508 l 299.422 391.508 303.457 387.473 303.457 382.496 c 303.457
 353.773 l 303.457 348.797 299.422 344.758 294.445 344.758 c h
294.445 344.758 m f
294.445 298.012 m 218.617 298.012 l 211.949 298.012 206.539 303.418 206.539
 310.09 c 206.539 332.68 l 206.539 339.352 211.949 344.758 218.617 344.758
 c 294.445 344.758 l 299.422 344.758 303.457 340.723 303.457 335.746 c 303.457
 307.023 l 303.457 302.047 299.422 298.012 294.445 298.012 c h
294.445 298.012 m f
408.953 319.559 m 409.34 319.941 409.707 320.348 410.09 320.738 c 410.09
 320.645 l h
408.953 319.559 m f
318.852 391.508 m 97.887 391.508 l 84.977 391.508 74.512 401.969 74.512
 414.879 c 74.512 427.789 84.977 438.254 97.887 438.254 c 318.852 438.254
 l h
318.852 391.508 m f
414.73 454.602 m 420.758 444.844 424.242 433.355 424.242 421.047 c 424.242
 361.965 l 424.242 349.656 420.758 338.168 414.73 328.41 c 463.902 328.41
 l 463.902 454.602 l h
414.73 454.602 m f
0.215686 0.384314 0.8 rg
463.902 324.414 m 414.73 324.414 l 413.281 324.414 411.949 325.199 411.242
 326.469 c 410.535 327.73 410.57 329.277 411.332 330.508 c 417.164 339.949
 420.246 350.828 420.246 361.965 c 420.246 421.051 l 420.246 432.188 417.164
 443.066 411.332 452.504 c 410.57 453.734 410.539 455.285 411.242 456.551
 c 411.949 457.812 413.281 458.598 414.73 458.598 c 463.902 458.598 l 466.105
 458.598 467.895 456.809 467.895 454.602 c 467.895 328.414 l 467.895 326.203
 466.105 324.414 463.902 324.414 c h
421.477 332.406 m 459.906 332.406 l 459.906 450.605 l 421.477 450.605 l
 425.914 441.43 428.234 431.34 428.234 421.047 c 428.234 361.961 l 428.23
 351.68 425.914 341.582 421.477 332.406 c h
421.477 332.406 m f
360.285 294.012 m 218.621 294.012 l 209.754 294.012 202.547 301.223 202.547
 310.09 c 202.547 332.68 l 202.547 337.484 204.668 341.809 208.027 344.758
 c 204.668 347.707 202.547 352.027 202.547 356.84 c 202.547 379.43 l 202.547
 382.375 203.34 385.137 204.73 387.512 c 97.891 387.512 l 82.797 387.512
 70.516 399.789 70.516 414.883 c 70.516 429.973 82.797 442.25 97.891 442.25
 c 99.793 442.25 l 94.82 447.211 91.734 454.066 91.734 461.633 c 91.734 
476.723 104.012 489 119.105 489 c 360.285 489 l 397.754 489 428.234 458.52
 428.234 421.051 c 428.234 361.965 l 428.23 324.496 397.754 294.012 360.285
 294.012 c h
218.617 340.762 m 214.16 340.762 210.535 337.137 210.535 332.68 c 210.535
 310.09 l 210.535 305.633 214.16 302.004 218.617 302.004 c 360.281 302.004
 l 393.348 302.004 420.242 328.902 420.242 361.961 c 420.242 421.047 l 420.242
 454.109 393.348 481.008 360.281 481.008 c 119.102 481.008 l 108.414 481.008
 99.723 472.312 99.723 461.629 c 99.723 450.941 108.414 442.25 119.102 442.25
 c 121.309 442.25 123.094 440.461 123.094 438.254 c 123.094 436.047 121.309
 434.262 119.102 434.262 c 97.891 434.262 l 87.203 434.262 78.508 425.566
 78.508 414.879 c 78.508 404.199 87.203 395.5 97.891 395.5 c 240.414 395.5
 l 242.621 395.5 244.41 393.711 244.41 391.508 c 244.41 389.301 242.621 
387.512 240.414 387.512 c 218.621 387.512 l 214.164 387.512 210.535 383.883
 210.535 379.426 c 210.535 356.836 l 210.535 352.375 214.164 348.75 218.621
 348.75 c 220.828 348.75 222.617 346.961 222.617 344.754 c 222.617 342.551
 220.828 340.762 218.617 340.762 c h
218.617 340.762 m f
284.652 434.262 m 119.102 434.262 l 116.895 434.262 115.105 436.047 115.105
 438.254 c 115.105 440.461 116.895 442.25 119.102 442.25 c 284.648 442.25
 l 286.855 442.25 288.645 440.461 288.645 438.254 c 288.645 436.047 286.855
 434.262 284.652 434.262 c h
284.652 434.262 m f
294.445 340.762 m 218.621 340.762 l 209.754 340.762 202.547 347.973 202.547
 356.84 c 202.547 379.43 l 202.547 388.293 209.754 395.5 218.621 395.5 c
 294.445 395.5 l 301.617 395.5 307.453 389.668 307.453 382.496 c 307.453
 353.773 l 307.453 346.598 301.617 340.762 294.445 340.762 c h
218.617 387.512 m 214.16 387.512 210.535 383.883 210.535 379.426 c 210.535
 356.836 l 210.535 352.375 214.16 348.75 218.617 348.75 c 294.445 348.75
 l 297.211 348.75 299.461 351 299.461 353.77 c 299.461 382.496 l 299.461
 385.262 297.211 387.512 294.445 387.512 c h
218.617 387.512 m f
294.445 294.012 m 218.621 294.012 l 209.754 294.012 202.547 301.223 202.547
 310.09 c 202.547 332.68 l 202.547 341.543 209.754 348.754 218.621 348.754
 c 294.445 348.754 l 301.617 348.754 307.453 342.914 307.453 335.746 c 307.453
 307.023 l 307.453 299.848 301.617 294.012 294.445 294.012 c h
218.617 340.762 m 214.16 340.762 210.535 337.137 210.535 332.68 c 210.535
 310.09 l 210.535 305.633 214.16 302.004 218.617 302.004 c 294.445 302.004
 l 297.211 302.004 299.461 304.254 299.461 307.023 c 299.461 335.746 l 299.461
 338.512 297.211 340.762 294.445 340.762 c h
218.617 340.762 m f
0.976471 0.811765 0.811765 rg
360.281 485 m 318.852 485 l 284.633 439.668 l 284.648 439.648 l 284.582
 439.707 l 227.363 377.855 l 224.582 374.852 224.766 370.164 227.77 367.379
 c 234.707 360.965 l 249.434 347.332 272.426 348.23 286.055 362.957 c 319.781
 399.414 l 328.305 405.531 l 340.898 383.211 364.816 368.133 392.27 368.133
 c 424.238 368.133 l 424.238 421.047 l 424.238 456.371 395.605 485 360.281
 485 c h
360.281 485 m f
0.215686 0.384314 0.8 rg
259.367 347.32 m 249.566 347.32 239.742 350.863 231.992 358.031 c 225.055
 364.445 l 220.441 368.715 220.156 375.949 224.43 380.566 c 281.652 442.418
 l 281.719 442.496 281.793 442.566 281.867 442.633 c 315.664 487.41 l 316.418
 488.406 317.598 488.996 318.852 488.996 c 360.281 488.996 l 397.75 488.996
 428.23 458.516 428.23 421.047 c 428.23 368.129 l 428.23 365.926 426.445
 364.137 424.238 364.137 c 392.27 364.137 l 365.875 364.137 341.305 377.68
 327.113 399.762 c 322.438 396.402 l 288.984 360.242 l 281.051 351.668 270.227
 347.32 259.367 347.32 c h
286.988 436.426 m 230.297 375.141 l 229.016 373.758 229.098 371.594 230.484
 370.312 c 237.422 363.895 l 243.762 358.031 252.035 354.988 260.641 355.316
 c 269.27 355.652 277.254 359.328 283.121 365.672 c 316.852 402.125 l 317.031
 402.324 317.234 402.5 317.453 402.656 c 325.98 408.777 l 326.898 409.438
 328.059 409.676 329.168 409.434 c 330.277 409.188 331.23 408.484 331.789
 407.492 c 344.102 385.684 367.277 372.129 392.273 372.129 c 420.25 372.129
 l 420.25 421.047 l 420.25 454.109 393.352 481.008 360.289 481.008 c 320.848
 481.008 l 288.023 437.523 l 287.84 437.238 287.621 436.969 287.363 436.727
 c 287.238 436.617 287.117 436.52 286.988 436.426 c h
286.988 436.426 m f
0.976471 0.811765 0.811765 rg
188.516 33.41 m 176.207 33.41 164.719 36.895 154.965 42.918 c 154.965 3.992
 l 281.152 3.992 l 281.152 42.922 l 271.398 36.895 259.91 33.414 247.602
 33.414 c 188.516 33.414 l h
188.516 33.41 m f
138.898 48.699 m 139.281 48.309 139.688 47.941 140.078 47.559 c 139.984
 47.559 l h
138.898 48.699 m f
341.641 302.738 m 328.355 307.578 313.664 300.723 308.824 287.434 c 283.273
 217.234 l 124.562 217.234 l 124.562 170.559 l 93.352 237.324 l 83.832 257.676
 58.238 266.871 36.188 257.852 c 32.715 256.43 l 27.57 254.328 25.199 248.777
 27.418 244.035 c 80.699 130.074 l 86.406 121.312 l 99.137 101.781 113.965
 83.504 130.668 66.754 c 131.52 65.895 132.48 65.258 133.492 64.777 c 144.633
 46.004 165.102 33.41 188.516 33.41 c 247.602 33.41 l 277.609 33.41 302.781
 54.082 309.676 81.961 c 310.41 84.922 310.938 87.961 311.242 91.066 c 328.652
 192.168 l 356.949 269.918 l 361.785 283.207 354.934 297.902 341.641 302.738
 c h
341.641 302.738 m f
0.215686 0.384314 0.8 rg
247.602 29.414 m 188.516 29.414 l 165.035 29.414 142.965 41.781 130.645
 61.77 c 129.605 62.375 128.672 63.098 127.84 63.93 c 110.98 80.84 95.918
 99.414 83.062 119.129 c 77.355 127.887 l 77.25 128.047 77.16 128.211 77.082
 128.379 c 23.805 242.34 l 22.305 245.539 22.191 249.121 23.48 252.418 c
 24.824 255.863 27.641 258.672 31.203 260.129 c 34.68 261.551 l 58.637 271.348
 86.582 261.234 96.969 239.012 c 120.566 188.535 l 120.566 217.23 l 120.566
 219.438 122.359 221.227 124.562 221.227 c 280.477 221.227 l 305.07 288.801
 l 310.656 304.137 327.68 312.07 343.008 306.492 c 350.445 303.785 356.375
 298.352 359.715 291.184 c 363.059 284.02 363.406 275.98 360.699 268.551
 c 332.527 191.141 l 315.207 90.527 l 314.891 87.355 314.332 84.148 313.559
 80.996 c 306.043 50.629 278.922 29.414 247.602 29.414 c h
84.199 132.016 m 89.754 123.492 l 102.309 104.234 117.023 86.094 133.496
 69.57 c 133.977 69.09 134.539 68.695 135.207 68.383 c 135.922 68.043 136.523
 67.496 136.926 66.812 c 147.695 48.672 167.461 37.402 188.516 37.402 c 
247.602 37.402 l 275.238 37.402 299.172 56.121 305.801 82.918 c 306.5 85.746
 306.996 88.617 307.27 91.453 c 307.277 91.551 307.293 91.645 307.312 91.742
 c 324.715 192.844 l 324.754 193.078 324.816 193.312 324.898 193.535 c 353.195
 271.285 l 355.172 276.707 354.914 282.574 352.477 287.805 c 350.039 293.039
 345.703 297.008 340.281 298.98 c 329.082 303.051 316.66 297.266 312.582
 286.066 c 287.031 215.867 l 286.457 214.285 284.957 213.238 283.277 213.238
 c 128.559 213.238 l 128.559 170.555 l 128.559 168.684 127.258 167.059 125.43
 166.656 c 123.59 166.254 121.738 167.168 120.941 168.863 c 89.73 235.625
 l 81.117 254.051 57.781 262.363 37.699 254.152 c 34.223 252.734 l 32.66
 252.09 31.484 250.941 30.922 249.508 c 30.434 248.266 30.477 246.922 31.039
 245.719 c h
84.199 132.016 m f
209.168 29.414 m 188.516 29.414 l 165.035 29.414 142.965 41.781 130.645
 61.77 c 129.605 62.375 128.672 63.098 127.84 63.93 c 110.98 80.84 95.918
 99.414 83.062 119.129 c 77.355 127.887 l 77.25 128.047 77.16 128.211 77.082
 128.379 c 23.805 242.34 l 22.305 245.539 22.191 249.121 23.48 252.418 c
 24.824 255.863 27.641 258.672 31.203 260.129 c 34.68 261.551 l 58.637 271.348
 86.578 261.234 96.973 239.012 c 127.379 173.973 l 162.59 165.234 l 192.367
 157.844 213.164 131.25 213.164 100.566 c 213.164 98.363 211.379 96.57 209.168
 96.57 c 206.965 96.57 205.176 98.363 205.176 100.566 c 205.176 127.57 186.871
 150.977 160.66 157.484 c 123.602 166.684 l 122.434 166.973 121.457 167.773
 120.945 168.867 c 89.73 235.629 l 81.121 254.055 57.781 262.367 37.703 
254.152 c 34.227 252.734 l 32.66 252.094 31.484 250.945 30.922 249.508 c
 30.438 248.266 30.477 246.926 31.043 245.723 c 84.203 132.016 l 89.758 
123.492 l 102.312 104.234 117.027 86.094 133.5 69.57 c 133.98 69.09 134.543
 68.695 135.211 68.383 c 135.926 68.043 136.527 67.496 136.93 66.812 c 147.699
 48.672 167.465 37.402 188.52 37.402 c 209.172 37.402 l 211.379 37.402 213.168
 35.613 213.168 33.406 c 213.168 31.203 211.379 29.414 209.168 29.414 c 
h
209.168 29.414 m f
0.976471 0.811765 0.811765 rg
176.762 170.203 m 176.762 252.238 l 176.762 259.578 170.809 265.531 163.465
 265.531 c 137.863 265.531 l 130.516 265.531 124.566 259.578 124.566 252.238
 c 124.566 170.203 l 124.566 164.777 128.965 160.379 134.395 160.379 c 166.93
 160.379 l 172.359 160.375 176.762 164.777 176.762 170.203 c h
176.762 170.203 m f
228.957 170.203 m 228.957 252.238 l 228.957 259.578 223.008 265.531 215.66
 265.531 c 190.059 265.531 l 182.715 265.531 176.762 259.578 176.762 252.238
 c 176.762 170.203 l 176.762 164.777 181.164 160.379 186.594 160.379 c 219.129
 160.379 l 224.555 160.375 228.957 164.777 228.957 170.203 c h
228.957 170.203 m f
281.152 170.203 m 281.152 252.238 l 281.152 259.578 275.203 265.531 267.859
 265.531 c 242.254 265.531 l 234.91 265.531 228.957 259.578 228.957 252.238
 c 228.957 170.203 l 228.957 164.777 233.359 160.379 238.789 160.379 c 271.324
 160.379 l 276.754 160.375 281.152 164.777 281.152 170.203 c h
281.152 170.203 m f
0.215686 0.384314 0.8 rg
166.93 156.383 m 134.395 156.383 l 126.77 156.383 120.566 162.582 120.566
 170.203 c 120.566 252.238 l 120.566 261.77 128.324 269.527 137.863 269.527
 c 163.465 269.527 l 173 269.527 180.758 261.773 180.758 252.238 c 180.758
 170.203 l 180.758 162.582 174.555 156.383 166.93 156.383 c h
137.863 261.535 m 132.73 261.535 128.559 257.363 128.559 252.234 c 128.559
 170.203 l 128.559 166.988 131.176 164.367 134.395 164.367 c 166.93 164.367
 l 170.145 164.367 172.762 166.988 172.762 170.203 c 172.762 252.234 l 172.762
 257.363 168.594 261.535 163.461 261.535 c h
137.863 261.535 m f
219.125 156.383 m 186.59 156.383 l 178.965 156.383 172.766 162.582 172.766
 170.203 c 172.766 252.238 l 172.766 261.77 180.523 269.527 190.059 269.527
 c 215.66 269.527 l 225.195 269.527 232.953 261.773 232.953 252.238 c 232.953
 170.203 l 232.953 162.582 226.754 156.383 219.125 156.383 c h
190.059 261.535 m 184.926 261.535 180.758 257.363 180.758 252.234 c 180.758
 170.203 l 180.758 166.988 183.375 164.367 186.59 164.367 c 219.125 164.367
 l 222.344 164.367 224.961 166.988 224.961 170.203 c 224.961 252.234 l 224.961
 257.363 220.789 261.535 215.66 261.535 c h
190.059 261.535 m f
271.324 156.383 m 238.789 156.383 l 231.164 156.383 224.961 162.582 224.961
 170.203 c 224.961 252.238 l 224.961 261.77 232.719 269.527 242.254 269.527
 c 267.859 269.527 l 277.391 269.527 285.148 261.773 285.148 252.238 c 285.148
 170.203 l 285.152 162.582 278.949 156.383 271.324 156.383 c h
242.254 261.535 m 237.125 261.535 232.953 257.363 232.953 252.234 c 232.953
 170.203 l 232.953 166.988 235.574 164.367 238.789 164.367 c 271.324 164.367
 l 274.543 164.367 277.16 166.988 277.16 170.203 c 277.16 252.234 l 277.16
 257.363 272.988 261.535 267.859 261.535 c h
242.254 261.535 m f
281.156 0 m 154.965 0 l 152.762 0 150.969 1.789 150.969 3.992 c 150.969
 42.922 l 150.969 44.367 151.754 45.703 153.02 46.41 c 154.281 47.113 155.832
 47.078 157.062 46.32 c 166.504 40.492 177.383 37.41 188.516 37.41 c 247.602
 37.41 l 258.734 37.41 269.617 40.492 279.059 46.32 c 280.285 47.078 281.836
 47.113 283.102 46.41 c 284.367 45.703 285.148 44.367 285.148 42.922 c 285.148
 3.992 l 285.152 1.789 283.359 0 281.156 0 c h
158.961 7.988 m 277.156 7.988 l 277.156 36.176 l 267.98 31.734 257.891 
29.414 247.602 29.414 c 188.516 29.414 l 178.23 29.414 168.137 31.734 158.957
 36.176 c 158.957 7.988 l h
158.961 7.988 m f
Q Q
showpage
%%Trailer
end restore
%%EOF
