%!PS-Adobe-3.0 EPSF-3.0
%%Creator: cairo 1.14.8 (http://cairographics.org)
%%CreationDate: Wed Mar 20 09:06:38 2019
%%Pages: 1
%%DocumentData: Clean7Bit
%%LanguageLevel: 2
%%BoundingBox: 40 0 448 488
%%EndComments
%%BeginProlog
save
50 dict begin
/q { gsave } bind def
/Q { grestore } bind def
/cm { 6 array astore concat } bind def
/w { setlinewidth } bind def
/J { setlinecap } bind def
/j { setlinejoin } bind def
/M { setmiterlimit } bind def
/d { setdash } bind def
/m { moveto } bind def
/l { lineto } bind def
/c { curveto } bind def
/h { closepath } bind def
/re { exch dup neg 3 1 roll 5 3 roll moveto 0 rlineto
      0 exch rlineto 0 rlineto closepath } bind def
/S { stroke } bind def
/f { fill } bind def
/f* { eofill } bind def
/n { newpath } bind def
/W { clip } bind def
/W* { eoclip } bind def
/BT { } bind def
/ET { } bind def
/pdfmark where { pop globaldict /?pdfmark /exec load put }
    { globaldict begin /?pdfmark /pop load def /pdfmark
    /cleartomark load def end } ifelse
/BDC { mark 3 1 roll /BDC pdfmark } bind def
/EMC { mark /EMC pdfmark } bind def
/cairo_store_point { /cairo_point_y exch def /cairo_point_x exch def } def
/Tj { show currentpoint cairo_store_point } bind def
/TJ {
  {
    dup
    type /stringtype eq
    { show } { -0.001 mul 0 cairo_font_matrix dtransform rmoveto } ifelse
  } forall
  currentpoint cairo_store_point
} bind def
/cairo_selectfont { cairo_font_matrix aload pop pop pop 0 0 6 array astore
    cairo_font exch selectfont cairo_point_x cairo_point_y moveto } bind def
/Tf { pop /cairo_font exch def /cairo_font_matrix where
      { pop cairo_selectfont } if } bind def
/Td { matrix translate cairo_font_matrix matrix concatmatrix dup
      /cairo_font_matrix exch def dup 4 get exch 5 get cairo_store_point
      /cairo_font where { pop cairo_selectfont } if } bind def
/Tm { 2 copy 8 2 roll 6 array astore /cairo_font_matrix exch def
      cairo_store_point /cairo_font where { pop cairo_selectfont } if } bind def
/g { setgray } bind def
/rg { setrgbcolor } bind def
/d1 { setcachedevice } bind def
%%EndProlog
%%BeginSetup
%%EndSetup
%%Page: 1 1
%%BeginPageSetup
%%PageBoundingBox: 40 0 448 488
%%EndPageSetup
q 40 0 408 488 rectclip q
0.27451 0.443137 0.776471 rg
44 452 m 44 424 l 324 424 l 324 452 l 324 469.676 309.676 484 292 484 c
 76 484 l 58.328 484 44 469.676 44 452 c h
44 452 m f
324 36 m 324 64 l 44 64 l 44 36 l 44 18.324 58.324 4 76 4 c 292 4 l 309.676
 4 324 18.324 324 36 c h
324 36 m f
0.643137 0.788235 1 rg
44 424 280 -360 re f
0.215686 0.384314 0.8 rg
292 0 m 76 0 l 56.148 0 40 16.148 40 36 c 40 452 l 40 471.852 56.148 488
 76 488 c 292 488 l 311.852 488 328 471.852 328 452 c 328 36 l 328 16.148
 311.852 0 292 0 c h
76 480 m 60.559 480 48 467.441 48 452 c 48 36 l 48 20.559 60.559 8 76 8
 c 292 8 l 307.441 8 320 20.559 320 36 c 320 452 l 320 467.441 307.441 480
 292 480 c h
76 480 m f
0.976471 0.811765 0.811765 rg
208 18 m 160 18 l 153.371 18 148 23.371 148 30 c 148 38 l 148 44.629 153.371
 50 160 50 c 208 50 l 214.629 50 220 44.629 220 38 c 220 30 l 220 23.371
 214.629 18 208 18 c h
208 18 m f
214 444 m 154 444 l 148.477 444 144 448.477 144 454 c 144 459.523 148.477
 464 154 464 c 214 464 l 219.523 464 224 459.523 224 454 c 224 448.477 219.523
 444 214 444 c h
214 444 m f
0.878431 0.921569 0.988235 rg
282 357.441 m 86 357.441 l 79.371 357.441 74 362.812 74 369.441 c 74 376.07
 79.371 381.441 86 381.441 c 282 381.441 l 288.629 381.441 294 376.07 294
 369.441 c 294 362.812 288.629 357.441 282 357.441 c h
282 357.441 m f
282 305.441 m 86 305.441 l 79.371 305.441 74 310.812 74 317.441 c 74 324.07
 79.371 329.441 86 329.441 c 282 329.441 l 288.629 329.441 294 324.07 294
 317.441 c 294 310.812 288.629 305.441 282 305.441 c h
282 305.441 m f
136.414 254.273 m 85.586 254.273 l 79.188 254.273 74 259.461 74 265.859
 c 74 272.258 79.188 277.441 85.586 277.441 c 136.414 277.441 l 142.812 
277.441 148 272.258 148 265.859 c 148 259.461 142.812 254.273 136.414 254.273
 c h
136.414 254.273 m f
0.419608 0.866667 0.866667 rg
172.012 101.387 m 172.012 239.352 l 143.191 314.578 l 141.73 318.395 145.477
 322.145 149.297 320.684 c 228.289 290.422 l 361.047 290.422 l 381.926 290.422
 398.852 273.492 398.852 252.613 c 398.852 101.387 l 398.852 80.508 381.926
 63.578 361.047 63.578 c 209.816 63.578 l 188.938 63.578 172.012 80.508 
172.012 101.387 c h
172.012 101.387 m f
0.215686 0.384314 0.8 rg
361.047 59.578 m 209.816 59.578 l 186.766 59.578 168.012 78.332 168.012
 101.387 c 168.012 238.609 l 139.457 313.148 l 138.207 316.406 138.965 319.969
 141.438 322.441 c 143.906 324.91 147.469 325.672 150.727 324.418 c 229.031
 294.422 l 361.047 294.422 l 384.098 294.422 402.855 275.664 402.855 252.613
 c 402.855 101.387 l 402.855 78.336 384.102 59.578 361.047 59.578 c h
147.586 317.004 m 147.445 317.004 147.27 316.957 147.094 316.781 c 146.762
 316.445 146.887 316.117 146.93 316.008 c 175.746 240.777 l 175.922 240.32
 176.012 239.836 176.012 239.348 c 176.012 101.387 l 176.012 82.742 191.18
 67.578 209.816 67.578 c 361.047 67.578 l 379.688 67.578 394.855 82.742 
394.855 101.387 c 394.855 252.613 l 394.855 271.254 379.688 286.422 361.047
 286.422 c 228.293 286.422 l 227.801 286.422 227.316 286.512 226.863 286.684
 c 147.867 316.945 l 147.816 316.965 147.715 317.004 147.586 317.004 c h
147.586 317.004 m f
0.976471 0.654902 0.654902 rg
247.121 142.09 m 206.641 142.09 l 202.234 142.09 198.66 145.66 198.66 150.066
 c 198.66 212.949 l 198.66 217.359 202.234 220.93 206.641 220.93 c 247.121
 220.93 l h
247.121 142.09 m f
0.878431 0.921569 0.988235 rg
247.121 220.93 m 247.121 142.09 l 325.219 113.758 l 327.855 112.801 330.66
 114.707 330.66 117.453 c 330.66 245.562 l 330.66 248.309 327.855 250.215
 325.219 249.258 c h
247.121 220.93 m f
1 0.917647 0.572549 rg
373.91 200.133 m 372.215 202.023 369.703 203.109 367.016 203.109 c 364.109
 203.109 361.453 201.887 359.723 199.754 c 357.273 196.727 357.395 192.535
 360.016 189.562 c 363.113 186.047 364.762 181.812 364.785 177.316 c 364.805
 172.82 363.195 168.57 360.133 165.031 c 357.535 162.031 357.453 157.84 
359.934 154.836 c 361.66 152.742 364.297 151.547 367.164 151.547 c 369.887
 151.547 372.426 152.656 374.121 154.59 c 379.789 161.047 382.891 169.148
 382.852 177.398 c 382.809 185.648 379.637 193.727 373.91 200.133 c h
373.91 200.133 m f
392.496 224.707 m 390.816 226.156 388.621 226.953 386.316 226.953 c 383.422
 226.953 380.773 225.734 379.047 223.605 c 376.32 220.242 376.809 215.508
 380.18 212.594 c 390.914 203.32 396.859 190.848 396.922 177.469 c 396.984
 164.09 391.156 151.559 380.512 142.188 c 377.164 139.242 376.723 134.504
 379.484 131.16 c 381.203 129.078 383.828 127.883 386.688 127.883 c 389.027
 127.883 391.246 128.703 392.941 130.188 c 407.242 142.742 415.074 159.562
 414.988 177.555 c 414.906 195.539 406.922 212.289 392.496 224.707 c h
392.496 224.707 m f
411.289 248.562 m 409.664 249.848 407.586 250.551 405.438 250.551 c 402.582
 250.551 399.863 249.301 398.156 247.195 c 396.809 245.531 396.191 243.477
 396.422 241.418 c 396.652 239.32 397.738 237.406 399.477 236.035 c 418.172
 221.277 428.953 199.984 429.059 177.617 c 429.164 155.25 418.582 133.859
 400.027 118.93 c 398.301 117.539 397.234 115.617 397.02 113.52 c 396.812
 111.457 397.445 109.41 398.812 107.75 c 400.535 105.664 403.168 104.469
 406.027 104.469 c 406.031 104.469 l 408.211 104.469 410.316 105.195 411.953
 106.512 c 434.434 124.609 447.254 150.559 447.125 177.703 c 447.004 204.848
 433.941 230.676 411.289 248.562 c h
411.289 248.562 m f
0.976471 0.811765 0.811765 rg
330.664 206.164 m 330.664 148.852 l 341.242 149.801 349.539 158.68 349.539
 169.508 c 349.539 185.508 l 349.539 196.336 341.242 205.215 330.664 206.164
 c h
330.664 206.164 m f
Q Q
showpage
%%Trailer
end restore
%%EOF
