%!PS-Adobe-3.0 EPSF-3.0
%%Creator: cairo 1.14.8 (http://cairographics.org)
%%CreationDate: Wed Mar 20 09:06:38 2019
%%Pages: 1
%%DocumentData: Clean7Bit
%%LanguageLevel: 2
%%BoundingBox: 0 1 499 498
%%EndComments
%%BeginProlog
save
50 dict begin
/q { gsave } bind def
/Q { grestore } bind def
/cm { 6 array astore concat } bind def
/w { setlinewidth } bind def
/J { setlinecap } bind def
/j { setlinejoin } bind def
/M { setmiterlimit } bind def
/d { setdash } bind def
/m { moveto } bind def
/l { lineto } bind def
/c { curveto } bind def
/h { closepath } bind def
/re { exch dup neg 3 1 roll 5 3 roll moveto 0 rlineto
      0 exch rlineto 0 rlineto closepath } bind def
/S { stroke } bind def
/f { fill } bind def
/f* { eofill } bind def
/n { newpath } bind def
/W { clip } bind def
/W* { eoclip } bind def
/BT { } bind def
/ET { } bind def
/pdfmark where { pop globaldict /?pdfmark /exec load put }
    { globaldict begin /?pdfmark /pop load def /pdfmark
    /cleartomark load def end } ifelse
/BDC { mark 3 1 roll /BDC pdfmark } bind def
/EMC { mark /EMC pdfmark } bind def
/cairo_store_point { /cairo_point_y exch def /cairo_point_x exch def } def
/Tj { show currentpoint cairo_store_point } bind def
/TJ {
  {
    dup
    type /stringtype eq
    { show } { -0.001 mul 0 cairo_font_matrix dtransform rmoveto } ifelse
  } forall
  currentpoint cairo_store_point
} bind def
/cairo_selectfont { cairo_font_matrix aload pop pop pop 0 0 6 array astore
    cairo_font exch selectfont cairo_point_x cairo_point_y moveto } bind def
/Tf { pop /cairo_font exch def /cairo_font_matrix where
      { pop cairo_selectfont } if } bind def
/Td { matrix translate cairo_font_matrix matrix concatmatrix dup
      /cairo_font_matrix exch def dup 4 get exch 5 get cairo_store_point
      /cairo_font where { pop cairo_selectfont } if } bind def
/Tm { 2 copy 8 2 roll 6 array astore /cairo_font_matrix exch def
      cairo_store_point /cairo_font where { pop cairo_selectfont } if } bind def
/g { setgray } bind def
/rg { setrgbcolor } bind def
/d1 { setcachedevice } bind def
%%EndProlog
%%BeginSetup
%%EndSetup
%%Page: 1 1
%%BeginPageSetup
%%PageBoundingBox: 0 1 499 498
%%EndPageSetup
q 0 1 499 497 rectclip q
0.878431 0.921569 0.988235 rg
180.168 347.785 m 153.039 320.652 l 149.914 317.531 144.852 317.531 141.73
 320.652 c 100.797 361.586 l 139.23 400.02 l 180.164 359.09 l 183.289 355.965
 183.289 350.906 180.168 347.785 c h
180.168 347.785 m f
0.27451 0.443137 0.776471 rg
252.543 435.656 m 206.5 481.699 l 190.578 497.625 164.766 497.625 148.848
 481.699 c 141.637 474.496 l 15.918 348.773 l -0.004 332.855 -0.004 307.043
 15.918 291.121 c 37.539 269.496 l 42.984 264.055 51.809 264.055 57.254 
269.496 c 73.57 285.82 l 79.016 291.262 79.016 300.086 73.57 305.531 c 65.613
 313.488 65.613 326.398 73.57 334.359 c 160.055 420.84 l 163.262 424.047
 l 171.219 432.008 184.129 432.008 192.086 424.047 c 216.508 399.621 l 226.461
 389.672 242.594 389.672 252.543 399.621 c 262.492 409.57 262.492 425.707
 252.543 435.656 c h
252.543 435.656 m f
0.976471 0.654902 0.654902 rg
493.074 34.473 m 466.344 7.746 l 463.773 5.176 459.609 5.176 457.039 7.746
 c 421.977 42.809 l 420.691 44.094 420.691 46.176 421.977 47.461 c 453.355
 78.844 l 454.641 80.125 456.727 80.125 458.012 78.844 c 493.074 43.781 
l 495.645 41.211 495.645 37.047 493.074 34.473 c h
493.074 34.473 m f
0.643137 0.788235 1 rg
153.266 320.883 m 179.934 347.555 l 451 76.488 l 424.328 49.816 l h
153.266 320.883 m f
0.215686 0.384314 0.8 rg
147.383 314.312 m 144.18 314.312 141.168 315.562 138.906 317.828 c 97.977
 358.758 l 96.414 360.32 96.414 362.852 97.977 364.41 c 136.41 402.848 l
 137.973 404.406 140.5 404.406 142.062 402.848 c 182.996 361.918 l 187.668
 357.242 187.668 349.633 182.996 344.957 c 155.859 317.828 l 153.602 315.562
 150.586 314.312 147.383 314.312 c h
106.449 361.586 m 144.555 323.477 l 146.066 321.973 148.699 321.973 150.207
 323.477 c 177.344 350.613 l 178.898 352.172 178.898 354.707 177.344 356.266
 c 139.234 394.367 l h
180.168 347.785 m 180.188 347.785 l h
180.168 347.785 m f
47.395 261.426 m 42.801 261.426 38.207 263.172 34.711 266.672 c 13.09 288.289
 l -4.363 305.746 -4.363 334.145 13.09 351.598 c 146.02 484.527 l 163.473
 501.98 191.871 501.98 209.328 484.527 c 255.375 438.48 l 266.863 426.988
 266.863 408.289 255.375 396.797 c 249.805 391.227 242.402 388.164 234.531
 388.164 c 226.652 388.164 219.25 391.227 213.684 396.797 c 189.262 421.219
 l 186.164 424.312 182.047 426.02 177.672 426.02 c 173.297 426.02 169.18
 424.312 166.082 421.219 c 76.398 331.535 l 70.008 325.141 70.008 314.746
 76.398 308.355 c 83.391 301.367 83.391 289.988 76.398 282.992 c 60.074 
266.672 l 56.578 263.172 51.988 261.426 47.395 261.426 c h
177.672 489.629 m 168.254 489.629 158.84 486.043 151.668 478.875 c 18.742
 345.949 l 4.406 331.613 4.406 308.281 18.742 293.941 c 40.363 272.32 l 
44.238 268.445 50.551 268.445 54.422 272.32 c 70.746 288.645 l 74.617 292.523
 74.617 298.828 70.746 302.703 c 61.238 312.211 61.238 327.684 70.746 337.188
 c 160.43 426.871 l 165.035 431.477 171.156 434.016 177.672 434.016 c 184.184
 434.016 190.305 431.477 194.914 426.871 c 219.336 402.449 l 223.395 398.391
 228.789 396.156 234.531 396.156 c 240.266 396.156 245.66 398.391 249.723
 402.449 c 258.094 410.824 258.094 424.453 249.723 432.828 c 203.676 478.875
 l 196.504 486.043 187.09 489.629 177.672 489.629 c h
177.672 489.629 m f
461.695 1.828 m 458.984 1.828 456.277 2.859 454.215 4.918 c 419.152 39.98
 l 416.312 42.824 416.312 47.445 419.148 50.285 c 450.535 81.668 l 453.285
 84.426 458.09 84.426 460.84 81.668 c 495.898 46.609 l 497.898 44.609 499
 41.957 499 39.133 c 499 36.305 497.898 33.652 495.898 31.652 c 469.168 
4.918 l 467.113 2.859 464.398 1.828 461.695 1.828 c h
425.305 45.133 m 459.867 10.57 l 460.875 9.566 462.512 9.566 463.52 10.57
 c 490.25 37.301 l 490.734 37.789 491.008 38.438 491.008 39.129 c 491.008
 39.816 490.734 40.461 490.25 40.953 c 455.684 75.512 l h
425.305 45.133 m f
424.332 45.816 m 423.27 45.816 422.258 46.238 421.508 46.988 c 150.441 
318.055 l 148.883 319.617 148.883 322.148 150.441 323.707 c 177.113 350.379
 l 178.613 351.879 181.266 351.879 182.766 350.379 c 453.828 79.316 l 455.391
 77.754 455.391 75.223 453.828 73.664 c 427.16 46.988 l 426.41 46.238 425.395
 45.816 424.332 45.816 c h
158.918 320.883 m 424.332 55.465 l 445.355 76.488 l 179.938 341.902 l h
158.918 320.883 m f
Q Q
showpage
%%Trailer
end restore
%%EOF
