%!PS-Adobe-3.0 EPSF-3.0
%%Creator: cairo 1.14.8 (http://cairographics.org)
%%CreationDate: Wed Mar 20 09:06:38 2019
%%Pages: 1
%%DocumentData: Clean7Bit
%%LanguageLevel: 2
%%BoundingBox: 58 0 430 488
%%EndComments
%%BeginProlog
save
50 dict begin
/q { gsave } bind def
/Q { grestore } bind def
/cm { 6 array astore concat } bind def
/w { setlinewidth } bind def
/J { setlinecap } bind def
/j { setlinejoin } bind def
/M { setmiterlimit } bind def
/d { setdash } bind def
/m { moveto } bind def
/l { lineto } bind def
/c { curveto } bind def
/h { closepath } bind def
/re { exch dup neg 3 1 roll 5 3 roll moveto 0 rlineto
      0 exch rlineto 0 rlineto closepath } bind def
/S { stroke } bind def
/f { fill } bind def
/f* { eofill } bind def
/n { newpath } bind def
/W { clip } bind def
/W* { eoclip } bind def
/BT { } bind def
/ET { } bind def
/pdfmark where { pop globaldict /?pdfmark /exec load put }
    { globaldict begin /?pdfmark /pop load def /pdfmark
    /cleartomark load def end } ifelse
/BDC { mark 3 1 roll /BDC pdfmark } bind def
/EMC { mark /EMC pdfmark } bind def
/cairo_store_point { /cairo_point_y exch def /cairo_point_x exch def } def
/Tj { show currentpoint cairo_store_point } bind def
/TJ {
  {
    dup
    type /stringtype eq
    { show } { -0.001 mul 0 cairo_font_matrix dtransform rmoveto } ifelse
  } forall
  currentpoint cairo_store_point
} bind def
/cairo_selectfont { cairo_font_matrix aload pop pop pop 0 0 6 array astore
    cairo_font exch selectfont cairo_point_x cairo_point_y moveto } bind def
/Tf { pop /cairo_font exch def /cairo_font_matrix where
      { pop cairo_selectfont } if } bind def
/Td { matrix translate cairo_font_matrix matrix concatmatrix dup
      /cairo_font_matrix exch def dup 4 get exch 5 get cairo_store_point
      /cairo_font where { pop cairo_selectfont } if } bind def
/Tm { 2 copy 8 2 roll 6 array astore /cairo_font_matrix exch def
      cairo_store_point /cairo_font where { pop cairo_selectfont } if } bind def
/g { setgray } bind def
/rg { setrgbcolor } bind def
/d1 { setcachedevice } bind def
%%EndProlog
%%BeginSetup
%%EndSetup
%%Page: 1 1
%%BeginPageSetup
%%PageBoundingBox: 58 0 430 488
%%EndPageSetup
q 58 0 372 488 rectclip q
0.643137 0.788235 1 rg
408.578 4 m 79.422 4 l 69.801 4 62 11.801 62 21.422 c 62 466.578 l 62 476.199
 69.801 484 79.422 484 c 408.578 484 l 418.199 484 426 476.199 426 466.578
 c 426 21.422 l 426 11.801 418.199 4 408.578 4 c h
408.578 4 m f
0.878431 0.921569 0.988235 rg
90 42 m 90 446 l 90 450.418 93.582 454 98 454 c 390 454 l 394.418 454 398
 450.418 398 446 c 398 42 l 398 37.582 394.418 34 390 34 c 98 34 l 93.582
 34 90 37.582 90 42 c h
90 42 m f
0.976471 0.654902 0.654902 rg
326.254 37.566 m 373.07 67.25 l 375.809 68.988 376.621 72.617 374.887 75.355
 c 374.309 76.27 l 372.57 79.008 368.941 79.82 366.203 78.086 c 312.828 
44.246 l 315.543 39.965 l 317.84 36.348 322.633 35.273 326.254 37.566 c 
h
326.254 37.566 m f
0.976471 0.811765 0.811765 rg
206.723 353.965 m 225.543 353.965 240.801 338.707 240.801 319.887 c 240.801
 299.887 l 242.457 299.887 l 245.379 299.887 247.75 297.52 247.75 294.598
 c 247.75 291.676 245.379 289.305 242.457 289.305 c 239.871 289.305 l 236.941
 276.691 227.043 266.754 214.422 263.84 c 214.422 259.152 l 211.57 260.117
 208.535 260.66 205.359 260.66 c 188.184 260.66 l 186.957 260.66 185.762
 260.539 184.586 260.352 c 184.586 271.137 l 177.285 277.387 172.648 286.664
 172.648 297.031 c 172.648 319.891 l 172.648 338.707 187.902 353.965 206.723
 353.965 c h
206.723 353.965 m f
0.976471 0.654902 0.654902 rg
119.035 257.695 m 157.402 257.695 l 161.789 257.695 165.344 254.141 165.344
 249.758 c 165.344 188.109 l 160.289 184.219 155.699 179.758 151.68 174.809
 c 151.68 244.031 l 119.035 244.031 l 115.262 244.031 112.203 247.09 112.203
 250.863 c 112.199 254.637 115.262 257.695 119.035 257.695 c h
119.035 257.695 m f
0.215686 0.384314 0.8 rg
151.676 170.809 m 151.227 170.809 150.773 170.887 150.336 171.039 c 148.738
 171.609 147.676 173.117 147.676 174.809 c 147.676 240.031 l 119.035 240.031
 l 113.062 240.031 108.203 244.891 108.203 250.863 c 108.203 256.836 113.062
 261.695 119.035 261.695 c 157.402 261.695 l 163.988 261.695 169.344 256.34
 169.344 249.758 c 169.344 188.109 l 169.344 186.867 168.766 185.699 167.781
 184.941 c 162.969 181.234 158.594 176.977 154.781 172.285 c 154.004 171.336
 152.855 170.809 151.676 170.809 c h
119.035 253.695 m 117.473 253.695 116.203 252.426 116.203 250.863 c 116.203
 249.301 117.473 248.031 119.035 248.031 c 151.676 248.031 l 153.883 248.031
 155.676 246.238 155.676 244.031 c 155.676 185.055 l 157.488 186.801 159.379
 188.465 161.344 190.051 c 161.344 249.758 l 161.344 251.93 159.574 253.695
 157.402 253.695 c h
165.34 188.109 m 165.359 188.109 l h
165.34 188.109 m f
228.34 299.613 m 230.074 299.613 231.48 301.02 231.48 302.754 c 231.48 
307.992 l 231.48 309.727 230.074 311.133 228.34 311.133 c 226.605 311.133
 225.199 309.727 225.199 307.992 c 225.199 302.754 l 225.195 301.02 226.605
 299.613 228.34 299.613 c h
228.34 299.613 m f
0.643137 0.788235 1 rg
335.277 88.211 m 356.953 91.902 l 358.875 92.23 360.82 91.512 362.121 89.992
 c 365.867 85.617 l 366.809 84.516 367.328 83.09 367.328 81.609 c 367.328
 79.5 366.273 77.547 364.547 76.465 c 330.828 55.324 l 328.926 54.129 326.672
 53.715 324.488 54.152 c 321.855 54.684 319.578 56.418 318.285 58.883 c 
314.484 66.117 l 313.34 68.297 313.887 71.023 315.766 72.535 c h
335.277 88.211 m f
0.215686 0.384314 0.8 rg
326.203 49.98 m 325.371 49.98 324.531 50.062 323.699 50.23 c 319.871 51.004
 316.605 53.48 314.742 57.023 c 310.945 64.258 l 308.902 68.141 309.879 
72.934 313.266 75.652 c 332.773 91.328 l 333.305 91.754 333.938 92.039 334.609
 92.152 c 356.281 95.848 l 359.617 96.414 362.934 95.195 365.16 92.59 c 
368.906 88.215 l 370.469 86.387 371.328 84.043 371.328 81.609 c 371.328 
78.145 369.543 74.871 366.672 73.07 c 332.957 51.934 l 330.898 50.645 328.566
 49.98 326.203 49.98 c h
336.973 84.445 m 318.273 69.414 l 317.883 69.105 317.773 68.457 318.027
 67.98 c 321.824 60.742 l 322.559 59.34 323.82 58.367 325.281 58.074 c 326.449
 57.844 327.668 58.062 328.703 58.715 c 362.422 79.855 l 362.98 80.207 363.328
 80.879 363.328 81.613 c 363.328 82.141 363.148 82.637 362.824 83.016 c 
359.078 87.395 l 358.699 87.84 358.156 88.055 357.621 87.965 c h
336.973 84.445 m f
0.27451 0.443137 0.776471 rg
271.52 173.047 m 278.438 173.047 285.223 170.969 291.145 167.043 c 296.621
 163.406 301.172 158.312 304.371 152.227 c 338.992 91.508 l 339.684 90.293
 339.422 88.703 338.387 87.832 c 316.422 69.309 l 315.266 68.332 313.598
 68.629 312.785 69.957 c 283.793 117.195 l 280.656 121.957 l 279.23 124.125
 276.941 125.406 274.508 125.406 c 187.105 125.406 l 175.086 125.406 165.34
 136.105 165.34 149.301 c 165.34 173.047 l h
271.52 173.047 m f
0.215686 0.384314 0.8 rg
314.879 64.734 m 314.543 64.734 314.207 64.762 313.875 64.812 c 312.02 
65.113 310.379 66.227 309.375 67.867 c 280.383 115.105 l 277.316 119.758
 l 276.637 120.793 275.586 121.406 274.508 121.406 c 187.109 121.406 l 172.898
 121.406 161.34 133.922 161.34 149.301 c 161.34 173.047 l 161.34 175.254
 163.133 177.047 165.34 177.047 c 271.52 177.047 l 279.227 177.047 286.777
 174.738 293.355 170.375 c 299.375 166.379 304.406 160.746 307.91 154.09
 c 342.465 93.488 l 344.098 90.617 343.457 86.875 340.965 84.773 c 319 66.25
 l 317.828 65.266 316.371 64.734 314.879 64.734 c h
169.34 169.047 m 169.34 149.301 l 169.34 138.332 177.309 129.406 187.109
 129.406 c 274.508 129.406 l 278.285 129.406 281.832 127.445 283.996 124.156
 c 287.133 119.395 l 315.266 73.562 l 335.086 90.277 l 300.895 150.242 l
 297.949 155.836 293.836 160.449 288.934 163.703 c 283.668 167.195 277.648
 169.043 271.52 169.043 c 169.34 169.043 l h
335.52 89.527 m 335.539 89.527 l h
335.52 89.527 m f
0.419608 0.866667 0.866667 rg
186.863 125.406 m 233.66 125.406 l 233.66 233.152 l 233.66 248.348 221.348
 260.66 206.152 260.66 c 187.539 260.66 l 175.281 260.66 165.34 250.723 
165.34 238.461 c 165.34 146.93 l 165.34 135.043 174.977 125.406 186.863 
125.406 c h
186.863 125.406 m f
0.215686 0.384314 0.8 rg
233.664 121.406 m 186.863 121.406 l 172.789 121.406 161.34 132.859 161.34
 146.934 c 161.34 238.465 l 161.34 252.91 173.094 264.664 187.539 264.664
 c 206.152 264.664 l 223.527 264.664 237.66 250.531 237.66 233.156 c 237.66
 125.41 l 237.664 123.199 235.871 121.406 233.664 121.406 c h
187.539 256.66 m 177.504 256.66 169.34 248.496 169.34 238.461 c 169.34 
146.93 l 169.34 137.27 177.203 129.406 186.863 129.406 c 229.66 129.406 
l 229.66 233.152 l 229.66 246.113 219.117 256.66 206.152 256.66 c h
187.539 256.66 m f
1 0.917647 0.572549 rg
291.969 117.707 m 291.969 72.402 255.242 35.68 209.941 35.68 c 164.641 
35.68 127.914 72.402 127.914 117.707 c 127.914 163.008 164.641 199.73 209.941
 199.73 c 255.242 199.73 291.969 163.008 291.969 117.707 c h
291.969 117.707 m f
0.215686 0.384314 0.8 rg
209.941 31.68 m 162.508 31.68 123.914 70.27 123.914 117.707 c 123.914 165.141
 162.508 203.73 209.941 203.73 c 257.379 203.73 295.969 165.141 295.969 
117.707 c 295.969 70.27 257.375 31.68 209.941 31.68 c h
209.941 195.73 m 166.918 195.73 131.914 160.73 131.914 117.707 c 131.914
 74.684 166.918 39.68 209.941 39.68 c 252.965 39.68 287.969 74.684 287.969
 117.707 c 287.969 160.73 252.965 195.73 209.941 195.73 c h
209.941 195.73 m f
0.643137 0.788235 1 rg
273.543 117.707 m 273.543 82.578 245.07 54.105 209.941 54.105 c 174.816
 54.105 146.34 82.578 146.34 117.707 c 146.34 152.832 174.816 181.309 209.941
 181.309 c 245.07 181.309 273.543 152.832 273.543 117.707 c h
273.543 117.707 m f
0.976471 0.811765 0.811765 rg
213.484 298.895 m 213.484 292.234 208.086 286.832 201.422 286.832 c 194.758
 286.832 189.359 292.234 189.359 298.895 c 189.359 305.559 194.758 310.961
 201.422 310.961 c 208.086 310.961 213.484 305.559 213.484 298.895 c h
213.484 298.895 m f
0.215686 0.384314 0.8 rg
214.418 255.152 m 213.988 255.152 213.555 255.223 213.137 255.363 c 210.594
 256.223 207.973 256.66 205.359 256.66 c 188.18 256.66 l 187.289 256.66 
186.316 256.574 185.211 256.398 c 184.047 256.219 182.875 256.547 181.984
 257.309 c 181.098 258.066 180.586 259.18 180.586 260.352 c 180.586 269.355
 l 172.977 276.539 168.648 286.523 168.648 297.027 c 168.648 319.887 l 168.648
 340.883 185.727 357.965 206.723 357.965 c 227.719 357.965 244.801 340.883
 244.801 319.887 c 244.801 303.59 l 248.793 302.547 251.75 298.91 251.75
 294.598 c 251.75 289.625 247.824 285.551 242.91 285.312 c 239.156 273.746
 229.957 264.539 218.422 260.801 c 218.422 259.152 l 218.422 257.863 217.797
 256.652 216.754 255.902 c 216.062 255.41 215.242 255.152 214.418 255.152
 c h
188.586 264.66 m 205.359 264.66 l 207.059 264.66 208.754 264.527 210.438
 264.254 c 210.613 265.938 211.84 267.348 213.516 267.734 c 224.578 270.289
 233.391 279.113 235.973 290.211 c 236.395 292.023 238.008 293.305 239.867
 293.305 c 242.453 293.305 l 243.164 293.305 243.746 293.883 243.746 294.598
 c 243.746 295.309 243.164 295.887 242.453 295.887 c 240.797 295.887 l 238.59
 295.887 236.797 297.68 236.797 299.887 c 236.797 319.887 l 236.797 336.473
 223.305 349.965 206.719 349.965 c 190.137 349.965 176.645 336.473 176.645
 319.887 c 176.645 297.031 l 176.645 288.238 180.484 279.906 187.184 274.176
 c 188.07 273.414 188.582 272.305 188.582 271.137 c 188.582 264.66 l h
188.586 264.66 m f
0.27451 0.443137 0.776471 rg
166.539 343.301 m 166.539 343.297 l 172.621 352.586 183.48 358.777 195.875
 358.777 c 198.512 358.777 200.648 356.754 200.648 354.258 c 200.648 353.309
 l 200.648 354.426 200.988 355.461 201.574 356.328 c 201.574 356.328 201.738
 356.66 202.223 357.117 c 202.863 357.766 203.664 358.258 204.566 358.531
 c 205.828 359.039 207.594 359.457 210.023 359.559 c 210.039 359.559 l 212.562
 359.664 215.805 359.43 219.965 358.59 c 222.992 358.258 225.883 357.484
 228.57 356.34 c 228.578 356.336 228.59 356.332 228.602 356.328 c 228.598
 356.324 l 230.125 355.672 231.582 354.895 232.965 354.012 c 233.566 353.645
 233.867 353.414 233.867 353.41 c 241.629 348.059 246.707 339.199 246.707
 329.172 c 246.707 318.316 l 246.707 317.816 246.293 317.406 245.781 317.406
 c 200.648 317.406 l 200.648 285.012 l 195.207 273.902 l 195.055 273.59 
194.73 273.387 194.375 273.387 c 180.234 273.387 l 178.805 273.387 177.402
 273.594 176.059 273.977 c 176.02 273.996 174.586 274.602 174.004 275.531
 c 172.629 277.73 169.395 282.91 166.453 287.641 c 162.086 294.664 159.605
 302.684 159.41 310.91 c 158.875 333.453 166.539 343.301 166.539 343.301
 c h
166.539 343.301 m f
0.215686 0.384314 0.8 rg
194.371 269.387 m 180.234 269.387 l 178.453 269.387 176.676 269.637 174.957
 270.133 c 174.832 270.172 174.711 270.211 174.59 270.258 c 174.145 270.434
 171.859 271.414 170.609 273.41 c 169.234 275.613 166 280.793 163.055 285.527
 c 158.266 293.23 155.621 301.977 155.41 310.816 c 154.871 333.523 162.363
 344.387 163.297 345.648 c 170.398 356.379 182.562 362.777 195.875 362.777
 c 197.758 362.777 199.508 362.195 200.938 361.211 c 201.633 361.664 202.41
 362.043 203.227 362.305 c 205.094 363.031 207.32 363.449 209.855 363.555
 c 209.875 363.555 209.898 363.559 209.922 363.559 c 213 363.68 216.586 
363.344 220.582 362.543 c 223.875 362.164 227.078 361.32 230.109 360.031
 c 230.145 360.016 230.18 360 230.215 359.984 c 231.891 359.266 233.539 
358.391 235.117 357.387 c 235.57 357.109 235.961 356.863 236.301 356.598
 c 245.324 350.293 250.711 340.055 250.711 329.172 c 250.711 318.32 l 250.711
 315.613 248.5 313.406 245.785 313.406 c 204.652 313.406 l 204.652 285.012
 l 204.652 284.402 204.512 283.801 204.242 283.254 c 198.801 272.145 l 197.977
 270.469 196.238 269.387 194.371 269.387 c h
177.461 277.742 m 178.367 277.508 179.297 277.387 180.234 277.387 c 192.457
 277.387 l 196.648 285.938 l 196.648 317.406 l 196.648 319.617 198.441 321.406
 200.648 321.406 c 242.707 321.406 l 242.707 329.172 l 242.707 337.488 238.551
 345.32 231.594 350.121 c 231.539 350.156 231.488 350.195 231.438 350.234
 c 231.359 350.289 231.172 350.422 230.875 350.602 c 229.59 351.422 228.312
 352.098 227.023 352.648 c 227.004 352.656 226.984 352.664 226.965 352.676
 c 224.602 353.68 222.098 354.332 219.527 354.613 c 219.406 354.625 219.285
 354.645 219.168 354.668 c 215.711 355.367 212.695 355.66 210.203 355.566
 c 210.137 355.562 210.07 355.562 210.004 355.562 c 208.074 355.473 206.773
 355.109 206.051 354.82 c 205.945 354.781 205.836 354.738 205.723 354.707
 c 205.477 354.633 205.254 354.496 205.066 354.309 c 205.066 354.309 205
 354.242 204.957 354.203 c 204.934 354.164 204.91 354.133 204.887 354.098
 c 204.727 353.859 204.645 353.594 204.645 353.312 c 204.645 351.105 202.855
 349.312 200.645 349.312 c 198.438 349.312 196.645 351.105 196.645 353.312
 c 196.645 354.262 l 196.645 354.504 196.312 354.777 195.871 354.777 c 185.203
 354.777 175.484 349.668 169.883 341.109 c 169.812 341.004 169.742 340.902
 169.664 340.805 c 169.039 339.906 162.941 330.613 163.406 311.008 c 163.582
 303.598 165.809 296.246 169.848 289.758 c 172.695 285.172 175.82 280.172
 177.262 277.863 c 177.316 277.824 177.391 277.781 177.461 277.742 c h
205.148 354.535 m 205.148 354.531 205.148 354.531 205.145 354.527 c 205.145
 354.531 205.148 354.531 205.148 354.535 c h
205.152 354.543 m 205.152 354.539 205.148 354.539 205.148 354.535 c 205.148
 354.539 205.152 354.539 205.152 354.543 c h
205.156 354.547 m 205.152 354.547 205.152 354.543 205.152 354.543 c 205.152
 354.543 205.152 354.547 205.156 354.547 c h
205.16 354.555 m 205.16 354.555 205.156 354.551 205.156 354.551 c 205.156
 354.551 205.156 354.555 205.16 354.555 c h
205.164 354.562 m 205.164 354.562 205.16 354.559 205.16 354.555 c 205.16
 354.559 205.16 354.562 205.164 354.562 c h
205.164 354.562 m f
0.976471 0.811765 0.811765 rg
213.484 298.895 m 213.484 292.234 208.086 286.832 201.422 286.832 c 194.758
 286.832 189.359 292.234 189.359 298.895 c 189.359 305.559 194.758 310.961
 201.422 310.961 c 208.086 310.961 213.484 305.559 213.484 298.895 c h
213.484 298.895 m f
0.215686 0.384314 0.8 rg
322.121 32.359 m 321.258 32.359 320.391 32.453 319.527 32.645 c 316.461
 33.332 313.848 35.172 312.164 37.824 c 309.453 42.105 l 308.27 43.973 308.824
 46.441 310.688 47.625 c 364.059 81.465 l 366.289 82.879 368.941 83.34 371.508
 82.762 c 374.078 82.184 376.277 80.641 377.688 78.41 c 378.266 77.5 l 381.18
 72.902 379.812 66.793 375.215 63.875 c 328.398 34.191 l 326.484 32.98 324.324
 32.359 322.121 32.359 c h
318.352 43.012 m 318.922 42.109 l 319.461 41.262 320.297 40.672 321.277
 40.453 c 322.246 40.234 323.258 40.406 324.109 40.945 c 370.93 70.629 l
 371.801 71.184 372.059 72.344 371.508 73.215 c 370.93 74.129 l 370.566 
74.699 370.039 74.891 369.758 74.953 c 369.469 75.02 368.91 75.066 368.344
 74.707 c h
318.352 43.012 m f
209.941 50.102 m 172.664 50.102 142.34 80.43 142.34 117.707 c 142.34 154.98
 172.664 185.309 209.941 185.309 c 247.219 185.309 277.543 154.98 277.543
 117.707 c 277.543 80.43 247.219 50.102 209.941 50.102 c h
209.941 177.309 m 177.074 177.309 150.34 150.57 150.34 117.707 c 150.34
 84.844 177.078 58.102 209.941 58.102 c 242.805 58.102 269.543 84.84 269.543
 117.707 c 269.543 150.57 242.809 177.309 209.941 177.309 c h
209.941 177.309 m f
0.878431 0.921569 0.988235 rg
209.941 86.102 m 192.516 86.102 178.34 100.281 178.34 117.707 c 178.34 
135.133 192.516 149.309 209.941 149.309 c 227.367 149.309 241.543 135.133
 241.543 117.707 c 241.543 100.281 227.367 86.102 209.941 86.102 c h
209.941 86.102 m f
0.976471 0.811765 0.811765 rg
128.621 131.891 m 134.441 147.113 l 158.141 219.031 l 158.145 219.031 158.145
 219.027 158.145 219.027 c 180.816 199.012 l 180.934 198.91 181.055 198.828
 181.184 198.75 c 154.523 141.102 l 153.941 123.703 l 153.922 123.082 153.805
 122.469 153.598 121.883 c 152.051 117.508 l 151.039 114.656 148.086 112.98
 145.121 113.578 c 133.129 116.008 l 130.332 116.574 128.309 119.008 128.262
 121.859 c 128.141 129.172 l 128.125 130.102 128.289 131.023 128.621 131.891
 c h
128.621 131.891 m f
0.215686 0.384314 0.8 rg
146.301 109.465 m 145.648 109.465 144.988 109.527 144.328 109.66 c 132.336
 112.09 l 127.734 113.02 124.34 117.105 124.262 121.797 c 124.141 129.109
 l 124.117 130.551 124.367 131.969 124.883 133.316 c 130.707 148.539 l 154.344
 220.285 l 154.766 221.562 155.801 222.539 157.098 222.891 c 158.398 223.242
 159.785 222.918 160.793 222.027 c 183.363 202.102 l 184.969 201 185.633
 198.848 184.812 197.07 c 158.496 140.156 l 157.941 123.57 l 157.906 122.543
 157.715 121.527 157.371 120.551 c 155.824 116.176 l 154.383 112.109 150.488
 109.465 146.301 109.465 c h
132.355 130.461 m 132.207 130.07 132.133 129.656 132.141 129.238 c 132.262
 121.93 l 132.277 120.961 132.973 120.121 133.922 119.93 c 145.914 117.504
 l 146.918 117.293 147.938 117.875 148.281 118.844 c 149.828 123.215 l 149.898
 123.414 149.938 123.625 149.945 123.836 c 150.527 141.234 l 150.543 141.77
 150.668 142.293 150.895 142.777 c 176.281 197.68 l 160.043 212.016 l 138.238
 145.859 l h
132.355 130.461 m f
0.419608 0.866667 0.866667 rg
158.145 219.027 m 180.816 199.012 l 181.91 198.043 183.586 198.148 184.551
 199.242 c 212.707 231.137 l 219.203 238.492 218.504 249.719 211.148 256.215
 c 203.793 262.707 192.566 262.012 186.07 254.652 c 157.91 222.762 l 156.945
 221.668 157.051 219.996 158.145 219.027 c h
158.145 219.027 m f
0.215686 0.384314 0.8 rg
182.555 194.352 m 180.938 194.352 179.391 194.934 178.164 196.016 c 155.496
 216.031 l 154.164 217.207 153.375 218.828 153.266 220.602 c 153.152 222.371
 153.738 224.078 154.914 225.41 c 183.074 257.301 l 191.02 266.297 204.801
 267.156 213.797 259.215 c 218.152 255.367 220.754 250.051 221.113 244.246
 c 221.473 238.445 219.555 232.852 215.707 228.492 c 187.547 196.602 l 186.375
 195.27 184.75 194.477 182.977 194.367 c 182.84 194.355 182.695 194.352 
182.555 194.352 c h
183.461 202.012 m 183.48 202.012 l h
161.809 221.129 m 182.449 202.906 l 209.711 233.781 l 214.734 239.473 214.191
 248.191 208.504 253.215 c 202.812 258.238 194.094 257.695 189.07 252.008
 c h
160.793 222.027 m 160.797 222.023 l 160.793 222.027 160.793 222.027 160.793
 222.027 c h
160.793 222.027 m f
0.878431 0.921569 0.988235 rg
312.828 44.246 m 323.652 51.109 l 290.605 102.859 l 289.566 97.184 287.953
 91.711 285.812 86.508 c 314.707 41.262 l 314.719 41.27 l h
312.828 44.246 m f
0.215686 0.384314 0.8 rg
314.707 37.266 m 314.422 37.266 314.137 37.293 313.855 37.355 c 312.816
 37.586 311.906 38.211 311.336 39.105 c 282.441 84.352 l 281.738 85.449 
281.617 86.82 282.113 88.027 c 284.156 92.996 285.691 98.23 286.668 103.574
 c 286.965 105.195 288.219 106.465 289.836 106.781 c 291.457 107.102 293.09
 106.395 293.973 105.012 c 327.023 53.262 l 327.594 52.363 327.785 51.277
 327.555 50.238 c 327.324 49.199 326.691 48.297 325.793 47.727 c 318.324
 42.992 l 319.191 41.199 318.598 39.004 316.879 37.902 c 316.23 37.484 315.473
 37.266 314.707 37.266 c h
290.285 86.934 m 314.031 49.746 l 318.121 52.34 l 292.285 92.797 l 291.688
 90.812 291.02 88.859 290.285 86.934 c h
290.285 86.934 m f
0.976471 0.654902 0.654902 rg
330.586 425.734 m 293.176 373.934 l 290.883 370.758 293.148 366.32 297.066
 366.32 c 371.891 366.32 l 375.805 366.32 378.074 370.758 375.781 373.934
 c 338.371 425.734 l 336.453 428.387 332.504 428.387 330.586 425.734 c h
330.586 425.734 m f
338.371 262.625 m 375.781 314.43 l 378.074 317.602 375.805 322.039 371.891
 322.039 c 297.066 322.039 l 293.148 322.039 290.883 317.602 293.176 314.43
 c 330.586 262.625 l 332.504 259.973 336.453 259.973 338.371 262.625 c h
338.371 262.625 m f
0.215686 0.384314 0.8 rg
408.578 0 m 79.422 0 l 67.609 0 58 9.609 58 21.422 c 58 466.578 l 58 478.391
 67.609 488 79.422 488 c 408.578 488 l 420.391 488 430 478.391 430 466.578
 c 430 21.422 l 430 9.609 420.391 0 408.578 0 c h
79.422 480 m 72.02 480 66 473.98 66 466.578 c 66 21.422 l 66 14.02 72.02
 8 79.422 8 c 408.578 8 l 415.977 8 422 14.02 422 21.422 c 422 466.578 l
 422 473.98 415.977 480 408.578 480 c h
79.422 480 m f
390 30 m 98 30 l 91.383 30 86 35.383 86 42 c 86 446 l 86 452.617 91.383
 458 98 458 c 390 458 l 396.617 458 402 452.617 402 446 c 402 42 l 402 35.383
 396.617 30 390 30 c h
98 450 m 95.793 450 94 448.207 94 446 c 94 42 l 94 39.793 95.793 38 98 
38 c 390 38 l 392.207 38 394 39.793 394 42 c 394 446 l 394 448.207 392.207
 450 390 450 c h
98 450 m f
Q Q
showpage
%%Trailer
end restore
%%EOF
